"Host NCBI taxid","Virus NCBI taxid"
8830,104388
9527,106332
9529,106332
9486,2169901
261198,93386
8957,93386
335395,702738
59517,138184
9852,135102
9852,10398
999462,10398
1548930,50294
54135,106332
147649,106332
12930,50294
151758,50294
151759,50294
151760,50294
241578,50294
151761,50294
152276,50294
244081,50294
241584,50294
229552,50294
9899,35252
28680,10390
75839,104388
75839,10390
8839,104388
8839,10390
75854,10390
75857,104388
1867944,104388
51900,50294
50365,10390
8843,104388
132587,104388
9891,10320
59525,10326
9505,50290
9505,10298
9505,10353
9505,10381
39030,33708
54292,10366
54292,28304
54292,33708
10129,10366
10129,28304
10129,33708
467031,50294
9226,50294
176013,50294
176014,50294
57237,50294
178883,50294
176015,50294
30390,104388
30390,93386
9081,10386
9368,10298
9509,35243
9509,10380
9510,10380
9510,85618
30531,10398
57737,35252
57737,10398
41806,10385
456472,28304
456472,33708
9901,35252
9901,10385
9901,1504288
9901,10398
9902,10320
9902,10398
30520,35252
30520,10398
9904,10398
30521,35252
30521,10320
30521,10398
9915,10320
9906,35252
9906,135102
9906,10398
9913,35252
9913,10320
9913,10295
9913,35244
9913,10385
9913,1504288
9913,10326
9913,10398
9913,10345
8853,104388
89462,10320
89462,1504288
89462,202910
89462,135102
89462,10398
30461,93386
56268,93386
30397,93386
141836,50294
141274,50294
12983,50294
136504,50294
141271,50294
8855,104388
9483,106331
9483,10298
9483,2169901
57378,10298
64678,28304
9838,10320
9614,10345
9612,170325
9612,10376
9612,10345
9923,39944
9925,10320
9925,10385
9925,39944
9925,135102
9925,10398
9925,10345
72542,135102
9858,10320
9858,10295
9858,10385
9858,135102
9858,10398
8467,702736
10141,33706
10141,10326
36223,106332
9535,106332
1137481,106332
36225,106332
36226,106332
36227,10325
36227,106332
36228,106332
263448,106332
9860,138184
9860,10320
9860,10295
9860,10385
9860,79891
9860,10398
9863,35252
9863,135102
9863,10398
8469,702736
8469,702738
904182,702738
34839,10298
9534,10317
9534,35246
9534,50292
9534,37296
9534,154334
9534,106332
60710,10317
60710,35246
60710,50292
60710,37296
60710,106332
60711,10317
60712,106332
8479,702738
9089,35250
54131,106332
33548,10325
33548,340907
8932,93386
59528,35252
9927,35252
9927,10320
181096,93386
93934,10390
309862,50294
8869,104388
30532,35252
30532,10320
30532,10295
30532,10385
9929,138184
51904,50294
178888,50294
69268,83440
43332,10398
9783,146015
9783,10326
345190,50294
176039,50294
9793,10326
9793,39637
9793,12657
9793,10371
582580,291612
9793,291612
9790,10326
9790,55744
9790,12657
9790,10371
9796,10320
9796,35244
9796,10326
9796,80341
9796,10331
9796,39637
9796,55744
9796,12657
9796,10371
9796,10398
9796,10345
9792,10326
9792,55744
9792,12657
9792,10371
9794,10326
9794,55744
94398,12657
94398,10371
9798,12657
9798,10371
9791,12657
9791,10371
9538,35246
9538,10325
9538,106332
69308,10326
69308,55744
51898,50294
752200,50294
495941,93386
321056,93386
279964,93386
120794,93386
56350,93386
100819,93386
9685,10385
9685,10334
9685,10345
345187,50294
9031,10386
9031,10390
9031,35250
9031,37108
9894,55744
38772,702738
499232,10298
499232,10310
499232,37296
499232,188763
499232,106332
9593,159604
9593,10298
9593,37296
33571,702738
9711,47418
70275,93386
37186,35252
37186,333341
37186,10398
9606,50292
9606,10390
9606,10298
9606,10310
9606,10335
9606,10359
9606,10372
9606,10376
9606,37296
9606,10325
9606,106332
9606,10381
9580,10298
9962,35252
9962,10398
59532,35252
59532,10398
9844,10326
35669,93386
32538,10334
8472,702736
27788,702736
75567,106332
75566,106332
9785,146015
9785,10326
240734,50294
9540,10325
78449,10325
9541,35246
9541,10376
9541,37296
9541,10325
9541,47929
9541,154334
9542,35246
9542,10325
9542,154334
9544,35246
9544,37296
9544,10325
9544,47929
9544,45455
9544,154334
9545,35246
9545,37296
9545,10325
9545,154334
9545,2560572
9548,10325
9316,83440
9317,137443
9317,83440
9568,50292
9568,154334
9568,106332
9561,37296
9561,154334
9561,106332
8838,10390
76720,311179
52407,10398
9103,10386
9103,37108
9662,311179
13146,50294
10036,1605972
29092,33708
9886,10398
10097,10366
10090,10366
10090,33708
9666,10345
9668,10320
176066,50294
447135,33708
43780,37296
29088,47418
452646,10320
452646,10345
79238,93386
73883,93386
61853,37296
413582,137443
34880,10345
13180,50294
9707,47419
9872,35252
9872,10398
9874,35252
9874,135102
9874,10398
48008,1605972
9986,10298
9986,481315
59534,35252
59534,10398
9958,35252
9958,10398
37176,35252
37176,10398
9940,35252
9940,10320
9940,10295
9940,10385
9940,10398
9940,10345
37174,10320
9943,10398
9597,10310
9598,10310
9598,37296
9598,10325
9598,188763
9598,159602
9689,10334
9694,10334
9694,10345
9555,159602
9555,340907
9555,106332
9556,159602
9556,340907
9556,106332
9557,154334
9557,106332
100937,106332
36229,10317
36229,50292
36229,340907
36229,106332
9049,10386
41426,1960249
9720,47418
9720,47419
591935,10298
591935,106332
345186,50294
309866,50294
303320,50294
13214,50294
43777,10298
269190,50294
141282,50294
9600,159603
178892,50294
141839,50294
9654,10345
176047,50294
12946,50294
178885,50294
232635,50294
9228,50294
57247,50294
9696,10334
9696,10345
311901,50294
311897,50294
9870,365327
34854,28304
10116,28304
10116,1261657
10117,28304
83755,28304
83755,33708
9809,10326
226571,10397
43328,35252
43328,10398
1088129,135102
1088129,10398
1088130,10398
662561,10398
30586,2169901
9521,10353
9521,1535247
9521,10381
9515,10325
9305,10390
51220,226584
30670,83440
111821,93386
273789,1960249
9823,10398
9823,10345
9823,1608255
9970,35252
9970,10385
9970,10398
75865,104388
86975,702738
86976,702738
101699,702738
69298,35252
69298,10398
9946,35252
9946,10398
176049,50294
37347,10397
127946,93386
9739,10298
9643,10326
9643,10345
9644,10345
29073,10326
29073,55744
30538,10326
494514,10345
9627,10345
9704,47419
