multimer_subfamily,O00299_P04487,unrelaxed_model_1_multimer_v3_pred_1,0,B,0.6955275388468436
multimer_subfamily,O00299_P04487,unrelaxed_model_1_multimer_v3_pred_1,1,C,0.27857407143947616
multimer_subfamily,O43169_P04488,unrelaxed_model_1_multimer_v3_pred_1,0,B,0.033199932342231335
multimer_subfamily,O43169_P04488,unrelaxed_model_1_multimer_v3_pred_1,1,C,0.049320499075680285
multimer_subfamily,O43169_P10218,unrelaxed_model_1_multimer_v3_pred_1,0,B,0.032272916754175235
multimer_subfamily,O43169_P10218,unrelaxed_model_1_multimer_v3_pred_1,1,C,0.04444744952763629
multimer_subfamily,O43852_P10185,unrelaxed_model_1_multimer_v3_pred_1,0,B,0.22996605713990736
multimer_subfamily,O43852_P10185,unrelaxed_model_1_multimer_v3_pred_1,1,C,0.07715818459497863
multimer_subfamily,O43852_P10211,unrelaxed_model_1_multimer_v3_pred_1,0,B,0.06635465128651687
multimer_subfamily,O43852_P10211,unrelaxed_model_1_multimer_v3_pred_1,1,C,0.1388277045280461
multimer_subfamily,O75396_P04487,unrelaxed_model_1_multimer_v3_pred_1,0,B,0.024420825213462935
multimer_subfamily,O75396_P04487,unrelaxed_model_1_multimer_v3_pred_1,1,C,0.023803221113262173
multimer_subfamily,O75531_P10233,unrelaxed_model_1_multimer_v3_pred_1,0,B,0.25454226823559195
multimer_subfamily,O75531_P10233,unrelaxed_model_1_multimer_v3_pred_1,1,C,0.045399178374057006
multimer_subfamily,P00338_P04487,unrelaxed_model_1_multimer_v3_pred_1,0,B,0.6747598867221278
multimer_subfamily,P00338_P04487,unrelaxed_model_1_multimer_v3_pred_1,1,C,0.22428040284199027
multimer_subfamily,P00387_P04488,unrelaxed_model_1_multimer_v3_pred_1,0,B,0.6888826429134823
multimer_subfamily,P00387_P04488,unrelaxed_model_1_multimer_v3_pred_1,1,C,0.42250465095871
multimer_subfamily,P01889_P10229,unrelaxed_model_1_multimer_v3_pred_1,0,B,0.5697966769312456
multimer_subfamily,P01889_P10229,unrelaxed_model_1_multimer_v3_pred_1,1,C,0.26716449587901764
multimer_subfamily,P02511_P10233,unrelaxed_model_1_multimer_v3_pred_1,0,B,0.02817792142360033
multimer_subfamily,P02511_P10233,unrelaxed_model_1_multimer_v3_pred_1,1,C,0.03252783792415065
multimer_subfamily,P04083_P04488,unrelaxed_model_1_multimer_v3_pred_1,0,B,0.6282077405412317
multimer_subfamily,P04083_P04488,unrelaxed_model_1_multimer_v3_pred_1,1,C,0.3296880561231262
multimer_subfamily,P04288_P06703,unrelaxed_model_1_multimer_v3_pred_1,0,B,0.029109207270146414
multimer_subfamily,P04288_P06703,unrelaxed_model_1_multimer_v3_pred_1,1,C,0.03637389982117525
multimer_subfamily,P04288_P62820,unrelaxed_model_1_multimer_v3_pred_1,0,B,0.04182933109914515
multimer_subfamily,P04288_P62820,unrelaxed_model_1_multimer_v3_pred_1,1,C,0.0441227536702198
multimer_subfamily,P04288_P62979,unrelaxed_model_1_multimer_v3_pred_1,0,B,0.04009217940900006
multimer_subfamily,P04288_P62979,unrelaxed_model_1_multimer_v3_pred_1,1,C,0.04339623272260951
multimer_subfamily,P04288_Q9H0U4,unrelaxed_model_1_multimer_v3_pred_1,0,B,0.051001252359114325
multimer_subfamily,P04288_Q9H0U4,unrelaxed_model_1_multimer_v3_pred_1,1,C,0.05071860266678272
multimer_subfamily,P04294_P13010,unrelaxed_model_1_multimer_v3_pred_1,0,B,0.3176317534446886
multimer_subfamily,P04294_P13010,unrelaxed_model_1_multimer_v3_pred_1,1,C,0.42170436932107924
multimer_subfamily,P04294_P27348,unrelaxed_model_1_multimer_v3_pred_1,0,B,0.07482543636009271
multimer_subfamily,P04294_P27348,unrelaxed_model_1_multimer_v3_pred_1,1,C,0.3342899020440836
multimer_subfamily,P04294_P31946,unrelaxed_model_1_multimer_v3_pred_1,0,B,0.06280251422272008
multimer_subfamily,P04294_P31946,unrelaxed_model_1_multimer_v3_pred_1,1,C,0.2988861226397414
multimer_subfamily,P04294_P61981,unrelaxed_model_1_multimer_v3_pred_1,0,B,0.05150517958451549
multimer_subfamily,P04294_P61981,unrelaxed_model_1_multimer_v3_pred_1,1,C,0.310389957602411
multimer_subfamily,P04294_P62258,unrelaxed_model_1_multimer_v3_pred_1,0,B,0.08443271590627953
multimer_subfamily,P04294_P62258,unrelaxed_model_1_multimer_v3_pred_1,1,C,0.3198327744589992
multimer_subfamily,P04294_P63104,unrelaxed_model_1_multimer_v3_pred_1,0,B,0.06278103166344717
multimer_subfamily,P04294_P63104,unrelaxed_model_1_multimer_v3_pred_1,1,C,0.36702274287915465
multimer_subfamily,P04294_Q9Y4E8,unrelaxed_model_1_multimer_v3_pred_1,0,B,0.35212799703247294
multimer_subfamily,P04294_Q9Y4E8,unrelaxed_model_1_multimer_v3_pred_1,1,C,0.5361150574806566
multimer_subfamily,P04296_P07737,unrelaxed_model_1_multimer_v3_pred_1,0,B,0.20787639749299955
multimer_subfamily,P04296_P07737,unrelaxed_model_1_multimer_v3_pred_1,1,C,0.10555772637216738
multimer_subfamily,P04406_P04487,unrelaxed_model_1_multimer_v3_pred_1,0,B,0.6804917321400704
multimer_subfamily,P04406_P04487,unrelaxed_model_1_multimer_v3_pred_1,1,C,0.3894110732589355
multimer_subfamily,P04406_P10226,unrelaxed_model_1_multimer_v3_pred_1,0,B,0.6583560174758609
multimer_subfamily,P04406_P10226,unrelaxed_model_1_multimer_v3_pred_1,1,C,0.39643280624864397
multimer_subfamily,P04406_P10233,unrelaxed_model_1_multimer_v3_pred_1,0,B,0.7101460458254174
multimer_subfamily,P04406_P10233,unrelaxed_model_1_multimer_v3_pred_1,1,C,0.41151461982580434
multimer_subfamily,P04487_P08670,unrelaxed_model_1_multimer_v3_pred_1,0,B,0.023872066011642358
multimer_subfamily,P04487_P08670,unrelaxed_model_1_multimer_v3_pred_1,1,C,0.024081680072729376
multimer_subfamily,P04487_P67809,unrelaxed_model_1_multimer_v3_pred_1,0,B,0.023835621675001927
multimer_subfamily,P04487_P67809,unrelaxed_model_1_multimer_v3_pred_1,1,C,0.023951737780356808
multimer_subfamily,P04488_O14828,unrelaxed_model_1_multimer_v3_pred_1,0,B,0.03899643761501398
multimer_subfamily,P04488_O14828,unrelaxed_model_1_multimer_v3_pred_1,1,C,0.09485192140519061
multimer_subfamily,P04488_O15127,unrelaxed_model_1_multimer_v3_pred_1,0,B,0.039030998191907564
multimer_subfamily,P04488_O15127,unrelaxed_model_1_multimer_v3_pred_1,1,C,0.12568722192152512
multimer_subfamily,P04488_O75396,unrelaxed_model_1_multimer_v3_pred_1,0,B,0.12231676623809531
multimer_subfamily,P04488_O75396,unrelaxed_model_1_multimer_v3_pred_1,1,C,0.11884159699889378
multimer_subfamily,P04488_P06703,unrelaxed_model_1_multimer_v3_pred_1,0,B,0.04273676442936951
multimer_subfamily,P04488_P06703,unrelaxed_model_1_multimer_v3_pred_1,1,C,0.03978547886098658
multimer_subfamily,P04488_P07237,unrelaxed_model_1_multimer_v3_pred_1,0,B,0.0726190185452417
multimer_subfamily,P04488_P07237,unrelaxed_model_1_multimer_v3_pred_1,1,C,0.33148658723951024
multimer_subfamily,P04488_P11166,unrelaxed_model_1_multimer_v3_pred_1,0,B,0.02850073946321025
multimer_subfamily,P04488_P11166,unrelaxed_model_1_multimer_v3_pred_1,1,C,0.1312867007884519
multimer_subfamily,P04488_P20340,unrelaxed_model_1_multimer_v3_pred_1,0,B,0.04963337692562423
multimer_subfamily,P04488_P20340,unrelaxed_model_1_multimer_v3_pred_1,1,C,0.049370550367451534
multimer_subfamily,P04488_P60468,unrelaxed_model_1_multimer_v3_pred_1,0,B,0.029159455725047554
multimer_subfamily,P04488_P60468,unrelaxed_model_1_multimer_v3_pred_1,1,C,0.025008648097503364
multimer_subfamily,P04488_P61019,unrelaxed_model_1_multimer_v3_pred_1,0,B,0.05006168160264561
multimer_subfamily,P04488_P61019,unrelaxed_model_1_multimer_v3_pred_1,1,C,0.08070823127757858
multimer_subfamily,P04488_P62820,unrelaxed_model_1_multimer_v3_pred_1,0,B,0.042497596601766004
multimer_subfamily,P04488_P62820,unrelaxed_model_1_multimer_v3_pred_1,1,C,0.07258563180275264
multimer_subfamily,P04488_P62979,unrelaxed_model_1_multimer_v3_pred_1,0,B,0.0823779112540767
multimer_subfamily,P04488_P62979,unrelaxed_model_1_multimer_v3_pred_1,1,C,0.047063241972509454
multimer_subfamily,P04488_Q15836,unrelaxed_model_1_multimer_v3_pred_1,0,B,0.02583696625534193
multimer_subfamily,P04488_Q15836,unrelaxed_model_1_multimer_v3_pred_1,1,C,0.02747210045201923
multimer_subfamily,P04488_Q96AJ9,unrelaxed_model_1_multimer_v3_pred_1,0,B,0.08263807938125992
multimer_subfamily,P04488_Q96AJ9,unrelaxed_model_1_multimer_v3_pred_1,1,C,0.09221113778486496
multimer_subfamily,P04488_Q9BVC6,unrelaxed_model_1_multimer_v3_pred_1,0,B,0.030623817854585865
multimer_subfamily,P04488_Q9BVC6,unrelaxed_model_1_multimer_v3_pred_1,1,C,0.02748666893437231
multimer_subfamily,P04488_Q9GZQ8,unrelaxed_model_1_multimer_v3_pred_1,0,B,0.05348502791140389
multimer_subfamily,P04488_Q9GZQ8,unrelaxed_model_1_multimer_v3_pred_1,1,C,0.08933776237031453
multimer_subfamily,P04488_Q9H0U4,unrelaxed_model_1_multimer_v3_pred_1,0,B,0.05930845919673704
multimer_subfamily,P04488_Q9H0U4,unrelaxed_model_1_multimer_v3_pred_1,1,C,0.07825960874336561
multimer_subfamily,P04488_Q9H4G4,unrelaxed_model_1_multimer_v3_pred_1,0,B,0.0338274610410689
multimer_subfamily,P04488_Q9H4G4,unrelaxed_model_1_multimer_v3_pred_1,1,C,0.07661696136369
multimer_subfamily,P04792_P04294,unrelaxed_model_1_multimer_v3_pred_1,0,B,0.025789591463994278
multimer_subfamily,P04792_P04294,unrelaxed_model_1_multimer_v3_pred_1,1,C,0.04209561693050487
multimer_subfamily,P04792_P10233,unrelaxed_model_1_multimer_v3_pred_1,0,B,0.02507562251484316
multimer_subfamily,P04792_P10233,unrelaxed_model_1_multimer_v3_pred_1,1,C,0.027837748899575906
multimer_subfamily,P05023_P04488,unrelaxed_model_1_multimer_v3_pred_1,0,B,0.6362493245256409
multimer_subfamily,P05023_P04488,unrelaxed_model_1_multimer_v3_pred_1,1,C,0.1759889940315875
multimer_subfamily,P05204_P10233,unrelaxed_model_1_multimer_v3_pred_1,0,B,0.023960560424671474
multimer_subfamily,P05204_P10233,unrelaxed_model_1_multimer_v3_pred_1,1,C,0.03792625299702311
multimer_subfamily,P06487_P06703,unrelaxed_model_1_multimer_v3_pred_1,0,B,0.05471135203406133
multimer_subfamily,P06487_P06703,unrelaxed_model_1_multimer_v3_pred_1,1,C,0.04573159257963641
multimer_subfamily,P06487_P20340,unrelaxed_model_1_multimer_v3_pred_1,0,B,0.04218899560916846
multimer_subfamily,P06487_P20340,unrelaxed_model_1_multimer_v3_pred_1,1,C,0.05043461920446808
multimer_subfamily,P06487_P51148,unrelaxed_model_1_multimer_v3_pred_1,0,B,0.037108528209561654
multimer_subfamily,P06487_P51148,unrelaxed_model_1_multimer_v3_pred_1,1,C,0.09604580738241662
multimer_subfamily,P06487_P62937,unrelaxed_model_1_multimer_v3_pred_1,0,B,0.21135803884995868
multimer_subfamily,P06487_P62937,unrelaxed_model_1_multimer_v3_pred_1,1,C,0.38684152906148334
multimer_subfamily,P06487_Q9H0U4,unrelaxed_model_1_multimer_v3_pred_1,0,B,0.04011869614628297
multimer_subfamily,P06487_Q9H0U4,unrelaxed_model_1_multimer_v3_pred_1,1,C,0.03719082406891789
multimer_subfamily,P06491_P10599,unrelaxed_model_1_multimer_v3_pred_1,0,B,0.02490019831714897
multimer_subfamily,P06491_P10599,unrelaxed_model_1_multimer_v3_pred_1,1,C,0.027555132891250056
multimer_subfamily,P06703_P04487,unrelaxed_model_1_multimer_v3_pred_1,0,B,0.024899959165098167
multimer_subfamily,P06703_P04487,unrelaxed_model_1_multimer_v3_pred_1,1,C,0.0241347263301945
multimer_subfamily,P06703_P10226,unrelaxed_model_1_multimer_v3_pred_1,0,B,0.044481275692285625
multimer_subfamily,P06703_P10226,unrelaxed_model_1_multimer_v3_pred_1,1,C,0.0559856563298769
multimer_subfamily,P06703_P10233,unrelaxed_model_1_multimer_v3_pred_1,0,B,0.12255395022683285
multimer_subfamily,P06703_P10233,unrelaxed_model_1_multimer_v3_pred_1,1,C,0.043781934098766254
multimer_subfamily,P06703_P10238,unrelaxed_model_1_multimer_v3_pred_1,0,B,0.0541909855021105
multimer_subfamily,P06703_P10238,unrelaxed_model_1_multimer_v3_pred_1,1,C,0.06815088861742435
multimer_subfamily,P06733_P04487,unrelaxed_model_1_multimer_v3_pred_1,0,B,0.10654904705726785
multimer_subfamily,P06733_P04487,unrelaxed_model_1_multimer_v3_pred_1,1,C,0.027902768431655706
multimer_subfamily,P06733_P10226,unrelaxed_model_1_multimer_v3_pred_1,0,B,0.35830990600218576
multimer_subfamily,P06733_P10226,unrelaxed_model_1_multimer_v3_pred_1,1,C,0.2144994127331234
multimer_subfamily,P06748_P04487,unrelaxed_model_1_multimer_v3_pred_1,0,B,0.024783664416238027
multimer_subfamily,P06748_P04487,unrelaxed_model_1_multimer_v3_pred_1,1,C,0.02437720494697888
multimer_subfamily,P07355_P06487,unrelaxed_model_1_multimer_v3_pred_1,0,B,0.6001020146313556
multimer_subfamily,P07355_P06487,unrelaxed_model_1_multimer_v3_pred_1,1,C,0.3335660846161681
multimer_subfamily,P07355_Q69091,unrelaxed_model_1_multimer_v3_pred_1,0,B,0.48904241305331664
multimer_subfamily,P07355_Q69091,unrelaxed_model_1_multimer_v3_pred_1,1,C,0.16646087041054836
multimer_subfamily,P07384_P10231,unrelaxed_model_1_multimer_v3_pred_1,0,B,0.6921297757977777
multimer_subfamily,P07384_P10231,unrelaxed_model_1_multimer_v3_pred_1,1,C,0.40335124801848177
multimer_subfamily,P07437_P10233,unrelaxed_model_1_multimer_v3_pred_1,0,B,0.6796209677288564
multimer_subfamily,P07437_P10233,unrelaxed_model_1_multimer_v3_pred_1,1,C,0.3079195961889969
multimer_subfamily,P07737_P04487,unrelaxed_model_1_multimer_v3_pred_1,0,B,0.421800079744119
multimer_subfamily,P07737_P04487,unrelaxed_model_1_multimer_v3_pred_1,1,C,0.11768992336737766
multimer_subfamily,P07737_P08543,unrelaxed_model_1_multimer_v3_pred_1,0,B,0.11434745792692984
multimer_subfamily,P07737_P08543,unrelaxed_model_1_multimer_v3_pred_1,1,C,0.07132351290614347
multimer_subfamily,P07737_P10233,unrelaxed_model_1_multimer_v3_pred_1,0,B,0.6408145357620086
multimer_subfamily,P07737_P10233,unrelaxed_model_1_multimer_v3_pred_1,1,C,0.2533037324180897
multimer_subfamily,P08133_P04288,unrelaxed_model_1_multimer_v3_pred_1,0,B,0.6080966566700149
multimer_subfamily,P08133_P04288,unrelaxed_model_1_multimer_v3_pred_1,1,C,0.2074127870882212
multimer_subfamily,P08133_P04488,unrelaxed_model_1_multimer_v3_pred_1,0,B,0.6958703855221382
multimer_subfamily,P08133_P04488,unrelaxed_model_1_multimer_v3_pred_1,1,C,0.3551922433004998
multimer_subfamily,P08133_P06487,unrelaxed_model_1_multimer_v3_pred_1,0,B,0.644134321320063
multimer_subfamily,P08133_P06487,unrelaxed_model_1_multimer_v3_pred_1,1,C,0.24684948825000702
multimer_subfamily,P08133_Q69091,unrelaxed_model_1_multimer_v3_pred_1,0,B,0.36761516691128776
multimer_subfamily,P08133_Q69091,unrelaxed_model_1_multimer_v3_pred_1,1,C,0.11185441454879323
multimer_subfamily,P08134_P10233,unrelaxed_model_1_multimer_v3_pred_1,0,B,0.4969617173883362
multimer_subfamily,P08134_P10233,unrelaxed_model_1_multimer_v3_pred_1,1,C,0.14229737167338746
multimer_subfamily,P08195_P10229,unrelaxed_model_1_multimer_v3_pred_1,0,B,0.15922851348079975
multimer_subfamily,P08195_P10229,unrelaxed_model_1_multimer_v3_pred_1,1,C,0.06641192153871125
multimer_subfamily,P08392_P35268,unrelaxed_model_1_multimer_v3_pred_1,0,B,0.024570629044828686
multimer_subfamily,P08392_P35268,unrelaxed_model_1_multimer_v3_pred_1,1,C,0.02729687971178752
multimer_subfamily,P08758_P10233,unrelaxed_model_1_multimer_v3_pred_1,0,B,0.46629485954898464
multimer_subfamily,P08758_P10233,unrelaxed_model_1_multimer_v3_pred_1,1,C,0.14729054218303778
multimer_subfamily,P08758_Q69091,unrelaxed_model_1_multimer_v3_pred_1,0,B,0.33980488208577037
multimer_subfamily,P08758_Q69091,unrelaxed_model_1_multimer_v3_pred_1,1,C,0.19544922012624683
multimer_subfamily,P08962_P10211,unrelaxed_model_1_multimer_v3_pred_1,0,B,0.14289436885314852
multimer_subfamily,P08962_P10211,unrelaxed_model_1_multimer_v3_pred_1,1,C,0.1437199385770677
multimer_subfamily,P09382_P10226,unrelaxed_model_1_multimer_v3_pred_1,0,B,0.22618851738080614
multimer_subfamily,P09382_P10226,unrelaxed_model_1_multimer_v3_pred_1,1,C,0.09681867394374369
multimer_subfamily,P09382_P10233,unrelaxed_model_1_multimer_v3_pred_1,0,B,0.5640476563155205
multimer_subfamily,P09382_P10233,unrelaxed_model_1_multimer_v3_pred_1,1,C,0.16050672827767692
multimer_subfamily,P09429_P10233,unrelaxed_model_1_multimer_v3_pred_1,0,B,0.23352292279795056
multimer_subfamily,P09429_P10233,unrelaxed_model_1_multimer_v3_pred_1,1,C,0.059896357483520596
multimer_subfamily,P09651_P04487,unrelaxed_model_1_multimer_v3_pred_1,0,B,0.2962213598354503
multimer_subfamily,P09651_P04487,unrelaxed_model_1_multimer_v3_pred_1,1,C,0.04916592295662148
multimer_subfamily,P09651_P10226,unrelaxed_model_1_multimer_v3_pred_1,0,B,0.3244445086672711
multimer_subfamily,P09651_P10226,unrelaxed_model_1_multimer_v3_pred_1,1,C,0.13146198932075776
multimer_subfamily,P09651_P10233,unrelaxed_model_1_multimer_v3_pred_1,0,B,0.5834322437547378
multimer_subfamily,P09651_P10233,unrelaxed_model_1_multimer_v3_pred_1,1,C,0.16463080349364512
multimer_subfamily,P09651_P10238,unrelaxed_model_1_multimer_v3_pred_1,0,B,0.10531255960552822
multimer_subfamily,P09651_P10238,unrelaxed_model_1_multimer_v3_pred_1,1,C,0.07857099603154373
multimer_subfamily,P0C0S5_P10233,unrelaxed_model_1_multimer_v3_pred_1,0,B,0.029036494261718327
multimer_subfamily,P0C0S5_P10233,unrelaxed_model_1_multimer_v3_pred_1,1,C,0.03281339570410383
multimer_subfamily,P0DMV9_P04487,unrelaxed_model_1_multimer_v3_pred_1,0,B,0.2222019798897937
multimer_subfamily,P0DMV9_P04487,unrelaxed_model_1_multimer_v3_pred_1,1,C,0.04775392889445089
multimer_subfamily,P0DP25_P04288,unrelaxed_model_1_multimer_v3_pred_1,0,B,0.035945856453100195
multimer_subfamily,P0DP25_P04288,unrelaxed_model_1_multimer_v3_pred_1,1,C,0.03742680541863173
multimer_subfamily,P0DP25_P04488,unrelaxed_model_1_multimer_v3_pred_1,0,B,0.2465987801061939
multimer_subfamily,P0DP25_P04488,unrelaxed_model_1_multimer_v3_pred_1,1,C,0.13291796913263376
multimer_subfamily,P0DP25_P10211,unrelaxed_model_1_multimer_v3_pred_1,0,B,0.05972184911991914
multimer_subfamily,P0DP25_P10211,unrelaxed_model_1_multimer_v3_pred_1,1,C,0.05191383626600629
multimer_subfamily,P0DP25_P10233,unrelaxed_model_1_multimer_v3_pred_1,0,B,0.03677324240332729
multimer_subfamily,P0DP25_P10233,unrelaxed_model_1_multimer_v3_pred_1,1,C,0.03522262470898502
multimer_subfamily,P10185_P05556,unrelaxed_model_1_multimer_v3_pred_1,0,B,0.02756168756770003
multimer_subfamily,P10185_P05556,unrelaxed_model_1_multimer_v3_pred_1,1,C,0.04665968017842695
multimer_subfamily,P10185_P07237,unrelaxed_model_1_multimer_v3_pred_1,0,B,0.03044443539632448
multimer_subfamily,P10185_P07237,unrelaxed_model_1_multimer_v3_pred_1,1,C,0.09163271264719075
multimer_subfamily,P10185_P09382,unrelaxed_model_1_multimer_v3_pred_1,0,B,0.04632332258910492
multimer_subfamily,P10185_P09382,unrelaxed_model_1_multimer_v3_pred_1,1,C,0.07883395567355758
multimer_subfamily,P10185_P11021,unrelaxed_model_1_multimer_v3_pred_1,0,B,0.026481202952020246
multimer_subfamily,P10185_P11021,unrelaxed_model_1_multimer_v3_pred_1,1,C,0.12369224718061636
multimer_subfamily,P10185_P13667,unrelaxed_model_1_multimer_v3_pred_1,0,B,0.028833136414700318
multimer_subfamily,P10185_P13667,unrelaxed_model_1_multimer_v3_pred_1,1,C,0.06819158631728925
multimer_subfamily,P10185_P14314,unrelaxed_model_1_multimer_v3_pred_1,0,B,0.025857299116337554
multimer_subfamily,P10185_P14314,unrelaxed_model_1_multimer_v3_pred_1,1,C,0.05854428134815694
multimer_subfamily,P10185_P23284,unrelaxed_model_1_multimer_v3_pred_1,0,B,0.02763782053986452
multimer_subfamily,P10185_P23284,unrelaxed_model_1_multimer_v3_pred_1,1,C,0.09124998818730574
multimer_subfamily,P10185_P30101,unrelaxed_model_1_multimer_v3_pred_1,0,B,0.03183605929141948
multimer_subfamily,P10185_P30101,unrelaxed_model_1_multimer_v3_pred_1,1,C,0.14502422086991595
multimer_subfamily,P10185_P50454,unrelaxed_model_1_multimer_v3_pred_1,0,B,0.03376328867158327
multimer_subfamily,P10185_P50454,unrelaxed_model_1_multimer_v3_pred_1,1,C,0.08530262541988524
multimer_subfamily,P10209_P08670,unrelaxed_model_1_multimer_v3_pred_1,0,B,0.04857940242449839
multimer_subfamily,P10209_P08670,unrelaxed_model_1_multimer_v3_pred_1,1,C,0.04171745604561062
multimer_subfamily,P10209_Q99877,unrelaxed_model_1_multimer_v3_pred_1,0,B,0.045212602184986496
multimer_subfamily,P10209_Q99877,unrelaxed_model_1_multimer_v3_pred_1,1,C,0.029189852658596367
multimer_subfamily,P10211_P01889,unrelaxed_model_1_multimer_v3_pred_1,0,B,0.15126496937725717
multimer_subfamily,P10211_P01889,unrelaxed_model_1_multimer_v3_pred_1,1,C,0.46210037281452687
multimer_subfamily,P10211_P04844,unrelaxed_model_1_multimer_v3_pred_1,0,B,0.02999616127599007
multimer_subfamily,P10211_P04844,unrelaxed_model_1_multimer_v3_pred_1,1,C,0.07913981419496637
multimer_subfamily,P10211_P07237,unrelaxed_model_1_multimer_v3_pred_1,0,B,0.044504232769780924
multimer_subfamily,P10211_P07237,unrelaxed_model_1_multimer_v3_pred_1,1,C,0.10291956519114896
multimer_subfamily,P10211_P08195,unrelaxed_model_1_multimer_v3_pred_1,0,B,0.05306517879826898
multimer_subfamily,P10211_P08195,unrelaxed_model_1_multimer_v3_pred_1,1,C,0.036855831916262995
multimer_subfamily,P10211_P08648,unrelaxed_model_1_multimer_v3_pred_1,0,B,0.06515637084526613
multimer_subfamily,P10211_P08648,unrelaxed_model_1_multimer_v3_pred_1,1,C,0.20630732409214908
multimer_subfamily,P10211_P09382,unrelaxed_model_1_multimer_v3_pred_1,0,B,0.02670889252849021
multimer_subfamily,P10211_P09382,unrelaxed_model_1_multimer_v3_pred_1,1,C,0.042512027946249656
multimer_subfamily,P10211_P10321,unrelaxed_model_1_multimer_v3_pred_1,0,B,0.2086542492370759
multimer_subfamily,P10211_P10321,unrelaxed_model_1_multimer_v3_pred_1,1,C,0.45281419148727975
multimer_subfamily,P10211_P11021,unrelaxed_model_1_multimer_v3_pred_1,0,B,0.09232390019689943
multimer_subfamily,P10211_P11021,unrelaxed_model_1_multimer_v3_pred_1,1,C,0.36358915679383674
multimer_subfamily,P10211_P13667,unrelaxed_model_1_multimer_v3_pred_1,0,B,0.5263492954188175
multimer_subfamily,P10211_P13667,unrelaxed_model_1_multimer_v3_pred_1,1,C,0.5337653675517411
multimer_subfamily,P10211_P14625,unrelaxed_model_1_multimer_v3_pred_1,0,B,0.15733416064637593
multimer_subfamily,P10211_P14625,unrelaxed_model_1_multimer_v3_pred_1,1,C,0.18631788745679498
multimer_subfamily,P10211_P21589,unrelaxed_model_1_multimer_v3_pred_1,0,B,0.23068589870289416
multimer_subfamily,P10211_P21589,unrelaxed_model_1_multimer_v3_pred_1,1,C,0.5825515474809195
multimer_subfamily,P10211_P23284,unrelaxed_model_1_multimer_v3_pred_1,0,B,0.1712461936204613
multimer_subfamily,P10211_P23284,unrelaxed_model_1_multimer_v3_pred_1,1,C,0.2608070540483622
multimer_subfamily,P10211_P30101,unrelaxed_model_1_multimer_v3_pred_1,0,B,0.029859515232999522
multimer_subfamily,P10211_P30101,unrelaxed_model_1_multimer_v3_pred_1,1,C,0.05920300245253039
multimer_subfamily,P10211_P46977,unrelaxed_model_1_multimer_v3_pred_1,0,B,0.027336696553986038
multimer_subfamily,P10211_P46977,unrelaxed_model_1_multimer_v3_pred_1,1,C,0.19196020621079163
multimer_subfamily,P10211_P50454,unrelaxed_model_1_multimer_v3_pred_1,0,B,0.029813301355118907
multimer_subfamily,P10211_P50454,unrelaxed_model_1_multimer_v3_pred_1,1,C,0.12073297451570289
multimer_subfamily,P10211_P62979,unrelaxed_model_1_multimer_v3_pred_1,0,B,0.02532454569131122
multimer_subfamily,P10211_P62979,unrelaxed_model_1_multimer_v3_pred_1,1,C,0.026586712411689147
multimer_subfamily,P10211_Q12907,unrelaxed_model_1_multimer_v3_pred_1,0,B,0.025372021065253884
multimer_subfamily,P10211_Q12907,unrelaxed_model_1_multimer_v3_pred_1,1,C,0.04589286806283161
multimer_subfamily,P10211_Q15084,unrelaxed_model_1_multimer_v3_pred_1,0,B,0.38493129573232404
multimer_subfamily,P10211_Q15084,unrelaxed_model_1_multimer_v3_pred_1,1,C,0.3017288979695611
multimer_subfamily,P10211_Q15293,unrelaxed_model_1_multimer_v3_pred_1,0,B,0.24946298630691785
multimer_subfamily,P10211_Q15293,unrelaxed_model_1_multimer_v3_pred_1,1,C,0.12478423530816253
multimer_subfamily,P10211_Q8TCJ2,unrelaxed_model_1_multimer_v3_pred_1,0,B,0.04210772080866178
multimer_subfamily,P10211_Q8TCJ2,unrelaxed_model_1_multimer_v3_pred_1,1,C,0.06300861249509855
multimer_subfamily,P10211_Q99805,unrelaxed_model_1_multimer_v3_pred_1,0,B,0.027815551994035265
multimer_subfamily,P10211_Q99805,unrelaxed_model_1_multimer_v3_pred_1,1,C,0.052461365473540994
multimer_subfamily,P10211_Q9BTV4,unrelaxed_model_1_multimer_v3_pred_1,0,B,0.03839720788982243
multimer_subfamily,P10211_Q9BTV4,unrelaxed_model_1_multimer_v3_pred_1,1,C,0.08693852756471154
multimer_subfamily,P10211_Q9BVC6,unrelaxed_model_1_multimer_v3_pred_1,0,B,0.03393570814918563
multimer_subfamily,P10211_Q9BVC6,unrelaxed_model_1_multimer_v3_pred_1,1,C,0.03195004182689064
multimer_subfamily,P10211_Q9BVK6,unrelaxed_model_1_multimer_v3_pred_1,0,B,0.02505900328886615
multimer_subfamily,P10211_Q9BVK6,unrelaxed_model_1_multimer_v3_pred_1,1,C,0.025740969358903985
multimer_subfamily,P10218_O00264,unrelaxed_model_1_multimer_v3_pred_1,0,B,0.04213934917667005
multimer_subfamily,P10218_O00264,unrelaxed_model_1_multimer_v3_pred_1,1,C,0.05501765328334825
multimer_subfamily,P10218_O15173,unrelaxed_model_1_multimer_v3_pred_1,0,B,0.050840155192667005
multimer_subfamily,P10218_O15173,unrelaxed_model_1_multimer_v3_pred_1,1,C,0.061858234553031174
multimer_subfamily,P10218_O75396,unrelaxed_model_1_multimer_v3_pred_1,0,B,0.0815119902763213
multimer_subfamily,P10218_O75396,unrelaxed_model_1_multimer_v3_pred_1,1,C,0.13490610344278028
multimer_subfamily,P10218_P10599,unrelaxed_model_1_multimer_v3_pred_1,0,B,0.16070210450370773
multimer_subfamily,P10218_P10599,unrelaxed_model_1_multimer_v3_pred_1,1,C,0.15636362483068253
multimer_subfamily,P10218_P26373,unrelaxed_model_1_multimer_v3_pred_1,0,B,0.06521299817822454
multimer_subfamily,P10218_P26373,unrelaxed_model_1_multimer_v3_pred_1,1,C,0.03888534540473254
multimer_subfamily,P10218_P39023,unrelaxed_model_1_multimer_v3_pred_1,0,B,0.046926377016378175
multimer_subfamily,P10218_P39023,unrelaxed_model_1_multimer_v3_pred_1,1,C,0.08458163320485988
multimer_subfamily,P10218_P60468,unrelaxed_model_1_multimer_v3_pred_1,0,B,0.0774568393799691
multimer_subfamily,P10218_P60468,unrelaxed_model_1_multimer_v3_pred_1,1,C,0.033727917753105345
multimer_subfamily,P10218_P61353,unrelaxed_model_1_multimer_v3_pred_1,0,B,0.07789230052073173
multimer_subfamily,P10218_P61353,unrelaxed_model_1_multimer_v3_pred_1,1,C,0.12148238411918744
multimer_subfamily,P10218_Q9UNL2,unrelaxed_model_1_multimer_v3_pred_1,0,B,0.02443124105221132
multimer_subfamily,P10218_Q9UNL2,unrelaxed_model_1_multimer_v3_pred_1,1,C,0.030601115606479583
multimer_subfamily,P10225_P10233,unrelaxed_model_1_multimer_v3_pred_1,0,B,0.48703203282280866
multimer_subfamily,P10225_P10233,unrelaxed_model_1_multimer_v3_pred_1,1,C,0.15904710045662215
multimer_subfamily,P10228_P09382,unrelaxed_model_1_multimer_v3_pred_1,0,B,0.07146899701600834
multimer_subfamily,P10228_P09382,unrelaxed_model_1_multimer_v3_pred_1,1,C,0.08028482490116558
multimer_subfamily,P10230_Q9P0L0,unrelaxed_model_1_multimer_v3_pred_1,0,B,0.10664599884260616
multimer_subfamily,P10230_Q9P0L0,unrelaxed_model_1_multimer_v3_pred_1,1,C,0.1660866756070801
multimer_subfamily,P10233_P63104,unrelaxed_model_1_multimer_v3_pred_1,0,B,0.03309035158921453
multimer_subfamily,P10233_P63104,unrelaxed_model_1_multimer_v3_pred_1,1,C,0.30009109083740465
multimer_subfamily,P10233_P67809,unrelaxed_model_1_multimer_v3_pred_1,0,B,0.029415051131478118
multimer_subfamily,P10233_P67809,unrelaxed_model_1_multimer_v3_pred_1,1,C,0.03488159052614004
multimer_subfamily,P10233_Q15836,unrelaxed_model_1_multimer_v3_pred_1,0,B,0.04633720556667834
multimer_subfamily,P10233_Q15836,unrelaxed_model_1_multimer_v3_pred_1,1,C,0.02885073682384001
multimer_subfamily,P10233_Q702N8,unrelaxed_model_1_multimer_v3_pred_1,0,B,0.025421309621062718
multimer_subfamily,P10233_Q702N8,unrelaxed_model_1_multimer_v3_pred_1,1,C,0.024470960971898954
multimer_subfamily,P10234_P06703,unrelaxed_model_1_multimer_v3_pred_1,0,B,0.05053971506871116
multimer_subfamily,P10234_P06703,unrelaxed_model_1_multimer_v3_pred_1,1,C,0.04318884538805163
multimer_subfamily,P10234_P57053,unrelaxed_model_1_multimer_v3_pred_1,0,B,0.24583686855807996
multimer_subfamily,P10234_P57053,unrelaxed_model_1_multimer_v3_pred_1,1,C,0.048244891776318674
multimer_subfamily,P10234_Q99877,unrelaxed_model_1_multimer_v3_pred_1,0,B,0.051537227265893396
multimer_subfamily,P10234_Q99877,unrelaxed_model_1_multimer_v3_pred_1,1,C,0.03286400594763582
multimer_subfamily,P10599_P04487,unrelaxed_model_1_multimer_v3_pred_1,0,B,0.023733185478409836
multimer_subfamily,P10599_P04487,unrelaxed_model_1_multimer_v3_pred_1,1,C,0.023733185478409836
multimer_subfamily,P10599_P10226,unrelaxed_model_1_multimer_v3_pred_1,0,B,0.17044229298669253
multimer_subfamily,P10599_P10226,unrelaxed_model_1_multimer_v3_pred_1,1,C,0.13092278842282468
multimer_subfamily,P10599_P10233,unrelaxed_model_1_multimer_v3_pred_1,0,B,0.18198848289699018
multimer_subfamily,P10599_P10233,unrelaxed_model_1_multimer_v3_pred_1,1,C,0.07567256764257319
multimer_subfamily,P10599_P10235,unrelaxed_model_1_multimer_v3_pred_1,0,B,0.3110465893922512
multimer_subfamily,P10599_P10235,unrelaxed_model_1_multimer_v3_pred_1,1,C,0.03469679118627684
multimer_subfamily,P11142_P03170,unrelaxed_model_1_multimer_v3_pred_1,0,B,0.5187225547510071
multimer_subfamily,P11142_P03170,unrelaxed_model_1_multimer_v3_pred_1,1,C,0.0691466421342963
multimer_subfamily,P11142_P04487,unrelaxed_model_1_multimer_v3_pred_1,0,B,0.2795663036490551
multimer_subfamily,P11142_P04487,unrelaxed_model_1_multimer_v3_pred_1,1,C,0.05065458008579753
multimer_subfamily,P11142_P10226,unrelaxed_model_1_multimer_v3_pred_1,0,B,0.6649742100558537
multimer_subfamily,P11142_P10226,unrelaxed_model_1_multimer_v3_pred_1,1,C,0.5280502635226331
multimer_subfamily,P11142_P10233,unrelaxed_model_1_multimer_v3_pred_1,0,B,0.41797459001556314
multimer_subfamily,P11142_P10233,unrelaxed_model_1_multimer_v3_pred_1,1,C,0.07303629667687206
multimer_subfamily,P11940_P10238,unrelaxed_model_1_multimer_v3_pred_1,0,B,0.21736095467155617
multimer_subfamily,P11940_P10238,unrelaxed_model_1_multimer_v3_pred_1,1,C,0.08077859323195834
multimer_subfamily,P12004_P10226,unrelaxed_model_1_multimer_v3_pred_1,0,B,0.6190294419880696
multimer_subfamily,P12004_P10226,unrelaxed_model_1_multimer_v3_pred_1,1,C,0.21236711062340685
multimer_subfamily,P13639_P04487,unrelaxed_model_1_multimer_v3_pred_1,0,B,0.13206410629779242
multimer_subfamily,P13639_P04487,unrelaxed_model_1_multimer_v3_pred_1,1,C,0.03332748550086137
multimer_subfamily,P13726_P10211,unrelaxed_model_1_multimer_v3_pred_1,0,B,0.28551738189474907
multimer_subfamily,P13726_P10211,unrelaxed_model_1_multimer_v3_pred_1,1,C,0.15010885287511525
multimer_subfamily,P13797_P10226,unrelaxed_model_1_multimer_v3_pred_1,0,B,0.24631255697226317
multimer_subfamily,P13797_P10226,unrelaxed_model_1_multimer_v3_pred_1,1,C,0.14814641353726968
multimer_subfamily,P13987_P06484,unrelaxed_model_1_multimer_v3_pred_1,0,B,0.10395657559377212
multimer_subfamily,P13987_P06484,unrelaxed_model_1_multimer_v3_pred_1,1,C,0.040414880665901654
multimer_subfamily,P13987_P10211,unrelaxed_model_1_multimer_v3_pred_1,0,B,0.04793538984645143
multimer_subfamily,P13987_P10211,unrelaxed_model_1_multimer_v3_pred_1,1,C,0.07549482526460459
multimer_subfamily,P13987_P10229,unrelaxed_model_1_multimer_v3_pred_1,0,B,0.050158774702764544
multimer_subfamily,P13987_P10229,unrelaxed_model_1_multimer_v3_pred_1,1,C,0.058874919969337636
multimer_subfamily,P13987_Q69091,unrelaxed_model_1_multimer_v3_pred_1,0,B,0.032942498496880114
multimer_subfamily,P13987_Q69091,unrelaxed_model_1_multimer_v3_pred_1,1,C,0.06667226212150375
multimer_subfamily,P16070_P06487,unrelaxed_model_1_multimer_v3_pred_1,0,B,0.15142938545432055
multimer_subfamily,P16070_P06487,unrelaxed_model_1_multimer_v3_pred_1,1,C,0.05468646339900403
multimer_subfamily,P16070_P10228,unrelaxed_model_1_multimer_v3_pred_1,0,B,0.057765696384368334
multimer_subfamily,P16070_P10228,unrelaxed_model_1_multimer_v3_pred_1,1,C,0.12386018540481265
multimer_subfamily,P16070_Q69091,unrelaxed_model_1_multimer_v3_pred_1,0,B,0.1019802852780081
multimer_subfamily,P16070_Q69091,unrelaxed_model_1_multimer_v3_pred_1,1,C,0.10121638410082738
multimer_subfamily,P16104_P10233,unrelaxed_model_1_multimer_v3_pred_1,0,B,0.06725094422797173
multimer_subfamily,P16104_P10233,unrelaxed_model_1_multimer_v3_pred_1,1,C,0.048492673721410494
multimer_subfamily,P16333_P10233,unrelaxed_model_1_multimer_v3_pred_1,0,B,0.39637038730797
multimer_subfamily,P16333_P10233,unrelaxed_model_1_multimer_v3_pred_1,1,C,0.10821656020619058
multimer_subfamily,P16401_P10233,unrelaxed_model_1_multimer_v3_pred_1,0,B,0.039845901214991764
multimer_subfamily,P16401_P10233,unrelaxed_model_1_multimer_v3_pred_1,1,C,0.03782408735057009
multimer_subfamily,P16402_P10233,unrelaxed_model_1_multimer_v3_pred_1,0,B,0.03160095702280481
multimer_subfamily,P16402_P10233,unrelaxed_model_1_multimer_v3_pred_1,1,C,0.04013857346389969
multimer_subfamily,P17096_P04487,unrelaxed_model_1_multimer_v3_pred_1,0,B,0.02374708124632435
multimer_subfamily,P17096_P04487,unrelaxed_model_1_multimer_v3_pred_1,1,C,0.023742324038622097
multimer_subfamily,P17096_P10226,unrelaxed_model_1_multimer_v3_pred_1,0,B,0.023848933029539353
multimer_subfamily,P17096_P10226,unrelaxed_model_1_multimer_v3_pred_1,1,C,0.02380199494884861
multimer_subfamily,P17096_P10233,unrelaxed_model_1_multimer_v3_pred_1,0,B,0.023870981605608205
multimer_subfamily,P17096_P10233,unrelaxed_model_1_multimer_v3_pred_1,1,C,0.023865029185602078
multimer_subfamily,P18085_P04488,unrelaxed_model_1_multimer_v3_pred_1,0,B,0.20078144829709663
multimer_subfamily,P18085_P04488,unrelaxed_model_1_multimer_v3_pred_1,1,C,0.08417982378183406
multimer_subfamily,P18085_P10211,unrelaxed_model_1_multimer_v3_pred_1,0,B,0.08805622621986164
multimer_subfamily,P18085_P10211,unrelaxed_model_1_multimer_v3_pred_1,1,C,0.05348101668705317
multimer_subfamily,P18085_Q69091,unrelaxed_model_1_multimer_v3_pred_1,0,B,0.11351123454319902
multimer_subfamily,P18085_Q69091,unrelaxed_model_1_multimer_v3_pred_1,1,C,0.1329287334703235
multimer_subfamily,P18124_P04487,unrelaxed_model_1_multimer_v3_pred_1,0,B,0.02465666951460278
multimer_subfamily,P18124_P04487,unrelaxed_model_1_multimer_v3_pred_1,1,C,0.02378499450574314
multimer_subfamily,P20340_P10233,unrelaxed_model_1_multimer_v3_pred_1,0,B,0.21160286920394836
multimer_subfamily,P20340_P10233,unrelaxed_model_1_multimer_v3_pred_1,1,C,0.07800403105095674
multimer_subfamily,P21291_P04487,unrelaxed_model_1_multimer_v3_pred_1,0,B,0.02379961107858839
multimer_subfamily,P21291_P04487,unrelaxed_model_1_multimer_v3_pred_1,1,C,0.02402622408405418
multimer_subfamily,P21926_P04488,unrelaxed_model_1_multimer_v3_pred_1,0,B,0.1677612494533837
multimer_subfamily,P21926_P04488,unrelaxed_model_1_multimer_v3_pred_1,1,C,0.10155760949842997
multimer_subfamily,P21926_P06477,unrelaxed_model_1_multimer_v3_pred_1,0,B,0.039495095058051516
multimer_subfamily,P21926_P06477,unrelaxed_model_1_multimer_v3_pred_1,1,C,0.050522300934898234
multimer_subfamily,P21926_P10211,unrelaxed_model_1_multimer_v3_pred_1,0,B,0.07420368885110526
multimer_subfamily,P21926_P10211,unrelaxed_model_1_multimer_v3_pred_1,1,C,0.059256172316597674
multimer_subfamily,P21926_P10229,unrelaxed_model_1_multimer_v3_pred_1,0,B,0.189644123409719
multimer_subfamily,P21926_P10229,unrelaxed_model_1_multimer_v3_pred_1,1,C,0.09236114769735462
multimer_subfamily,P22626_P10226,unrelaxed_model_1_multimer_v3_pred_1,0,B,0.060416471244867806
multimer_subfamily,P22626_P10226,unrelaxed_model_1_multimer_v3_pred_1,1,C,0.04289050135096342
multimer_subfamily,P22626_P10233,unrelaxed_model_1_multimer_v3_pred_1,0,B,0.5998355866626003
multimer_subfamily,P22626_P10233,unrelaxed_model_1_multimer_v3_pred_1,1,C,0.19664907139449772
multimer_subfamily,P23284_P10229,unrelaxed_model_1_multimer_v3_pred_1,0,B,0.25546024168630077
multimer_subfamily,P23284_P10229,unrelaxed_model_1_multimer_v3_pred_1,1,C,0.1699681975019591
multimer_subfamily,P23396_P10233,unrelaxed_model_1_multimer_v3_pred_1,0,B,0.29442168141112846
multimer_subfamily,P23396_P10233,unrelaxed_model_1_multimer_v3_pred_1,1,C,0.0718709765926962
multimer_subfamily,P26373_P10233,unrelaxed_model_1_multimer_v3_pred_1,0,B,0.04888787086401297
multimer_subfamily,P26373_P10233,unrelaxed_model_1_multimer_v3_pred_1,1,C,0.025189958210912633
multimer_subfamily,P26583_P10233,unrelaxed_model_1_multimer_v3_pred_1,0,B,0.2313920268932677
multimer_subfamily,P26583_P10233,unrelaxed_model_1_multimer_v3_pred_1,1,C,0.06076072041962012
multimer_subfamily,P27635_P10233,unrelaxed_model_1_multimer_v3_pred_1,0,B,0.33409158931076405
multimer_subfamily,P27635_P10233,unrelaxed_model_1_multimer_v3_pred_1,1,C,0.14758454265392865
multimer_subfamily,P27797_P03170,unrelaxed_model_1_multimer_v3_pred_1,0,B,0.590043662552812
multimer_subfamily,P27797_P03170,unrelaxed_model_1_multimer_v3_pred_1,1,C,0.23553821147712456
multimer_subfamily,P27797_P04488,unrelaxed_model_1_multimer_v3_pred_1,0,B,0.5783810797575197
multimer_subfamily,P27797_P04488,unrelaxed_model_1_multimer_v3_pred_1,1,C,0.16268947850142756
multimer_subfamily,P27797_P10185,unrelaxed_model_1_multimer_v3_pred_1,0,B,0.580539074087218
multimer_subfamily,P27797_P10185,unrelaxed_model_1_multimer_v3_pred_1,1,C,0.18229247458744424
multimer_subfamily,P27797_P10211,unrelaxed_model_1_multimer_v3_pred_1,0,B,0.5732368705255154
multimer_subfamily,P27797_P10211,unrelaxed_model_1_multimer_v3_pred_1,1,C,0.25037149608830833
multimer_subfamily,P27824_P10211,unrelaxed_model_1_multimer_v3_pred_1,0,B,0.10854973608196061
multimer_subfamily,P27824_P10211,unrelaxed_model_1_multimer_v3_pred_1,1,C,0.04101744506328704
multimer_subfamily,P27824_P10229,unrelaxed_model_1_multimer_v3_pred_1,0,B,0.3270913070144801
multimer_subfamily,P27824_P10229,unrelaxed_model_1_multimer_v3_pred_1,1,C,0.11114946642024026
multimer_subfamily,P27824_Q69091,unrelaxed_model_1_multimer_v3_pred_1,0,B,0.3135863639866053
multimer_subfamily,P27824_Q69091,unrelaxed_model_1_multimer_v3_pred_1,1,C,0.1297856934783056
multimer_subfamily,P30050_P04487,unrelaxed_model_1_multimer_v3_pred_1,0,B,0.023733185478409836
multimer_subfamily,P30050_P04487,unrelaxed_model_1_multimer_v3_pred_1,1,C,0.023733185478409836
multimer_subfamily,P30050_P10233,unrelaxed_model_1_multimer_v3_pred_1,0,B,0.2252059086986058
multimer_subfamily,P30050_P10233,unrelaxed_model_1_multimer_v3_pred_1,1,C,0.03945327965218179
multimer_subfamily,P31949_P03170,unrelaxed_model_1_multimer_v3_pred_1,0,B,0.29904488309038146
multimer_subfamily,P31949_P03170,unrelaxed_model_1_multimer_v3_pred_1,1,C,0.09418951392022268
multimer_subfamily,P31949_P10233,unrelaxed_model_1_multimer_v3_pred_1,0,B,0.12791191350237457
multimer_subfamily,P31949_P10233,unrelaxed_model_1_multimer_v3_pred_1,1,C,0.03892065522243247
multimer_subfamily,P32969_P10233,unrelaxed_model_1_multimer_v3_pred_1,0,B,0.06325101081037798
multimer_subfamily,P32969_P10233,unrelaxed_model_1_multimer_v3_pred_1,1,C,0.03842135425603084
multimer_subfamily,P35268_P04487,unrelaxed_model_1_multimer_v3_pred_1,0,B,0.02391614957354311
multimer_subfamily,P35268_P04487,unrelaxed_model_1_multimer_v3_pred_1,1,C,0.024368204539241795
multimer_subfamily,P35268_P10233,unrelaxed_model_1_multimer_v3_pred_1,0,B,0.2888912874089003
multimer_subfamily,P35268_P10233,unrelaxed_model_1_multimer_v3_pred_1,1,C,0.07700559595399922
multimer_subfamily,P36578_P04487,unrelaxed_model_1_multimer_v3_pred_1,0,B,0.03806959565047622
multimer_subfamily,P36578_P04487,unrelaxed_model_1_multimer_v3_pred_1,1,C,0.024926154361242226
multimer_subfamily,P38159_P10233,unrelaxed_model_1_multimer_v3_pred_1,0,B,0.1159374730900845
multimer_subfamily,P38159_P10233,unrelaxed_model_1_multimer_v3_pred_1,1,C,0.05490170077662562
multimer_subfamily,P39019_P04487,unrelaxed_model_1_multimer_v3_pred_1,0,B,0.023733185478409836
multimer_subfamily,P39019_P04487,unrelaxed_model_1_multimer_v3_pred_1,1,C,0.023733185478409836
multimer_subfamily,P39019_P10226,unrelaxed_model_1_multimer_v3_pred_1,0,B,0.029608498748828663
multimer_subfamily,P39019_P10226,unrelaxed_model_1_multimer_v3_pred_1,1,C,0.05388529891268215
multimer_subfamily,P39023_P04487,unrelaxed_model_1_multimer_v3_pred_1,0,B,0.028283415772813125
multimer_subfamily,P39023_P04487,unrelaxed_model_1_multimer_v3_pred_1,1,C,0.024260191645450086
multimer_subfamily,P40227_P10226,unrelaxed_model_1_multimer_v3_pred_1,0,B,0.26901372086782593
multimer_subfamily,P40227_P10226,unrelaxed_model_1_multimer_v3_pred_1,1,C,0.088424879705323
multimer_subfamily,P40429_P04487,unrelaxed_model_1_multimer_v3_pred_1,0,B,0.023733185478409836
multimer_subfamily,P40429_P04487,unrelaxed_model_1_multimer_v3_pred_1,1,C,0.023733185478409836
multimer_subfamily,P42766_P04487,unrelaxed_model_1_multimer_v3_pred_1,0,B,0.023733185478409836
multimer_subfamily,P42766_P04487,unrelaxed_model_1_multimer_v3_pred_1,1,C,0.023733185478409836
multimer_subfamily,P42766_P10233,unrelaxed_model_1_multimer_v3_pred_1,0,B,0.03588054580610701
multimer_subfamily,P42766_P10233,unrelaxed_model_1_multimer_v3_pred_1,1,C,0.04850824230414699
multimer_subfamily,P45983_P04294,unrelaxed_model_1_multimer_v3_pred_1,0,B,0.4925698756780074
multimer_subfamily,P45983_P04294,unrelaxed_model_1_multimer_v3_pred_1,1,C,0.32799865795472705
multimer_subfamily,P46776_P10233,unrelaxed_model_1_multimer_v3_pred_1,0,B,0.2717213502366486
multimer_subfamily,P46776_P10233,unrelaxed_model_1_multimer_v3_pred_1,1,C,0.04275856781131726
multimer_subfamily,P46779_P04487,unrelaxed_model_1_multimer_v3_pred_1,0,B,0.023756249372559185
multimer_subfamily,P46779_P04487,unrelaxed_model_1_multimer_v3_pred_1,1,C,0.02377066556674733
multimer_subfamily,P47914_P04487,unrelaxed_model_1_multimer_v3_pred_1,0,B,0.025129295135811802
multimer_subfamily,P47914_P04487,unrelaxed_model_1_multimer_v3_pred_1,1,C,0.023952673337501694
multimer_subfamily,P49207_P10233,unrelaxed_model_1_multimer_v3_pred_1,0,B,0.0421568674730831
multimer_subfamily,P49207_P10233,unrelaxed_model_1_multimer_v3_pred_1,1,C,0.02984387665175406
multimer_subfamily,P49458_P04487,unrelaxed_model_1_multimer_v3_pred_1,0,B,0.025666797992915394
multimer_subfamily,P49458_P04487,unrelaxed_model_1_multimer_v3_pred_1,1,C,0.023990896426590923
multimer_subfamily,P49755_P10229,unrelaxed_model_1_multimer_v3_pred_1,0,B,0.0980972575082411
multimer_subfamily,P49755_P10229,unrelaxed_model_1_multimer_v3_pred_1,1,C,0.09020192622230899
multimer_subfamily,P50402_P10218,unrelaxed_model_1_multimer_v3_pred_1,0,B,0.027414225600143356
multimer_subfamily,P50402_P10218,unrelaxed_model_1_multimer_v3_pred_1,1,C,0.03843842273659913
multimer_subfamily,P50454_P10229,unrelaxed_model_1_multimer_v3_pred_1,0,B,0.31273628177178286
multimer_subfamily,P50454_P10229,unrelaxed_model_1_multimer_v3_pred_1,1,C,0.09296439871785231
multimer_subfamily,P50914_P04487,unrelaxed_model_1_multimer_v3_pred_1,0,B,0.023733185478409836
multimer_subfamily,P50914_P04487,unrelaxed_model_1_multimer_v3_pred_1,1,C,0.023733185478409836
multimer_subfamily,P50914_P10233,unrelaxed_model_1_multimer_v3_pred_1,0,B,0.04635559039851968
multimer_subfamily,P50914_P10233,unrelaxed_model_1_multimer_v3_pred_1,1,C,0.02590607446759268
multimer_subfamily,P52926_P10226,unrelaxed_model_1_multimer_v3_pred_1,0,B,0.023824565769694966
multimer_subfamily,P52926_P10226,unrelaxed_model_1_multimer_v3_pred_1,1,C,0.02790905600292493
multimer_subfamily,P55010_P10233,unrelaxed_model_1_multimer_v3_pred_1,0,B,0.2146760952726186
multimer_subfamily,P55010_P10233,unrelaxed_model_1_multimer_v3_pred_1,1,C,0.06519482227126364
multimer_subfamily,P57053_P04487,unrelaxed_model_1_multimer_v3_pred_1,0,B,0.03522530505191324
multimer_subfamily,P57053_P04487,unrelaxed_model_1_multimer_v3_pred_1,1,C,0.025370778140079514
multimer_subfamily,P57053_P10226,unrelaxed_model_1_multimer_v3_pred_1,0,B,0.024527506376361505
multimer_subfamily,P57053_P10226,unrelaxed_model_1_multimer_v3_pred_1,1,C,0.033483624064682846
multimer_subfamily,P57053_P10233,unrelaxed_model_1_multimer_v3_pred_1,0,B,0.02509699011096252
multimer_subfamily,P57053_P10233,unrelaxed_model_1_multimer_v3_pred_1,1,C,0.02774509244897276
multimer_subfamily,P58876_P10233,unrelaxed_model_1_multimer_v3_pred_1,0,B,0.02797721924008432
multimer_subfamily,P58876_P10233,unrelaxed_model_1_multimer_v3_pred_1,1,C,0.029574580306952834
multimer_subfamily,P60468_P04487,unrelaxed_model_1_multimer_v3_pred_1,0,B,0.023873349949341878
multimer_subfamily,P60468_P04487,unrelaxed_model_1_multimer_v3_pred_1,1,C,0.023839994140644482
multimer_subfamily,P60468_P10233,unrelaxed_model_1_multimer_v3_pred_1,0,B,0.024320909925319576
multimer_subfamily,P60468_P10233,unrelaxed_model_1_multimer_v3_pred_1,1,C,0.04184171674762591
multimer_subfamily,P60709_P04294,unrelaxed_model_1_multimer_v3_pred_1,0,B,0.6843308710438432
multimer_subfamily,P60709_P04294,unrelaxed_model_1_multimer_v3_pred_1,1,C,0.6211339250960616
multimer_subfamily,P60709_P04296,unrelaxed_model_1_multimer_v3_pred_1,0,B,0.5380660746226669
multimer_subfamily,P60709_P04296,unrelaxed_model_1_multimer_v3_pred_1,1,C,0.48284720296889666
multimer_subfamily,P60709_P04487,unrelaxed_model_1_multimer_v3_pred_1,0,B,0.5850753586184493
multimer_subfamily,P60709_P04487,unrelaxed_model_1_multimer_v3_pred_1,1,C,0.09015734890759775
multimer_subfamily,P60709_P06491,unrelaxed_model_1_multimer_v3_pred_1,0,B,0.4276041744221259
multimer_subfamily,P60709_P06491,unrelaxed_model_1_multimer_v3_pred_1,1,C,0.3617116682268409
multimer_subfamily,P60709_P10226,unrelaxed_model_1_multimer_v3_pred_1,0,B,0.5990268409742782
multimer_subfamily,P60709_P10226,unrelaxed_model_1_multimer_v3_pred_1,1,C,0.2849520851858944
multimer_subfamily,P60709_P10233,unrelaxed_model_1_multimer_v3_pred_1,0,B,0.6744742117700011
multimer_subfamily,P60709_P10233,unrelaxed_model_1_multimer_v3_pred_1,1,C,0.23289378060982616
multimer_subfamily,P60953_P06487,unrelaxed_model_1_multimer_v3_pred_1,0,B,0.22714293818604098
multimer_subfamily,P60953_P06487,unrelaxed_model_1_multimer_v3_pred_1,1,C,0.07280507621488805
multimer_subfamily,P61026_P10233,unrelaxed_model_1_multimer_v3_pred_1,0,B,0.19525412096096176
multimer_subfamily,P61026_P10233,unrelaxed_model_1_multimer_v3_pred_1,1,C,0.045483955632731374
multimer_subfamily,P61254_P04487,unrelaxed_model_1_multimer_v3_pred_1,0,B,0.023733185478409836
multimer_subfamily,P61254_P04487,unrelaxed_model_1_multimer_v3_pred_1,1,C,0.023733185478409836
multimer_subfamily,P61353_P04487,unrelaxed_model_1_multimer_v3_pred_1,0,B,0.023733185478409836
multimer_subfamily,P61353_P04487,unrelaxed_model_1_multimer_v3_pred_1,1,C,0.023733185478409836
multimer_subfamily,P61353_P10233,unrelaxed_model_1_multimer_v3_pred_1,0,B,0.08851275124323639
multimer_subfamily,P61353_P10233,unrelaxed_model_1_multimer_v3_pred_1,1,C,0.025416978729215015
multimer_subfamily,P61513_P10233,unrelaxed_model_1_multimer_v3_pred_1,0,B,0.047461718398093655
multimer_subfamily,P61513_P10233,unrelaxed_model_1_multimer_v3_pred_1,1,C,0.035676899375007926
multimer_subfamily,P61769_P10211,unrelaxed_model_1_multimer_v3_pred_1,0,B,0.061065300560738195
multimer_subfamily,P61769_P10211,unrelaxed_model_1_multimer_v3_pred_1,1,C,0.030546712154291528
multimer_subfamily,P61978_P10233,unrelaxed_model_1_multimer_v3_pred_1,0,B,0.24283332611583014
multimer_subfamily,P61978_P10233,unrelaxed_model_1_multimer_v3_pred_1,1,C,0.06838223463580881
multimer_subfamily,P62136_P10233,unrelaxed_model_1_multimer_v3_pred_1,0,B,0.7074841130888504
multimer_subfamily,P62136_P10233,unrelaxed_model_1_multimer_v3_pred_1,1,C,0.4732613307734979
multimer_subfamily,P62241_P04487,unrelaxed_model_1_multimer_v3_pred_1,0,B,0.023814600147017424
multimer_subfamily,P62241_P04487,unrelaxed_model_1_multimer_v3_pred_1,1,C,0.023755133293902837
multimer_subfamily,P62328_P04487,unrelaxed_model_1_multimer_v3_pred_1,0,B,0.02427013939412632
multimer_subfamily,P62328_P04487,unrelaxed_model_1_multimer_v3_pred_1,1,C,0.023952913518346566
multimer_subfamily,P62424_P04487,unrelaxed_model_1_multimer_v3_pred_1,0,B,0.023733185478409836
multimer_subfamily,P62424_P04487,unrelaxed_model_1_multimer_v3_pred_1,1,C,0.023733185478409836
multimer_subfamily,P62750_P04487,unrelaxed_model_1_multimer_v3_pred_1,0,B,0.02379847985395003
multimer_subfamily,P62750_P04487,unrelaxed_model_1_multimer_v3_pred_1,1,C,0.023744246456654544
multimer_subfamily,P62805_P10233,unrelaxed_model_1_multimer_v3_pred_1,0,B,0.024260570994508818
multimer_subfamily,P62805_P10233,unrelaxed_model_1_multimer_v3_pred_1,1,C,0.02715369051353218
multimer_subfamily,P62820_P10231,unrelaxed_model_1_multimer_v3_pred_1,0,B,0.05169628211422371
multimer_subfamily,P62820_P10231,unrelaxed_model_1_multimer_v3_pred_1,1,C,0.08631149321457163
multimer_subfamily,P62820_P10233,unrelaxed_model_1_multimer_v3_pred_1,0,B,0.07848987980818022
multimer_subfamily,P62820_P10233,unrelaxed_model_1_multimer_v3_pred_1,1,C,0.03741582786844386
multimer_subfamily,P62851_P04487,unrelaxed_model_1_multimer_v3_pred_1,0,B,0.028791927091538487
multimer_subfamily,P62851_P04487,unrelaxed_model_1_multimer_v3_pred_1,1,C,0.025735875830166573
multimer_subfamily,P62857_P10233,unrelaxed_model_1_multimer_v3_pred_1,0,B,0.03557306756322394
multimer_subfamily,P62857_P10233,unrelaxed_model_1_multimer_v3_pred_1,1,C,0.03708863905690023
multimer_subfamily,P62888_P10233,unrelaxed_model_1_multimer_v3_pred_1,0,B,0.313163995222248
multimer_subfamily,P62888_P10233,unrelaxed_model_1_multimer_v3_pred_1,1,C,0.06920680435480045
multimer_subfamily,P62899_P10233,unrelaxed_model_1_multimer_v3_pred_1,0,B,0.09652826243556531
multimer_subfamily,P62899_P10233,unrelaxed_model_1_multimer_v3_pred_1,1,C,0.055139031239286124
multimer_subfamily,P62906_P04487,unrelaxed_model_1_multimer_v3_pred_1,0,B,0.023733185478409836
multimer_subfamily,P62906_P04487,unrelaxed_model_1_multimer_v3_pred_1,1,C,0.023733185478409836
multimer_subfamily,P62913_P04487,unrelaxed_model_1_multimer_v3_pred_1,0,B,0.023733185478409836
multimer_subfamily,P62913_P04487,unrelaxed_model_1_multimer_v3_pred_1,1,C,0.023733185478409836
multimer_subfamily,P62913_P10233,unrelaxed_model_1_multimer_v3_pred_1,0,B,0.37509863638488966
multimer_subfamily,P62913_P10233,unrelaxed_model_1_multimer_v3_pred_1,1,C,0.06038465228218973
multimer_subfamily,P62917_P10233,unrelaxed_model_1_multimer_v3_pred_1,0,B,0.052449851414591686
multimer_subfamily,P62917_P10233,unrelaxed_model_1_multimer_v3_pred_1,1,C,0.028782171606632566
multimer_subfamily,P62937_P03170,unrelaxed_model_1_multimer_v3_pred_1,0,B,0.4219267453534292
multimer_subfamily,P62937_P03170,unrelaxed_model_1_multimer_v3_pred_1,1,C,0.08069421819576647
multimer_subfamily,P62937_P04294,unrelaxed_model_1_multimer_v3_pred_1,0,B,0.5126774663572101
multimer_subfamily,P62937_P04294,unrelaxed_model_1_multimer_v3_pred_1,1,C,0.20693482941871413
multimer_subfamily,P62937_P04487,unrelaxed_model_1_multimer_v3_pred_1,0,B,0.6037231685262576
multimer_subfamily,P62937_P04487,unrelaxed_model_1_multimer_v3_pred_1,1,C,0.32052086611224806
multimer_subfamily,P62937_P10226,unrelaxed_model_1_multimer_v3_pred_1,0,B,0.32804062721281185
multimer_subfamily,P62937_P10226,unrelaxed_model_1_multimer_v3_pred_1,1,C,0.07268257423203806
multimer_subfamily,P62937_P10233,unrelaxed_model_1_multimer_v3_pred_1,0,B,0.6136685980283064
multimer_subfamily,P62937_P10233,unrelaxed_model_1_multimer_v3_pred_1,1,C,0.15600594745949609
multimer_subfamily,P62942_P04294,unrelaxed_model_1_multimer_v3_pred_1,0,B,0.21649608863980802
multimer_subfamily,P62942_P04294,unrelaxed_model_1_multimer_v3_pred_1,1,C,0.08896230524876518
multimer_subfamily,P62979_P06485,unrelaxed_model_1_multimer_v3_pred_1,0,B,0.037564218793324514
multimer_subfamily,P62979_P06485,unrelaxed_model_1_multimer_v3_pred_1,1,C,0.05509073743398479
multimer_subfamily,P62979_P10233,unrelaxed_model_1_multimer_v3_pred_1,0,B,0.06606484343493045
multimer_subfamily,P62979_P10233,unrelaxed_model_1_multimer_v3_pred_1,1,C,0.04216430265210658
multimer_subfamily,P62993_P10233,unrelaxed_model_1_multimer_v3_pred_1,0,B,0.31832337752659
multimer_subfamily,P62993_P10233,unrelaxed_model_1_multimer_v3_pred_1,1,C,0.05832106756465347
multimer_subfamily,P63220_P04487,unrelaxed_model_1_multimer_v3_pred_1,0,B,0.02397085312478835
multimer_subfamily,P63220_P04487,unrelaxed_model_1_multimer_v3_pred_1,1,C,0.02380360773814093
multimer_subfamily,P63241_P04487,unrelaxed_model_1_multimer_v3_pred_1,0,B,0.023733185478409836
multimer_subfamily,P63241_P04487,unrelaxed_model_1_multimer_v3_pred_1,1,C,0.023733185478409836
multimer_subfamily,P63241_P10233,unrelaxed_model_1_multimer_v3_pred_1,0,B,0.2938719119918433
multimer_subfamily,P63241_P10233,unrelaxed_model_1_multimer_v3_pred_1,1,C,0.06855353358032132
multimer_subfamily,P67870_P10233,unrelaxed_model_1_multimer_v3_pred_1,0,B,0.604260483326518
multimer_subfamily,P67870_P10233,unrelaxed_model_1_multimer_v3_pred_1,1,C,0.37131305566655537
multimer_subfamily,P68104_P03170,unrelaxed_model_1_multimer_v3_pred_1,0,B,0.19550474948911015
multimer_subfamily,P68104_P03170,unrelaxed_model_1_multimer_v3_pred_1,1,C,0.051386130485246415
multimer_subfamily,P68104_P04487,unrelaxed_model_1_multimer_v3_pred_1,0,B,0.06340782569252112
multimer_subfamily,P68104_P04487,unrelaxed_model_1_multimer_v3_pred_1,1,C,0.026945361514753352
multimer_subfamily,P68104_P10233,unrelaxed_model_1_multimer_v3_pred_1,0,B,0.2775342994136563
multimer_subfamily,P68104_P10233,unrelaxed_model_1_multimer_v3_pred_1,1,C,0.07456261176040956
multimer_subfamily,P68400_P10233,unrelaxed_model_1_multimer_v3_pred_1,0,B,0.6815372829858569
multimer_subfamily,P68400_P10233,unrelaxed_model_1_multimer_v3_pred_1,1,C,0.2191284695722366
multimer_subfamily,P83731_P04487,unrelaxed_model_1_multimer_v3_pred_1,0,B,0.023733185478409836
multimer_subfamily,P83731_P04487,unrelaxed_model_1_multimer_v3_pred_1,1,C,0.023733185478409836
multimer_subfamily,P83731_P10233,unrelaxed_model_1_multimer_v3_pred_1,0,B,0.20693315750950966
multimer_subfamily,P83731_P10233,unrelaxed_model_1_multimer_v3_pred_1,1,C,0.03767592804537022
multimer_subfamily,P84077_P10233,unrelaxed_model_1_multimer_v3_pred_1,0,B,0.046973673452658404
multimer_subfamily,P84077_P10233,unrelaxed_model_1_multimer_v3_pred_1,1,C,0.049576649987067935
multimer_subfamily,P84243_P04487,unrelaxed_model_1_multimer_v3_pred_1,0,B,0.023733185478409836
multimer_subfamily,P84243_P04487,unrelaxed_model_1_multimer_v3_pred_1,1,C,0.023733185478409836
multimer_subfamily,P84243_P10226,unrelaxed_model_1_multimer_v3_pred_1,0,B,0.026201888525932592
multimer_subfamily,P84243_P10226,unrelaxed_model_1_multimer_v3_pred_1,1,C,0.030461136996115988
multimer_subfamily,P84243_P10233,unrelaxed_model_1_multimer_v3_pred_1,0,B,0.024558336195238693
multimer_subfamily,P84243_P10233,unrelaxed_model_1_multimer_v3_pred_1,1,C,0.026222859934916756
multimer_subfamily,Q00341_P04487,unrelaxed_model_1_multimer_v3_pred_1,0,B,0.028195521903266997
multimer_subfamily,Q00341_P04487,unrelaxed_model_1_multimer_v3_pred_1,1,C,0.02413055468910543
multimer_subfamily,Q00839_P10226,unrelaxed_model_1_multimer_v3_pred_1,0,B,0.03691092842071942
multimer_subfamily,Q00839_P10226,unrelaxed_model_1_multimer_v3_pred_1,1,C,0.03868430822189876
multimer_subfamily,Q01105_P04487,unrelaxed_model_1_multimer_v3_pred_1,0,B,0.04663695018249207
multimer_subfamily,Q01105_P04487,unrelaxed_model_1_multimer_v3_pred_1,1,C,0.027264039926912922
multimer_subfamily,Q01105_P10233,unrelaxed_model_1_multimer_v3_pred_1,0,B,0.14207224588925796
multimer_subfamily,Q01105_P10233,unrelaxed_model_1_multimer_v3_pred_1,1,C,0.057057658343326656
multimer_subfamily,Q02543_P04487,unrelaxed_model_1_multimer_v3_pred_1,0,B,0.4668836041934138
multimer_subfamily,Q02543_P04487,unrelaxed_model_1_multimer_v3_pred_1,1,C,0.07884043731645543
multimer_subfamily,Q02818_P10220,unrelaxed_model_1_multimer_v3_pred_1,0,B,0.023919629993192675
multimer_subfamily,Q02818_P10220,unrelaxed_model_1_multimer_v3_pred_1,1,C,0.024905298065239646
multimer_subfamily,Q02878_P04487,unrelaxed_model_1_multimer_v3_pred_1,0,B,0.025119881153267822
multimer_subfamily,Q02878_P04487,unrelaxed_model_1_multimer_v3_pred_1,1,C,0.0239151976795693
multimer_subfamily,Q03518_P03170,unrelaxed_model_1_multimer_v3_pred_1,0,B,0.5046275408573604
multimer_subfamily,Q03518_P03170,unrelaxed_model_1_multimer_v3_pred_1,1,C,0.14063517708259493
multimer_subfamily,Q05639_P04487,unrelaxed_model_1_multimer_v3_pred_1,0,B,0.06882255352627882
multimer_subfamily,Q05639_P04487,unrelaxed_model_1_multimer_v3_pred_1,1,C,0.02742313598186803
multimer_subfamily,Q06830_P10226,unrelaxed_model_1_multimer_v3_pred_1,0,B,0.05494735493388489
multimer_subfamily,Q06830_P10226,unrelaxed_model_1_multimer_v3_pred_1,1,C,0.03888704164515368
multimer_subfamily,Q07020_P04487,unrelaxed_model_1_multimer_v3_pred_1,0,B,0.023739355752577143
multimer_subfamily,Q07020_P04487,unrelaxed_model_1_multimer_v3_pred_1,1,C,0.023740365667702764
multimer_subfamily,Q07020_P10233,unrelaxed_model_1_multimer_v3_pred_1,0,B,0.10455046287051055
multimer_subfamily,Q07020_P10233,unrelaxed_model_1_multimer_v3_pred_1,1,C,0.03194762298594587
multimer_subfamily,Q10472_P04488,unrelaxed_model_1_multimer_v3_pred_1,0,B,0.7171401099952994
multimer_subfamily,Q10472_P04488,unrelaxed_model_1_multimer_v3_pred_1,1,C,0.4098628995863605
multimer_subfamily,Q13123_P10233,unrelaxed_model_1_multimer_v3_pred_1,0,B,0.02778321232807256
multimer_subfamily,Q13123_P10233,unrelaxed_model_1_multimer_v3_pred_1,1,C,0.03737977364591665
multimer_subfamily,Q13641_P10229,unrelaxed_model_1_multimer_v3_pred_1,0,B,0.3154602432583312
multimer_subfamily,Q13641_P10229,unrelaxed_model_1_multimer_v3_pred_1,1,C,0.10981498729647964
multimer_subfamily,Q14011_P10233,unrelaxed_model_1_multimer_v3_pred_1,0,B,0.07105669151316166
multimer_subfamily,Q14011_P10233,unrelaxed_model_1_multimer_v3_pred_1,1,C,0.0461219449722878
multimer_subfamily,Q14697_P10211,unrelaxed_model_1_multimer_v3_pred_1,0,B,0.6663830052937042
multimer_subfamily,Q14697_P10211,unrelaxed_model_1_multimer_v3_pred_1,1,C,0.4338057441336612
multimer_subfamily,Q14847_P10233,unrelaxed_model_1_multimer_v3_pred_1,0,B,0.0718961289457963
multimer_subfamily,Q14847_P10233,unrelaxed_model_1_multimer_v3_pred_1,1,C,0.1379475538185472
multimer_subfamily,Q15056_P10225,unrelaxed_model_1_multimer_v3_pred_1,0,B,0.12567703288179333
multimer_subfamily,Q15056_P10225,unrelaxed_model_1_multimer_v3_pred_1,1,C,0.17193747785025276
multimer_subfamily,Q15056_P10231,unrelaxed_model_1_multimer_v3_pred_1,0,B,0.02778834769540262
multimer_subfamily,Q15056_P10231,unrelaxed_model_1_multimer_v3_pred_1,1,C,0.032603247955219045
multimer_subfamily,Q15056_P10233,unrelaxed_model_1_multimer_v3_pred_1,0,B,0.10137068034806408
multimer_subfamily,Q15056_P10233,unrelaxed_model_1_multimer_v3_pred_1,1,C,0.03922786335278392
multimer_subfamily,Q15691_P10233,unrelaxed_model_1_multimer_v3_pred_1,0,B,0.05190532087441147
multimer_subfamily,Q15691_P10233,unrelaxed_model_1_multimer_v3_pred_1,1,C,0.03104633820929218
multimer_subfamily,Q16531_P10231,unrelaxed_model_1_multimer_v3_pred_1,0,B,0.7237013834528337
multimer_subfamily,Q16531_P10231,unrelaxed_model_1_multimer_v3_pred_1,1,C,0.5674205528201154
multimer_subfamily,Q16777_P10233,unrelaxed_model_1_multimer_v3_pred_1,0,B,0.04871910970426918
multimer_subfamily,Q16777_P10233,unrelaxed_model_1_multimer_v3_pred_1,1,C,0.04545283070362785
multimer_subfamily,Q1KMD3_P10226,unrelaxed_model_1_multimer_v3_pred_1,0,B,0.026423391270383952
multimer_subfamily,Q1KMD3_P10226,unrelaxed_model_1_multimer_v3_pred_1,1,C,0.027755899797151498
multimer_subfamily,Q5QNW6_P10233,unrelaxed_model_1_multimer_v3_pred_1,0,B,0.03332877339350779
multimer_subfamily,Q5QNW6_P10233,unrelaxed_model_1_multimer_v3_pred_1,1,C,0.032224415737232684
multimer_subfamily,Q5VW38_P10229,unrelaxed_model_1_multimer_v3_pred_1,0,B,0.11875759915757857
multimer_subfamily,Q5VW38_P10229,unrelaxed_model_1_multimer_v3_pred_1,1,C,0.051542077942280384
multimer_subfamily,Q69091_P09382,unrelaxed_model_1_multimer_v3_pred_1,0,B,0.15193691025165368
multimer_subfamily,Q69091_P09382,unrelaxed_model_1_multimer_v3_pred_1,1,C,0.15064281247565406
multimer_subfamily,Q69091_P11021,unrelaxed_model_1_multimer_v3_pred_1,0,B,0.027375247752807398
multimer_subfamily,Q69091_P11021,unrelaxed_model_1_multimer_v3_pred_1,1,C,0.08783869817616587
multimer_subfamily,Q69091_P27105,unrelaxed_model_1_multimer_v3_pred_1,0,B,0.0721138840746738
multimer_subfamily,Q69091_P27105,unrelaxed_model_1_multimer_v3_pred_1,1,C,0.177302596522743
multimer_subfamily,Q69091_P61224,unrelaxed_model_1_multimer_v3_pred_1,0,B,0.055913238893850456
multimer_subfamily,Q69091_P61224,unrelaxed_model_1_multimer_v3_pred_1,1,C,0.07164365975539892
multimer_subfamily,Q69091_Q12907,unrelaxed_model_1_multimer_v3_pred_1,0,B,0.14672628458137352
multimer_subfamily,Q69091_Q12907,unrelaxed_model_1_multimer_v3_pred_1,1,C,0.22007816830371305
multimer_subfamily,Q69091_Q92835,unrelaxed_model_1_multimer_v3_pred_1,0,B,0.03330017922789407
multimer_subfamily,Q69091_Q92835,unrelaxed_model_1_multimer_v3_pred_1,1,C,0.11455213720737976
multimer_subfamily,Q6NZI2_P10233,unrelaxed_model_1_multimer_v3_pred_1,0,B,0.02423720767877923
multimer_subfamily,Q6NZI2_P10233,unrelaxed_model_1_multimer_v3_pred_1,1,C,0.027199166921420482
multimer_subfamily,Q70UQ0_P10218,unrelaxed_model_1_multimer_v3_pred_1,0,B,0.023733185478409836
multimer_subfamily,Q70UQ0_P10218,unrelaxed_model_1_multimer_v3_pred_1,1,C,0.023733185478409836
multimer_subfamily,Q71DI3_P10233,unrelaxed_model_1_multimer_v3_pred_1,0,B,0.0242836240985808
multimer_subfamily,Q71DI3_P10233,unrelaxed_model_1_multimer_v3_pred_1,1,C,0.02610686163141078
multimer_subfamily,Q7Z7H5_P10229,unrelaxed_model_1_multimer_v3_pred_1,0,B,0.042254056144338414
multimer_subfamily,Q7Z7H5_P10229,unrelaxed_model_1_multimer_v3_pred_1,1,C,0.04699132566433346
multimer_subfamily,Q8WWI1_P08543,unrelaxed_model_1_multimer_v3_pred_1,0,B,0.02499781412559897
multimer_subfamily,Q8WWI1_P08543,unrelaxed_model_1_multimer_v3_pred_1,1,C,0.3939438851277356
multimer_subfamily,Q93077_P10233,unrelaxed_model_1_multimer_v3_pred_1,0,B,0.04423400518691928
multimer_subfamily,Q93077_P10233,unrelaxed_model_1_multimer_v3_pred_1,1,C,0.04079482407048268
multimer_subfamily,Q96AG4_P10218,unrelaxed_model_1_multimer_v3_pred_1,0,B,0.3290078609066144
multimer_subfamily,Q96AG4_P10218,unrelaxed_model_1_multimer_v3_pred_1,1,C,0.2669928347058975
multimer_subfamily,Q99877_P03170,unrelaxed_model_1_multimer_v3_pred_1,0,B,0.05284946083009872
multimer_subfamily,Q99877_P03170,unrelaxed_model_1_multimer_v3_pred_1,1,C,0.034098501943421115
multimer_subfamily,Q99877_P04294,unrelaxed_model_1_multimer_v3_pred_1,0,B,0.024704189914766257
multimer_subfamily,Q99877_P04294,unrelaxed_model_1_multimer_v3_pred_1,1,C,0.04317054845128912
multimer_subfamily,Q99877_P04485,unrelaxed_model_1_multimer_v3_pred_1,0,B,0.030514509347189536
multimer_subfamily,Q99877_P04485,unrelaxed_model_1_multimer_v3_pred_1,1,C,0.025993003136482444
multimer_subfamily,Q99877_P04487,unrelaxed_model_1_multimer_v3_pred_1,0,B,0.14661404021048724
multimer_subfamily,Q99877_P04487,unrelaxed_model_1_multimer_v3_pred_1,1,C,0.033672864424816804
multimer_subfamily,Q99877_P10226,unrelaxed_model_1_multimer_v3_pred_1,0,B,0.024928645363869253
multimer_subfamily,Q99877_P10226,unrelaxed_model_1_multimer_v3_pred_1,1,C,0.043631161212690645
multimer_subfamily,Q99877_P10231,unrelaxed_model_1_multimer_v3_pred_1,0,B,0.02783897575869696
multimer_subfamily,Q99877_P10231,unrelaxed_model_1_multimer_v3_pred_1,1,C,0.03329622080728741
multimer_subfamily,Q99877_P10233,unrelaxed_model_1_multimer_v3_pred_1,0,B,0.03978326776145407
multimer_subfamily,Q99877_P10233,unrelaxed_model_1_multimer_v3_pred_1,1,C,0.03355973327426212
multimer_subfamily,Q99878_P10233,unrelaxed_model_1_multimer_v3_pred_1,0,B,0.04574842752118677
multimer_subfamily,Q99878_P10233,unrelaxed_model_1_multimer_v3_pred_1,1,C,0.040363993900310285
multimer_subfamily,Q99879_P10233,unrelaxed_model_1_multimer_v3_pred_1,0,B,0.03383605225363227
multimer_subfamily,Q99879_P10233,unrelaxed_model_1_multimer_v3_pred_1,1,C,0.034287183552170926
multimer_subfamily,Q99880_P10233,unrelaxed_model_1_multimer_v3_pred_1,0,B,0.036172640296634515
multimer_subfamily,Q99880_P10233,unrelaxed_model_1_multimer_v3_pred_1,1,C,0.034900708703535746
multimer_subfamily,Q9BS26_P10211,unrelaxed_model_1_multimer_v3_pred_1,0,B,0.07324306271506911
multimer_subfamily,Q9BS26_P10211,unrelaxed_model_1_multimer_v3_pred_1,1,C,0.05171317307744791
multimer_subfamily,Q9BVK6_P10229,unrelaxed_model_1_multimer_v3_pred_1,0,B,0.0716680569416962
multimer_subfamily,Q9BVK6_P10229,unrelaxed_model_1_multimer_v3_pred_1,1,C,0.059730449784848635
multimer_subfamily,Q9BXS5_P04488,unrelaxed_model_1_multimer_v3_pred_1,0,B,0.5101828542559732
multimer_subfamily,Q9BXS5_P04488,unrelaxed_model_1_multimer_v3_pred_1,1,C,0.20864169430718352
multimer_subfamily,Q9GZQ8_P10233,unrelaxed_model_1_multimer_v3_pred_1,0,B,0.3676648765925995
multimer_subfamily,Q9GZQ8_P10233,unrelaxed_model_1_multimer_v3_pred_1,1,C,0.12631355536384223
multimer_subfamily,Q9H0U4_P10231,unrelaxed_model_1_multimer_v3_pred_1,0,B,0.23820715171086573
multimer_subfamily,Q9H0U4_P10231,unrelaxed_model_1_multimer_v3_pred_1,1,C,0.14188807865113334
multimer_subfamily,Q9H0U4_P10233,unrelaxed_model_1_multimer_v3_pred_1,0,B,0.11471783294313148
multimer_subfamily,Q9H0U4_P10233,unrelaxed_model_1_multimer_v3_pred_1,1,C,0.04894474770738953
multimer_subfamily,Q9H299_P10233,unrelaxed_model_1_multimer_v3_pred_1,0,B,0.32017372129623356
multimer_subfamily,Q9H299_P10233,unrelaxed_model_1_multimer_v3_pred_1,1,C,0.07135768480581538
multimer_subfamily,Q9H3P7_P04488,unrelaxed_model_1_multimer_v3_pred_1,0,B,0.20716939895871314
multimer_subfamily,Q9H3P7_P04488,unrelaxed_model_1_multimer_v3_pred_1,1,C,0.08379732349367985
multimer_subfamily,Q9HDC9_P10211,unrelaxed_model_1_multimer_v3_pred_1,0,B,0.5072079512899866
multimer_subfamily,Q9HDC9_P10211,unrelaxed_model_1_multimer_v3_pred_1,1,C,0.27246919110031365
multimer_subfamily,Q9NR12_P10233,unrelaxed_model_1_multimer_v3_pred_1,0,B,0.03987307478950512
multimer_subfamily,Q9NR12_P10233,unrelaxed_model_1_multimer_v3_pred_1,1,C,0.037618032006081666
multimer_subfamily,Q9P2E9_P04487,unrelaxed_model_1_multimer_v3_pred_1,0,B,0.023746727695750508
multimer_subfamily,Q9P2E9_P04487,unrelaxed_model_1_multimer_v3_pred_1,1,C,0.023749108200805516
multimer_subfamily,Q9Y224_P10233,unrelaxed_model_1_multimer_v3_pred_1,0,B,0.04825825934661764
multimer_subfamily,Q9Y224_P10233,unrelaxed_model_1_multimer_v3_pred_1,1,C,0.043007619759921484
