multimer_family_id,O00299_P04487,result_model_1_multimer_v3_pred_1.pkl,0.15252621,0.615139827719271,18.763433,65.21431146614862
multimer_family_id,O43169_P04488,result_model_1_multimer_v3_pred_1.pkl,0.14833157,0.3367272705536661,26.270397,52.56192421882341
multimer_family_id,O43169_P10218,result_model_1_multimer_v3_pred_1.pkl,0.21759751,0.454694229230981,22.694288,60.10541860726833
multimer_family_id,O43852_P10185,result_model_1_multimer_v3_pred_1.pkl,0.19025049,0.49023173438902834,21.800512,54.749664350067256
multimer_family_id,O43852_P10211,result_model_1_multimer_v3_pred_1.pkl,0.20831865,0.3894479939646982,26.49483,60.756865829021734
multimer_family_id,O75396_P04487,result_model_1_multimer_v3_pred_1.pkl,0.09266713,0.42893767877866873,24.34272,60.63358385267036
multimer_family_id,O75531_P10233,result_model_1_multimer_v3_pred_1.pkl,0.14405964,0.2910200833531029,25.999208,52.890865616014565
multimer_family_id,P00338_P04487,result_model_1_multimer_v3_pred_1.pkl,0.17968966,0.686891114744678,16.59815,71.33067715247884
multimer_family_id,P00387_P04488,result_model_1_multimer_v3_pred_1.pkl,0.23209938,0.4157275567887709,24.534863,60.69541989390502
multimer_family_id,P01889_P10229,result_model_1_multimer_v3_pred_1.pkl,0.49928468,0.44906264601292456,22.10667,64.19523990840015
multimer_family_id,P02511_P10233,result_model_1_multimer_v3_pred_1.pkl,0.20669629,0.29581670955516837,26.481327,43.048116567486204
multimer_family_id,P04083_P04488,result_model_1_multimer_v3_pred_1.pkl,0.18826345,0.4449186205614727,24.048843,60.90766815575006
multimer_family_id,P04288_P06703,result_model_1_multimer_v3_pred_1.pkl,0.23219566,0.5953121862366105,19.837605,65.94361326187776
multimer_family_id,P04288_P62820,result_model_1_multimer_v3_pred_1.pkl,0.25296912,0.556474236713806,20.512253,67.52606744682636
multimer_family_id,P04288_P62979,result_model_1_multimer_v3_pred_1.pkl,0.17134458,0.5526068578423384,21.64136,63.91757331101623
multimer_family_id,P04288_Q9H0U4,result_model_1_multimer_v3_pred_1.pkl,0.23316401,0.5575589275440986,20.58362,68.12548605102855
multimer_family_id,P04294_P13010,result_model_1_multimer_v3_pred_1.pkl,0.19141713,0.4314648593375193,24.670868,69.07084198060836
multimer_family_id,P04294_P27348,result_model_1_multimer_v3_pred_1.pkl,0.57117265,0.5608422589070012,20.511797,70.00447625537461
multimer_family_id,P04294_P31946,result_model_1_multimer_v3_pred_1.pkl,0.3910057,0.5667097929441274,20.45945,69.62174588687837
multimer_family_id,P04294_P61981,result_model_1_multimer_v3_pred_1.pkl,0.5007336,0.5580726260893376,20.636276,69.8914001756869
multimer_family_id,P04294_P62258,result_model_1_multimer_v3_pred_1.pkl,0.49200493,0.5581484912121984,20.648304,69.61350262074949
multimer_family_id,P04294_P63104,result_model_1_multimer_v3_pred_1.pkl,0.45511186,0.5633463704322896,20.534575,70.41336435928955
multimer_family_id,P04294_Q9Y4E8,result_model_1_multimer_v3_pred_1.pkl,0.41139197,0.45064410947182176,24.78807,66.6403709222005
multimer_family_id,P04296_P07737,result_model_1_multimer_v3_pred_1.pkl,0.21730313,0.7825491207029966,15.334963,79.2394351167231
multimer_family_id,P04406_P04487,result_model_1_multimer_v3_pred_1.pkl,0.27046078,0.6971496000685324,16.234455,76.80362549684438
multimer_family_id,P04406_P10226,result_model_1_multimer_v3_pred_1.pkl,0.22193658,0.46192503690991205,22.635864,71.59933264474213
multimer_family_id,P04406_P10233,result_model_1_multimer_v3_pred_1.pkl,0.28481382,0.575296111407565,20.865284,68.8375759832748
multimer_family_id,P04487_P08670,result_model_1_multimer_v3_pred_1.pkl,0.08249757,0.22013746913426868,28.170273,57.86703860768218
multimer_family_id,P04487_P67809,result_model_1_multimer_v3_pred_1.pkl,0.09145534,0.2641599521984982,28.463493,42.102845973320626
multimer_family_id,P04488_O14828,result_model_1_multimer_v3_pred_1.pkl,0.25635755,0.3175423183549956,26.915075,54.76687561542348
multimer_family_id,P04488_O15127,result_model_1_multimer_v3_pred_1.pkl,0.25460988,0.31588829030369486,26.823584,55.84640609132173
multimer_family_id,P04488_O75396,result_model_1_multimer_v3_pred_1.pkl,0.2139335,0.3335542154521754,25.97549,56.029344847522545
multimer_family_id,P04488_P06703,result_model_1_multimer_v3_pred_1.pkl,0.3078258,0.3755149601900018,25.262016,52.381499372537974
multimer_family_id,P04488_P07237,result_model_1_multimer_v3_pred_1.pkl,0.19516069,0.42268293003358137,24.441866,61.51834215891321
multimer_family_id,P04488_P11166,result_model_1_multimer_v3_pred_1.pkl,0.23509398,0.500711105651853,23.310472,63.89666802919244
multimer_family_id,P04488_P20340,result_model_1_multimer_v3_pred_1.pkl,0.2093108,0.34148018529537083,25.15703,55.282801476975294
multimer_family_id,P04488_P60468,result_model_1_multimer_v3_pred_1.pkl,0.13590941,0.3453904096179751,26.291992,52.954184113223235
multimer_family_id,P04488_P61019,result_model_1_multimer_v3_pred_1.pkl,0.20434885,0.353743129050767,24.933273,54.41797038525696
multimer_family_id,P04488_P62820,result_model_1_multimer_v3_pred_1.pkl,0.22313884,0.35567483420919327,24.888872,53.43255549306487
multimer_family_id,P04488_P62979,result_model_1_multimer_v3_pred_1.pkl,0.18455648,0.3435581929658662,25.96822,49.702737598888326
multimer_family_id,P04488_Q15836,result_model_1_multimer_v3_pred_1.pkl,0.18590927,0.33965574346533334,26.106504,54.468012894603824
multimer_family_id,P04488_Q96AJ9,result_model_1_multimer_v3_pred_1.pkl,0.14547652,0.31896503597587206,26.767166,56.52354324297737
multimer_family_id,P04488_Q9BVC6,result_model_1_multimer_v3_pred_1.pkl,0.15133478,0.3078790373807707,27.314898,51.98215746981931
multimer_family_id,P04488_Q9GZQ8,result_model_1_multimer_v3_pred_1.pkl,0.70089483,0.3539407347255829,25.037352,54.400468706139634
multimer_family_id,P04488_Q9H0U4,result_model_1_multimer_v3_pred_1.pkl,0.22379768,0.3458112607181614,24.97712,53.76580155903265
multimer_family_id,P04488_Q9H4G4,result_model_1_multimer_v3_pred_1.pkl,0.21490052,0.3407103438622774,24.813148,55.335632031313416
multimer_family_id,P04792_P04294,result_model_1_multimer_v3_pred_1.pkl,0.19767562,0.5934553290998918,21.391018,58.7106846295214
multimer_family_id,P04792_P10233,result_model_1_multimer_v3_pred_1.pkl,0.2071304,0.2945370692627921,26.497108,38.63089559560988
multimer_family_id,P05023_P04488,result_model_1_multimer_v3_pred_1.pkl,0.24030486,0.5942185619987015,21.802784,69.91210623126067
multimer_family_id,P05204_P10233,result_model_1_multimer_v3_pred_1.pkl,0.1418119,0.31274446580340337,26.805878,39.94620640803884
multimer_family_id,P06487_P06703,result_model_1_multimer_v3_pred_1.pkl,0.2669647,0.44860201783630216,23.696426,51.10857011876998
multimer_family_id,P06487_P20340,result_model_1_multimer_v3_pred_1.pkl,0.24722275,0.40891520703231565,23.33482,58.93609512352073
multimer_family_id,P06487_P51148,result_model_1_multimer_v3_pred_1.pkl,0.16006364,0.3740664769037567,24.263073,57.57465452997916
multimer_family_id,P06487_P62937,result_model_1_multimer_v3_pred_1.pkl,0.4855614,0.39353916316783916,23.306171,62.43929933366035
multimer_family_id,P06487_Q9H0U4,result_model_1_multimer_v3_pred_1.pkl,0.1805755,0.3827681850369189,23.848429,56.725198976657104
multimer_family_id,P06491_P10599,result_model_1_multimer_v3_pred_1.pkl,0.17033345,0.8016997585982345,15.314106,79.25062210207261
multimer_family_id,P06703_P04487,result_model_1_multimer_v3_pred_1.pkl,0.10664655,0.34655043766362215,24.866373,57.58707114017085
multimer_family_id,P06703_P10226,result_model_1_multimer_v3_pred_1.pkl,0.18928578,0.46303845344399447,23.5427,52.22280009482544
multimer_family_id,P06703_P10233,result_model_1_multimer_v3_pred_1.pkl,0.19558139,0.3092038657751571,25.641298,45.84488626152348
multimer_family_id,P06703_P10238,result_model_1_multimer_v3_pred_1.pkl,0.18462048,0.4645884973213774,24.115911,54.54478683722918
multimer_family_id,P06733_P04487,result_model_1_multimer_v3_pred_1.pkl,0.1157452,0.7267153236548518,15.247515,77.23636746868883
multimer_family_id,P06733_P10226,result_model_1_multimer_v3_pred_1.pkl,0.13292055,0.5129990546853923,21.799276,73.18566660143574
multimer_family_id,P06748_P04487,result_model_1_multimer_v3_pred_1.pkl,0.09281379,0.2995522973235811,27.191929,48.31379450238138
multimer_family_id,P07355_P06487,result_model_1_multimer_v3_pred_1.pkl,0.15625244,0.49770747450492825,22.550869,66.77379062436215
multimer_family_id,P07355_Q69091,result_model_1_multimer_v3_pred_1.pkl,0.19352841,0.5141690562816903,20.961924,68.75821250236686
multimer_family_id,P07384_P10231,result_model_1_multimer_v3_pred_1.pkl,0.25739795,0.4999321812533674,21.504805,74.09881438038137
multimer_family_id,P07437_P10233,result_model_1_multimer_v3_pred_1.pkl,0.18426421,0.6123644797611767,20.135128,66.01273064959025
multimer_family_id,P07737_P04487,result_model_1_multimer_v3_pred_1.pkl,0.14809667,0.49189580125071547,21.852201,65.57801451175332
multimer_family_id,P07737_P08543,result_model_1_multimer_v3_pred_1.pkl,0.6396784,0.6725583945055895,19.486246,68.55503358336435
multimer_family_id,P07737_P10233,result_model_1_multimer_v3_pred_1.pkl,0.57664645,0.3917954888976036,23.975628,56.1936452844932
multimer_family_id,P08133_P04288,result_model_1_multimer_v3_pred_1.pkl,0.18214892,0.42799905424541385,22.398182,75.18748293454749
multimer_family_id,P08133_P04488,result_model_1_multimer_v3_pred_1.pkl,0.16202016,0.4003749722833445,24.727148,63.73460699906224
multimer_family_id,P08133_P06487,result_model_1_multimer_v3_pred_1.pkl,0.16341427,0.4678224093277902,22.600924,70.35959040397492
multimer_family_id,P08133_Q69091,result_model_1_multimer_v3_pred_1.pkl,0.15055498,0.4327320850988919,22.618479,73.7142253300203
multimer_family_id,P08134_P10233,result_model_1_multimer_v3_pred_1.pkl,0.26043063,0.44598501168706356,23.23903,56.27709723733966
multimer_family_id,P08195_P10229,result_model_1_multimer_v3_pred_1.pkl,0.20049587,0.5746703068479921,21.844864,63.28841867527988
multimer_family_id,P08392_P35268,result_model_1_multimer_v3_pred_1.pkl,0.26595658,0.4064329545420071,26.998331,48.43273377606349
multimer_family_id,P08758_P10233,result_model_1_multimer_v3_pred_1.pkl,0.12645148,0.5384659913316306,22.039513,63.057670561774465
multimer_family_id,P08758_Q69091,result_model_1_multimer_v3_pred_1.pkl,0.14462176,0.49512193476510413,21.376125,69.36272737681486
multimer_family_id,P08962_P10211,result_model_1_multimer_v3_pred_1.pkl,0.27410847,0.40923119905566707,25.732445,63.197962946517286
multimer_family_id,P09382_P10226,result_model_1_multimer_v3_pred_1.pkl,0.16994184,0.473112257790855,22.590143,60.798256419660184
multimer_family_id,P09382_P10233,result_model_1_multimer_v3_pred_1.pkl,0.32886577,0.3999416336000787,23.661171,54.84922603597583
multimer_family_id,P09429_P10233,result_model_1_multimer_v3_pred_1.pkl,0.13264385,0.26204973955441296,26.136253,47.213249877122315
multimer_family_id,P09651_P04487,result_model_1_multimer_v3_pred_1.pkl,0.111975014,0.3905051803146567,26.071966,48.96195201517361
multimer_family_id,P09651_P10226,result_model_1_multimer_v3_pred_1.pkl,0.15646693,0.39531729136848703,25.737177,51.52739937225733
multimer_family_id,P09651_P10233,result_model_1_multimer_v3_pred_1.pkl,0.2620588,0.37304714153261215,26.534359,45.601725690821134
multimer_family_id,P09651_P10238,result_model_1_multimer_v3_pred_1.pkl,0.19158056,0.3684279881038943,26.53754,51.874276329783335
multimer_family_id,P0C0S5_P10233,result_model_1_multimer_v3_pred_1.pkl,0.19498241,0.3020336235822535,26.02016,44.64544631427559
multimer_family_id,P0DMV9_P04487,result_model_1_multimer_v3_pred_1.pkl,0.34815076,0.672833070410689,17.513885,73.82650384238833
multimer_family_id,P0DP25_P04288,result_model_1_multimer_v3_pred_1.pkl,0.13234968,0.5465650832809532,21.709377,64.17011651712912
multimer_family_id,P0DP25_P04488,result_model_1_multimer_v3_pred_1.pkl,0.78725827,0.3495532476822155,24.85668,57.076245921328166
multimer_family_id,P0DP25_P10211,result_model_1_multimer_v3_pred_1.pkl,0.1865365,0.413038368673446,25.901018,60.090925192795765
multimer_family_id,P0DP25_P10233,result_model_1_multimer_v3_pred_1.pkl,0.14303352,0.27058933052978285,26.005648,45.27152581832174
multimer_family_id,P10185_P05556,result_model_1_multimer_v3_pred_1.pkl,0.22461498,0.528986002887488,22.38593,71.52862098102098
multimer_family_id,P10185_P07237,result_model_1_multimer_v3_pred_1.pkl,0.22015813,0.5358100145920953,19.957722,69.33217157094178
multimer_family_id,P10185_P09382,result_model_1_multimer_v3_pred_1.pkl,0.15385337,0.43425042041947665,20.825207,64.7832805529907
multimer_family_id,P10185_P11021,result_model_1_multimer_v3_pred_1.pkl,0.25835514,0.6061210859760954,19.528067,70.67559044567174
multimer_family_id,P10185_P13667,result_model_1_multimer_v3_pred_1.pkl,0.24720182,0.5923811393894325,18.890062,71.63279743817348
multimer_family_id,P10185_P14314,result_model_1_multimer_v3_pred_1.pkl,0.17856707,0.39444735111699003,24.096075,64.64368251941441
multimer_family_id,P10185_P23284,result_model_1_multimer_v3_pred_1.pkl,0.18772754,0.49255677051569424,21.023342,64.26754469208875
multimer_family_id,P10185_P30101,result_model_1_multimer_v3_pred_1.pkl,0.19732851,0.5405001056872375,20.039986,70.71121742555407
multimer_family_id,P10185_P50454,result_model_1_multimer_v3_pred_1.pkl,0.26610315,0.6599857457273914,17.208847,70.84475187470373
multimer_family_id,P10209_P08670,result_model_1_multimer_v3_pred_1.pkl,0.144466,0.46173835742641894,25.936468,57.296372747926824
multimer_family_id,P10209_Q99877,result_model_1_multimer_v3_pred_1.pkl,0.14870976,0.6094078818941047,20.687216,60.127684365264244
multimer_family_id,P10211_P01889,result_model_1_multimer_v3_pred_1.pkl,0.18012944,0.372588335070023,26.763088,62.45342901788625
multimer_family_id,P10211_P04844,result_model_1_multimer_v3_pred_1.pkl,0.18357491,0.38315441919793203,26.324564,68.15237974348499
multimer_family_id,P10211_P07237,result_model_1_multimer_v3_pred_1.pkl,0.30984187,0.3834455367519932,25.826283,66.0584931439629
multimer_family_id,P10211_P08195,result_model_1_multimer_v3_pred_1.pkl,0.17600253,0.379787236313632,26.874603,60.5285322389144
multimer_family_id,P10211_P08648,result_model_1_multimer_v3_pred_1.pkl,0.21234745,0.424705901603995,26.60605,66.53397906215368
multimer_family_id,P10211_P09382,result_model_1_multimer_v3_pred_1.pkl,0.24792804,0.4115106341343735,25.854607,62.052599656254515
multimer_family_id,P10211_P10321,result_model_1_multimer_v3_pred_1.pkl,0.5581398,0.39349653354470104,26.233728,62.07821145545071
multimer_family_id,P10211_P11021,result_model_1_multimer_v3_pred_1.pkl,0.2819581,0.42073093753262775,25.924673,66.65502272582185
multimer_family_id,P10211_P13667,result_model_1_multimer_v3_pred_1.pkl,0.17751469,0.37272832037855635,26.479868,65.33675711526745
multimer_family_id,P10211_P14625,result_model_1_multimer_v3_pred_1.pkl,0.18157415,0.38229419790119695,26.906836,62.92747005861515
multimer_family_id,P10211_P21589,result_model_1_multimer_v3_pred_1.pkl,0.16853206,0.3780197271590376,26.103334,67.30072559955515
multimer_family_id,P10211_P23284,result_model_1_multimer_v3_pred_1.pkl,0.17821258,0.4004240671935263,25.884129,65.10314498727642
multimer_family_id,P10211_P30101,result_model_1_multimer_v3_pred_1.pkl,0.1592493,0.3455810666990424,26.617332,64.95771883446245
multimer_family_id,P10211_P46977,result_model_1_multimer_v3_pred_1.pkl,0.5230833,0.5727229709727455,22.237095,71.0691932518897
multimer_family_id,P10211_P50454,result_model_1_multimer_v3_pred_1.pkl,0.21216938,0.39324809144462225,25.573284,67.65360176785099
multimer_family_id,P10211_P62979,result_model_1_multimer_v3_pred_1.pkl,0.16125306,0.3996827319789015,26.186771,61.22652853618929
multimer_family_id,P10211_Q12907,result_model_1_multimer_v3_pred_1.pkl,0.14215401,0.3607450238740386,26.843897,62.694247805521016
multimer_family_id,P10211_Q15084,result_model_1_multimer_v3_pred_1.pkl,0.16436203,0.37312968093845994,27.058279,64.62462660276444
multimer_family_id,P10211_Q15293,result_model_1_multimer_v3_pred_1.pkl,0.1947057,0.38926657618345484,26.394066,59.53550930633533
multimer_family_id,P10211_Q8TCJ2,result_model_1_multimer_v3_pred_1.pkl,0.21070066,0.47090413997355896,25.60748,65.28871700645888
multimer_family_id,P10211_Q99805,result_model_1_multimer_v3_pred_1.pkl,0.25456774,0.4624942284815773,25.17684,67.79301150463323
multimer_family_id,P10211_Q9BTV4,result_model_1_multimer_v3_pred_1.pkl,0.17125322,0.3626325601009851,26.244053,66.26267476746604
multimer_family_id,P10211_Q9BVC6,result_model_1_multimer_v3_pred_1.pkl,0.19388863,0.40432521593976906,26.757467,56.92794033654
multimer_family_id,P10211_Q9BVK6,result_model_1_multimer_v3_pred_1.pkl,0.16135822,0.39529770168867107,26.402409,64.11737883247073
multimer_family_id,P10218_O00264,result_model_1_multimer_v3_pred_1.pkl,0.1812576,0.4196989136876687,22.532404,60.5587818479196
multimer_family_id,P10218_O15173,result_model_1_multimer_v3_pred_1.pkl,0.13588704,0.38642353355018827,23.999601,57.09047063996348
multimer_family_id,P10218_O75396,result_model_1_multimer_v3_pred_1.pkl,0.23257968,0.4251479220166708,21.960241,64.97912788769762
multimer_family_id,P10218_P10599,result_model_1_multimer_v3_pred_1.pkl,0.19669096,0.4679248142864352,20.393467,66.42859989383774
multimer_family_id,P10218_P26373,result_model_1_multimer_v3_pred_1.pkl,0.088106215,0.3657509391523237,24.605358,64.05144202187233
multimer_family_id,P10218_P39023,result_model_1_multimer_v3_pred_1.pkl,0.48146772,0.6869100742600094,16.67276,74.67440684066855
multimer_family_id,P10218_P60468,result_model_1_multimer_v3_pred_1.pkl,0.09694646,0.45085502759093854,23.47208,56.5362711605252
multimer_family_id,P10218_P61353,result_model_1_multimer_v3_pred_1.pkl,0.24483979,0.4600360006471503,20.491577,64.66122920823838
multimer_family_id,P10218_Q9UNL2,result_model_1_multimer_v3_pred_1.pkl,0.12858272,0.3517987110858997,23.39479,58.06979141222221
multimer_family_id,P10225_P10233,result_model_1_multimer_v3_pred_1.pkl,0.18480626,0.5143385838227715,23.570105,54.724145793126674
multimer_family_id,P10228_P09382,result_model_1_multimer_v3_pred_1.pkl,0.2672485,0.5015735524187747,22.038733,67.85372919915751
multimer_family_id,P10230_Q9P0L0,result_model_1_multimer_v3_pred_1.pkl,0.32692766,0.4766682747474888,24.946606,55.8893644190147
multimer_family_id,P10233_P63104,result_model_1_multimer_v3_pred_1.pkl,0.57628965,0.5090604892296225,22.189226,59.20726127590823
multimer_family_id,P10233_P67809,result_model_1_multimer_v3_pred_1.pkl,0.15056837,0.2603227131682706,27.980816,40.821712949691666
multimer_family_id,P10233_Q15836,result_model_1_multimer_v3_pred_1.pkl,0.119203575,0.27335937278699374,27.114676,45.87771363218924
multimer_family_id,P10233_Q702N8,result_model_1_multimer_v3_pred_1.pkl,0.23127034,0.25721464274025363,30.104555,25.502474735000067
multimer_family_id,P10234_P06703,result_model_1_multimer_v3_pred_1.pkl,0.16241363,0.6649899775434256,16.362083,67.39633054487845
multimer_family_id,P10234_P57053,result_model_1_multimer_v3_pred_1.pkl,0.21276382,0.6606102092602084,17.34846,62.36021722338986
multimer_family_id,P10234_Q99877,result_model_1_multimer_v3_pred_1.pkl,0.20475163,0.6495813382077887,17.720026,63.297866075220874
multimer_family_id,P10599_P04487,result_model_1_multimer_v3_pred_1.pkl,0.07620612,0.4036538502595878,23.941055,68.854735199914
multimer_family_id,P10599_P10226,result_model_1_multimer_v3_pred_1.pkl,0.25044057,0.5210001288148435,21.882586,61.45210998508761
multimer_family_id,P10599_P10233,result_model_1_multimer_v3_pred_1.pkl,0.3016135,0.34908169931950445,24.29647,55.26676730958927
multimer_family_id,P10599_P10235,result_model_1_multimer_v3_pred_1.pkl,0.14259133,0.38593214736375075,23.183996,47.67575365988837
multimer_family_id,P11142_P03170,result_model_1_multimer_v3_pred_1.pkl,0.35225862,0.7750716608429771,13.157343,79.79261296791839
multimer_family_id,P11142_P04487,result_model_1_multimer_v3_pred_1.pkl,0.24666426,0.6877964636251095,17.01748,74.34668099681188
multimer_family_id,P11142_P10226,result_model_1_multimer_v3_pred_1.pkl,0.33906528,0.525152119933029,22.522205,67.81075012954916
multimer_family_id,P11142_P10233,result_model_1_multimer_v3_pred_1.pkl,0.22892284,0.6000020971346264,20.757467,67.25242905407973
multimer_family_id,P11940_P10238,result_model_1_multimer_v3_pred_1.pkl,0.18786252,0.33227810116020096,27.4674,54.95151351003495
multimer_family_id,P12004_P10226,result_model_1_multimer_v3_pred_1.pkl,0.6247108,0.4259981449999645,22.798883,64.52729680894721
multimer_family_id,P13639_P04487,result_model_1_multimer_v3_pred_1.pkl,0.15888506,0.6216812277694621,17.570326,75.91934185789412
multimer_family_id,P13726_P10211,result_model_1_multimer_v3_pred_1.pkl,0.16490072,0.3902512374266536,26.634872,61.811311254649084
multimer_family_id,P13797_P10226,result_model_1_multimer_v3_pred_1.pkl,0.14859286,0.502012254695761,23.30803,66.87615022907042
multimer_family_id,P13987_P06484,result_model_1_multimer_v3_pred_1.pkl,0.19135982,0.30612237349619,26.272667,43.80219117747168
multimer_family_id,P13987_P10211,result_model_1_multimer_v3_pred_1.pkl,0.17460933,0.41070401392363626,26.02581,61.82620524819959
multimer_family_id,P13987_P10229,result_model_1_multimer_v3_pred_1.pkl,0.1648378,0.4067823451125132,21.46556,63.5409304644863
multimer_family_id,P13987_Q69091,result_model_1_multimer_v3_pred_1.pkl,0.12898786,0.49204228796064264,22.725908,61.19130396924186
multimer_family_id,P16070_P06487,result_model_1_multimer_v3_pred_1.pkl,0.1982031,0.27702653093854673,28.778822,38.261045859982765
multimer_family_id,P16070_P10228,result_model_1_multimer_v3_pred_1.pkl,0.17154147,0.3290262507621612,28.453238,44.28662024785854
multimer_family_id,P16070_Q69091,result_model_1_multimer_v3_pred_1.pkl,0.2274745,0.32165308449212915,28.301298,40.9825760610342
multimer_family_id,P16104_P10233,result_model_1_multimer_v3_pred_1.pkl,0.17035976,0.2917901079129859,26.150951,44.930165274340446
multimer_family_id,P16333_P10233,result_model_1_multimer_v3_pred_1.pkl,0.34945482,0.2803330601077488,26.818302,51.58701822988456
multimer_family_id,P16401_P10233,result_model_1_multimer_v3_pred_1.pkl,0.13534853,0.2691402341801308,27.746855,39.65344850211138
multimer_family_id,P16402_P10233,result_model_1_multimer_v3_pred_1.pkl,0.14279898,0.26972516544245984,27.725227,39.30544558381733
multimer_family_id,P17096_P04487,result_model_1_multimer_v3_pred_1.pkl,0.05812303,0.12325698583024225,27.839838,47.289916674330314
multimer_family_id,P17096_P10226,result_model_1_multimer_v3_pred_1.pkl,0.1231489,0.5071373236945613,23.627935,54.07779209577275
multimer_family_id,P17096_P10233,result_model_1_multimer_v3_pred_1.pkl,0.11716518,0.29215240723413066,27.537092,41.90507719962373
multimer_family_id,P18085_P04488,result_model_1_multimer_v3_pred_1.pkl,0.2920768,0.3609101741538023,24.761738,54.86232253089017
multimer_family_id,P18085_P10211,result_model_1_multimer_v3_pred_1.pkl,0.14792791,0.38808924105773823,26.224733,62.44048736600861
multimer_family_id,P18085_Q69091,result_model_1_multimer_v3_pred_1.pkl,0.16092198,0.42838639178530774,22.637234,60.602044375111696
multimer_family_id,P18124_P04487,result_model_1_multimer_v3_pred_1.pkl,0.08547816,0.4816662610679922,22.397083,66.13475877147873
multimer_family_id,P20340_P10233,result_model_1_multimer_v3_pred_1.pkl,0.4985407,0.47377393282531444,23.05325,55.14293435678086
multimer_family_id,P21291_P04487,result_model_1_multimer_v3_pred_1.pkl,0.07222487,0.22445937116012096,27.124237,57.38618555660236
multimer_family_id,P21926_P04488,result_model_1_multimer_v3_pred_1.pkl,0.25869557,0.3074107857951334,25.925186,56.74778858081282
multimer_family_id,P21926_P06477,result_model_1_multimer_v3_pred_1.pkl,0.2698974,0.6581983947977326,19.745779,68.76452102531422
multimer_family_id,P21926_P10211,result_model_1_multimer_v3_pred_1.pkl,0.25898844,0.41100627936507306,25.946064,61.21942313400524
multimer_family_id,P21926_P10229,result_model_1_multimer_v3_pred_1.pkl,0.14324114,0.4166432195704578,20.08861,55.17139128422117
multimer_family_id,P22626_P10226,result_model_1_multimer_v3_pred_1.pkl,0.14490226,0.39784590407786075,25.686382,52.70205890244937
multimer_family_id,P22626_P10233,result_model_1_multimer_v3_pred_1.pkl,0.20597984,0.36362518943768707,26.545643,45.92908977858485
multimer_family_id,P23284_P10229,result_model_1_multimer_v3_pred_1.pkl,0.21329042,0.5456979224778554,19.087324,67.53647796727974
multimer_family_id,P23396_P10233,result_model_1_multimer_v3_pred_1.pkl,0.14121288,0.3898247937079736,24.99249,58.2204711952904
multimer_family_id,P26373_P10233,result_model_1_multimer_v3_pred_1.pkl,0.10320802,0.28717117252548,26.658598,56.402625891124764
multimer_family_id,P26583_P10233,result_model_1_multimer_v3_pred_1.pkl,0.13279182,0.264415128640759,26.198215,46.81538266947705
multimer_family_id,P27635_P10233,result_model_1_multimer_v3_pred_1.pkl,0.32676888,0.46473196212348783,23.133986,57.34711793380138
multimer_family_id,P27797_P03170,result_model_1_multimer_v3_pred_1.pkl,0.24729674,0.673721241731097,16.33844,77.86013919978733
multimer_family_id,P27797_P04488,result_model_1_multimer_v3_pred_1.pkl,0.24354431,0.44443575741558283,24.464842,62.52162219994694
multimer_family_id,P27797_P10185,result_model_1_multimer_v3_pred_1.pkl,0.20260927,0.5548483519357854,20.458246,69.66373703279501
multimer_family_id,P27797_P10211,result_model_1_multimer_v3_pred_1.pkl,0.16804644,0.35462343808697283,26.554646,63.69045898223874
multimer_family_id,P27824_P10211,result_model_1_multimer_v3_pred_1.pkl,0.16681433,0.3244400118919127,27.486458,60.183226199618176
multimer_family_id,P27824_P10229,result_model_1_multimer_v3_pred_1.pkl,0.21458337,0.5018849966504029,23.325287,64.08423866926483
multimer_family_id,P27824_Q69091,result_model_1_multimer_v3_pred_1.pkl,0.1804311,0.41401230379458737,25.24016,59.94693008772616
multimer_family_id,P30050_P04487,result_model_1_multimer_v3_pred_1.pkl,0.074498884,0.4533278929284826,22.7504,65.42718026811933
multimer_family_id,P30050_P10233,result_model_1_multimer_v3_pred_1.pkl,0.23721687,0.39512946221593215,23.905329,52.341512079714214
multimer_family_id,P31949_P03170,result_model_1_multimer_v3_pred_1.pkl,0.192891,0.5147789412253985,18.86134,57.53960812133572
multimer_family_id,P31949_P10233,result_model_1_multimer_v3_pred_1.pkl,0.19136709,0.3075112687907795,25.512379,47.0230086465089
multimer_family_id,P32969_P10233,result_model_1_multimer_v3_pred_1.pkl,0.11542138,0.3899116196853132,24.98606,56.82499050488687
multimer_family_id,P35268_P04487,result_model_1_multimer_v3_pred_1.pkl,0.093652286,0.38151246590257365,24.41886,64.41896756348692
multimer_family_id,P35268_P10233,result_model_1_multimer_v3_pred_1.pkl,0.39158785,0.37298174042661764,24.80343,51.86412023255602
multimer_family_id,P36578_P04487,result_model_1_multimer_v3_pred_1.pkl,0.091509625,0.4782496036335484,23.717993,64.96814044915065
multimer_family_id,P38159_P10233,result_model_1_multimer_v3_pred_1.pkl,0.15142348,0.24656787043823958,28.694025,33.80553788670014
multimer_family_id,P39019_P04487,result_model_1_multimer_v3_pred_1.pkl,0.07722363,0.4566754465469119,23.110203,67.82425976893046
multimer_family_id,P39019_P10226,result_model_1_multimer_v3_pred_1.pkl,0.14389345,0.4687421564850911,23.773428,54.95750828783397
multimer_family_id,P39023_P04487,result_model_1_multimer_v3_pred_1.pkl,0.10350186,0.6387673053407322,18.834703,69.96984363129174
multimer_family_id,P40227_P10226,result_model_1_multimer_v3_pred_1.pkl,0.20911206,0.5035067792782562,22.442373,65.73941666541178
multimer_family_id,P40429_P04487,result_model_1_multimer_v3_pred_1.pkl,0.07800464,0.48685233351961915,22.34251,67.29261769341323
multimer_family_id,P42766_P04487,result_model_1_multimer_v3_pred_1.pkl,0.056844257,0.37270268355823544,24.701942,64.80913936863193
multimer_family_id,P42766_P10233,result_model_1_multimer_v3_pred_1.pkl,0.08768454,0.28354082579213913,26.419943,56.83931681547524
multimer_family_id,P45983_P04294,result_model_1_multimer_v3_pred_1.pkl,0.64743286,0.510818446692312,21.360664,68.47990997793727
multimer_family_id,P46776_P10233,result_model_1_multimer_v3_pred_1.pkl,0.09479351,0.2841519962742131,26.476383,57.78780555447963
multimer_family_id,P46779_P04487,result_model_1_multimer_v3_pred_1.pkl,0.08253494,0.3520891322642423,24.955072,57.45800388735895
multimer_family_id,P47914_P04487,result_model_1_multimer_v3_pred_1.pkl,0.061067767,0.20057670282504497,27.845718,48.28877250901766
multimer_family_id,P49207_P10233,result_model_1_multimer_v3_pred_1.pkl,0.107652575,0.2694734888773058,27.07834,46.78149076544998
multimer_family_id,P49458_P04487,result_model_1_multimer_v3_pred_1.pkl,0.11417435,0.32663474315096,24.512913,55.87347745003289
multimer_family_id,P49755_P10229,result_model_1_multimer_v3_pred_1.pkl,0.20954135,0.3752655478865351,22.068855,58.46116835695074
multimer_family_id,P50402_P10218,result_model_1_multimer_v3_pred_1.pkl,0.11611347,0.3567652031007634,26.709797,47.176784416463796
multimer_family_id,P50454_P10229,result_model_1_multimer_v3_pred_1.pkl,0.2592319,0.6982476027216804,15.291055,74.73939953626176
multimer_family_id,P50914_P04487,result_model_1_multimer_v3_pred_1.pkl,0.07335706,0.3630324095351413,25.838314,54.44320696283542
multimer_family_id,P50914_P10233,result_model_1_multimer_v3_pred_1.pkl,0.08962156,0.2965007332753137,27.230473,51.667893705496084
multimer_family_id,P52926_P10226,result_model_1_multimer_v3_pred_1.pkl,0.13524969,0.49495986413935317,24.025389,51.4044018458306
multimer_family_id,P55010_P10233,result_model_1_multimer_v3_pred_1.pkl,0.15172496,0.30891099806880473,26.818226,56.13826783776646
multimer_family_id,P57053_P04487,result_model_1_multimer_v3_pred_1.pkl,0.081519276,0.24913997590348722,26.040579,53.4583764893669
multimer_family_id,P57053_P10226,result_model_1_multimer_v3_pred_1.pkl,0.30171272,0.531214432497063,22.62714,52.37109770822785
multimer_family_id,P57053_P10233,result_model_1_multimer_v3_pred_1.pkl,0.23923439,0.31770437825992154,26.189888,39.40426144406963
multimer_family_id,P58876_P10233,result_model_1_multimer_v3_pred_1.pkl,0.17664447,0.2968955295793191,26.468716,41.18903878540464
multimer_family_id,P60468_P04487,result_model_1_multimer_v3_pred_1.pkl,0.057117783,0.154109600751466,27.77809,49.04732887354895
multimer_family_id,P60468_P10233,result_model_1_multimer_v3_pred_1.pkl,0.1816969,0.31234510031959534,26.771894,41.96480245431892
multimer_family_id,P60709_P04294,result_model_1_multimer_v3_pred_1.pkl,0.27381247,0.5369843170588612,20.237267,74.3497415626342
multimer_family_id,P60709_P04296,result_model_1_multimer_v3_pred_1.pkl,0.21778178,0.7021125648991539,18.162033,79.70581081265193
multimer_family_id,P60709_P04487,result_model_1_multimer_v3_pred_1.pkl,0.14135188,0.6938357979847194,16.334635,73.47144844917075
multimer_family_id,P60709_P06491,result_model_1_multimer_v3_pred_1.pkl,0.23699398,0.7113294275516732,18.889341,77.9098294504549
multimer_family_id,P60709_P10226,result_model_1_multimer_v3_pred_1.pkl,0.20256945,0.49073826300052664,22.48927,65.57857739886092
multimer_family_id,P60709_P10233,result_model_1_multimer_v3_pred_1.pkl,0.16607414,0.5826200339195691,20.805773,65.93452027471676
multimer_family_id,P60953_P06487,result_model_1_multimer_v3_pred_1.pkl,0.15633202,0.38304744885892494,23.545645,58.19590301861715
multimer_family_id,P61026_P10233,result_model_1_multimer_v3_pred_1.pkl,0.285047,0.4212459874759089,23.55978,54.69226203719488
multimer_family_id,P61254_P04487,result_model_1_multimer_v3_pred_1.pkl,0.07169831,0.4237903428849831,23.566347,68.26550513243194
multimer_family_id,P61353_P04487,result_model_1_multimer_v3_pred_1.pkl,0.09461413,0.4411772732483784,23.0093,69.93197253951416
multimer_family_id,P61353_P10233,result_model_1_multimer_v3_pred_1.pkl,0.13963646,0.3405053666128819,25.51793,58.1650536928145
multimer_family_id,P61513_P10233,result_model_1_multimer_v3_pred_1.pkl,0.22483993,0.315757636750097,25.81247,44.69129145366166
multimer_family_id,P61769_P10211,result_model_1_multimer_v3_pred_1.pkl,0.28396937,0.41320964247167025,25.456455,62.361266677500325
multimer_family_id,P61978_P10233,result_model_1_multimer_v3_pred_1.pkl,0.14883803,0.328445774747431,27.293549,45.353962905733276
multimer_family_id,P62136_P10233,result_model_1_multimer_v3_pred_1.pkl,0.6208259,0.5342586892801086,22.130123,62.08484343521385
multimer_family_id,P62241_P04487,result_model_1_multimer_v3_pred_1.pkl,0.083303094,0.5351828948972043,21.349737,69.25779547701976
multimer_family_id,P62328_P04487,result_model_1_multimer_v3_pred_1.pkl,0.061588507,0.12660903383064806,26.906862,51.270358039559724
multimer_family_id,P62424_P04487,result_model_1_multimer_v3_pred_1.pkl,0.078225955,0.4496670913378107,23.613455,65.31635276255425
multimer_family_id,P62750_P04487,result_model_1_multimer_v3_pred_1.pkl,0.07202096,0.3210268886394193,25.986362,62.96860320859558
multimer_family_id,P62805_P10233,result_model_1_multimer_v3_pred_1.pkl,0.20970555,0.31182614910465123,26.12719,39.74438655340753
multimer_family_id,P62820_P10231,result_model_1_multimer_v3_pred_1.pkl,0.24399784,0.6470232327087584,19.23368,66.46091953642699
multimer_family_id,P62820_P10233,result_model_1_multimer_v3_pred_1.pkl,0.31259108,0.4301929493596343,23.45933,52.235753906032215
multimer_family_id,P62851_P04487,result_model_1_multimer_v3_pred_1.pkl,0.082236096,0.281947669791216,26.087187,56.06643486375486
multimer_family_id,P62857_P10233,result_model_1_multimer_v3_pred_1.pkl,0.28702942,0.33475528763256157,25.465395,45.43010318450882
multimer_family_id,P62888_P10233,result_model_1_multimer_v3_pred_1.pkl,0.1888864,0.32091725698366463,25.057505,51.167019604700776
multimer_family_id,P62899_P10233,result_model_1_multimer_v3_pred_1.pkl,0.21362442,0.30506178655518323,25.696056,45.63412694858832
multimer_family_id,P62906_P04487,result_model_1_multimer_v3_pred_1.pkl,0.08060539,0.5305465458796279,21.074825,70.27695786108006
multimer_family_id,P62913_P04487,result_model_1_multimer_v3_pred_1.pkl,0.08162968,0.49065923664073696,22.196653,69.88583044387224
multimer_family_id,P62913_P10233,result_model_1_multimer_v3_pred_1.pkl,0.15865773,0.3980840206109795,24.326067,57.89499198943754
multimer_family_id,P62917_P10233,result_model_1_multimer_v3_pred_1.pkl,0.12874846,0.37118332447840385,25.58933,56.58254104588685
multimer_family_id,P62937_P03170,result_model_1_multimer_v3_pred_1.pkl,0.25333112,0.6994671515196088,13.618702,71.70451742580659
multimer_family_id,P62937_P04294,result_model_1_multimer_v3_pred_1.pkl,0.30243957,0.6058175132713457,19.671618,70.72594439660466
multimer_family_id,P62937_P04487,result_model_1_multimer_v3_pred_1.pkl,0.78205603,0.5606408486873533,20.00281,73.20702701460638
multimer_family_id,P62937_P10226,result_model_1_multimer_v3_pred_1.pkl,0.15223777,0.4702444714728674,22.34654,64.0030238081432
multimer_family_id,P62937_P10233,result_model_1_multimer_v3_pred_1.pkl,0.25818583,0.43392655118976275,23.262283,59.70591585950592
multimer_family_id,P62942_P04294,result_model_1_multimer_v3_pred_1.pkl,0.24891329,0.6361632832627587,19.239065,67.56905631192222
multimer_family_id,P62979_P06485,result_model_1_multimer_v3_pred_1.pkl,0.5338294,0.6263552930740989,18.32514,71.4634025236031
multimer_family_id,P62979_P10233,result_model_1_multimer_v3_pred_1.pkl,0.15124613,0.26589345707255463,26.87356,52.97179372177976
multimer_family_id,P62993_P10233,result_model_1_multimer_v3_pred_1.pkl,0.21660736,0.34802285719235565,24.840158,53.326819320174465
multimer_family_id,P63220_P04487,result_model_1_multimer_v3_pred_1.pkl,0.08382784,0.31307832912220673,25.279062,61.0476305199294
multimer_family_id,P63241_P04487,result_model_1_multimer_v3_pred_1.pkl,0.09309247,0.42584908813778455,23.401724,64.56892566804886
multimer_family_id,P63241_P10233,result_model_1_multimer_v3_pred_1.pkl,0.14386778,0.34689878102571103,25.32068,54.75905305486891
multimer_family_id,P67870_P10233,result_model_1_multimer_v3_pred_1.pkl,0.5836286,0.5101865389422627,22.606443,60.85464631220019
multimer_family_id,P68104_P03170,result_model_1_multimer_v3_pred_1.pkl,0.19823387,0.5852391418437322,15.738685,71.10195891149094
multimer_family_id,P68104_P04487,result_model_1_multimer_v3_pred_1.pkl,0.14888515,0.6341761986878867,17.48124,68.96962459396025
multimer_family_id,P68104_P10233,result_model_1_multimer_v3_pred_1.pkl,0.1880138,0.511509074416353,21.311525,62.17540104575271
multimer_family_id,P68400_P10233,result_model_1_multimer_v3_pred_1.pkl,0.18013681,0.5414219558957482,22.110014,62.17581868895305
multimer_family_id,P83731_P04487,result_model_1_multimer_v3_pred_1.pkl,0.065477334,0.2595224540669324,26.513464,63.36681414929299
multimer_family_id,P83731_P10233,result_model_1_multimer_v3_pred_1.pkl,0.14033994,0.2539810324154292,27.372305,54.709798950745636
multimer_family_id,P84077_P10233,result_model_1_multimer_v3_pred_1.pkl,0.3900405,0.45963135201504207,22.884361,55.609085430821615
multimer_family_id,P84243_P04487,result_model_1_multimer_v3_pred_1.pkl,0.08662046,0.2791000970416749,26.100693,57.58326665321621
multimer_family_id,P84243_P10226,result_model_1_multimer_v3_pred_1.pkl,0.18692617,0.49503113948304944,23.48653,52.450045167149014
multimer_family_id,P84243_P10233,result_model_1_multimer_v3_pred_1.pkl,0.15173586,0.2891363460564083,26.71129,40.921751302798896
multimer_family_id,Q00341_P04487,result_model_1_multimer_v3_pred_1.pkl,0.15167353,0.29802114177909744,27.812021,64.61486219093457
multimer_family_id,Q00839_P10226,result_model_1_multimer_v3_pred_1.pkl,0.17708948,0.40100626878685397,26.682058,52.482237856121706
multimer_family_id,Q01105_P04487,result_model_1_multimer_v3_pred_1.pkl,0.104360834,0.43208551021809166,24.719543,54.006628492701616
multimer_family_id,Q01105_P10233,result_model_1_multimer_v3_pred_1.pkl,0.1443843,0.37661958969303133,26.028118,48.42132166128843
multimer_family_id,Q02543_P04487,result_model_1_multimer_v3_pred_1.pkl,0.11645223,0.4395261093158325,22.911966,62.21618259860003
multimer_family_id,Q02818_P10220,result_model_1_multimer_v3_pred_1.pkl,0.27185225,0.37513086082503,29.323126,49.5356786662141
multimer_family_id,Q02878_P04487,result_model_1_multimer_v3_pred_1.pkl,0.07688537,0.3642653320028,25.980652,58.76647286120535
multimer_family_id,Q03518_P03170,result_model_1_multimer_v3_pred_1.pkl,0.23299305,0.5808939734252833,18.831604,70.02473904023282
multimer_family_id,Q05639_P04487,result_model_1_multimer_v3_pred_1.pkl,0.14379519,0.6033357863743123,17.758715,69.06957819927965
multimer_family_id,Q06830_P10226,result_model_1_multimer_v3_pred_1.pkl,0.12589772,0.4370435582304518,23.893726,62.73092686172497
multimer_family_id,Q07020_P04487,result_model_1_multimer_v3_pred_1.pkl,0.0746857,0.43997093013435945,23.547184,64.84762533114836
multimer_family_id,Q07020_P10233,result_model_1_multimer_v3_pred_1.pkl,0.16108981,0.32857662050908987,25.692366,49.78047765186882
multimer_family_id,Q10472_P04488,result_model_1_multimer_v3_pred_1.pkl,0.32633767,0.523930983752582,22.995886,65.70335098995167
multimer_family_id,Q13123_P10233,result_model_1_multimer_v3_pred_1.pkl,0.23529746,0.22406610507595565,29.504686,37.81698679447722
multimer_family_id,Q13641_P10229,result_model_1_multimer_v3_pred_1.pkl,0.16148329,0.5235280885801289,22.148348,65.20176450959607
multimer_family_id,Q14011_P10233,result_model_1_multimer_v3_pred_1.pkl,0.17734921,0.2958137830203949,26.66336,43.95402627133785
multimer_family_id,Q14697_P10211,result_model_1_multimer_v3_pred_1.pkl,0.20648712,0.5678206611700368,23.395021,71.46907044112119
multimer_family_id,Q14847_P10233,result_model_1_multimer_v3_pred_1.pkl,0.19553864,0.28891398974601146,27.353283,40.67588445103816
multimer_family_id,Q15056_P10225,result_model_1_multimer_v3_pred_1.pkl,0.6283417,0.6450463630869058,19.721216,63.16405224455237
multimer_family_id,Q15056_P10231,result_model_1_multimer_v3_pred_1.pkl,0.17136422,0.6295952634555736,20.826082,61.830350335057936
multimer_family_id,Q15056_P10233,result_model_1_multimer_v3_pred_1.pkl,0.12638661,0.25631518823006083,27.76988,41.60354501373801
multimer_family_id,Q15691_P10233,result_model_1_multimer_v3_pred_1.pkl,0.12826729,0.31364660084953405,26.737875,52.21734396081317
multimer_family_id,Q16531_P10231,result_model_1_multimer_v3_pred_1.pkl,0.7705908,0.6756872839323054,18.357513,80.29507576981644
multimer_family_id,Q16777_P10233,result_model_1_multimer_v3_pred_1.pkl,0.15959582,0.2925223897728009,25.878063,45.110770086960784
multimer_family_id,Q1KMD3_P10226,result_model_1_multimer_v3_pred_1.pkl,0.17887601,0.42934722101292483,25.889585,56.358433911833025
multimer_family_id,Q5QNW6_P10233,result_model_1_multimer_v3_pred_1.pkl,0.17406425,0.2982737941889849,26.202253,43.43022397794821
multimer_family_id,Q5VW38_P10229,result_model_1_multimer_v3_pred_1.pkl,0.19515423,0.5687298518797264,21.478498,59.93697746120859
multimer_family_id,Q69091_P09382,result_model_1_multimer_v3_pred_1.pkl,0.19958207,0.5006942622592856,21.162796,67.08930526321404
multimer_family_id,Q69091_P11021,result_model_1_multimer_v3_pred_1.pkl,0.16378707,0.5147548732831869,22.485836,67.47272504856473
multimer_family_id,Q69091_P27105,result_model_1_multimer_v3_pred_1.pkl,0.11629579,0.39820278330485426,24.162918,66.90481381023017
multimer_family_id,Q69091_P61224,result_model_1_multimer_v3_pred_1.pkl,0.14379138,0.4918083508758694,21.163773,68.75973698452626
multimer_family_id,Q69091_Q12907,result_model_1_multimer_v3_pred_1.pkl,0.18790801,0.42179191212290407,23.214127,64.62035080734874
multimer_family_id,Q69091_Q92835,result_model_1_multimer_v3_pred_1.pkl,0.22767428,0.5166501194413117,25.048336,59.8996371922174
multimer_family_id,Q6NZI2_P10233,result_model_1_multimer_v3_pred_1.pkl,0.2280445,0.23929049440902272,29.048069,36.42687039600897
multimer_family_id,Q70UQ0_P10218,result_model_1_multimer_v3_pred_1.pkl,0.09631966,0.31350756926034945,27.579794,61.29664567575575
multimer_family_id,Q71DI3_P10233,result_model_1_multimer_v3_pred_1.pkl,0.18953791,0.2993232356976565,26.68691,37.280551134968206
multimer_family_id,Q7Z7H5_P10229,result_model_1_multimer_v3_pred_1.pkl,0.1527843,0.31813470684221606,23.302704,56.019107879990635
multimer_family_id,Q8WWI1_P08543,result_model_1_multimer_v3_pred_1.pkl,0.24241436,0.44291253300583305,28.325563,42.33491159499199
multimer_family_id,Q93077_P10233,result_model_1_multimer_v3_pred_1.pkl,0.15503109,0.2889991993073679,26.074451,44.01147058245102
multimer_family_id,Q96AG4_P10218,result_model_1_multimer_v3_pred_1.pkl,0.22563158,0.413322853013377,22.979122,67.44151716399276
multimer_family_id,Q99877_P03170,result_model_1_multimer_v3_pred_1.pkl,0.107410274,0.35869840947784287,21.99747,46.05735938496179
multimer_family_id,Q99877_P04294,result_model_1_multimer_v3_pred_1.pkl,0.21144417,0.6381930040824072,19.81474,62.93782151864788
multimer_family_id,Q99877_P04485,result_model_1_multimer_v3_pred_1.pkl,0.14627048,0.2283160275441054,27.09397,32.786594450597484
multimer_family_id,Q99877_P04487,result_model_1_multimer_v3_pred_1.pkl,0.079327166,0.31982387353294867,25.27124,59.444943595221154
multimer_family_id,Q99877_P10226,result_model_1_multimer_v3_pred_1.pkl,0.24559408,0.5138676096677379,22.97617,53.01337752521336
multimer_family_id,Q99877_P10231,result_model_1_multimer_v3_pred_1.pkl,0.23787375,0.6917630194696271,18.12988,66.67189105682147
multimer_family_id,Q99877_P10233,result_model_1_multimer_v3_pred_1.pkl,0.17972575,0.296550098075555,26.29427,43.502009717836856
multimer_family_id,Q99878_P10233,result_model_1_multimer_v3_pred_1.pkl,0.20615226,0.3070162911513039,25.713634,45.01626681769102
multimer_family_id,Q99879_P10233,result_model_1_multimer_v3_pred_1.pkl,0.18006603,0.298543993577314,26.219315,43.29749159500591
multimer_family_id,Q99880_P10233,result_model_1_multimer_v3_pred_1.pkl,0.17344238,0.2971083497694217,26.343538,42.53767503045947
multimer_family_id,Q9BS26_P10211,result_model_1_multimer_v3_pred_1.pkl,0.15418075,0.3558687263916147,26.554821,61.738603149865554
multimer_family_id,Q9BVK6_P10229,result_model_1_multimer_v3_pred_1.pkl,0.13973531,0.3081255056876815,23.487925,56.97867769896974
multimer_family_id,Q9BXS5_P04488,result_model_1_multimer_v3_pred_1.pkl,0.2313282,0.3751192588209533,25.477606,58.55450471837819
multimer_family_id,Q9GZQ8_P10233,result_model_1_multimer_v3_pred_1.pkl,0.70998305,0.37207594920527987,24.038958,54.7668576207766
multimer_family_id,Q9H0U4_P10231,result_model_1_multimer_v3_pred_1.pkl,0.30445263,0.6731137175379364,18.236917,68.56448186466926
multimer_family_id,Q9H0U4_P10233,result_model_1_multimer_v3_pred_1.pkl,0.30448008,0.4316476379320182,23.471998,53.48671424958382
multimer_family_id,Q9H299_P10233,result_model_1_multimer_v3_pred_1.pkl,0.24285182,0.3239237530178761,24.826813,51.987861996657614
multimer_family_id,Q9H3P7_P04488,result_model_1_multimer_v3_pred_1.pkl,0.16357133,0.28432126931153884,27.524994,54.80947637637925
multimer_family_id,Q9HDC9_P10211,result_model_1_multimer_v3_pred_1.pkl,0.16384707,0.3854388253790562,25.880535,67.70189837170008
multimer_family_id,Q9NR12_P10233,result_model_1_multimer_v3_pred_1.pkl,0.12774014,0.2290951043514089,28.165028,45.69617374806572
multimer_family_id,Q9P2E9_P04487,result_model_1_multimer_v3_pred_1.pkl,0.15032396,0.2019552931622484,30.207064,36.67061083460797
multimer_family_id,Q9Y224_P10233,result_model_1_multimer_v3_pred_1.pkl,0.12965952,0.2596462650809199,26.956375,43.73189502364546
