multimer_genus_id,O00299_P04487,unrelaxed_model_1_multimer_v3_pred_1,0.139
multimer_genus_id,O43169_P04488,unrelaxed_model_1_multimer_v3_pred_1,0.096
multimer_genus_id,O43169_P10218,unrelaxed_model_1_multimer_v3_pred_1,0.057
multimer_genus_id,O43852_P10185,unrelaxed_model_1_multimer_v3_pred_1,0.063
multimer_genus_id,O43852_P10211,unrelaxed_model_1_multimer_v3_pred_1,0.142
multimer_genus_id,O75396_P04487,unrelaxed_model_1_multimer_v3_pred_1,0
multimer_genus_id,O75531_P10233,unrelaxed_model_1_multimer_v3_pred_1,0.053
multimer_genus_id,P00338_P04487,unrelaxed_model_1_multimer_v3_pred_1,0.185
multimer_genus_id,P00387_P04488,unrelaxed_model_1_multimer_v3_pred_1,0.365
multimer_genus_id,P01889_P10229,unrelaxed_model_1_multimer_v3_pred_1,0.206
multimer_genus_id,P02511_P10233,unrelaxed_model_1_multimer_v3_pred_1,0.04
multimer_genus_id,P04083_P04488,unrelaxed_model_1_multimer_v3_pred_1,0.344
multimer_genus_id,P04288_P06703,unrelaxed_model_1_multimer_v3_pred_1,0.059
multimer_genus_id,P04288_P62820,unrelaxed_model_1_multimer_v3_pred_1,0.076
multimer_genus_id,P04288_P62979,unrelaxed_model_1_multimer_v3_pred_1,0.097
multimer_genus_id,P04288_Q9H0U4,unrelaxed_model_1_multimer_v3_pred_1,0.073
multimer_genus_id,P04294_P13010,unrelaxed_model_1_multimer_v3_pred_1,0.403
multimer_genus_id,P04294_P27348,unrelaxed_model_1_multimer_v3_pred_1,0.305
multimer_genus_id,P04294_P31946,unrelaxed_model_1_multimer_v3_pred_1,0.4
multimer_genus_id,P04294_P61981,unrelaxed_model_1_multimer_v3_pred_1,0.314
multimer_genus_id,P04294_P62258,unrelaxed_model_1_multimer_v3_pred_1,0.386
multimer_genus_id,P04294_P63104,unrelaxed_model_1_multimer_v3_pred_1,0.471
multimer_genus_id,P04294_Q9Y4E8,unrelaxed_model_1_multimer_v3_pred_1,0.171
multimer_genus_id,P04296_P07737,unrelaxed_model_1_multimer_v3_pred_1,0.153
multimer_genus_id,P04406_P04487,unrelaxed_model_1_multimer_v3_pred_1,0.308
multimer_genus_id,P04406_P10226,unrelaxed_model_1_multimer_v3_pred_1,0.241
multimer_genus_id,P04406_P10233,unrelaxed_model_1_multimer_v3_pred_1,0.243
multimer_genus_id,P04487_P08670,unrelaxed_model_1_multimer_v3_pred_1,0
multimer_genus_id,P04487_P67809,unrelaxed_model_1_multimer_v3_pred_1,0.021
multimer_genus_id,P04488_O14828,unrelaxed_model_1_multimer_v3_pred_1,0.113
multimer_genus_id,P04488_O15127,unrelaxed_model_1_multimer_v3_pred_1,0.181
multimer_genus_id,P04488_O75396,unrelaxed_model_1_multimer_v3_pred_1,0.194
multimer_genus_id,P04488_P06703,unrelaxed_model_1_multimer_v3_pred_1,0.04
multimer_genus_id,P04488_P07237,unrelaxed_model_1_multimer_v3_pred_1,0.291
multimer_genus_id,P04488_P11166,unrelaxed_model_1_multimer_v3_pred_1,0.102
multimer_genus_id,P04488_P20340,unrelaxed_model_1_multimer_v3_pred_1,0.595
multimer_genus_id,P04488_P60468,unrelaxed_model_1_multimer_v3_pred_1,0.022
multimer_genus_id,P04488_P61019,unrelaxed_model_1_multimer_v3_pred_1,0.105
multimer_genus_id,P04488_P62820,unrelaxed_model_1_multimer_v3_pred_1,0.287
multimer_genus_id,P04488_P62979,unrelaxed_model_1_multimer_v3_pred_1,0.132
multimer_genus_id,P04488_Q15836,unrelaxed_model_1_multimer_v3_pred_1,0.033
multimer_genus_id,P04488_Q96AJ9,unrelaxed_model_1_multimer_v3_pred_1,0.201
multimer_genus_id,P04488_Q9BVC6,unrelaxed_model_1_multimer_v3_pred_1,0.037
multimer_genus_id,P04488_Q9GZQ8,unrelaxed_model_1_multimer_v3_pred_1,0.164
multimer_genus_id,P04488_Q9H0U4,unrelaxed_model_1_multimer_v3_pred_1,0.085
multimer_genus_id,P04488_Q9H4G4,unrelaxed_model_1_multimer_v3_pred_1,0.178
multimer_genus_id,P04792_P04294,unrelaxed_model_1_multimer_v3_pred_1,0.099
multimer_genus_id,P04792_P10233,unrelaxed_model_1_multimer_v3_pred_1,0.052
multimer_genus_id,P05023_P04488,unrelaxed_model_1_multimer_v3_pred_1,0.213
multimer_genus_id,P05204_P10233,unrelaxed_model_1_multimer_v3_pred_1,0.091
multimer_genus_id,P06487_P06703,unrelaxed_model_1_multimer_v3_pred_1,0.154
multimer_genus_id,P06487_P20340,unrelaxed_model_1_multimer_v3_pred_1,0.152
multimer_genus_id,P06487_P51148,unrelaxed_model_1_multimer_v3_pred_1,0.076
multimer_genus_id,P06487_P62937,unrelaxed_model_1_multimer_v3_pred_1,0.269
multimer_genus_id,P06487_Q9H0U4,unrelaxed_model_1_multimer_v3_pred_1,0.066
multimer_genus_id,P06491_P10599,unrelaxed_model_1_multimer_v3_pred_1,0.039
multimer_genus_id,P06703_P04487,unrelaxed_model_1_multimer_v3_pred_1,0
multimer_genus_id,P06703_P10226,unrelaxed_model_1_multimer_v3_pred_1,0.262
multimer_genus_id,P06703_P10233,unrelaxed_model_1_multimer_v3_pred_1,0.047
multimer_genus_id,P06703_P10238,unrelaxed_model_1_multimer_v3_pred_1,0.075
multimer_genus_id,P06733_P04487,unrelaxed_model_1_multimer_v3_pred_1,0.019
multimer_genus_id,P06733_P10226,unrelaxed_model_1_multimer_v3_pred_1,0.164
multimer_genus_id,P06748_P04487,unrelaxed_model_1_multimer_v3_pred_1,0.021
multimer_genus_id,P07355_P06487,unrelaxed_model_1_multimer_v3_pred_1,0.095
multimer_genus_id,P07355_Q69091,unrelaxed_model_1_multimer_v3_pred_1,0.13
multimer_genus_id,P07384_P10231,unrelaxed_model_1_multimer_v3_pred_1,0.172
multimer_genus_id,P07437_P10233,unrelaxed_model_1_multimer_v3_pred_1,0.111
multimer_genus_id,P07737_P04487,unrelaxed_model_1_multimer_v3_pred_1,0.072
multimer_genus_id,P07737_P08543,unrelaxed_model_1_multimer_v3_pred_1,0.108
multimer_genus_id,P07737_P10233,unrelaxed_model_1_multimer_v3_pred_1,0.14
multimer_genus_id,P08133_P04288,unrelaxed_model_1_multimer_v3_pred_1,0.051
multimer_genus_id,P08133_P04488,unrelaxed_model_1_multimer_v3_pred_1,0.238
multimer_genus_id,P08133_P06487,unrelaxed_model_1_multimer_v3_pred_1,0.029
multimer_genus_id,P08133_Q69091,unrelaxed_model_1_multimer_v3_pred_1,0.054
multimer_genus_id,P08134_P10233,unrelaxed_model_1_multimer_v3_pred_1,0.131
multimer_genus_id,P08195_P10229,unrelaxed_model_1_multimer_v3_pred_1,0.144
multimer_genus_id,P08392_P35268,unrelaxed_model_1_multimer_v3_pred_1,0.061
multimer_genus_id,P08758_P10233,unrelaxed_model_1_multimer_v3_pred_1,0.093
multimer_genus_id,P08758_Q69091,unrelaxed_model_1_multimer_v3_pred_1,0.164
multimer_genus_id,P08962_P10211,unrelaxed_model_1_multimer_v3_pred_1,0.132
multimer_genus_id,P09382_P10226,unrelaxed_model_1_multimer_v3_pred_1,0.129
multimer_genus_id,P09382_P10233,unrelaxed_model_1_multimer_v3_pred_1,0.089
multimer_genus_id,P09429_P10233,unrelaxed_model_1_multimer_v3_pred_1,0.093
multimer_genus_id,P09651_P04487,unrelaxed_model_1_multimer_v3_pred_1,0.029
multimer_genus_id,P09651_P10226,unrelaxed_model_1_multimer_v3_pred_1,0.057
multimer_genus_id,P09651_P10233,unrelaxed_model_1_multimer_v3_pred_1,0.101
multimer_genus_id,P09651_P10238,unrelaxed_model_1_multimer_v3_pred_1,0.14
multimer_genus_id,P0C0S5_P10233,unrelaxed_model_1_multimer_v3_pred_1,0.048
multimer_genus_id,P0DMV9_P04487,unrelaxed_model_1_multimer_v3_pred_1,0.174
multimer_genus_id,P0DP25_P04288,unrelaxed_model_1_multimer_v3_pred_1,0.065
multimer_genus_id,P0DP25_P04488,unrelaxed_model_1_multimer_v3_pred_1,0.156
multimer_genus_id,P0DP25_P10211,unrelaxed_model_1_multimer_v3_pred_1,0.098
multimer_genus_id,P0DP25_P10233,unrelaxed_model_1_multimer_v3_pred_1,0.031
multimer_genus_id,P10185_P05556,unrelaxed_model_1_multimer_v3_pred_1,0.048
multimer_genus_id,P10185_P07237,unrelaxed_model_1_multimer_v3_pred_1,0.145
multimer_genus_id,P10185_P09382,unrelaxed_model_1_multimer_v3_pred_1,0.136
multimer_genus_id,P10185_P11021,unrelaxed_model_1_multimer_v3_pred_1,0.211
multimer_genus_id,P10185_P13667,unrelaxed_model_1_multimer_v3_pred_1,0.14
multimer_genus_id,P10185_P14314,unrelaxed_model_1_multimer_v3_pred_1,0.052
multimer_genus_id,P10185_P23284,unrelaxed_model_1_multimer_v3_pred_1,0.068
multimer_genus_id,P10185_P30101,unrelaxed_model_1_multimer_v3_pred_1,0.047
multimer_genus_id,P10185_P50454,unrelaxed_model_1_multimer_v3_pred_1,0.094
multimer_genus_id,P10209_P08670,unrelaxed_model_1_multimer_v3_pred_1,0.156
multimer_genus_id,P10209_Q99877,unrelaxed_model_1_multimer_v3_pred_1,0.063
multimer_genus_id,P10211_P01889,unrelaxed_model_1_multimer_v3_pred_1,0.378
multimer_genus_id,P10211_P04844,unrelaxed_model_1_multimer_v3_pred_1,0.393
multimer_genus_id,P10211_P07237,unrelaxed_model_1_multimer_v3_pred_1,0.238
multimer_genus_id,P10211_P08195,unrelaxed_model_1_multimer_v3_pred_1,0.066
multimer_genus_id,P10211_P08648,unrelaxed_model_1_multimer_v3_pred_1,0.217
multimer_genus_id,P10211_P09382,unrelaxed_model_1_multimer_v3_pred_1,0.106
multimer_genus_id,P10211_P10321,unrelaxed_model_1_multimer_v3_pred_1,0.535
multimer_genus_id,P10211_P11021,unrelaxed_model_1_multimer_v3_pred_1,0.476
multimer_genus_id,P10211_P13667,unrelaxed_model_1_multimer_v3_pred_1,0.262
multimer_genus_id,P10211_P14625,unrelaxed_model_1_multimer_v3_pred_1,0.078
multimer_genus_id,P10211_P21589,unrelaxed_model_1_multimer_v3_pred_1,0.386
multimer_genus_id,P10211_P23284,unrelaxed_model_1_multimer_v3_pred_1,0.25
multimer_genus_id,P10211_P30101,unrelaxed_model_1_multimer_v3_pred_1,0.244
multimer_genus_id,P10211_P46977,unrelaxed_model_1_multimer_v3_pred_1,0.119
multimer_genus_id,P10211_P50454,unrelaxed_model_1_multimer_v3_pred_1,0.582
multimer_genus_id,P10211_P62979,unrelaxed_model_1_multimer_v3_pred_1,0.02
multimer_genus_id,P10211_Q12907,unrelaxed_model_1_multimer_v3_pred_1,0.154
multimer_genus_id,P10211_Q15084,unrelaxed_model_1_multimer_v3_pred_1,0.107
multimer_genus_id,P10211_Q15293,unrelaxed_model_1_multimer_v3_pred_1,0.074
multimer_genus_id,P10211_Q8TCJ2,unrelaxed_model_1_multimer_v3_pred_1,0.081
multimer_genus_id,P10211_Q99805,unrelaxed_model_1_multimer_v3_pred_1,0.108
multimer_genus_id,P10211_Q9BTV4,unrelaxed_model_1_multimer_v3_pred_1,0.257
multimer_genus_id,P10211_Q9BVC6,unrelaxed_model_1_multimer_v3_pred_1,0.03
multimer_genus_id,P10211_Q9BVK6,unrelaxed_model_1_multimer_v3_pred_1,0.019
multimer_genus_id,P10218_O00264,unrelaxed_model_1_multimer_v3_pred_1,0.075
multimer_genus_id,P10218_O15173,unrelaxed_model_1_multimer_v3_pred_1,0.105
multimer_genus_id,P10218_O75396,unrelaxed_model_1_multimer_v3_pred_1,0.116
multimer_genus_id,P10218_P10599,unrelaxed_model_1_multimer_v3_pred_1,0.24
multimer_genus_id,P10218_P26373,unrelaxed_model_1_multimer_v3_pred_1,0.06
multimer_genus_id,P10218_P39023,unrelaxed_model_1_multimer_v3_pred_1,0.067
multimer_genus_id,P10218_P60468,unrelaxed_model_1_multimer_v3_pred_1,0.065
multimer_genus_id,P10218_P61353,unrelaxed_model_1_multimer_v3_pred_1,0.121
multimer_genus_id,P10218_Q9UNL2,unrelaxed_model_1_multimer_v3_pred_1,0.048
multimer_genus_id,P10225_P10233,unrelaxed_model_1_multimer_v3_pred_1,0.067
multimer_genus_id,P10228_P09382,unrelaxed_model_1_multimer_v3_pred_1,0.092
multimer_genus_id,P10230_Q9P0L0,unrelaxed_model_1_multimer_v3_pred_1,0.303
multimer_genus_id,P10233_P63104,unrelaxed_model_1_multimer_v3_pred_1,0.134
multimer_genus_id,P10233_P67809,unrelaxed_model_1_multimer_v3_pred_1,0.029
multimer_genus_id,P10233_Q15836,unrelaxed_model_1_multimer_v3_pred_1,0.019
multimer_genus_id,P10233_Q702N8,unrelaxed_model_1_multimer_v3_pred_1,0.028
multimer_genus_id,P10234_P06703,unrelaxed_model_1_multimer_v3_pred_1,0.06
multimer_genus_id,P10234_P57053,unrelaxed_model_1_multimer_v3_pred_1,0.108
multimer_genus_id,P10234_Q99877,unrelaxed_model_1_multimer_v3_pred_1,0.07
multimer_genus_id,P10599_P04487,unrelaxed_model_1_multimer_v3_pred_1,0
multimer_genus_id,P10599_P10226,unrelaxed_model_1_multimer_v3_pred_1,0.203
multimer_genus_id,P10599_P10233,unrelaxed_model_1_multimer_v3_pred_1,0.085
multimer_genus_id,P10599_P10235,unrelaxed_model_1_multimer_v3_pred_1,0.093
multimer_genus_id,P11142_P03170,unrelaxed_model_1_multimer_v3_pred_1,0.254
multimer_genus_id,P11142_P04487,unrelaxed_model_1_multimer_v3_pred_1,0.16
multimer_genus_id,P11142_P10226,unrelaxed_model_1_multimer_v3_pred_1,0.468
multimer_genus_id,P11142_P10233,unrelaxed_model_1_multimer_v3_pred_1,0.237
multimer_genus_id,P11940_P10238,unrelaxed_model_1_multimer_v3_pred_1,0.129
multimer_genus_id,P12004_P10226,unrelaxed_model_1_multimer_v3_pred_1,0.307
multimer_genus_id,P13639_P04487,unrelaxed_model_1_multimer_v3_pred_1,0.023
multimer_genus_id,P13726_P10211,unrelaxed_model_1_multimer_v3_pred_1,0.397
multimer_genus_id,P13797_P10226,unrelaxed_model_1_multimer_v3_pred_1,0.072
multimer_genus_id,P13987_P06484,unrelaxed_model_1_multimer_v3_pred_1,0.061
multimer_genus_id,P13987_P10211,unrelaxed_model_1_multimer_v3_pred_1,0.155
multimer_genus_id,P13987_P10229,unrelaxed_model_1_multimer_v3_pred_1,0.308
multimer_genus_id,P13987_Q69091,unrelaxed_model_1_multimer_v3_pred_1,0.087
multimer_genus_id,P16070_P06487,unrelaxed_model_1_multimer_v3_pred_1,0.079
multimer_genus_id,P16070_P10228,unrelaxed_model_1_multimer_v3_pred_1,0.078
multimer_genus_id,P16070_Q69091,unrelaxed_model_1_multimer_v3_pred_1,0.048
multimer_genus_id,P16104_P10233,unrelaxed_model_1_multimer_v3_pred_1,0.102
multimer_genus_id,P16333_P10233,unrelaxed_model_1_multimer_v3_pred_1,0.253
multimer_genus_id,P16401_P10233,unrelaxed_model_1_multimer_v3_pred_1,0.081
multimer_genus_id,P16402_P10233,unrelaxed_model_1_multimer_v3_pred_1,0.045
multimer_genus_id,P17096_P04487,unrelaxed_model_1_multimer_v3_pred_1,0.02
multimer_genus_id,P17096_P10226,unrelaxed_model_1_multimer_v3_pred_1,0.018
multimer_genus_id,P17096_P10233,unrelaxed_model_1_multimer_v3_pred_1,0.027
multimer_genus_id,P18085_P04488,unrelaxed_model_1_multimer_v3_pred_1,0.099
multimer_genus_id,P18085_P10211,unrelaxed_model_1_multimer_v3_pred_1,0.082
multimer_genus_id,P18085_Q69091,unrelaxed_model_1_multimer_v3_pred_1,0.107
multimer_genus_id,P18124_P04487,unrelaxed_model_1_multimer_v3_pred_1,0
multimer_genus_id,P20340_P10233,unrelaxed_model_1_multimer_v3_pred_1,0.098
multimer_genus_id,P21291_P04487,unrelaxed_model_1_multimer_v3_pred_1,0
multimer_genus_id,P21926_P04488,unrelaxed_model_1_multimer_v3_pred_1,0.244
multimer_genus_id,P21926_P06477,unrelaxed_model_1_multimer_v3_pred_1,0.075
multimer_genus_id,P21926_P10211,unrelaxed_model_1_multimer_v3_pred_1,0.102
multimer_genus_id,P21926_P10229,unrelaxed_model_1_multimer_v3_pred_1,0.165
multimer_genus_id,P22626_P10226,unrelaxed_model_1_multimer_v3_pred_1,0.213
multimer_genus_id,P22626_P10233,unrelaxed_model_1_multimer_v3_pred_1,0.056
multimer_genus_id,P23284_P10229,unrelaxed_model_1_multimer_v3_pred_1,0.142
multimer_genus_id,P23396_P10233,unrelaxed_model_1_multimer_v3_pred_1,0.054
multimer_genus_id,P26373_P10233,unrelaxed_model_1_multimer_v3_pred_1,0.021
multimer_genus_id,P26583_P10233,unrelaxed_model_1_multimer_v3_pred_1,0.047
multimer_genus_id,P27635_P10233,unrelaxed_model_1_multimer_v3_pred_1,0.186
multimer_genus_id,P27797_P03170,unrelaxed_model_1_multimer_v3_pred_1,0.044
multimer_genus_id,P27797_P04488,unrelaxed_model_1_multimer_v3_pred_1,0.299
multimer_genus_id,P27797_P10185,unrelaxed_model_1_multimer_v3_pred_1,0.061
multimer_genus_id,P27797_P10211,unrelaxed_model_1_multimer_v3_pred_1,0.488
multimer_genus_id,P27824_P10211,unrelaxed_model_1_multimer_v3_pred_1,0.27
multimer_genus_id,P27824_P10229,unrelaxed_model_1_multimer_v3_pred_1,0.059
multimer_genus_id,P27824_Q69091,unrelaxed_model_1_multimer_v3_pred_1,0.09
multimer_genus_id,P30050_P04487,unrelaxed_model_1_multimer_v3_pred_1,0
multimer_genus_id,P30050_P10233,unrelaxed_model_1_multimer_v3_pred_1,0.105
multimer_genus_id,P31949_P03170,unrelaxed_model_1_multimer_v3_pred_1,0.122
multimer_genus_id,P31949_P10233,unrelaxed_model_1_multimer_v3_pred_1,0.065
multimer_genus_id,P32969_P10233,unrelaxed_model_1_multimer_v3_pred_1,0.056
multimer_genus_id,P35268_P04487,unrelaxed_model_1_multimer_v3_pred_1,0.024
multimer_genus_id,P35268_P10233,unrelaxed_model_1_multimer_v3_pred_1,0.088
multimer_genus_id,P36578_P04487,unrelaxed_model_1_multimer_v3_pred_1,0.02
multimer_genus_id,P38159_P10233,unrelaxed_model_1_multimer_v3_pred_1,0.046
multimer_genus_id,P39019_P04487,unrelaxed_model_1_multimer_v3_pred_1,0
multimer_genus_id,P39019_P10226,unrelaxed_model_1_multimer_v3_pred_1,0.069
multimer_genus_id,P39023_P04487,unrelaxed_model_1_multimer_v3_pred_1,0.023
multimer_genus_id,P40227_P10226,unrelaxed_model_1_multimer_v3_pred_1,0.088
multimer_genus_id,P40429_P04487,unrelaxed_model_1_multimer_v3_pred_1,0.019
multimer_genus_id,P42766_P04487,unrelaxed_model_1_multimer_v3_pred_1,0
multimer_genus_id,P42766_P10233,unrelaxed_model_1_multimer_v3_pred_1,0.091
multimer_genus_id,P45983_P04294,unrelaxed_model_1_multimer_v3_pred_1,0.327
multimer_genus_id,P46776_P10233,unrelaxed_model_1_multimer_v3_pred_1,0.082
multimer_genus_id,P46779_P04487,unrelaxed_model_1_multimer_v3_pred_1,0
multimer_genus_id,P47914_P04487,unrelaxed_model_1_multimer_v3_pred_1,0
multimer_genus_id,P49207_P10233,unrelaxed_model_1_multimer_v3_pred_1,0.04
multimer_genus_id,P49458_P04487,unrelaxed_model_1_multimer_v3_pred_1,0
multimer_genus_id,P49755_P10229,unrelaxed_model_1_multimer_v3_pred_1,0.065
multimer_genus_id,P50402_P10218,unrelaxed_model_1_multimer_v3_pred_1,0.143
multimer_genus_id,P50454_P10229,unrelaxed_model_1_multimer_v3_pred_1,0.115
multimer_genus_id,P50914_P04487,unrelaxed_model_1_multimer_v3_pred_1,0
multimer_genus_id,P50914_P10233,unrelaxed_model_1_multimer_v3_pred_1,0.021
multimer_genus_id,P52926_P10226,unrelaxed_model_1_multimer_v3_pred_1,0.023
multimer_genus_id,P55010_P10233,unrelaxed_model_1_multimer_v3_pred_1,0.061
multimer_genus_id,P57053_P04487,unrelaxed_model_1_multimer_v3_pred_1,0.022
multimer_genus_id,P57053_P10226,unrelaxed_model_1_multimer_v3_pred_1,0.047
multimer_genus_id,P57053_P10233,unrelaxed_model_1_multimer_v3_pred_1,0.032
multimer_genus_id,P58876_P10233,unrelaxed_model_1_multimer_v3_pred_1,0.031
multimer_genus_id,P60468_P04487,unrelaxed_model_1_multimer_v3_pred_1,0
multimer_genus_id,P60468_P10233,unrelaxed_model_1_multimer_v3_pred_1,0.113
multimer_genus_id,P60709_P04294,unrelaxed_model_1_multimer_v3_pred_1,0.309
multimer_genus_id,P60709_P04296,unrelaxed_model_1_multimer_v3_pred_1,0.388
multimer_genus_id,P60709_P04487,unrelaxed_model_1_multimer_v3_pred_1,0.114
multimer_genus_id,P60709_P06491,unrelaxed_model_1_multimer_v3_pred_1,0.153
multimer_genus_id,P60709_P10226,unrelaxed_model_1_multimer_v3_pred_1,0.619
multimer_genus_id,P60709_P10233,unrelaxed_model_1_multimer_v3_pred_1,0.076
multimer_genus_id,P60953_P06487,unrelaxed_model_1_multimer_v3_pred_1,0.123
multimer_genus_id,P61026_P10233,unrelaxed_model_1_multimer_v3_pred_1,0.076
multimer_genus_id,P61254_P04487,unrelaxed_model_1_multimer_v3_pred_1,0
multimer_genus_id,P61353_P04487,unrelaxed_model_1_multimer_v3_pred_1,0
multimer_genus_id,P61353_P10233,unrelaxed_model_1_multimer_v3_pred_1,0.019
multimer_genus_id,P61513_P10233,unrelaxed_model_1_multimer_v3_pred_1,0.047
multimer_genus_id,P61769_P10211,unrelaxed_model_1_multimer_v3_pred_1,0.033
multimer_genus_id,P61978_P10233,unrelaxed_model_1_multimer_v3_pred_1,0.066
multimer_genus_id,P62136_P10233,unrelaxed_model_1_multimer_v3_pred_1,0.212
multimer_genus_id,P62241_P04487,unrelaxed_model_1_multimer_v3_pred_1,0.067
multimer_genus_id,P62328_P04487,unrelaxed_model_1_multimer_v3_pred_1,0
multimer_genus_id,P62424_P04487,unrelaxed_model_1_multimer_v3_pred_1,0
multimer_genus_id,P62750_P04487,unrelaxed_model_1_multimer_v3_pred_1,0
multimer_genus_id,P62805_P10233,unrelaxed_model_1_multimer_v3_pred_1,0.034
multimer_genus_id,P62820_P10231,unrelaxed_model_1_multimer_v3_pred_1,0.076
multimer_genus_id,P62820_P10233,unrelaxed_model_1_multimer_v3_pred_1,0.043
multimer_genus_id,P62851_P04487,unrelaxed_model_1_multimer_v3_pred_1,0
multimer_genus_id,P62857_P10233,unrelaxed_model_1_multimer_v3_pred_1,0.045
multimer_genus_id,P62888_P10233,unrelaxed_model_1_multimer_v3_pred_1,0.049
multimer_genus_id,P62899_P10233,unrelaxed_model_1_multimer_v3_pred_1,0.06
multimer_genus_id,P62906_P04487,unrelaxed_model_1_multimer_v3_pred_1,0
multimer_genus_id,P62913_P04487,unrelaxed_model_1_multimer_v3_pred_1,0
multimer_genus_id,P62913_P10233,unrelaxed_model_1_multimer_v3_pred_1,0.037
multimer_genus_id,P62917_P10233,unrelaxed_model_1_multimer_v3_pred_1,0.021
multimer_genus_id,P62937_P03170,unrelaxed_model_1_multimer_v3_pred_1,0.406
multimer_genus_id,P62937_P04294,unrelaxed_model_1_multimer_v3_pred_1,0.28
multimer_genus_id,P62937_P04487,unrelaxed_model_1_multimer_v3_pred_1,0.233
multimer_genus_id,P62937_P10226,unrelaxed_model_1_multimer_v3_pred_1,0.196
multimer_genus_id,P62937_P10233,unrelaxed_model_1_multimer_v3_pred_1,0.27
multimer_genus_id,P62942_P04294,unrelaxed_model_1_multimer_v3_pred_1,0.129
multimer_genus_id,P62979_P06485,unrelaxed_model_1_multimer_v3_pred_1,0.273
multimer_genus_id,P62979_P10233,unrelaxed_model_1_multimer_v3_pred_1,0.032
multimer_genus_id,P62993_P10233,unrelaxed_model_1_multimer_v3_pred_1,0.143
multimer_genus_id,P63220_P04487,unrelaxed_model_1_multimer_v3_pred_1,0
multimer_genus_id,P63241_P04487,unrelaxed_model_1_multimer_v3_pred_1,0
multimer_genus_id,P63241_P10233,unrelaxed_model_1_multimer_v3_pred_1,0.276
multimer_genus_id,P67870_P10233,unrelaxed_model_1_multimer_v3_pred_1,0.169
multimer_genus_id,P68104_P03170,unrelaxed_model_1_multimer_v3_pred_1,0.044
multimer_genus_id,P68104_P04487,unrelaxed_model_1_multimer_v3_pred_1,0.027
multimer_genus_id,P68104_P10233,unrelaxed_model_1_multimer_v3_pred_1,0.085
multimer_genus_id,P68400_P10233,unrelaxed_model_1_multimer_v3_pred_1,0.144
multimer_genus_id,P83731_P04487,unrelaxed_model_1_multimer_v3_pred_1,0
multimer_genus_id,P83731_P10233,unrelaxed_model_1_multimer_v3_pred_1,0.034
multimer_genus_id,P84077_P10233,unrelaxed_model_1_multimer_v3_pred_1,0.08
multimer_genus_id,P84243_P04487,unrelaxed_model_1_multimer_v3_pred_1,0
multimer_genus_id,P84243_P10226,unrelaxed_model_1_multimer_v3_pred_1,0.046
multimer_genus_id,P84243_P10233,unrelaxed_model_1_multimer_v3_pred_1,0.035
multimer_genus_id,Q00341_P04487,unrelaxed_model_1_multimer_v3_pred_1,0.021
multimer_genus_id,Q00839_P10226,unrelaxed_model_1_multimer_v3_pred_1,0.203
multimer_genus_id,Q01105_P04487,unrelaxed_model_1_multimer_v3_pred_1,0.018
multimer_genus_id,Q01105_P10233,unrelaxed_model_1_multimer_v3_pred_1,0.099
multimer_genus_id,Q02543_P04487,unrelaxed_model_1_multimer_v3_pred_1,0.213
multimer_genus_id,Q02818_P10220,unrelaxed_model_1_multimer_v3_pred_1,0.024
multimer_genus_id,Q02878_P04487,unrelaxed_model_1_multimer_v3_pred_1,0
multimer_genus_id,Q03518_P03170,unrelaxed_model_1_multimer_v3_pred_1,0.052
multimer_genus_id,Q05639_P04487,unrelaxed_model_1_multimer_v3_pred_1,0.03
multimer_genus_id,Q06830_P10226,unrelaxed_model_1_multimer_v3_pred_1,0.097
multimer_genus_id,Q07020_P04487,unrelaxed_model_1_multimer_v3_pred_1,0
multimer_genus_id,Q07020_P10233,unrelaxed_model_1_multimer_v3_pred_1,0.067
multimer_genus_id,Q10472_P04488,unrelaxed_model_1_multimer_v3_pred_1,0.294
multimer_genus_id,Q13123_P10233,unrelaxed_model_1_multimer_v3_pred_1,0.037
multimer_genus_id,Q13641_P10229,unrelaxed_model_1_multimer_v3_pred_1,0.179
multimer_genus_id,Q14011_P10233,unrelaxed_model_1_multimer_v3_pred_1,0.038
multimer_genus_id,Q14697_P10211,unrelaxed_model_1_multimer_v3_pred_1,0.611
multimer_genus_id,Q14847_P10233,unrelaxed_model_1_multimer_v3_pred_1,0.217
multimer_genus_id,Q15056_P10225,unrelaxed_model_1_multimer_v3_pred_1,0.222
multimer_genus_id,Q15056_P10231,unrelaxed_model_1_multimer_v3_pred_1,0.049
multimer_genus_id,Q15056_P10233,unrelaxed_model_1_multimer_v3_pred_1,0.056
multimer_genus_id,Q15691_P10233,unrelaxed_model_1_multimer_v3_pred_1,0.022
multimer_genus_id,Q16531_P10231,unrelaxed_model_1_multimer_v3_pred_1,0.628
multimer_genus_id,Q16777_P10233,unrelaxed_model_1_multimer_v3_pred_1,0.061
multimer_genus_id,Q1KMD3_P10226,unrelaxed_model_1_multimer_v3_pred_1,0.215
multimer_genus_id,Q5QNW6_P10233,unrelaxed_model_1_multimer_v3_pred_1,0.029
multimer_genus_id,Q5VW38_P10229,unrelaxed_model_1_multimer_v3_pred_1,0.347
multimer_genus_id,Q69091_P09382,unrelaxed_model_1_multimer_v3_pred_1,0.044
multimer_genus_id,Q69091_P11021,unrelaxed_model_1_multimer_v3_pred_1,0.245
multimer_genus_id,Q69091_P27105,unrelaxed_model_1_multimer_v3_pred_1,0.411
multimer_genus_id,Q69091_P61224,unrelaxed_model_1_multimer_v3_pred_1,0.063
multimer_genus_id,Q69091_Q12907,unrelaxed_model_1_multimer_v3_pred_1,0.122
multimer_genus_id,Q69091_Q92835,unrelaxed_model_1_multimer_v3_pred_1,0.107
multimer_genus_id,Q6NZI2_P10233,unrelaxed_model_1_multimer_v3_pred_1,0.036
multimer_genus_id,Q70UQ0_P10218,unrelaxed_model_1_multimer_v3_pred_1,0
multimer_genus_id,Q71DI3_P10233,unrelaxed_model_1_multimer_v3_pred_1,0.039
multimer_genus_id,Q7Z7H5_P10229,unrelaxed_model_1_multimer_v3_pred_1,0.051
multimer_genus_id,Q8WWI1_P08543,unrelaxed_model_1_multimer_v3_pred_1,0.036
multimer_genus_id,Q93077_P10233,unrelaxed_model_1_multimer_v3_pred_1,0.071
multimer_genus_id,Q96AG4_P10218,unrelaxed_model_1_multimer_v3_pred_1,0.157
multimer_genus_id,Q99877_P03170,unrelaxed_model_1_multimer_v3_pred_1,0.117
multimer_genus_id,Q99877_P04294,unrelaxed_model_1_multimer_v3_pred_1,0.044
multimer_genus_id,Q99877_P04485,unrelaxed_model_1_multimer_v3_pred_1,0.03
multimer_genus_id,Q99877_P04487,unrelaxed_model_1_multimer_v3_pred_1,0.02
multimer_genus_id,Q99877_P10226,unrelaxed_model_1_multimer_v3_pred_1,0.087
multimer_genus_id,Q99877_P10231,unrelaxed_model_1_multimer_v3_pred_1,0.038
multimer_genus_id,Q99877_P10233,unrelaxed_model_1_multimer_v3_pred_1,0.053
multimer_genus_id,Q99878_P10233,unrelaxed_model_1_multimer_v3_pred_1,0.072
multimer_genus_id,Q99879_P10233,unrelaxed_model_1_multimer_v3_pred_1,0.034
multimer_genus_id,Q99880_P10233,unrelaxed_model_1_multimer_v3_pred_1,0.067
multimer_genus_id,Q9BS26_P10211,unrelaxed_model_1_multimer_v3_pred_1,0.076
multimer_genus_id,Q9BVK6_P10229,unrelaxed_model_1_multimer_v3_pred_1,0.079
multimer_genus_id,Q9BXS5_P04488,unrelaxed_model_1_multimer_v3_pred_1,0.365
multimer_genus_id,Q9GZQ8_P10233,unrelaxed_model_1_multimer_v3_pred_1,0.087
multimer_genus_id,Q9H0U4_P10231,unrelaxed_model_1_multimer_v3_pred_1,0.05
multimer_genus_id,Q9H0U4_P10233,unrelaxed_model_1_multimer_v3_pred_1,0.04
multimer_genus_id,Q9H299_P10233,unrelaxed_model_1_multimer_v3_pred_1,0.063
multimer_genus_id,Q9H3P7_P04488,unrelaxed_model_1_multimer_v3_pred_1,0.219
multimer_genus_id,Q9HDC9_P10211,unrelaxed_model_1_multimer_v3_pred_1,0.43
multimer_genus_id,Q9NR12_P10233,unrelaxed_model_1_multimer_v3_pred_1,0.114
multimer_genus_id,Q9P2E9_P04487,unrelaxed_model_1_multimer_v3_pred_1,0
multimer_genus_id,Q9Y224_P10233,unrelaxed_model_1_multimer_v3_pred_1,0.026
