multimer_genus,O00299_P04487,result_model_1_multimer_v3_pred_1.pkl,0.15555125,0.6133271786625558,18.782698,65.42848120489494
multimer_genus,O43169_P04488,result_model_1_multimer_v3_pred_1.pkl,0.14841053,0.3374950341938544,26.210875,52.990887231128276
multimer_genus,O43169_P10218,result_model_1_multimer_v3_pred_1.pkl,0.22800416,0.46023464715449747,22.554317,60.27876747619615
multimer_genus,O43852_P10185,result_model_1_multimer_v3_pred_1.pkl,0.19608107,0.5007777214233844,21.651096,55.27235729591588
multimer_genus,O43852_P10211,result_model_1_multimer_v3_pred_1.pkl,0.15426996,0.3746993921366911,26.663116,59.500157450458076
multimer_genus,O75396_P04487,result_model_1_multimer_v3_pred_1.pkl,0.09536147,0.4308152306868867,24.273811,63.20569407473313
multimer_genus,O75531_P10233,result_model_1_multimer_v3_pred_1.pkl,0.15713286,0.29584141229595373,25.891163,52.84876988857326
multimer_genus,P00338_P04487,result_model_1_multimer_v3_pred_1.pkl,0.16940056,0.6845423358506717,16.731703,72.28706748025029
multimer_genus,P00387_P04488,result_model_1_multimer_v3_pred_1.pkl,0.21992353,0.4090834859399739,24.660273,60.84806639349045
multimer_genus,P01889_P10229,result_model_1_multimer_v3_pred_1.pkl,0.57494015,0.5191930826335246,20.269472,65.33933225446354
multimer_genus,P02511_P10233,result_model_1_multimer_v3_pred_1.pkl,0.18583207,0.28967245618258963,26.439182,45.66581533054641
multimer_genus,P04083_P04488,result_model_1_multimer_v3_pred_1.pkl,0.16234577,0.4407469705280086,24.238894,59.3831909637525
multimer_genus,P04288_P06703,result_model_1_multimer_v3_pred_1.pkl,0.23760663,0.5997518963383293,19.660593,66.25264034555018
multimer_genus,P04288_P62820,result_model_1_multimer_v3_pred_1.pkl,0.25719178,0.5588039492770677,20.476059,67.9071882131346
multimer_genus,P04288_P62979,result_model_1_multimer_v3_pred_1.pkl,0.13820356,0.5455908539169605,21.92985,65.1428858764407
multimer_genus,P04288_Q9H0U4,result_model_1_multimer_v3_pred_1.pkl,0.26331154,0.5623720969468133,20.306086,68.38310979453819
multimer_genus,P04294_P13010,result_model_1_multimer_v3_pred_1.pkl,0.30564108,0.43489738799234545,24.320225,69.74899045011048
multimer_genus,P04294_P27348,result_model_1_multimer_v3_pred_1.pkl,0.48694783,0.5639873766088443,20.463188,70.06577540367337
multimer_genus,P04294_P31946,result_model_1_multimer_v3_pred_1.pkl,0.37288955,0.5656747496921053,20.473373,69.51698054184948
multimer_genus,P04294_P61981,result_model_1_multimer_v3_pred_1.pkl,0.53816885,0.554145166676071,20.7632,69.94061638440577
multimer_genus,P04294_P62258,result_model_1_multimer_v3_pred_1.pkl,0.49341634,0.5553475600286069,20.906319,69.48701337842819
multimer_genus,P04294_P63104,result_model_1_multimer_v3_pred_1.pkl,0.45663482,0.5596701791520577,20.622467,69.63525101965932
multimer_genus,P04294_Q9Y4E8,result_model_1_multimer_v3_pred_1.pkl,0.34956285,0.47665394872000566,24.213013,66.08057372111514
multimer_genus,P04296_P07737,result_model_1_multimer_v3_pred_1.pkl,0.24887297,0.789715766298535,14.9634905,79.19075178510066
multimer_genus,P04406_P04487,result_model_1_multimer_v3_pred_1.pkl,0.20643568,0.6930310183455541,16.326202,73.22854637471367
multimer_genus,P04406_P10226,result_model_1_multimer_v3_pred_1.pkl,0.21988726,0.46206377611759064,22.598818,71.91756162798636
multimer_genus,P04406_P10233,result_model_1_multimer_v3_pred_1.pkl,0.27803177,0.5763326373633824,20.680134,69.25715657334952
multimer_genus,P04487_P08670,result_model_1_multimer_v3_pred_1.pkl,0.0830885,0.22255436752521834,28.193224,55.32991904347533
multimer_genus,P04487_P67809,result_model_1_multimer_v3_pred_1.pkl,0.089794196,0.2629581583167945,28.469917,42.05854473157438
multimer_genus,P04488_O14828,result_model_1_multimer_v3_pred_1.pkl,0.2127066,0.31302958306244794,27.006702,53.71740178977369
multimer_genus,P04488_O15127,result_model_1_multimer_v3_pred_1.pkl,0.20438145,0.30838107837773987,26.937016,55.338833089012454
multimer_genus,P04488_O75396,result_model_1_multimer_v3_pred_1.pkl,0.18858686,0.33204068113536556,26.096289,56.80167707328951
multimer_genus,P04488_P06703,result_model_1_multimer_v3_pred_1.pkl,0.29749122,0.3692563377961562,25.466503,52.64429246105485
multimer_genus,P04488_P07237,result_model_1_multimer_v3_pred_1.pkl,0.20239197,0.4314778639290311,24.229088,62.27902683379974
multimer_genus,P04488_P11166,result_model_1_multimer_v3_pred_1.pkl,0.24378729,0.5027634441775719,23.363598,62.5310241544911
multimer_genus,P04488_P20340,result_model_1_multimer_v3_pred_1.pkl,0.22453646,0.34152336865409555,25.280436,54.119177520001394
multimer_genus,P04488_P60468,result_model_1_multimer_v3_pred_1.pkl,0.13980561,0.34256371117067475,26.334343,53.52627614756932
multimer_genus,P04488_P61019,result_model_1_multimer_v3_pred_1.pkl,0.2044239,0.3516455872079991,24.943203,55.3200752138087
multimer_genus,P04488_P62820,result_model_1_multimer_v3_pred_1.pkl,0.21131599,0.3417974321114035,25.113539,53.468502963111064
multimer_genus,P04488_P62979,result_model_1_multimer_v3_pred_1.pkl,0.17654961,0.3368141413024981,26.101059,50.79236183354231
multimer_genus,P04488_Q15836,result_model_1_multimer_v3_pred_1.pkl,0.1762823,0.34358624017627015,26.261662,54.73158650271722
multimer_genus,P04488_Q96AJ9,result_model_1_multimer_v3_pred_1.pkl,0.25872374,0.3511005210045804,26.332115,58.34012111144651
multimer_genus,P04488_Q9BVC6,result_model_1_multimer_v3_pred_1.pkl,0.15445244,0.3097461471659113,27.318832,51.41589149084034
multimer_genus,P04488_Q9GZQ8,result_model_1_multimer_v3_pred_1.pkl,0.5737647,0.35758272748876563,25.083914,54.204873236827254
multimer_genus,P04488_Q9H0U4,result_model_1_multimer_v3_pred_1.pkl,0.23194477,0.34705095777393924,24.940475,54.740230164823444
multimer_genus,P04488_Q9H4G4,result_model_1_multimer_v3_pred_1.pkl,0.24655691,0.340897671545416,24.825552,56.9865724196248
multimer_genus,P04792_P04294,result_model_1_multimer_v3_pred_1.pkl,0.19079527,0.5937079001689067,21.38871,59.66278079445648
multimer_genus,P04792_P10233,result_model_1_multimer_v3_pred_1.pkl,0.19220392,0.2891131792705161,26.659695,39.032668163503466
multimer_genus,P05023_P04488,result_model_1_multimer_v3_pred_1.pkl,0.23820786,0.5929788191210335,21.81432,70.02507562394709
multimer_genus,P05204_P10233,result_model_1_multimer_v3_pred_1.pkl,0.14634961,0.3137926117953672,26.821758,40.55631967905168
multimer_genus,P06487_P06703,result_model_1_multimer_v3_pred_1.pkl,0.25823617,0.44227480472230646,23.890722,52.092218007250615
multimer_genus,P06487_P20340,result_model_1_multimer_v3_pred_1.pkl,0.1643711,0.37672019686954045,23.957806,58.37713998945201
multimer_genus,P06487_P51148,result_model_1_multimer_v3_pred_1.pkl,0.15271698,0.37411627791229196,24.254265,59.46952481737257
multimer_genus,P06487_P62937,result_model_1_multimer_v3_pred_1.pkl,0.42565325,0.39684112428366825,23.270885,63.546249583664235
multimer_genus,P06487_Q9H0U4,result_model_1_multimer_v3_pred_1.pkl,0.20132218,0.39216089802690024,23.592794,57.65194197133319
multimer_genus,P06491_P10599,result_model_1_multimer_v3_pred_1.pkl,0.1693802,0.7830250561184393,16.106802,78.33752139061767
multimer_genus,P06703_P04487,result_model_1_multimer_v3_pred_1.pkl,0.107078455,0.3486506983914474,24.886496,56.935246491877336
multimer_genus,P06703_P10226,result_model_1_multimer_v3_pred_1.pkl,0.23465887,0.4805324363687233,23.250076,53.973226933301305
multimer_genus,P06703_P10233,result_model_1_multimer_v3_pred_1.pkl,0.19102278,0.3081989692221353,25.693727,47.80815675423323
multimer_genus,P06703_P10238,result_model_1_multimer_v3_pred_1.pkl,0.19073218,0.44545632123553724,24.597198,52.58200403435391
multimer_genus,P06733_P04487,result_model_1_multimer_v3_pred_1.pkl,0.124637164,0.7302472080004802,15.058495,77.20241976986925
multimer_genus,P06733_P10226,result_model_1_multimer_v3_pred_1.pkl,0.13732706,0.5172169616232225,21.675486,73.17830325657212
multimer_genus,P06748_P04487,result_model_1_multimer_v3_pred_1.pkl,0.092464015,0.298413527062625,27.155678,49.031196642321646
multimer_genus,P07355_P06487,result_model_1_multimer_v3_pred_1.pkl,0.15789255,0.49471036639453947,22.487043,66.58201715748676
multimer_genus,P07355_Q69091,result_model_1_multimer_v3_pred_1.pkl,0.18149887,0.5109857263184725,20.281042,74.7110385824425
multimer_genus,P07384_P10231,result_model_1_multimer_v3_pred_1.pkl,0.27197897,0.5026031263142201,21.219011,74.98082864370367
multimer_genus,P07437_P10233,result_model_1_multimer_v3_pred_1.pkl,0.1903614,0.6094749129276745,20.20393,65.62074074629516
multimer_genus,P07737_P04487,result_model_1_multimer_v3_pred_1.pkl,0.28912485,0.5020014168744423,21.558107,64.74237341486652
multimer_genus,P07737_P08543,result_model_1_multimer_v3_pred_1.pkl,0.6508716,0.6655474727630961,19.756067,68.70392249340448
multimer_genus,P07737_P10233,result_model_1_multimer_v3_pred_1.pkl,0.2938229,0.4049372673703109,23.512465,54.648394671237924
multimer_genus,P08133_P04288,result_model_1_multimer_v3_pred_1.pkl,0.16809854,0.44444597086255433,22.1375,76.13115567897417
multimer_genus,P08133_P04488,result_model_1_multimer_v3_pred_1.pkl,0.18192995,0.4276488710248194,24.271864,65.16003126990847
multimer_genus,P08133_P06487,result_model_1_multimer_v3_pred_1.pkl,0.15337782,0.5278715567082721,21.437695,70.60835366268577
multimer_genus,P08133_Q69091,result_model_1_multimer_v3_pred_1.pkl,0.17258239,0.4606549592458719,22.234108,70.9753444793942
multimer_genus,P08134_P10233,result_model_1_multimer_v3_pred_1.pkl,0.3284225,0.4612139711658869,22.864773,57.32712196190116
multimer_genus,P08195_P10229,result_model_1_multimer_v3_pred_1.pkl,0.21407291,0.5729703859928295,21.749516,65.41416862551614
multimer_genus,P08392_P35268,result_model_1_multimer_v3_pred_1.pkl,0.34102565,0.42074740849150727,26.397535,56.799862192927996
multimer_genus,P08758_P10233,result_model_1_multimer_v3_pred_1.pkl,0.1427661,0.5387129386659232,21.996336,62.33284388796984
multimer_genus,P08758_Q69091,result_model_1_multimer_v3_pred_1.pkl,0.14556427,0.49346274794209993,20.966305,71.24368345728628
multimer_genus,P08962_P10211,result_model_1_multimer_v3_pred_1.pkl,0.42232114,0.4055551496639749,25.654152,64.09209810531424
multimer_genus,P09382_P10226,result_model_1_multimer_v3_pred_1.pkl,0.27316484,0.5020932617903868,21.956419,61.850375593659855
multimer_genus,P09382_P10233,result_model_1_multimer_v3_pred_1.pkl,0.23822424,0.3806150141212978,24.070639,56.53588015508886
multimer_genus,P09429_P10233,result_model_1_multimer_v3_pred_1.pkl,0.1349621,0.2655258540647959,26.275795,50.2508117178116
multimer_genus,P09651_P04487,result_model_1_multimer_v3_pred_1.pkl,0.11350018,0.39058168966981205,26.062952,47.98358333643469
multimer_genus,P09651_P10226,result_model_1_multimer_v3_pred_1.pkl,0.15034458,0.38806526589427526,25.94768,52.24134485362767
multimer_genus,P09651_P10233,result_model_1_multimer_v3_pred_1.pkl,0.24523212,0.3948870298420293,26.028984,45.41164048559457
multimer_genus,P09651_P10238,result_model_1_multimer_v3_pred_1.pkl,0.18659186,0.3687037027386614,26.563505,51.841357852268295
multimer_genus,P0C0S5_P10233,result_model_1_multimer_v3_pred_1.pkl,0.15457708,0.288688631213568,26.427935,42.10574790145217
multimer_genus,P0DMV9_P04487,result_model_1_multimer_v3_pred_1.pkl,0.37570214,0.6907561500459025,16.97517,74.082005404915
multimer_genus,P0DP25_P04288,result_model_1_multimer_v3_pred_1.pkl,0.17519197,0.5290082017551517,21.850296,61.637942824813585
multimer_genus,P0DP25_P04488,result_model_1_multimer_v3_pred_1.pkl,0.36928698,0.35939733439459676,24.732485,54.38029579757516
multimer_genus,P0DP25_P10211,result_model_1_multimer_v3_pred_1.pkl,0.20941842,0.4081619734724772,25.999777,60.44998200279348
multimer_genus,P0DP25_P10233,result_model_1_multimer_v3_pred_1.pkl,0.14194429,0.269858218309578,26.075808,45.302478746543244
multimer_genus,P10185_P05556,result_model_1_multimer_v3_pred_1.pkl,0.22526614,0.5295985050724646,22.494387,70.29640576850717
multimer_genus,P10185_P07237,result_model_1_multimer_v3_pred_1.pkl,0.21347387,0.5352733934662703,20.063515,68.2156162239223
multimer_genus,P10185_P09382,result_model_1_multimer_v3_pred_1.pkl,0.21186781,0.4576735136109167,20.10795,62.58795074420602
multimer_genus,P10185_P11021,result_model_1_multimer_v3_pred_1.pkl,0.23129547,0.6208981177645847,19.087057,71.47070151636967
multimer_genus,P10185_P13667,result_model_1_multimer_v3_pred_1.pkl,0.24437034,0.6012584681545992,18.736895,71.29744771784257
multimer_genus,P10185_P14314,result_model_1_multimer_v3_pred_1.pkl,0.17304885,0.4072029827841642,23.734587,65.11690548895814
multimer_genus,P10185_P23284,result_model_1_multimer_v3_pred_1.pkl,0.16542047,0.48350400088780054,21.353804,64.33418817683248
multimer_genus,P10185_P30101,result_model_1_multimer_v3_pred_1.pkl,0.19910046,0.5501033548082922,19.85071,69.92448540340943
multimer_genus,P10185_P50454,result_model_1_multimer_v3_pred_1.pkl,0.20779002,0.643612114337005,17.66605,69.77225212431539
multimer_genus,P10209_P08670,result_model_1_multimer_v3_pred_1.pkl,0.13907757,0.445550274334677,26.334036,55.950775530442165
multimer_genus,P10209_Q99877,result_model_1_multimer_v3_pred_1.pkl,0.14921984,0.6171498238826321,20.44274,61.87268226183375
multimer_genus,P10211_P01889,result_model_1_multimer_v3_pred_1.pkl,0.18596548,0.3802810310345785,26.676495,63.17095375496764
multimer_genus,P10211_P04844,result_model_1_multimer_v3_pred_1.pkl,0.18982324,0.3805471939910955,26.154165,68.3109914708282
multimer_genus,P10211_P07237,result_model_1_multimer_v3_pred_1.pkl,0.16333364,0.33495712019371426,26.709879,63.482267469628155
multimer_genus,P10211_P08195,result_model_1_multimer_v3_pred_1.pkl,0.16783589,0.3789187657295503,26.915411,62.42922775280308
multimer_genus,P10211_P08648,result_model_1_multimer_v3_pred_1.pkl,0.21052873,0.417784762262868,26.61875,66.79768284792807
multimer_genus,P10211_P09382,result_model_1_multimer_v3_pred_1.pkl,0.13889912,0.3933370641114284,26.115255,63.800452139701584
multimer_genus,P10211_P10321,result_model_1_multimer_v3_pred_1.pkl,0.17944369,0.3762278494021498,26.69675,62.777763770336094
multimer_genus,P10211_P11021,result_model_1_multimer_v3_pred_1.pkl,0.2569692,0.4238828209719274,25.783167,66.75356534539488
multimer_genus,P10211_P13667,result_model_1_multimer_v3_pred_1.pkl,0.17829329,0.3824065192941639,26.295223,65.86567739802142
multimer_genus,P10211_P14625,result_model_1_multimer_v3_pred_1.pkl,0.18249272,0.3937580411216964,26.844189,62.881390663734244
multimer_genus,P10211_P21589,result_model_1_multimer_v3_pred_1.pkl,0.17244658,0.374444496221777,26.159702,67.61969670083168
multimer_genus,P10211_P23284,result_model_1_multimer_v3_pred_1.pkl,0.18841283,0.40140342437969023,25.957104,66.21869677022394
multimer_genus,P10211_P30101,result_model_1_multimer_v3_pred_1.pkl,0.16382375,0.35022380091186456,26.458067,65.90953067311433
multimer_genus,P10211_P46977,result_model_1_multimer_v3_pred_1.pkl,0.23280814,0.4925243512663716,24.681519,68.04801125935886
multimer_genus,P10211_P50454,result_model_1_multimer_v3_pred_1.pkl,0.20343256,0.40713144622085745,25.023157,66.9432951541854
multimer_genus,P10211_P62979,result_model_1_multimer_v3_pred_1.pkl,0.14678746,0.39276354964100557,26.457819,61.75224194655408
multimer_genus,P10211_Q12907,result_model_1_multimer_v3_pred_1.pkl,0.15290879,0.3650210938963985,26.73365,63.16689518146004
multimer_genus,P10211_Q15084,result_model_1_multimer_v3_pred_1.pkl,0.16310334,0.3721133351985707,26.967138,63.56428587262227
multimer_genus,P10211_Q15293,result_model_1_multimer_v3_pred_1.pkl,0.2126672,0.38885308778284833,26.310411,60.36635737706232
multimer_genus,P10211_Q8TCJ2,result_model_1_multimer_v3_pred_1.pkl,0.19603959,0.47417967323521126,25.569523,63.99768722609165
multimer_genus,P10211_Q99805,result_model_1_multimer_v3_pred_1.pkl,0.25505912,0.4543894930228113,25.485735,67.5252926920427
multimer_genus,P10211_Q9BTV4,result_model_1_multimer_v3_pred_1.pkl,0.17420846,0.3629962466057962,26.114391,65.79912246395598
multimer_genus,P10211_Q9BVC6,result_model_1_multimer_v3_pred_1.pkl,0.19667667,0.40574953863214,26.61947,58.52981159859049
multimer_genus,P10211_Q9BVK6,result_model_1_multimer_v3_pred_1.pkl,0.15852699,0.395264325233155,26.343885,65.23351965213459
multimer_genus,P10218_O00264,result_model_1_multimer_v3_pred_1.pkl,0.16369516,0.4075217244861772,22.649128,61.41434177250776
multimer_genus,P10218_O15173,result_model_1_multimer_v3_pred_1.pkl,0.162651,0.3969535832718556,23.433035,59.41349232643484
multimer_genus,P10218_O75396,result_model_1_multimer_v3_pred_1.pkl,0.2838692,0.4352483642255746,22.058361,64.47874005875545
multimer_genus,P10218_P10599,result_model_1_multimer_v3_pred_1.pkl,0.1211936,0.4438267253026426,21.3003,65.35540951311224
multimer_genus,P10218_P26373,result_model_1_multimer_v3_pred_1.pkl,0.08875241,0.3638290214764188,24.210384,67.4647453441608
multimer_genus,P10218_P39023,result_model_1_multimer_v3_pred_1.pkl,0.36753047,0.6183363843101545,18.587872,72.88945901430488
multimer_genus,P10218_P60468,result_model_1_multimer_v3_pred_1.pkl,0.09836614,0.44700202913980047,23.605856,55.35630914011896
multimer_genus,P10218_P61353,result_model_1_multimer_v3_pred_1.pkl,0.27602828,0.47775942850103426,19.96269,67.33926937408533
multimer_genus,P10218_Q9UNL2,result_model_1_multimer_v3_pred_1.pkl,0.12697381,0.3438981913603264,23.574865,57.55004101253568
multimer_genus,P10225_P10233,result_model_1_multimer_v3_pred_1.pkl,0.1898589,0.515623167791962,23.437077,54.24747117298745
multimer_genus,P10228_P09382,result_model_1_multimer_v3_pred_1.pkl,0.2512419,0.5050973125508196,22.049786,67.49571788006557
multimer_genus,P10230_Q9P0L0,result_model_1_multimer_v3_pred_1.pkl,0.2000331,0.4712836586021175,25.145487,55.62794088079238
multimer_genus,P10233_P63104,result_model_1_multimer_v3_pred_1.pkl,0.2859836,0.5022934064067905,22.514282,58.36663995400369
multimer_genus,P10233_P67809,result_model_1_multimer_v3_pred_1.pkl,0.14668922,0.25720268752163394,28.043556,40.75947797972672
multimer_genus,P10233_Q15836,result_model_1_multimer_v3_pred_1.pkl,0.11436074,0.2714620731015836,27.014294,46.97667060317926
multimer_genus,P10233_Q702N8,result_model_1_multimer_v3_pred_1.pkl,0.25324452,0.259570208029417,30.099072,26.03421041714994
multimer_genus,P10234_P06703,result_model_1_multimer_v3_pred_1.pkl,0.22313479,0.683083423873271,15.731793,68.49540082176472
multimer_genus,P10234_P57053,result_model_1_multimer_v3_pred_1.pkl,0.14675653,0.6253421212415082,18.46335,60.351443220167276
multimer_genus,P10234_Q99877,result_model_1_multimer_v3_pred_1.pkl,0.1570825,0.6373691222758922,17.883883,64.76479494202154
multimer_genus,P10599_P04487,result_model_1_multimer_v3_pred_1.pkl,0.09274039,0.4047101211014773,23.74889,70.07804845312492
multimer_genus,P10599_P10226,result_model_1_multimer_v3_pred_1.pkl,0.21677646,0.507357449461686,22.298374,60.01500617203049
multimer_genus,P10599_P10233,result_model_1_multimer_v3_pred_1.pkl,0.30133075,0.36027992643409396,23.860876,56.57845339425737
multimer_genus,P10599_P10235,result_model_1_multimer_v3_pred_1.pkl,0.144453,0.386654025599767,23.356108,47.75468605122533
multimer_genus,P11142_P03170,result_model_1_multimer_v3_pred_1.pkl,0.22309858,0.7449902821971717,14.179505,77.85193608714584
multimer_genus,P11142_P04487,result_model_1_multimer_v3_pred_1.pkl,0.34404847,0.6890996691709697,17.083136,74.26806515539417
multimer_genus,P11142_P10226,result_model_1_multimer_v3_pred_1.pkl,0.35511625,0.5162830826184623,22.762865,67.79766455941747
multimer_genus,P11142_P10233,result_model_1_multimer_v3_pred_1.pkl,0.18224338,0.605032715865305,20.51944,68.27615665694115
multimer_genus,P11940_P10238,result_model_1_multimer_v3_pred_1.pkl,0.18455839,0.32807220009483107,27.640213,53.96590796722531
multimer_genus,P12004_P10226,result_model_1_multimer_v3_pred_1.pkl,0.67438304,0.4261626535907529,22.795738,64.77316488241725
multimer_genus,P13639_P04487,result_model_1_multimer_v3_pred_1.pkl,0.14737771,0.6251900456236033,17.588093,75.98759359242018
multimer_genus,P13726_P10211,result_model_1_multimer_v3_pred_1.pkl,0.15777363,0.3859476433961688,26.689909,60.40072421149555
multimer_genus,P13797_P10226,result_model_1_multimer_v3_pred_1.pkl,0.1503214,0.5018326815752634,23.289553,66.4585897600241
multimer_genus,P13987_P06484,result_model_1_multimer_v3_pred_1.pkl,0.15598652,0.2968726372519629,26.39869,43.76024327724812
multimer_genus,P13987_P10211,result_model_1_multimer_v3_pred_1.pkl,0.15823022,0.40943676937523443,26.096209,61.56048193500576
multimer_genus,P13987_P10229,result_model_1_multimer_v3_pred_1.pkl,0.14832498,0.3953410416088845,21.814522,63.23941913114362
multimer_genus,P13987_Q69091,result_model_1_multimer_v3_pred_1.pkl,0.13329157,0.4970366852798009,22.520397,61.41499036962753
multimer_genus,P16070_P06487,result_model_1_multimer_v3_pred_1.pkl,0.22454584,0.28327688296131204,28.812653,37.13770511015424
multimer_genus,P16070_P10228,result_model_1_multimer_v3_pred_1.pkl,0.1741653,0.33598398983043914,28.362991,44.333599641467785
multimer_genus,P16070_Q69091,result_model_1_multimer_v3_pred_1.pkl,0.24730003,0.30423810189112166,28.418602,38.25461428582982
multimer_genus,P16104_P10233,result_model_1_multimer_v3_pred_1.pkl,0.13450289,0.27715495999211137,26.514404,45.3051802268038
multimer_genus,P16333_P10233,result_model_1_multimer_v3_pred_1.pkl,0.23069842,0.2787362345972451,26.818895,50.351569885798625
multimer_genus,P16401_P10233,result_model_1_multimer_v3_pred_1.pkl,0.13682081,0.26980285798403236,27.700188,40.52171089228799
multimer_genus,P16402_P10233,result_model_1_multimer_v3_pred_1.pkl,0.13325374,0.27012546325719683,27.671776,41.47714670334218
multimer_genus,P17096_P04487,result_model_1_multimer_v3_pred_1.pkl,0.061671823,0.12493138063455249,27.798971,47.11953944327441
multimer_genus,P17096_P10226,result_model_1_multimer_v3_pred_1.pkl,0.123297855,0.5101357215006225,23.58719,53.856604301730684
multimer_genus,P17096_P10233,result_model_1_multimer_v3_pred_1.pkl,0.13056596,0.29462295328914395,27.322937,43.67863946034084
multimer_genus,P18085_P04488,result_model_1_multimer_v3_pred_1.pkl,0.3627398,0.3781029813041886,24.502535,55.85088180847957
multimer_genus,P18085_P10211,result_model_1_multimer_v3_pred_1.pkl,0.18489642,0.39911510133782,25.825813,63.289334948257
multimer_genus,P18085_Q69091,result_model_1_multimer_v3_pred_1.pkl,0.13984838,0.46745486548881227,21.917164,64.30730924135065
multimer_genus,P18124_P04487,result_model_1_multimer_v3_pred_1.pkl,0.089306645,0.479393635498147,22.45498,65.40330020823586
multimer_genus,P20340_P10233,result_model_1_multimer_v3_pred_1.pkl,0.5604812,0.4817179284368237,22.91997,55.30503187469328
multimer_genus,P21291_P04487,result_model_1_multimer_v3_pred_1.pkl,0.07078336,0.221843762580079,27.267889,56.34902785333438
multimer_genus,P21926_P04488,result_model_1_multimer_v3_pred_1.pkl,0.24569024,0.31317679831657264,25.551079,54.1684547573332
multimer_genus,P21926_P06477,result_model_1_multimer_v3_pred_1.pkl,0.20839591,0.6176984193720563,21.021484,66.93559449726526
multimer_genus,P21926_P10211,result_model_1_multimer_v3_pred_1.pkl,0.2702875,0.4246353289739697,25.628664,60.75306120451516
multimer_genus,P21926_P10229,result_model_1_multimer_v3_pred_1.pkl,0.15556608,0.4353393421865198,19.630112,58.517283592634556
multimer_genus,P22626_P10226,result_model_1_multimer_v3_pred_1.pkl,0.14001301,0.396637162722706,25.749397,53.34179717870033
multimer_genus,P22626_P10233,result_model_1_multimer_v3_pred_1.pkl,0.2855446,0.37250185773255123,26.38484,46.58884521440193
multimer_genus,P23284_P10229,result_model_1_multimer_v3_pred_1.pkl,0.17206728,0.5304261388638907,19.562235,69.99980106902042
multimer_genus,P23396_P10233,result_model_1_multimer_v3_pred_1.pkl,0.14183813,0.39954513605113934,24.673395,57.97271478247882
multimer_genus,P26373_P10233,result_model_1_multimer_v3_pred_1.pkl,0.10178984,0.2929719352484503,26.59887,56.89628715068609
multimer_genus,P26583_P10233,result_model_1_multimer_v3_pred_1.pkl,0.15691072,0.2546831290169407,26.447483,49.42343461336495
multimer_genus,P27635_P10233,result_model_1_multimer_v3_pred_1.pkl,0.21518803,0.409836635072398,24.452066,56.32441884569242
multimer_genus,P27797_P03170,result_model_1_multimer_v3_pred_1.pkl,0.26630062,0.673647806418648,16.355854,77.63550603486087
multimer_genus,P27797_P04488,result_model_1_multimer_v3_pred_1.pkl,0.24729452,0.4435176169444258,24.425652,62.86171574237621
multimer_genus,P27797_P10185,result_model_1_multimer_v3_pred_1.pkl,0.20991488,0.5524073784936536,20.57292,69.36264373986344
multimer_genus,P27797_P10211,result_model_1_multimer_v3_pred_1.pkl,0.1692884,0.3508977400144842,26.557816,62.93390349502569
multimer_genus,P27824_P10211,result_model_1_multimer_v3_pred_1.pkl,0.16283232,0.3345970858643027,27.584675,59.76257639499767
multimer_genus,P27824_P10229,result_model_1_multimer_v3_pred_1.pkl,0.14637938,0.4743524875273737,23.94921,63.96969767850449
multimer_genus,P27824_Q69091,result_model_1_multimer_v3_pred_1.pkl,0.17043862,0.404283025326229,25.487543,59.893564260312004
multimer_genus,P30050_P04487,result_model_1_multimer_v3_pred_1.pkl,0.07851881,0.46396358914255725,22.506117,64.92686824938167
multimer_genus,P30050_P10233,result_model_1_multimer_v3_pred_1.pkl,0.41027403,0.4353797239010113,22.888136,51.799716324413055
multimer_genus,P31949_P03170,result_model_1_multimer_v3_pred_1.pkl,0.2819568,0.5349288098236915,18.114052,58.550905955084474
multimer_genus,P31949_P10233,result_model_1_multimer_v3_pred_1.pkl,0.19718221,0.30526196716399695,25.518684,47.18556486859506
multimer_genus,P32969_P10233,result_model_1_multimer_v3_pred_1.pkl,0.20175314,0.3987054466500737,24.295895,56.47786956006056
multimer_genus,P35268_P04487,result_model_1_multimer_v3_pred_1.pkl,0.09326324,0.38154943127501934,24.490211,64.19405274573211
multimer_genus,P35268_P10233,result_model_1_multimer_v3_pred_1.pkl,0.15572503,0.32148165578936144,25.44887,52.23429484173184
multimer_genus,P36578_P04487,result_model_1_multimer_v3_pred_1.pkl,0.0973696,0.47933045250568485,23.621048,66.71999639393297
multimer_genus,P38159_P10233,result_model_1_multimer_v3_pred_1.pkl,0.1609295,0.2503152677505523,28.511787,35.13768542346959
multimer_genus,P39019_P04487,result_model_1_multimer_v3_pred_1.pkl,0.0802834,0.4556897047855589,23.15517,65.2372855159325
multimer_genus,P39019_P10226,result_model_1_multimer_v3_pred_1.pkl,0.14290011,0.47862861409474505,23.63435,55.57593047846577
multimer_genus,P39023_P04487,result_model_1_multimer_v3_pred_1.pkl,0.104745425,0.6366021310573136,18.895622,69.85353929171664
multimer_genus,P40227_P10226,result_model_1_multimer_v3_pred_1.pkl,0.19803879,0.49381078311997795,22.593212,65.00389507714227
multimer_genus,P40429_P04487,result_model_1_multimer_v3_pred_1.pkl,0.07976914,0.4818327459118461,22.463058,66.3820957250616
multimer_genus,P42766_P04487,result_model_1_multimer_v3_pred_1.pkl,0.058377787,0.37401788512528156,24.622988,65.04409078561424
multimer_genus,P42766_P10233,result_model_1_multimer_v3_pred_1.pkl,0.17985025,0.2975760426407539,25.808931,56.659146061715646
multimer_genus,P45983_P04294,result_model_1_multimer_v3_pred_1.pkl,0.65792257,0.5030709084107439,21.638124,68.5192730858756
multimer_genus,P46776_P10233,result_model_1_multimer_v3_pred_1.pkl,0.09032297,0.2875685185080188,26.37599,59.051588822900314
multimer_genus,P46779_P04487,result_model_1_multimer_v3_pred_1.pkl,0.086688854,0.3628862673332463,24.822866,57.62697017611987
multimer_genus,P47914_P04487,result_model_1_multimer_v3_pred_1.pkl,0.0620642,0.1969361428342684,27.917181,47.00688742048559
multimer_genus,P49207_P10233,result_model_1_multimer_v3_pred_1.pkl,0.11659792,0.2603968959863267,26.89591,51.46438063326842
multimer_genus,P49458_P04487,result_model_1_multimer_v3_pred_1.pkl,0.10529808,0.3296476828200601,24.426327,57.39913252341588
multimer_genus,P49755_P10229,result_model_1_multimer_v3_pred_1.pkl,0.16683532,0.33807616422750764,22.49639,60.319407343208994
multimer_genus,P50402_P10218,result_model_1_multimer_v3_pred_1.pkl,0.12731391,0.35359610320722634,26.747501,48.81722650984519
multimer_genus,P50454_P10229,result_model_1_multimer_v3_pred_1.pkl,0.21327017,0.6874805514094849,15.968798,74.3348513190111
multimer_genus,P50914_P04487,result_model_1_multimer_v3_pred_1.pkl,0.07219853,0.36310213769593164,25.801493,55.85459905016743
multimer_genus,P50914_P10233,result_model_1_multimer_v3_pred_1.pkl,0.09159778,0.2944361664904182,27.234163,50.50184546719873
multimer_genus,P52926_P10226,result_model_1_multimer_v3_pred_1.pkl,0.12066729,0.4904435131136214,24.234377,50.950392213335114
multimer_genus,P55010_P10233,result_model_1_multimer_v3_pred_1.pkl,0.1587714,0.3149578842123479,26.653425,55.834567112284596
multimer_genus,P57053_P04487,result_model_1_multimer_v3_pred_1.pkl,0.08502884,0.25080061128027814,25.849834,53.648578258383075
multimer_genus,P57053_P10226,result_model_1_multimer_v3_pred_1.pkl,0.25350112,0.5202351625475043,22.880508,51.79653826241474
multimer_genus,P57053_P10233,result_model_1_multimer_v3_pred_1.pkl,0.21163458,0.31029782659003,26.248655,41.16571630773517
multimer_genus,P58876_P10233,result_model_1_multimer_v3_pred_1.pkl,0.16739973,0.29672239238543285,26.24695,44.41820422155236
multimer_genus,P60468_P04487,result_model_1_multimer_v3_pred_1.pkl,0.057636164,0.15604037558958708,27.813768,48.676873588620715
multimer_genus,P60468_P10233,result_model_1_multimer_v3_pred_1.pkl,0.16229568,0.30627525049975224,26.991488,41.53983249287337
multimer_genus,P60709_P04294,result_model_1_multimer_v3_pred_1.pkl,0.3805455,0.5461856370046878,19.861502,74.62661464478575
multimer_genus,P60709_P04296,result_model_1_multimer_v3_pred_1.pkl,0.21161613,0.6993697091541597,18.294088,79.75434035034115
multimer_genus,P60709_P04487,result_model_1_multimer_v3_pred_1.pkl,0.18252589,0.6958405203820673,16.199486,73.37112004171587
multimer_genus,P60709_P06491,result_model_1_multimer_v3_pred_1.pkl,0.24596536,0.7225446340279411,18.358791,79.09932609876265
multimer_genus,P60709_P10226,result_model_1_multimer_v3_pred_1.pkl,0.18783733,0.4863522155531729,22.394724,67.10578308027011
multimer_genus,P60709_P10233,result_model_1_multimer_v3_pred_1.pkl,0.18878542,0.5830169101793197,20.670519,66.00950288599606
multimer_genus,P60953_P06487,result_model_1_multimer_v3_pred_1.pkl,0.18274336,0.378175817846693,23.85481,60.12465245605203
multimer_genus,P61026_P10233,result_model_1_multimer_v3_pred_1.pkl,0.3525348,0.4432374156789195,23.233034,55.35347227466873
multimer_genus,P61254_P04487,result_model_1_multimer_v3_pred_1.pkl,0.07043828,0.42054240133919063,23.701878,68.00548989979471
multimer_genus,P61353_P04487,result_model_1_multimer_v3_pred_1.pkl,0.09321688,0.4406844871064359,23.077177,69.27641087245975
multimer_genus,P61353_P10233,result_model_1_multimer_v3_pred_1.pkl,0.15236598,0.34036478454009567,25.426138,59.03594655708052
multimer_genus,P61513_P10233,result_model_1_multimer_v3_pred_1.pkl,0.1840614,0.30353118768540294,25.935537,47.273803805608495
multimer_genus,P61769_P10211,result_model_1_multimer_v3_pred_1.pkl,0.21872866,0.41332167647338536,25.592644,62.429963346762044
multimer_genus,P61978_P10233,result_model_1_multimer_v3_pred_1.pkl,0.14500709,0.33176659936558034,27.335032,45.21029906387705
multimer_genus,P62136_P10233,result_model_1_multimer_v3_pred_1.pkl,0.62413245,0.5397604701692293,21.901464,62.326687465853134
multimer_genus,P62241_P04487,result_model_1_multimer_v3_pred_1.pkl,0.08258962,0.5352449844822329,21.367592,69.7862134857729
multimer_genus,P62328_P04487,result_model_1_multimer_v3_pred_1.pkl,0.06279121,0.1289122093860324,26.976475,48.40958842877204
multimer_genus,P62424_P04487,result_model_1_multimer_v3_pred_1.pkl,0.07759504,0.43362708816235873,24.023844,63.459392547979554
multimer_genus,P62750_P04487,result_model_1_multimer_v3_pred_1.pkl,0.07373672,0.31989282942087693,25.975458,63.62331338194111
multimer_genus,P62805_P10233,result_model_1_multimer_v3_pred_1.pkl,0.19697663,0.30906822128691985,26.122421,39.09836884335368
multimer_genus,P62820_P10231,result_model_1_multimer_v3_pred_1.pkl,0.5222796,0.7219066349480946,16.771132,69.44764191955939
multimer_genus,P62820_P10233,result_model_1_multimer_v3_pred_1.pkl,0.27603614,0.4200683120893777,23.727009,53.23390196428346
multimer_genus,P62851_P04487,result_model_1_multimer_v3_pred_1.pkl,0.08081119,0.28577562524764993,26.188866,55.995228296176926
multimer_genus,P62857_P10233,result_model_1_multimer_v3_pred_1.pkl,0.28332022,0.3359617696329766,25.347843,44.68943353832461
multimer_genus,P62888_P10233,result_model_1_multimer_v3_pred_1.pkl,0.18661493,0.322202134851788,25.01795,53.21758609027154
multimer_genus,P62899_P10233,result_model_1_multimer_v3_pred_1.pkl,0.20635717,0.30363210135174457,25.450098,47.79785824688851
multimer_genus,P62906_P04487,result_model_1_multimer_v3_pred_1.pkl,0.08166291,0.5329189724665299,21.076395,68.19698463941388
multimer_genus,P62913_P04487,result_model_1_multimer_v3_pred_1.pkl,0.08616514,0.49109097963239395,22.170862,69.51665318034325
multimer_genus,P62913_P10233,result_model_1_multimer_v3_pred_1.pkl,0.15717894,0.39364938706986546,24.552011,57.7355486479277
multimer_genus,P62917_P10233,result_model_1_multimer_v3_pred_1.pkl,0.12484259,0.38519335052770265,25.130388,56.220354872923544
multimer_genus,P62937_P03170,result_model_1_multimer_v3_pred_1.pkl,0.20944878,0.6929983052007611,14.096229,72.9706839145902
multimer_genus,P62937_P04294,result_model_1_multimer_v3_pred_1.pkl,0.27812532,0.6088794017729391,19.477493,70.64586662825087
multimer_genus,P62937_P04487,result_model_1_multimer_v3_pred_1.pkl,0.78379154,0.5652910541066838,19.771547,73.52907713828156
multimer_genus,P62937_P10226,result_model_1_multimer_v3_pred_1.pkl,0.15670323,0.4674668455992479,22.42964,64.09549822595544
multimer_genus,P62937_P10233,result_model_1_multimer_v3_pred_1.pkl,0.20635259,0.4336235482840131,23.291548,60.974262557642824
multimer_genus,P62942_P04294,result_model_1_multimer_v3_pred_1.pkl,0.27116477,0.6393447646768879,18.988163,68.28637736380107
multimer_genus,P62979_P06485,result_model_1_multimer_v3_pred_1.pkl,0.22356786,0.5550471288621663,19.987709,65.60951494302985
multimer_genus,P62979_P10233,result_model_1_multimer_v3_pred_1.pkl,0.16376352,0.2541024306696756,26.98625,54.88439962933656
multimer_genus,P62993_P10233,result_model_1_multimer_v3_pred_1.pkl,0.18655367,0.3397027835702123,25.29091,51.088159856471194
multimer_genus,P63220_P04487,result_model_1_multimer_v3_pred_1.pkl,0.089233026,0.31070296923104673,25.35815,59.07454480179046
multimer_genus,P63241_P04487,result_model_1_multimer_v3_pred_1.pkl,0.08704953,0.4230985197858235,23.446861,66.20868502534323
multimer_genus,P63241_P10233,result_model_1_multimer_v3_pred_1.pkl,0.13398743,0.3457306527835321,25.31547,54.50114698206816
multimer_genus,P67870_P10233,result_model_1_multimer_v3_pred_1.pkl,0.26885533,0.4481734060703795,24.045975,59.000648518986004
multimer_genus,P68104_P03170,result_model_1_multimer_v3_pred_1.pkl,0.20467392,0.6543469685332578,14.381643,71.96914063036884
multimer_genus,P68104_P04487,result_model_1_multimer_v3_pred_1.pkl,0.14766783,0.6500656750086353,17.174309,68.97283897041936
multimer_genus,P68104_P10233,result_model_1_multimer_v3_pred_1.pkl,0.22002932,0.5431425663355353,20.66844,62.995461721848685
multimer_genus,P68400_P10233,result_model_1_multimer_v3_pred_1.pkl,0.20150748,0.5456146450386796,21.962547,62.54638095667812
multimer_genus,P83731_P04487,result_model_1_multimer_v3_pred_1.pkl,0.065561816,0.260348989145621,26.613398,62.51211053978511
multimer_genus,P83731_P10233,result_model_1_multimer_v3_pred_1.pkl,0.15340301,0.2576054422673545,27.242638,54.338265365760996
multimer_genus,P84077_P10233,result_model_1_multimer_v3_pred_1.pkl,0.3527042,0.42627316306685803,23.49895,52.26975320089171
multimer_genus,P84243_P04487,result_model_1_multimer_v3_pred_1.pkl,0.094047174,0.2729616537849118,26.120132,57.30742781685987
multimer_genus,P84243_P10226,result_model_1_multimer_v3_pred_1.pkl,0.20916969,0.5011634601152017,23.362411,52.259973020046914
multimer_genus,P84243_P10233,result_model_1_multimer_v3_pred_1.pkl,0.14697853,0.28817539895892313,26.818983,40.70752331329569
multimer_genus,Q00341_P04487,result_model_1_multimer_v3_pred_1.pkl,0.15179297,0.29094588269384813,27.84362,65.3583511079388
multimer_genus,Q00839_P10226,result_model_1_multimer_v3_pred_1.pkl,0.1797929,0.4027679304179319,26.549166,52.89171006282092
multimer_genus,Q01105_P04487,result_model_1_multimer_v3_pred_1.pkl,0.094124615,0.43548945208537304,24.68536,53.36295723183938
multimer_genus,Q01105_P10233,result_model_1_multimer_v3_pred_1.pkl,0.1358869,0.377722726047405,25.98847,48.238600902955596
multimer_genus,Q02543_P04487,result_model_1_multimer_v3_pred_1.pkl,0.10541369,0.4313866294991413,23.165058,61.85051913699214
multimer_genus,Q02818_P10220,result_model_1_multimer_v3_pred_1.pkl,0.27044773,0.3681618247844142,29.44229,51.12233784331725
multimer_genus,Q02878_P04487,result_model_1_multimer_v3_pred_1.pkl,0.073238894,0.356561085960472,26.251366,58.12341388954341
multimer_genus,Q03518_P03170,result_model_1_multimer_v3_pred_1.pkl,0.23125884,0.584244196282832,18.956903,69.82342112019232
multimer_genus,Q05639_P04487,result_model_1_multimer_v3_pred_1.pkl,0.15125579,0.6119921946179145,17.697205,67.57994846805028
multimer_genus,Q06830_P10226,result_model_1_multimer_v3_pred_1.pkl,0.11544679,0.4399609615449811,23.850616,63.99430039952817
multimer_genus,Q07020_P04487,result_model_1_multimer_v3_pred_1.pkl,0.075161554,0.4316189204643289,23.70436,63.13189237456134
multimer_genus,Q07020_P10233,result_model_1_multimer_v3_pred_1.pkl,0.16234544,0.3259099244258182,26.048447,52.67726418445964
multimer_genus,Q10472_P04488,result_model_1_multimer_v3_pred_1.pkl,0.26548088,0.5224948979000416,23.049501,66.59618777700535
multimer_genus,Q13123_P10233,result_model_1_multimer_v3_pred_1.pkl,0.31413174,0.22942148797415557,29.42677,39.50136490335472
multimer_genus,Q13641_P10229,result_model_1_multimer_v3_pred_1.pkl,0.1272705,0.5149083682626499,22.396574,66.4315911802245
multimer_genus,Q14011_P10233,result_model_1_multimer_v3_pred_1.pkl,0.19849503,0.3043542032796205,26.512115,45.85012756609567
multimer_genus,Q14697_P10211,result_model_1_multimer_v3_pred_1.pkl,0.21526548,0.5699167876953295,23.237343,72.0303390210579
multimer_genus,Q14847_P10233,result_model_1_multimer_v3_pred_1.pkl,0.36472806,0.3736163947094715,26.347845,44.688256841780934
multimer_genus,Q15056_P10225,result_model_1_multimer_v3_pred_1.pkl,0.6012812,0.636946567273782,20.051157,63.421559320777384
multimer_genus,Q15056_P10231,result_model_1_multimer_v3_pred_1.pkl,0.1491516,0.6076050451580359,21.735012,58.35926514621207
multimer_genus,Q15056_P10233,result_model_1_multimer_v3_pred_1.pkl,0.12677057,0.25335269658373294,27.68,44.341443139930796
multimer_genus,Q15691_P10233,result_model_1_multimer_v3_pred_1.pkl,0.12538573,0.3128011206957829,26.731314,52.11414090048356
multimer_genus,Q16531_P10231,result_model_1_multimer_v3_pred_1.pkl,0.2932716,0.6075824049786038,20.464128,79.33489609421514
multimer_genus,Q16777_P10233,result_model_1_multimer_v3_pred_1.pkl,0.14485778,0.28748547577951783,26.027061,45.69039869870788
multimer_genus,Q1KMD3_P10226,result_model_1_multimer_v3_pred_1.pkl,0.1830792,0.4305165028247646,25.793837,57.113766213828406
multimer_genus,Q5QNW6_P10233,result_model_1_multimer_v3_pred_1.pkl,0.16349523,0.2939051247418752,26.092766,45.2360388986144
multimer_genus,Q5VW38_P10229,result_model_1_multimer_v3_pred_1.pkl,0.1851438,0.5723749225103307,21.164677,62.176059751044264
multimer_genus,Q69091_P09382,result_model_1_multimer_v3_pred_1.pkl,0.14947441,0.45211857987420845,22.000212,62.26379666449859
multimer_genus,Q69091_P11021,result_model_1_multimer_v3_pred_1.pkl,0.16950348,0.5117957123883202,22.213732,68.86305470638963
multimer_genus,Q69091_P27105,result_model_1_multimer_v3_pred_1.pkl,0.111103535,0.409591249831548,24.015577,66.69709650709818
multimer_genus,Q69091_P61224,result_model_1_multimer_v3_pred_1.pkl,0.13418841,0.4692685307408977,21.674015,66.14934822743955
multimer_genus,Q69091_Q12907,result_model_1_multimer_v3_pred_1.pkl,0.13439025,0.4008773077374891,24.40745,61.05673539221803
multimer_genus,Q69091_Q92835,result_model_1_multimer_v3_pred_1.pkl,0.22983435,0.5067042416930948,25.209497,59.49092299261982
multimer_genus,Q6NZI2_P10233,result_model_1_multimer_v3_pred_1.pkl,0.19887942,0.2346891986250382,29.05273,36.693220960159366
multimer_genus,Q70UQ0_P10218,result_model_1_multimer_v3_pred_1.pkl,0.08672534,0.30447378295172856,27.701288,62.10730397110528
multimer_genus,Q71DI3_P10233,result_model_1_multimer_v3_pred_1.pkl,0.14897367,0.2880087044936269,26.839994,40.13195030005204
multimer_genus,Q7Z7H5_P10229,result_model_1_multimer_v3_pred_1.pkl,0.17470902,0.32765172827251715,22.846329,59.30867548814866
multimer_genus,Q8WWI1_P08543,result_model_1_multimer_v3_pred_1.pkl,0.41554636,0.4530214509362446,28.170954,42.549761277011115
multimer_genus,Q93077_P10233,result_model_1_multimer_v3_pred_1.pkl,0.14902955,0.2868989308550942,26.191713,45.15598846435844
multimer_genus,Q96AG4_P10218,result_model_1_multimer_v3_pred_1.pkl,0.37338346,0.49042322903131297,21.62412,69.40980481323591
multimer_genus,Q99877_P03170,result_model_1_multimer_v3_pred_1.pkl,0.12571788,0.34527607674829097,22.448786,45.023676688082915
multimer_genus,Q99877_P04294,result_model_1_multimer_v3_pred_1.pkl,0.2010527,0.6351326841855811,19.97039,62.85082833214285
multimer_genus,Q99877_P04485,result_model_1_multimer_v3_pred_1.pkl,0.14621145,0.2294561267948744,27.130873,34.36007101954927
multimer_genus,Q99877_P04487,result_model_1_multimer_v3_pred_1.pkl,0.1063079,0.29724594373323576,25.256315,57.539442460840604
multimer_genus,Q99877_P10226,result_model_1_multimer_v3_pred_1.pkl,0.26522577,0.5226012395567267,22.727121,53.31420779683129
multimer_genus,Q99877_P10231,result_model_1_multimer_v3_pred_1.pkl,0.2710636,0.7039818738174883,17.750387,67.05266073599928
multimer_genus,Q99877_P10233,result_model_1_multimer_v3_pred_1.pkl,0.16887718,0.29746096824805324,26.055773,46.79655321663412
multimer_genus,Q99878_P10233,result_model_1_multimer_v3_pred_1.pkl,0.15165102,0.28932404835274994,26.061317,45.746936736911316
multimer_genus,Q99879_P10233,result_model_1_multimer_v3_pred_1.pkl,0.17458537,0.30129238989466967,26.266459,43.28858327691426
multimer_genus,Q99880_P10233,result_model_1_multimer_v3_pred_1.pkl,0.16080748,0.2938593437158947,26.058735,45.51765974474859
multimer_genus,Q9BS26_P10211,result_model_1_multimer_v3_pred_1.pkl,0.14443007,0.34939652635015517,26.943932,62.389720935192855
multimer_genus,Q9BVK6_P10229,result_model_1_multimer_v3_pred_1.pkl,0.1612913,0.33342206115754297,22.890966,60.58967243204431
multimer_genus,Q9BXS5_P04488,result_model_1_multimer_v3_pred_1.pkl,0.3008446,0.3780482187981457,25.375998,57.63812019162798
multimer_genus,Q9GZQ8_P10233,result_model_1_multimer_v3_pred_1.pkl,0.41743958,0.3643113536753395,24.260649,51.34062256292841
multimer_genus,Q9H0U4_P10231,result_model_1_multimer_v3_pred_1.pkl,0.2771757,0.6642516419067184,18.640305,67.26544311598931
multimer_genus,Q9H0U4_P10233,result_model_1_multimer_v3_pred_1.pkl,0.27378887,0.41359132162373025,23.726677,52.385853072660105
multimer_genus,Q9H299_P10233,result_model_1_multimer_v3_pred_1.pkl,0.25066295,0.3267299186657957,24.709572,53.333859842418256
multimer_genus,Q9H3P7_P04488,result_model_1_multimer_v3_pred_1.pkl,0.19156656,0.28283962889801084,27.521666,54.865963087646286
multimer_genus,Q9HDC9_P10211,result_model_1_multimer_v3_pred_1.pkl,0.16840771,0.38705810978715455,25.873526,65.79012459088054
multimer_genus,Q9NR12_P10233,result_model_1_multimer_v3_pred_1.pkl,0.1384396,0.22737636606555284,28.059574,44.61214874993346
multimer_genus,Q9P2E9_P04487,result_model_1_multimer_v3_pred_1.pkl,0.14765128,0.1999400437889873,30.274605,36.790662410513804
multimer_genus,Q9Y224_P10233,result_model_1_multimer_v3_pred_1.pkl,0.14589113,0.2637186213049052,26.804697,44.57002570674196
