multimer_genus_dupl,O00299_P04487,result_model_1_multimer_v3_pred_1.pkl,0.14586627,0.6166517137215717,18.629196,65.44709638456784
multimer_genus_dupl,O43169_P04488,result_model_1_multimer_v3_pred_1.pkl,0.1439155,0.33823483883851374,26.339603,50.795305808715355
multimer_genus_dupl,O43169_P10218,result_model_1_multimer_v3_pred_1.pkl,0.23910294,0.46170650013019593,22.459408,60.200033808021544
multimer_genus_dupl,O43852_P10185,result_model_1_multimer_v3_pred_1.pkl,0.19423924,0.49013895199092816,21.907469,53.770814303048454
multimer_genus_dupl,O43852_P10211,result_model_1_multimer_v3_pred_1.pkl,0.21002614,0.3896444749003179,26.222635,61.01098001565196
multimer_genus_dupl,O75396_P04487,result_model_1_multimer_v3_pred_1.pkl,0.09424654,0.42986469660198134,24.29882,62.183944553144414
multimer_genus_dupl,O75531_P10233,result_model_1_multimer_v3_pred_1.pkl,0.2473149,0.3170465901412732,25.30766,54.20415777834384
multimer_genus_dupl,P00338_P04487,result_model_1_multimer_v3_pred_1.pkl,0.15891793,0.6822624495133467,16.818443,71.80774047877426
multimer_genus_dupl,P00387_P04488,result_model_1_multimer_v3_pred_1.pkl,0.22757804,0.41398328885422364,24.5709,60.0313833952133
multimer_genus_dupl,P01889_P10229,result_model_1_multimer_v3_pred_1.pkl,0.5339737,0.47828895703792534,21.312786,64.28033188721562
multimer_genus_dupl,P02511_P10233,result_model_1_multimer_v3_pred_1.pkl,0.18610096,0.2889918307126088,26.46947,44.3799002169545
multimer_genus_dupl,P04083_P04488,result_model_1_multimer_v3_pred_1.pkl,0.17466977,0.45506715917052776,23.941257,61.01016991637656
multimer_genus_dupl,P04288_P06703,result_model_1_multimer_v3_pred_1.pkl,0.20936471,0.5951326187217164,19.879683,66.14688076991209
multimer_genus_dupl,P04288_P62820,result_model_1_multimer_v3_pred_1.pkl,0.29016563,0.5678281227707804,19.995228,69.26300435055927
multimer_genus_dupl,P04288_P62979,result_model_1_multimer_v3_pred_1.pkl,0.12756558,0.5435076821597861,21.998926,65.88460165844313
multimer_genus_dupl,P04288_Q9H0U4,result_model_1_multimer_v3_pred_1.pkl,0.25982326,0.5622902431881271,20.21221,68.83336439948626
multimer_genus_dupl,P04294_P13010,result_model_1_multimer_v3_pred_1.pkl,0.28553465,0.4321384405869228,24.43528,69.92100351401474
multimer_genus_dupl,P04294_P27348,result_model_1_multimer_v3_pred_1.pkl,0.5751458,0.562487103543218,20.49759,69.99462665173695
multimer_genus_dupl,P04294_P31946,result_model_1_multimer_v3_pred_1.pkl,0.4542279,0.5632362561919345,20.570957,69.35127161811192
multimer_genus_dupl,P04294_P61981,result_model_1_multimer_v3_pred_1.pkl,0.39062244,0.5634822283997885,20.514748,69.19400813089432
multimer_genus_dupl,P04294_P62258,result_model_1_multimer_v3_pred_1.pkl,0.5242301,0.5767586824675582,19.978357,69.43611677495666
multimer_genus_dupl,P04294_P63104,result_model_1_multimer_v3_pred_1.pkl,0.5294931,0.5662894107926585,20.374044,70.0999178277212
multimer_genus_dupl,P04294_Q9Y4E8,result_model_1_multimer_v3_pred_1.pkl,0.40945354,0.45211796245274327,24.786219,67.01952070129772
multimer_genus_dupl,P04296_P07737,result_model_1_multimer_v3_pred_1.pkl,0.23839723,0.7830584254168745,15.220036,79.08017359187608
multimer_genus_dupl,P04406_P04487,result_model_1_multimer_v3_pred_1.pkl,0.19370727,0.690370101993504,16.373392,76.2085374399804
multimer_genus_dupl,P04406_P10226,result_model_1_multimer_v3_pred_1.pkl,0.19474736,0.46219322762885157,22.645178,71.60428450942071
multimer_genus_dupl,P04406_P10233,result_model_1_multimer_v3_pred_1.pkl,0.2573313,0.568501205520212,21.080946,68.81577384643022
multimer_genus_dupl,P04487_P08670,result_model_1_multimer_v3_pred_1.pkl,0.082105055,0.2202744142160313,28.246944,56.67494206825703
multimer_genus_dupl,P04487_P67809,result_model_1_multimer_v3_pred_1.pkl,0.094504476,0.26491079763107145,28.403603,42.50609375163148
multimer_genus_dupl,P04488_O14828,result_model_1_multimer_v3_pred_1.pkl,0.21523197,0.31923780580803174,26.87453,55.378719198679164
multimer_genus_dupl,P04488_O15127,result_model_1_multimer_v3_pred_1.pkl,0.21482769,0.3100875766829945,26.899168,55.53430615535423
multimer_genus_dupl,P04488_O75396,result_model_1_multimer_v3_pred_1.pkl,0.16848746,0.32671331083035826,26.199194,55.6122662561955
multimer_genus_dupl,P04488_P06703,result_model_1_multimer_v3_pred_1.pkl,0.25148675,0.36083132757939984,25.57739,51.99525857050221
multimer_genus_dupl,P04488_P07237,result_model_1_multimer_v3_pred_1.pkl,0.19983438,0.4320210019025843,24.246752,61.646941560285114
multimer_genus_dupl,P04488_P11166,result_model_1_multimer_v3_pred_1.pkl,0.24562469,0.4977355925550899,23.47678,62.4617448180155
multimer_genus_dupl,P04488_P20340,result_model_1_multimer_v3_pred_1.pkl,0.2349494,0.3462603578008343,25.050291,54.08315788161709
multimer_genus_dupl,P04488_P60468,result_model_1_multimer_v3_pred_1.pkl,0.12191902,0.34527716846261897,26.279766,53.24046174832908
multimer_genus_dupl,P04488_P61019,result_model_1_multimer_v3_pred_1.pkl,0.20490667,0.3541308670524683,24.896711,54.88764079877809
multimer_genus_dupl,P04488_P62820,result_model_1_multimer_v3_pred_1.pkl,0.4398014,0.4144369018733477,24.048208,54.91121875713122
P04488_P62979,0.2535662471668234
P04488_Q15836,0.2437530827993173
P04488_Q96AJ9,0.16580938457427452
P04488_Q9BVC6,0.18170590800486888
P04488_Q9GZQ8,0.615508462909273
P04488_Q9H0U4,0.2582677199871438
P04488_Q9H4G4,0.20331475879604
multimer_genus_dupl,P04792_P04294,result_model_1_multimer_v3_pred_1.pkl,0.20112261,0.5959732126637352,21.352386,59.025022473787246
multimer_genus_dupl,P04792_P10233,result_model_1_multimer_v3_pred_1.pkl,0.18209994,0.28666473856814595,26.641762,39.16143229143507
multimer_genus_dupl,P05023_P04488,result_model_1_multimer_v3_pred_1.pkl,0.23153213,0.5944696573451859,21.763035,69.86401751648486
multimer_genus_dupl,P05204_P10233,result_model_1_multimer_v3_pred_1.pkl,0.1926252,0.32280059643883885,26.751202,42.07698927236266
multimer_genus_dupl,P06487_P06703,result_model_1_multimer_v3_pred_1.pkl,0.2541067,0.4479479376909443,23.640684,51.165615708774034
multimer_genus_dupl,P06487_P20340,result_model_1_multimer_v3_pred_1.pkl,0.2120464,0.39884973437571647,23.461546,58.6252453398654
multimer_genus_dupl,P06487_P51148,result_model_1_multimer_v3_pred_1.pkl,0.17874047,0.3818055359651295,24.05789,58.50026520928682
multimer_genus_dupl,P06487_P62937,result_model_1_multimer_v3_pred_1.pkl,0.13794051,0.38162161078925333,23.637535,62.9748161332365
P06487_Q9H0U4,0.27679649649802934
multimer_genus_dupl,P06491_P10599,result_model_1_multimer_v3_pred_1.pkl,0.1584895,0.7889824896957212,16.11348,78.70123172850333
multimer_genus_dupl,P06703_P04487,result_model_1_multimer_v3_pred_1.pkl,0.10637604,0.350546253660449,24.775848,57.618488392991026
multimer_genus_dupl,P06703_P10226,result_model_1_multimer_v3_pred_1.pkl,0.1825768,0.4856577523123352,23.238436,54.361686206527494
multimer_genus_dupl,P06703_P10233,result_model_1_multimer_v3_pred_1.pkl,0.17804348,0.3050471090959956,25.755735,47.177308150662114
multimer_genus_dupl,P06703_P10238,result_model_1_multimer_v3_pred_1.pkl,0.19185157,0.4433107778752389,24.650736,51.793071540893955
multimer_genus_dupl,P06733_P04487,result_model_1_multimer_v3_pred_1.pkl,0.11488355,0.725951841073197,15.288299,76.93478637705077
multimer_genus_dupl,P06733_P10226,result_model_1_multimer_v3_pred_1.pkl,0.13173704,0.5145093986462279,21.752335,73.83930880097644
multimer_genus_dupl,P06748_P04487,result_model_1_multimer_v3_pred_1.pkl,0.09265788,0.29897553902895113,27.150774,49.921947557783504
multimer_genus_dupl,P07355_P06487,result_model_1_multimer_v3_pred_1.pkl,0.1772278,0.4960854468474638,22.35496,66.48998050871151
multimer_genus_dupl,P07355_Q69091,result_model_1_multimer_v3_pred_1.pkl,0.1640182,0.49902962049929517,21.587515,68.52193370639823
multimer_genus_dupl,P07384_P10231,result_model_1_multimer_v3_pred_1.pkl,0.26835802,0.4969906345048617,21.362253,74.98785960856434
multimer_genus_dupl,P07437_P10233,result_model_1_multimer_v3_pred_1.pkl,0.16733827,0.6138731434858893,20.033695,65.72660816500407
multimer_genus_dupl,P07737_P04487,result_model_1_multimer_v3_pred_1.pkl,0.31267,0.49740516205840907,21.828983,65.2733103639721
multimer_genus_dupl,P07737_P08543,result_model_1_multimer_v3_pred_1.pkl,0.6640991,0.6664286663436663,19.684134,68.56598590371493
multimer_genus_dupl,P07737_P10233,result_model_1_multimer_v3_pred_1.pkl,0.28409386,0.406665221278261,23.502188,55.04081573567382
multimer_genus_dupl,P08133_P04288,result_model_1_multimer_v3_pred_1.pkl,0.16783637,0.4620459586874708,21.73404,76.65026255326588
multimer_genus_dupl,P08133_P04488,result_model_1_multimer_v3_pred_1.pkl,0.16238818,0.42978155947047847,24.2787,65.53716550866409
multimer_genus_dupl,P08133_P06487,result_model_1_multimer_v3_pred_1.pkl,0.15600084,0.46023376947247674,22.843365,68.94008479745375
multimer_genus_dupl,P08133_Q69091,result_model_1_multimer_v3_pred_1.pkl,0.14619502,0.44585935336721194,22.78082,70.03544992147941
multimer_genus_dupl,P08134_P10233,result_model_1_multimer_v3_pred_1.pkl,0.28755265,0.45315455351057726,23.059692,56.310089431365945
multimer_genus_dupl,P08195_P10229,result_model_1_multimer_v3_pred_1.pkl,0.19639432,0.572873417726842,21.901634,63.1909358280441
multimer_genus_dupl,P08392_P35268,result_model_1_multimer_v3_pred_1.pkl,0.22052073,0.4085640082783759,26.85251,52.45747657679607
multimer_genus_dupl,P08758_P10233,result_model_1_multimer_v3_pred_1.pkl,0.14017534,0.540120134970261,21.896095,62.76182581661353
multimer_genus_dupl,P08758_Q69091,result_model_1_multimer_v3_pred_1.pkl,0.18979445,0.5049030051733341,21.173773,68.37479093156779
multimer_genus_dupl,P08962_P10211,result_model_1_multimer_v3_pred_1.pkl,0.41474265,0.4057526115729662,25.600164,63.876828866857
multimer_genus_dupl,P09382_P10226,result_model_1_multimer_v3_pred_1.pkl,0.3138988,0.5073542755320672,21.731365,61.70938136312882
multimer_genus_dupl,P09382_P10233,result_model_1_multimer_v3_pred_1.pkl,0.24811576,0.3817496010946097,24.080606,55.893852399213245
multimer_genus_dupl,P09429_P10233,result_model_1_multimer_v3_pred_1.pkl,0.13151824,0.25898469940712165,26.372608,49.23313617321922
multimer_genus_dupl,P09651_P04487,result_model_1_multimer_v3_pred_1.pkl,0.11971899,0.3942053897221879,25.967422,49.50783807562014
multimer_genus_dupl,P09651_P10226,result_model_1_multimer_v3_pred_1.pkl,0.1430118,0.3922357418723712,25.921484,52.932761169673455
multimer_genus_dupl,P09651_P10233,result_model_1_multimer_v3_pred_1.pkl,0.28155,0.39527210993395556,26.016663,46.138086412046135
multimer_genus_dupl,P09651_P10238,result_model_1_multimer_v3_pred_1.pkl,0.14875838,0.36555281013039104,26.646093,51.95206151360271
multimer_genus_dupl,P0C0S5_P10233,result_model_1_multimer_v3_pred_1.pkl,0.16730513,0.29059886861358014,26.05697,45.17073815673688
multimer_genus_dupl,P0DMV9_P04487,result_model_1_multimer_v3_pred_1.pkl,0.30422372,0.6854045107559379,17.12124,73.81893191081379
multimer_genus_dupl,P0DP25_P04288,result_model_1_multimer_v3_pred_1.pkl,0.12572712,0.5467227024216815,21.635174,64.60516297256827
multimer_genus_dupl,P0DP25_P04488,result_model_1_multimer_v3_pred_1.pkl,0.4740153,0.35643855279310566,25.047487,54.31876683148517
multimer_genus_dupl,P0DP25_P10211,result_model_1_multimer_v3_pred_1.pkl,0.21619567,0.41270864770797133,25.840048,61.16688807041337
multimer_genus_dupl,P0DP25_P10233,result_model_1_multimer_v3_pred_1.pkl,0.15308511,0.27506055436417165,25.953035,44.8162146838077
multimer_genus_dupl,P10185_P05556,result_model_1_multimer_v3_pred_1.pkl,0.23035596,0.5332661637156755,22.252668,71.18387639014675
multimer_genus_dupl,P10185_P07237,result_model_1_multimer_v3_pred_1.pkl,0.21025822,0.5394339075981347,19.972555,68.85356345096153
multimer_genus_dupl,P10185_P09382,result_model_1_multimer_v3_pred_1.pkl,0.17829353,0.436594699966833,20.671762,63.94475127907949
multimer_genus_dupl,P10185_P11021,result_model_1_multimer_v3_pred_1.pkl,0.19853854,0.6061552560528551,19.557861,70.50331788897047
multimer_genus_dupl,P10185_P13667,result_model_1_multimer_v3_pred_1.pkl,0.23829733,0.5942567700175271,18.926485,71.63697538988473
multimer_genus_dupl,P10185_P14314,result_model_1_multimer_v3_pred_1.pkl,0.14643404,0.39639592081019026,24.090977,65.40204117802129
multimer_genus_dupl,P10185_P23284,result_model_1_multimer_v3_pred_1.pkl,0.17972004,0.4899421597042275,21.104677,65.0406407349902
multimer_genus_dupl,P10185_P30101,result_model_1_multimer_v3_pred_1.pkl,0.20822045,0.5491592444516558,19.62158,71.42481127358856
multimer_genus_dupl,P10185_P50454,result_model_1_multimer_v3_pred_1.pkl,0.19964848,0.6430513321023041,17.905077,71.13230163539018
multimer_genus_dupl,P10209_P08670,result_model_1_multimer_v3_pred_1.pkl,0.14158781,0.452643402308229,26.086647,56.13711934392479
multimer_genus_dupl,P10209_Q99877,result_model_1_multimer_v3_pred_1.pkl,0.31941664,0.6127985228853243,20.457125,60.328535541345936
multimer_genus_dupl,P10211_P01889,result_model_1_multimer_v3_pred_1.pkl,0.18850473,0.3757633697123587,26.75746,62.402397235387866
multimer_genus_dupl,P10211_P04844,result_model_1_multimer_v3_pred_1.pkl,0.18342522,0.38138029600339196,26.195627,68.5514577775514
multimer_genus_dupl,P10211_P07237,result_model_1_multimer_v3_pred_1.pkl,0.24502733,0.36702550749005514,26.09647,65.93625509493333
multimer_genus_dupl,P10211_P08195,result_model_1_multimer_v3_pred_1.pkl,0.17304899,0.3816811677330152,26.84837,62.03950873148216
multimer_genus_dupl,P10211_P08648,result_model_1_multimer_v3_pred_1.pkl,0.20267482,0.41436436206760013,26.771666,66.45185123138732
multimer_genus_dupl,P10211_P09382,result_model_1_multimer_v3_pred_1.pkl,0.19783093,0.4067104583687092,25.896498,62.147345184768575
multimer_genus_dupl,P10211_P10321,result_model_1_multimer_v3_pred_1.pkl,0.17949098,0.3729613399675713,26.737617,62.48892755983108
multimer_genus_dupl,P10211_P11021,result_model_1_multimer_v3_pred_1.pkl,0.18832251,0.43006203052657277,25.728516,66.21873682867852
multimer_genus_dupl,P10211_P13667,result_model_1_multimer_v3_pred_1.pkl,0.18123224,0.38642913046097005,26.268091,66.39672508346253
multimer_genus_dupl,P10211_P14625,result_model_1_multimer_v3_pred_1.pkl,0.18293428,0.38289778655379025,26.874073,63.06063691136951
multimer_genus_dupl,P10211_P21589,result_model_1_multimer_v3_pred_1.pkl,0.1712874,0.3827962795087779,25.935556,68.06597076058073
multimer_genus_dupl,P10211_P23284,result_model_1_multimer_v3_pred_1.pkl,0.19304281,0.39641524772471054,26.044811,65.49712544817258
multimer_genus_dupl,P10211_P30101,result_model_1_multimer_v3_pred_1.pkl,0.16012567,0.34406922406268153,26.570286,65.57838154337196
multimer_genus_dupl,P10211_P46977,result_model_1_multimer_v3_pred_1.pkl,0.23136613,0.5015347757020842,24.24814,69.0287173755926
multimer_genus_dupl,P10211_P50454,result_model_1_multimer_v3_pred_1.pkl,0.16359732,0.39009532560940385,25.832224,67.03053387632391
multimer_genus_dupl,P10211_P62979,result_model_1_multimer_v3_pred_1.pkl,0.14547834,0.40266240926887886,26.28682,60.86117893267471
multimer_genus_dupl,P10211_Q12907,result_model_1_multimer_v3_pred_1.pkl,0.15274234,0.36634037842653755,26.798162,62.86515154981583
multimer_genus_dupl,P10211_Q15084,result_model_1_multimer_v3_pred_1.pkl,0.15946779,0.364921016150233,26.91984,62.73735255118014
multimer_genus_dupl,P10211_Q15293,result_model_1_multimer_v3_pred_1.pkl,0.20271687,0.3809731746702582,26.447443,60.24229487025386
multimer_genus_dupl,P10211_Q8TCJ2,result_model_1_multimer_v3_pred_1.pkl,0.22174896,0.4707643248070533,25.60465,64.65770198804543
multimer_genus_dupl,P10211_Q99805,result_model_1_multimer_v3_pred_1.pkl,0.22297874,0.4535015824470963,25.306498,67.3812227724149
multimer_genus_dupl,P10211_Q9BTV4,result_model_1_multimer_v3_pred_1.pkl,0.17558798,0.36072943711296734,26.18679,65.66945829627404
multimer_genus_dupl,P10211_Q9BVC6,result_model_1_multimer_v3_pred_1.pkl,0.19001779,0.40033971572493066,26.841465,57.19111180332403
multimer_genus_dupl,P10211_Q9BVK6,result_model_1_multimer_v3_pred_1.pkl,0.15729693,0.3959494631136882,26.322317,64.95787895532729
multimer_genus_dupl,P10218_O00264,result_model_1_multimer_v3_pred_1.pkl,0.16337088,0.41217173278405933,22.592804,61.738277608636
multimer_genus_dupl,P10218_O15173,result_model_1_multimer_v3_pred_1.pkl,0.15620543,0.3911698104054421,23.691597,57.54514589990844
multimer_genus_dupl,P10218_O75396,result_model_1_multimer_v3_pred_1.pkl,0.16370344,0.3956882694009147,22.728699,63.95630154298211
multimer_genus_dupl,P10218_P10599,result_model_1_multimer_v3_pred_1.pkl,0.15103373,0.45667378769868033,20.848412,66.78394335086577
multimer_genus_dupl,P10218_P26373,result_model_1_multimer_v3_pred_1.pkl,0.08644512,0.3621350458668146,24.430702,65.59355117805964
multimer_genus_dupl,P10218_P39023,result_model_1_multimer_v3_pred_1.pkl,0.2914273,0.5833753669729738,19.757284,71.71483195958729
multimer_genus_dupl,P10218_P60468,result_model_1_multimer_v3_pred_1.pkl,0.10902274,0.4525583331273369,23.456167,55.323717828394514
multimer_genus_dupl,P10218_P61353,result_model_1_multimer_v3_pred_1.pkl,0.26945865,0.4728280347260351,20.04336,66.40773158137269
multimer_genus_dupl,P10218_Q9UNL2,result_model_1_multimer_v3_pred_1.pkl,0.12280427,0.35078703518194315,23.623844,61.06853384996726
multimer_genus_dupl,P10225_P10233,result_model_1_multimer_v3_pred_1.pkl,0.26572627,0.519072845571623,23.372984,54.60577856467216
multimer_genus_dupl,P10228_P09382,result_model_1_multimer_v3_pred_1.pkl,0.23007962,0.39088190323284355,24.32704,59.81108185041383
multimer_genus_dupl,P10230_Q9P0L0,result_model_1_multimer_v3_pred_1.pkl,0.46822992,0.47202270828092274,25.071331,56.24212269708321
multimer_genus_dupl,P10233_P63104,result_model_1_multimer_v3_pred_1.pkl,0.5683631,0.5139420971371288,22.169378,59.4243287305427
multimer_genus_dupl,P10233_P67809,result_model_1_multimer_v3_pred_1.pkl,0.14336872,0.256360391183566,28.065483,40.43130590724521
multimer_genus_dupl,P10233_Q15836,result_model_1_multimer_v3_pred_1.pkl,0.10882314,0.2698507664606795,26.95795,46.19676248371914
multimer_genus_dupl,P10233_Q702N8,result_model_1_multimer_v3_pred_1.pkl,0.23677881,0.2635507336735887,30.056328,26.22498501660697
multimer_genus_dupl,P10234_P06703,result_model_1_multimer_v3_pred_1.pkl,0.21655522,0.6926499919051969,15.510569,69.39147405767186
multimer_genus_dupl,P10234_P57053,result_model_1_multimer_v3_pred_1.pkl,0.18177277,0.6577260261737666,17.579073,61.630028454137786
multimer_genus_dupl,P10234_Q99877,result_model_1_multimer_v3_pred_1.pkl,0.13295016,0.6428320108890354,18.014101,62.17467372946441
multimer_genus_dupl,P10599_P04487,result_model_1_multimer_v3_pred_1.pkl,0.08675911,0.40614244520986004,23.545893,71.38098210345073
multimer_genus_dupl,P10599_P10226,result_model_1_multimer_v3_pred_1.pkl,0.21135063,0.5088715186071462,22.228304,60.30564029851601
multimer_genus_dupl,P10599_P10233,result_model_1_multimer_v3_pred_1.pkl,0.23406851,0.3316165718438978,24.712648,56.51673584370957
multimer_genus_dupl,P10599_P10235,result_model_1_multimer_v3_pred_1.pkl,0.15364452,0.39349496332510875,23.205524,46.55978553586628
multimer_genus_dupl,P11142_P03170,result_model_1_multimer_v3_pred_1.pkl,0.21960914,0.7537904932931379,13.942327,78.38161050828668
multimer_genus_dupl,P11142_P04487,result_model_1_multimer_v3_pred_1.pkl,0.30021816,0.6934846241905973,16.85528,74.56810693264005
multimer_genus_dupl,P11142_P10226,result_model_1_multimer_v3_pred_1.pkl,0.338845,0.5199035858423504,22.696238,68.50645950123452
multimer_genus_dupl,P11142_P10233,result_model_1_multimer_v3_pred_1.pkl,0.1436267,0.6014293951745959,20.759933,66.85523053495179
multimer_genus_dupl,P11940_P10238,result_model_1_multimer_v3_pred_1.pkl,0.19270605,0.33438959204096097,27.48876,55.056804076259866
multimer_genus_dupl,P12004_P10226,result_model_1_multimer_v3_pred_1.pkl,0.37768304,0.42982805110885297,22.699894,63.245036864444536
multimer_genus_dupl,P13639_P04487,result_model_1_multimer_v3_pred_1.pkl,0.15987474,0.6055417572608761,18.012354,75.21666040264786
multimer_genus_dupl,P13726_P10211,result_model_1_multimer_v3_pred_1.pkl,0.1660716,0.3781661849011748,26.810621,61.23487019551791
multimer_genus_dupl,P13797_P10226,result_model_1_multimer_v3_pred_1.pkl,0.15131664,0.5008709776521991,23.366978,66.33581063584838
multimer_genus_dupl,P13987_P06484,result_model_1_multimer_v3_pred_1.pkl,0.16568556,0.3031629069722151,26.316027,46.29675816185247
multimer_genus_dupl,P13987_P10211,result_model_1_multimer_v3_pred_1.pkl,0.14305277,0.4032896608869316,26.193085,61.911557195021985
multimer_genus_dupl,P13987_P10229,result_model_1_multimer_v3_pred_1.pkl,0.1661408,0.3955491595707611,21.680157,63.131994688329456
multimer_genus_dupl,P13987_Q69091,result_model_1_multimer_v3_pred_1.pkl,0.11193107,0.4965906172210556,22.597048,61.989124225903886
multimer_genus_dupl,P16070_P06487,result_model_1_multimer_v3_pred_1.pkl,0.20192528,0.2789512432613137,28.75302,38.04288852588703
multimer_genus_dupl,P16070_P10228,result_model_1_multimer_v3_pred_1.pkl,0.17752698,0.3334986923826021,28.421877,43.99984675191222
multimer_genus_dupl,P16070_Q69091,result_model_1_multimer_v3_pred_1.pkl,0.23992872,0.32689445179560006,28.18866,41.402320224949634
multimer_genus_dupl,P16104_P10233,result_model_1_multimer_v3_pred_1.pkl,0.14475232,0.28155562611552015,26.284409,45.75975017976253
multimer_genus_dupl,P16333_P10233,result_model_1_multimer_v3_pred_1.pkl,0.1759142,0.2751601086147095,26.957096,49.99352521801555
multimer_genus_dupl,P16401_P10233,result_model_1_multimer_v3_pred_1.pkl,0.14876452,0.27340207852088194,27.625746,42.05728804190623
multimer_genus_dupl,P16402_P10233,result_model_1_multimer_v3_pred_1.pkl,0.14248037,0.2725348780842892,27.63193,41.24969719238391
multimer_genus_dupl,P17096_P04487,result_model_1_multimer_v3_pred_1.pkl,0.058687553,0.12506622657992,27.828793,47.06471256937853
multimer_genus_dupl,P17096_P10226,result_model_1_multimer_v3_pred_1.pkl,0.12165061,0.5147330964101104,23.468548,54.499944121296394
multimer_genus_dupl,P17096_P10233,result_model_1_multimer_v3_pred_1.pkl,0.1281802,0.295796077508607,27.217186,42.086902581846665
multimer_genus_dupl,P18085_P04488,result_model_1_multimer_v3_pred_1.pkl,0.36719343,0.3781573459658358,24.456282,57.043829694543035
multimer_genus_dupl,P18085_P10211,result_model_1_multimer_v3_pred_1.pkl,0.19974175,0.40638436246769566,25.801863,62.169415924108925
multimer_genus_dupl,P18085_Q69091,result_model_1_multimer_v3_pred_1.pkl,0.1453603,0.4126579608138189,22.939404,59.752154146031984
multimer_genus_dupl,P18124_P04487,result_model_1_multimer_v3_pred_1.pkl,0.09409666,0.4948364649675848,21.94934,67.92940743153353
multimer_genus_dupl,P20340_P10233,result_model_1_multimer_v3_pred_1.pkl,0.41023564,0.4447603909054043,23.382994,54.551288338064104
multimer_genus_dupl,P21291_P04487,result_model_1_multimer_v3_pred_1.pkl,0.07643754,0.22434493137868466,27.06272,56.832954661190186
multimer_genus_dupl,P21926_P04488,result_model_1_multimer_v3_pred_1.pkl,0.23757577,0.3173114285694115,25.73545,55.83771829996834
multimer_genus_dupl,P21926_P06477,result_model_1_multimer_v3_pred_1.pkl,0.22345568,0.6421357385306639,20.117487,70.37048906918709
multimer_genus_dupl,P21926_P10211,result_model_1_multimer_v3_pred_1.pkl,0.2532599,0.4191857574424491,25.735922,61.24793565308251
multimer_genus_dupl,P21926_P10229,result_model_1_multimer_v3_pred_1.pkl,0.15547138,0.40544125676072806,19.907604,55.889254151560614
multimer_genus_dupl,P22626_P10226,result_model_1_multimer_v3_pred_1.pkl,0.14260286,0.40095934535339595,25.69451,53.44605687082731
multimer_genus_dupl,P22626_P10233,result_model_1_multimer_v3_pred_1.pkl,0.3475573,0.37824819203377685,26.289341,48.06643499978778
multimer_genus_dupl,P23284_P10229,result_model_1_multimer_v3_pred_1.pkl,0.20174834,0.5421103571507502,19.190533,67.22879850735974
multimer_genus_dupl,P23396_P10233,result_model_1_multimer_v3_pred_1.pkl,0.15739985,0.39124842763926165,25.091204,58.21716654313151
multimer_genus_dupl,P26373_P10233,result_model_1_multimer_v3_pred_1.pkl,0.100730926,0.2916492136007372,26.625923,56.31239958894839
multimer_genus_dupl,P26583_P10233,result_model_1_multimer_v3_pred_1.pkl,0.22406965,0.2596751528430726,26.324022,49.23114934682904
multimer_genus_dupl,P27635_P10233,result_model_1_multimer_v3_pred_1.pkl,0.17567189,0.41456218788553767,24.564034,59.07041951993874
multimer_genus_dupl,P27797_P03170,result_model_1_multimer_v3_pred_1.pkl,0.24823177,0.6712123908190903,16.55064,77.51467935131458
multimer_genus_dupl,P27797_P04488,result_model_1_multimer_v3_pred_1.pkl,0.20168175,0.4328581362825501,24.654716,62.163434908492746
multimer_genus_dupl,P27797_P10185,result_model_1_multimer_v3_pred_1.pkl,0.18527943,0.5455258893179518,20.867529,68.30057726470434
multimer_genus_dupl,P27797_P10211,result_model_1_multimer_v3_pred_1.pkl,0.16321303,0.3560826072638392,26.60705,64.87117661507273
multimer_genus_dupl,P27824_P10211,result_model_1_multimer_v3_pred_1.pkl,0.16750209,0.3434807363735153,27.356302,60.93854562826029
multimer_genus_dupl,P27824_P10229,result_model_1_multimer_v3_pred_1.pkl,0.1985595,0.4887676149815788,23.60243,64.11073430870297
multimer_genus_dupl,P27824_Q69091,result_model_1_multimer_v3_pred_1.pkl,0.18679604,0.41006884296550966,24.993736,61.25781280469004
multimer_genus_dupl,P30050_P04487,result_model_1_multimer_v3_pred_1.pkl,0.07268591,0.4586641180182617,22.784397,65.97918017412061
multimer_genus_dupl,P30050_P10233,result_model_1_multimer_v3_pred_1.pkl,0.36501586,0.433249497904774,22.931208,50.98081796079044
multimer_genus_dupl,P31949_P03170,result_model_1_multimer_v3_pred_1.pkl,0.17523232,0.5042863792232419,19.482353,56.416137255623816
multimer_genus_dupl,P31949_P10233,result_model_1_multimer_v3_pred_1.pkl,0.22034387,0.30690311770038503,25.45697,47.3802388447955
multimer_genus_dupl,P32969_P10233,result_model_1_multimer_v3_pred_1.pkl,0.2059789,0.40379564665028267,24.297966,57.09761474298994
multimer_genus_dupl,P35268_P04487,result_model_1_multimer_v3_pred_1.pkl,0.099585325,0.38223778105800355,24.341179,65.37422644692205
multimer_genus_dupl,P35268_P10233,result_model_1_multimer_v3_pred_1.pkl,0.18681824,0.32561483524310714,25.401098,49.876050597187664
multimer_genus_dupl,P36578_P04487,result_model_1_multimer_v3_pred_1.pkl,0.09755911,0.48165090421827395,23.525377,65.22661482002867
multimer_genus_dupl,P38159_P10233,result_model_1_multimer_v3_pred_1.pkl,0.16403614,0.2471599714913235,28.59297,35.36135704539452
multimer_genus_dupl,P39019_P04487,result_model_1_multimer_v3_pred_1.pkl,0.0765516,0.46066667652991333,23.021572,70.50132580415907
multimer_genus_dupl,P39019_P10226,result_model_1_multimer_v3_pred_1.pkl,0.15153855,0.47093824657793004,23.489525,57.77745864564002
multimer_genus_dupl,P39023_P04487,result_model_1_multimer_v3_pred_1.pkl,0.10331924,0.6417353369102552,18.796513,70.23324208020739
multimer_genus_dupl,P40227_P10226,result_model_1_multimer_v3_pred_1.pkl,0.23086977,0.4995026231728192,22.387447,66.10561632884362
multimer_genus_dupl,P40429_P04487,result_model_1_multimer_v3_pred_1.pkl,0.07957922,0.4851947039907938,22.334139,66.40141642561868
multimer_genus_dupl,P42766_P04487,result_model_1_multimer_v3_pred_1.pkl,0.061548416,0.37756356527407725,24.492704,65.75491507762324
multimer_genus_dupl,P42766_P10233,result_model_1_multimer_v3_pred_1.pkl,0.13508347,0.29230301489996735,26.02929,56.914175465657046
multimer_genus_dupl,P45983_P04294,result_model_1_multimer_v3_pred_1.pkl,0.65460944,0.5139417753621937,21.277622,69.0873647170608
multimer_genus_dupl,P46776_P10233,result_model_1_multimer_v3_pred_1.pkl,0.09726612,0.2863679571482221,26.370949,58.30367078488361
multimer_genus_dupl,P46779_P04487,result_model_1_multimer_v3_pred_1.pkl,0.08880623,0.36609828104630393,24.626335,59.12518843356715
multimer_genus_dupl,P47914_P04487,result_model_1_multimer_v3_pred_1.pkl,0.06170641,0.19858572497576152,27.879671,47.5308881401016
multimer_genus_dupl,P49207_P10233,result_model_1_multimer_v3_pred_1.pkl,0.111588895,0.2738539522100657,26.929995,45.84486467015202
multimer_genus_dupl,P49458_P04487,result_model_1_multimer_v3_pred_1.pkl,0.10596976,0.3295966543666753,24.438463,57.85833017980806
multimer_genus_dupl,P49755_P10229,result_model_1_multimer_v3_pred_1.pkl,0.16187531,0.3339855032780387,22.979172,56.547165174273296
multimer_genus_dupl,P50402_P10218,result_model_1_multimer_v3_pred_1.pkl,0.11903733,0.359990299966543,26.580296,48.060866519608965
multimer_genus_dupl,P50454_P10229,result_model_1_multimer_v3_pred_1.pkl,0.23103517,0.6907977364713966,15.738946,73.41689488793628
multimer_genus_dupl,P50914_P04487,result_model_1_multimer_v3_pred_1.pkl,0.07382354,0.3653644563612313,25.718296,56.93881137513828
multimer_genus_dupl,P50914_P10233,result_model_1_multimer_v3_pred_1.pkl,0.09540802,0.2963983096962373,27.196957,49.70126361688732
multimer_genus_dupl,P52926_P10226,result_model_1_multimer_v3_pred_1.pkl,0.124201216,0.5025892802983751,23.897223,52.287184603558785
multimer_genus_dupl,P55010_P10233,result_model_1_multimer_v3_pred_1.pkl,0.14688894,0.3070792002164504,26.7971,56.077789477135475
multimer_genus_dupl,P57053_P04487,result_model_1_multimer_v3_pred_1.pkl,0.08571631,0.2535116312229608,25.73902,54.863776674148944
multimer_genus_dupl,P57053_P10226,result_model_1_multimer_v3_pred_1.pkl,0.3356977,0.5272918374037058,22.728214,51.68525440341017
multimer_genus_dupl,P57053_P10233,result_model_1_multimer_v3_pred_1.pkl,0.20882496,0.3090896468615704,26.281189,41.219608967457866
multimer_genus_dupl,P58876_P10233,result_model_1_multimer_v3_pred_1.pkl,0.18925324,0.30254424673252445,26.197039,43.830443685397626
multimer_genus_dupl,P60468_P04487,result_model_1_multimer_v3_pred_1.pkl,0.056586437,0.15737646084086826,27.644636,51.5966126787194
multimer_genus_dupl,P60468_P10233,result_model_1_multimer_v3_pred_1.pkl,0.16881096,0.30799422106429475,26.881895,42.453442853802954
multimer_genus_dupl,P60709_P04294,result_model_1_multimer_v3_pred_1.pkl,0.25170442,0.5308665280790438,20.577694,74.28378399613587
multimer_genus_dupl,P60709_P04296,result_model_1_multimer_v3_pred_1.pkl,0.21082422,0.7019231782921798,18.13274,80.00714427773337
multimer_genus_dupl,P60709_P04487,result_model_1_multimer_v3_pred_1.pkl,0.17698485,0.694406105387066,16.258734,73.33217077479233
multimer_genus_dupl,P60709_P06491,result_model_1_multimer_v3_pred_1.pkl,0.24252641,0.7171100870355764,18.592926,78.19700850955944
multimer_genus_dupl,P60709_P10226,result_model_1_multimer_v3_pred_1.pkl,0.26647735,0.4903438021377461,22.242651,67.1718076740153
multimer_genus_dupl,P60709_P10233,result_model_1_multimer_v3_pred_1.pkl,0.16870123,0.5815356757582146,20.752516,66.34144152230313
multimer_genus_dupl,P60953_P06487,result_model_1_multimer_v3_pred_1.pkl,0.17692089,0.3805645418363217,23.48348,59.64224071316933
multimer_genus_dupl,P61026_P10233,result_model_1_multimer_v3_pred_1.pkl,0.2509262,0.41459202985687915,23.828104,54.23322766045629
multimer_genus_dupl,P61254_P04487,result_model_1_multimer_v3_pred_1.pkl,0.07104353,0.4222795414703837,23.622417,68.3696708519461
multimer_genus_dupl,P61353_P04487,result_model_1_multimer_v3_pred_1.pkl,0.09678546,0.4420521632566066,22.858633,71.2369633749481
multimer_genus_dupl,P61353_P10233,result_model_1_multimer_v3_pred_1.pkl,0.14362544,0.3414013384927359,25.535334,57.11786081399204
multimer_genus_dupl,P61513_P10233,result_model_1_multimer_v3_pred_1.pkl,0.15176159,0.29229773571753026,25.953302,50.0693318567411
multimer_genus_dupl,P61769_P10211,result_model_1_multimer_v3_pred_1.pkl,0.13261974,0.4184302293735631,25.663637,64.07068019238702
multimer_genus_dupl,P61978_P10233,result_model_1_multimer_v3_pred_1.pkl,0.13526636,0.32786467881609893,27.39275,44.67097502770345
multimer_genus_dupl,P62136_P10233,result_model_1_multimer_v3_pred_1.pkl,0.61895144,0.5363108646128164,22.095486,61.77714944268067
multimer_genus_dupl,P62241_P04487,result_model_1_multimer_v3_pred_1.pkl,0.081874356,0.534800370570246,21.392157,69.33351512649126
multimer_genus_dupl,P62328_P04487,result_model_1_multimer_v3_pred_1.pkl,0.06444229,0.1277557647656569,26.953894,50.15534085827008
multimer_genus_dupl,P62424_P04487,result_model_1_multimer_v3_pred_1.pkl,0.07832891,0.4595508497946994,23.27532,65.49528247516378
multimer_genus_dupl,P62750_P04487,result_model_1_multimer_v3_pred_1.pkl,0.0680199,0.32231228536723255,25.901037,64.70102033147178
multimer_genus_dupl,P62805_P10233,result_model_1_multimer_v3_pred_1.pkl,0.20314564,0.30846023439855697,26.170168,39.28743775958033
multimer_genus_dupl,P62820_P10231,result_model_1_multimer_v3_pred_1.pkl,0.23448823,0.6506736957808403,19.012068,67.80103101974994
multimer_genus_dupl,P62820_P10233,result_model_1_multimer_v3_pred_1.pkl,0.27572775,0.4235885282931513,23.570951,52.91837327134103
multimer_genus_dupl,P62851_P04487,result_model_1_multimer_v3_pred_1.pkl,0.081681445,0.2874520511064024,26.030216,58.031802229992664
multimer_genus_dupl,P62857_P10233,result_model_1_multimer_v3_pred_1.pkl,0.2838229,0.33804055971966984,25.263733,45.38841843141856
multimer_genus_dupl,P62888_P10233,result_model_1_multimer_v3_pred_1.pkl,0.17879145,0.3178727593321883,24.990847,53.07417925991092
multimer_genus_dupl,P62899_P10233,result_model_1_multimer_v3_pred_1.pkl,0.16410342,0.292318130036329,25.701084,47.963846200221106
multimer_genus_dupl,P62906_P04487,result_model_1_multimer_v3_pred_1.pkl,0.083004534,0.5317259348945944,20.944975,70.7479095498493
multimer_genus_dupl,P62913_P04487,result_model_1_multimer_v3_pred_1.pkl,0.083482996,0.4902185025675379,22.241575,69.14154194510596
multimer_genus_dupl,P62913_P10233,result_model_1_multimer_v3_pred_1.pkl,0.21735665,0.4090135287260311,23.997175,57.26495080618349
multimer_genus_dupl,P62917_P10233,result_model_1_multimer_v3_pred_1.pkl,0.123714924,0.3709512201728963,25.754728,55.663710919616854
multimer_genus_dupl,P62937_P03170,result_model_1_multimer_v3_pred_1.pkl,0.28269437,0.6944949040761539,13.838344,71.64567294386863
multimer_genus_dupl,P62937_P04294,result_model_1_multimer_v3_pred_1.pkl,0.20540047,0.6065243323234513,19.591164,70.13015657493665
multimer_genus_dupl,P62937_P04487,result_model_1_multimer_v3_pred_1.pkl,0.6595756,0.5581559155513642,19.862387,74.00181492458897
multimer_genus_dupl,P62937_P10226,result_model_1_multimer_v3_pred_1.pkl,0.14685628,0.46951855686423133,22.492851,64.80694936978468
multimer_genus_dupl,P62937_P10233,result_model_1_multimer_v3_pred_1.pkl,0.19631593,0.4274389566402179,23.482855,60.66622023583641
multimer_genus_dupl,P62942_P04294,result_model_1_multimer_v3_pred_1.pkl,0.2453523,0.6373306648358559,19.099712,68.20036469780464
multimer_genus_dupl,P62979_P06485,result_model_1_multimer_v3_pred_1.pkl,0.23482059,0.5491000529447493,20.174795,65.27402408425033
multimer_genus_dupl,P62979_P10233,result_model_1_multimer_v3_pred_1.pkl,0.16347809,0.2523725683821055,27.035707,54.39723285349232
multimer_genus_dupl,P62993_P10233,result_model_1_multimer_v3_pred_1.pkl,0.30923146,0.35855169656882474,24.533916,53.357143190289385
multimer_genus_dupl,P63220_P04487,result_model_1_multimer_v3_pred_1.pkl,0.0879277,0.3135251621816244,25.251038,60.58852460674685
multimer_genus_dupl,P63241_P04487,result_model_1_multimer_v3_pred_1.pkl,0.09105144,0.42442025940641415,23.281551,65.96238546530937
multimer_genus_dupl,P63241_P10233,result_model_1_multimer_v3_pred_1.pkl,0.13586335,0.34528315162325574,25.388735,53.55465380409338
multimer_genus_dupl,P67870_P10233,result_model_1_multimer_v3_pred_1.pkl,0.6107063,0.521695002087555,22.320795,61.452313174761926
multimer_genus_dupl,P68104_P03170,result_model_1_multimer_v3_pred_1.pkl,0.1681297,0.585473154799697,15.834111,71.11117582865654
multimer_genus_dupl,P68104_P04487,result_model_1_multimer_v3_pred_1.pkl,0.14524777,0.633007365643959,17.529476,68.98290428277238
multimer_genus_dupl,P68104_P10233,result_model_1_multimer_v3_pred_1.pkl,0.2181674,0.5137010423855743,21.07061,62.33074508708714
P68400_P10233,0.246445642362777
multimer_genus_dupl,P83731_P04487,result_model_1_multimer_v3_pred_1.pkl,0.06936146,0.26217308413560936,26.435772,63.56750584827888
multimer_genus_dupl,P83731_P10233,result_model_1_multimer_v3_pred_1.pkl,0.109271325,0.25423488254595883,27.435871,52.64625363815444
multimer_genus_dupl,P84077_P10233,result_model_1_multimer_v3_pred_1.pkl,0.4329964,0.46873989352501755,22.66366,56.37346421299946
multimer_genus_dupl,P84243_P04487,result_model_1_multimer_v3_pred_1.pkl,0.089405306,0.2805280571063029,25.990435,58.639295436981094
multimer_genus_dupl,P84243_P10226,result_model_1_multimer_v3_pred_1.pkl,0.16664653,0.4787154177795699,24.035498,52.445920136833934
multimer_genus_dupl,P84243_P10233,result_model_1_multimer_v3_pred_1.pkl,0.17118359,0.28993404748051843,26.902662,39.702078991167554
multimer_genus_dupl,Q00341_P04487,result_model_1_multimer_v3_pred_1.pkl,0.15010014,0.300771697592349,27.784296,65.56953058114217
multimer_genus_dupl,Q00839_P10226,result_model_1_multimer_v3_pred_1.pkl,0.18434334,0.4010983246879325,26.557772,53.30449298367726
multimer_genus_dupl,Q01105_P04487,result_model_1_multimer_v3_pred_1.pkl,0.0970971,0.4310853587999809,24.731075,53.98702933002331
multimer_genus_dupl,Q01105_P10233,result_model_1_multimer_v3_pred_1.pkl,0.12906148,0.3747768789315105,26.048525,48.13931142201397
multimer_genus_dupl,Q02543_P04487,result_model_1_multimer_v3_pred_1.pkl,0.11087756,0.44116553301423606,22.865068,62.35247418561819
multimer_genus_dupl,Q02818_P10220,result_model_1_multimer_v3_pred_1.pkl,0.2659559,0.3602120268704902,29.442657,47.69097975456758
multimer_genus_dupl,Q02878_P04487,result_model_1_multimer_v3_pred_1.pkl,0.07682566,0.3636599637669534,26.104689,59.849415210611035
multimer_genus_dupl,Q03518_P03170,result_model_1_multimer_v3_pred_1.pkl,0.22783205,0.5843403416406427,18.904228,69.73481514018862
multimer_genus_dupl,Q05639_P04487,result_model_1_multimer_v3_pred_1.pkl,0.14555004,0.616849116923384,17.687548,69.11894347652353
multimer_genus_dupl,Q06830_P10226,result_model_1_multimer_v3_pred_1.pkl,0.11519021,0.4431415215785893,23.753428,64.42771148996185
multimer_genus_dupl,Q07020_P04487,result_model_1_multimer_v3_pred_1.pkl,0.07544481,0.43755562188061575,23.478197,64.88336662050389
multimer_genus_dupl,Q07020_P10233,result_model_1_multimer_v3_pred_1.pkl,0.14199543,0.32621165613428105,25.860422,50.54057903797336
multimer_genus_dupl,Q10472_P04488,result_model_1_multimer_v3_pred_1.pkl,0.26431212,0.5200107956108775,23.108833,66.4288670332804
multimer_genus_dupl,Q13123_P10233,result_model_1_multimer_v3_pred_1.pkl,0.2808888,0.22419077270600535,29.454502,39.53099499690895
multimer_genus_dupl,Q13641_P10229,result_model_1_multimer_v3_pred_1.pkl,0.16903627,0.5261294558882643,22.015522,65.46337884656727
multimer_genus_dupl,Q14011_P10233,result_model_1_multimer_v3_pred_1.pkl,0.20130867,0.3055039975751209,26.52405,45.68092184483511
multimer_genus_dupl,Q14697_P10211,result_model_1_multimer_v3_pred_1.pkl,0.2030426,0.5656426425718482,23.345594,72.07044665199025
multimer_genus_dupl,Q14847_P10233,result_model_1_multimer_v3_pred_1.pkl,0.36323577,0.37587248907150106,26.311747,44.26695180243791
multimer_genus_dupl,Q15056_P10225,result_model_1_multimer_v3_pred_1.pkl,0.6585651,0.6470851612719005,19.704754,63.65508036781353
multimer_genus_dupl,Q15056_P10231,result_model_1_multimer_v3_pred_1.pkl,0.15240094,0.6252611568497357,21.007168,61.35322094382161
multimer_genus_dupl,Q15056_P10233,result_model_1_multimer_v3_pred_1.pkl,0.123999044,0.25727273971188014,27.654367,42.882940140810724
multimer_genus_dupl,Q15691_P10233,result_model_1_multimer_v3_pred_1.pkl,0.12103552,0.31250556997785356,26.7402,51.907515084701615
multimer_genus_dupl,Q16531_P10231,result_model_1_multimer_v3_pred_1.pkl,0.73745084,0.7158374118834165,17.332792,80.2964170233027
multimer_genus_dupl,Q16777_P10233,result_model_1_multimer_v3_pred_1.pkl,0.15354091,0.2880589966963435,26.150484,44.38268489149431
multimer_genus_dupl,Q1KMD3_P10226,result_model_1_multimer_v3_pred_1.pkl,0.22620167,0.4268349504991287,25.780304,57.293719175848395
multimer_genus_dupl,Q5QNW6_P10233,result_model_1_multimer_v3_pred_1.pkl,0.18445489,0.30224092617202314,26.25283,42.81013940905724
multimer_genus_dupl,Q5VW38_P10229,result_model_1_multimer_v3_pred_1.pkl,0.39062467,0.6020590650042406,20.107153,62.9966648972651
multimer_genus_dupl,Q69091_P09382,result_model_1_multimer_v3_pred_1.pkl,0.3178615,0.5381542369058219,19.67978,66.1697245170853
multimer_genus_dupl,Q69091_P11021,result_model_1_multimer_v3_pred_1.pkl,0.22072823,0.5234516905144186,21.97336,69.35091386560359
multimer_genus_dupl,Q69091_P27105,result_model_1_multimer_v3_pred_1.pkl,0.11441675,0.4005224925142232,24.118547,66.5265199943626
multimer_genus_dupl,Q69091_P61224,result_model_1_multimer_v3_pred_1.pkl,0.16690859,0.47434489658912343,21.53,67.10157233298598
multimer_genus_dupl,Q69091_Q12907,result_model_1_multimer_v3_pred_1.pkl,0.123625875,0.39923716413442456,24.065542,62.64019245438204
multimer_genus_dupl,Q69091_Q92835,result_model_1_multimer_v3_pred_1.pkl,0.20650572,0.5039421474118608,25.374014,57.76349311887339
multimer_genus_dupl,Q6NZI2_P10233,result_model_1_multimer_v3_pred_1.pkl,0.2124065,0.23710218770288527,29.067743,35.49357796742772
multimer_genus_dupl,Q70UQ0_P10218,result_model_1_multimer_v3_pred_1.pkl,0.093879886,0.3077302947710391,27.673487,60.86543647152885
multimer_genus_dupl,Q71DI3_P10233,result_model_1_multimer_v3_pred_1.pkl,0.16087793,0.2865009662508191,26.871923,38.54315006350923
multimer_genus_dupl,Q7Z7H5_P10229,result_model_1_multimer_v3_pred_1.pkl,0.1473037,0.3107842027148148,23.670511,52.68130273291896
multimer_genus_dupl,Q8WWI1_P08543,result_model_1_multimer_v3_pred_1.pkl,0.29760092,0.4447113310968493,28.310406,42.240858168574626
multimer_genus_dupl,Q93077_P10233,result_model_1_multimer_v3_pred_1.pkl,0.14721811,0.2872966423719637,26.134512,45.49513521029709
multimer_genus_dupl,Q96AG4_P10218,result_model_1_multimer_v3_pred_1.pkl,0.18887995,0.392111899881348,23.615507,66.79282170283413
multimer_genus_dupl,Q99877_P03170,result_model_1_multimer_v3_pred_1.pkl,0.11531756,0.3950259864546082,21.909407,49.50310914800705
multimer_genus_dupl,Q99877_P04294,result_model_1_multimer_v3_pred_1.pkl,0.20522316,0.6351716014115445,19.930456,62.73762199204244
multimer_genus_dupl,Q99877_P04485,result_model_1_multimer_v3_pred_1.pkl,0.15582266,0.21506709862966214,26.9715,33.58674744161667
multimer_genus_dupl,Q99877_P04487,result_model_1_multimer_v3_pred_1.pkl,0.108012535,0.32837926264266254,24.801882,59.30165670998909
multimer_genus_dupl,Q99877_P10226,result_model_1_multimer_v3_pred_1.pkl,0.2180053,0.5068875260155983,23.044338,53.13044249073455
multimer_genus_dupl,Q99877_P10231,result_model_1_multimer_v3_pred_1.pkl,0.26447216,0.7057343976115277,17.786526,66.39436561509747
multimer_genus_dupl,Q99877_P10233,result_model_1_multimer_v3_pred_1.pkl,0.171299,0.296718321829646,26.181026,44.027907800104444
multimer_genus_dupl,Q99878_P10233,result_model_1_multimer_v3_pred_1.pkl,0.1581231,0.29076449599281584,25.944828,45.84215859120254
multimer_genus_dupl,Q99879_P10233,result_model_1_multimer_v3_pred_1.pkl,0.17012113,0.29317149042012736,26.23567,45.42796994217042
multimer_genus_dupl,Q99880_P10233,result_model_1_multimer_v3_pred_1.pkl,0.18047082,0.301106124018755,25.972311,46.61042035822581
multimer_genus_dupl,Q9BS26_P10211,result_model_1_multimer_v3_pred_1.pkl,0.1609585,0.36081048115129993,26.710299,64.21528682508595
multimer_genus_dupl,Q9BVK6_P10229,result_model_1_multimer_v3_pred_1.pkl,0.14518604,0.3137862993835166,23.549149,54.54714266194346
multimer_genus_dupl,Q9BXS5_P04488,result_model_1_multimer_v3_pred_1.pkl,0.2593787,0.36960339899592326,25.555553,58.335834840493774
multimer_genus_dupl,Q9GZQ8_P10233,result_model_1_multimer_v3_pred_1.pkl,0.44621885,0.36618714428963284,24.139168,52.683664118043836
multimer_genus_dupl,Q9H0U4_P10231,result_model_1_multimer_v3_pred_1.pkl,0.43490654,0.7027276164004668,17.201012,70.69329702940644
multimer_genus_dupl,Q9H0U4_P10233,result_model_1_multimer_v3_pred_1.pkl,0.2765537,0.41807682107880045,23.681095,53.31334535156426
multimer_genus_dupl,Q9H299_P10233,result_model_1_multimer_v3_pred_1.pkl,0.24220374,0.3245410709299489,24.748144,52.59297288242217
multimer_genus_dupl,Q9H3P7_P04488,result_model_1_multimer_v3_pred_1.pkl,0.15420064,0.2811923163998118,27.567383,54.75749721957573
multimer_genus_dupl,Q9HDC9_P10211,result_model_1_multimer_v3_pred_1.pkl,0.16736728,0.3866381344553708,25.85691,67.0361915439786
multimer_genus_dupl,Q9NR12_P10233,result_model_1_multimer_v3_pred_1.pkl,0.12789088,0.2237297539572181,28.070456,44.96864197376454
multimer_genus_dupl,Q9P2E9_P04487,result_model_1_multimer_v3_pred_1.pkl,0.1513792,0.19989832870435376,30.29137,35.35326006644533
Q9Y224_P10233,0.17452317816852772
