multimer_trembl_dupl,O00299_P04487,result_model_1_multimer_v3_pred_1.pkl,0.15051486,0.6171233150861843,18.576685,65.22599198244305
multimer_trembl_dupl,O43169_P04488,result_model_1_multimer_v3_pred_1.pkl,0.16674978,0.33770026860010144,26.16276,51.93636410861428
multimer_trembl_dupl,O43169_P10218,result_model_1_multimer_v3_pred_1.pkl,0.24726175,0.46881583224098056,22.366734,62.03249502468936
multimer_trembl_dupl,O43852_P10185,result_model_1_multimer_v3_pred_1.pkl,0.18748435,0.4897685947431295,21.823057,55.17272800900522
multimer_trembl_dupl,O43852_P10211,result_model_1_multimer_v3_pred_1.pkl,0.21707797,0.3884388725619629,26.316315,60.619213844456866
multimer_trembl_dupl,O75396_P04487,result_model_1_multimer_v3_pred_1.pkl,0.08989631,0.42841817348293854,24.366121,60.900307391676314
multimer_trembl_dupl,O75531_P10233,result_model_1_multimer_v3_pred_1.pkl,0.2400451,0.31776977459539013,25.407906,53.663286041416626
multimer_trembl_dupl,P00338_P04487,result_model_1_multimer_v3_pred_1.pkl,0.16625631,0.6829112749974972,16.792124,73.75351813772777
multimer_trembl_dupl,P00387_P04488,result_model_1_multimer_v3_pred_1.pkl,0.29357392,0.41627191784975537,24.526108,60.61263887209746
multimer_trembl_dupl,P01889_P10229,result_model_1_multimer_v3_pred_1.pkl,0.5229552,0.4690165906805573,21.532469,64.177030269693
multimer_trembl_dupl,P02511_P10233,result_model_1_multimer_v3_pred_1.pkl,0.19973528,0.29455303725707704,26.42288,45.55592436107129
multimer_trembl_dupl,P04083_P04488,result_model_1_multimer_v3_pred_1.pkl,0.16580161,0.44238862850475646,24.182503,59.77625854829834
multimer_trembl_dupl,P04288_P06703,result_model_1_multimer_v3_pred_1.pkl,0.23612018,0.5943196031223912,19.852348,66.26517230289105
multimer_trembl_dupl,P04288_P62820,result_model_1_multimer_v3_pred_1.pkl,0.26564878,0.5608688618432545,20.38784,68.14060487228078
multimer_trembl_dupl,P04288_P62979,result_model_1_multimer_v3_pred_1.pkl,0.1340485,0.5487599942763709,21.94582,65.0686376840802
multimer_trembl_dupl,P04288_Q9H0U4,result_model_1_multimer_v3_pred_1.pkl,0.26556203,0.5618369391861884,20.366924,67.63979385734281
multimer_trembl_dupl,P04294_P13010,result_model_1_multimer_v3_pred_1.pkl,0.30407718,0.4320656176739884,24.400892,69.73180024125048
multimer_trembl_dupl,P04294_P27348,result_model_1_multimer_v3_pred_1.pkl,0.51336855,0.5601332137803687,20.602205,70.35811454821703
multimer_trembl_dupl,P04294_P31946,result_model_1_multimer_v3_pred_1.pkl,0.4128731,0.5630985682150453,20.685207,69.73958151674793
multimer_trembl_dupl,P04294_P61981,result_model_1_multimer_v3_pred_1.pkl,0.28966817,0.5684584287300298,20.28602,70.19128960268321
multimer_trembl_dupl,P04294_P62258,result_model_1_multimer_v3_pred_1.pkl,0.5007195,0.5601548115393915,20.648626,69.91806953856666
multimer_trembl_dupl,P04294_P63104,result_model_1_multimer_v3_pred_1.pkl,0.59653515,0.5690732893439799,20.298634,70.60090139776962
multimer_trembl_dupl,P04294_Q9Y4E8,result_model_1_multimer_v3_pred_1.pkl,0.39416328,0.4557416039005576,24.725534,66.70059989742147
multimer_trembl_dupl,P04296_P07737,result_model_1_multimer_v3_pred_1.pkl,0.23886496,0.7869147405660964,15.147127,78.99928795500863
multimer_trembl_dupl,P04406_P04487,result_model_1_multimer_v3_pred_1.pkl,0.22865385,0.6905566899477407,16.421705,74.74359545236855
multimer_trembl_dupl,P04406_P10226,result_model_1_multimer_v3_pred_1.pkl,0.23339504,0.46462771671634173,22.706196,71.0016248245168
multimer_trembl_dupl,P04406_P10233,result_model_1_multimer_v3_pred_1.pkl,0.25700313,0.569148943451826,21.115753,68.87638503799741
multimer_trembl_dupl,P04487_P08670,result_model_1_multimer_v3_pred_1.pkl,0.08151465,0.22308228156237445,28.107397,58.014033915588875
multimer_trembl_dupl,P04487_P67809,result_model_1_multimer_v3_pred_1.pkl,0.092536435,0.26423816056665295,28.375706,43.90568682793746
multimer_trembl_dupl,P04488_O14828,result_model_1_multimer_v3_pred_1.pkl,0.21934626,0.3151949570710655,26.917831,55.38609047233061
multimer_trembl_dupl,P04488_O15127,result_model_1_multimer_v3_pred_1.pkl,0.20022847,0.3053985516059903,26.92521,55.6547049679683
multimer_trembl_dupl,P04488_O75396,result_model_1_multimer_v3_pred_1.pkl,0.19101033,0.33158935987827576,25.977915,56.363708482465434
multimer_trembl_dupl,P04488_P06703,result_model_1_multimer_v3_pred_1.pkl,0.2632781,0.3688451711263618,25.416615,53.805476085934444
multimer_trembl_dupl,P04488_P07237,result_model_1_multimer_v3_pred_1.pkl,0.19571409,0.43226391447753665,24.298834,61.403008314259445
multimer_trembl_dupl,P04488_P11166,result_model_1_multimer_v3_pred_1.pkl,0.23565345,0.49710067023623483,23.512075,63.33128350827543
multimer_trembl_dupl,P04488_P20340,result_model_1_multimer_v3_pred_1.pkl,0.2232612,0.34522180950752357,25.216282,54.277051256460695
multimer_trembl_dupl,P04488_P60468,result_model_1_multimer_v3_pred_1.pkl,0.15001255,0.3520210834148259,26.162672,53.9096323633739
multimer_trembl_dupl,P04488_P61019,result_model_1_multimer_v3_pred_1.pkl,0.19979696,0.3506232103643748,24.977922,55.16788130488869
multimer_trembl_dupl,P04488_P62820,result_model_1_multimer_v3_pred_1.pkl,0.20403314,0.3516070541613947,24.841198,54.02276808603653
multimer_trembl_dupl,P04488_P62979,result_model_1_multimer_v3_pred_1.pkl,0.21033782,0.34123096929078994,25.820374,50.39204018103324
multimer_trembl_dupl,P04488_Q15836,result_model_1_multimer_v3_pred_1.pkl,0.16357869,0.34145621688941014,26.23109,54.33446652983418
multimer_trembl_dupl,P04488_Q96AJ9,result_model_1_multimer_v3_pred_1.pkl,0.12714212,0.3111180373204736,26.956913,57.68883173705637
multimer_trembl_dupl,P04488_Q9BVC6,result_model_1_multimer_v3_pred_1.pkl,0.15289323,0.30624408295172767,27.352165,51.74675842660158
multimer_trembl_dupl,P04488_Q9GZQ8,result_model_1_multimer_v3_pred_1.pkl,0.6735065,0.35031464784818467,25.149752,55.030112275559404
multimer_trembl_dupl,P04488_Q9H0U4,result_model_1_multimer_v3_pred_1.pkl,0.22590655,0.3509657922217371,24.786163,54.479210470574124
multimer_trembl_dupl,P04488_Q9H4G4,result_model_1_multimer_v3_pred_1.pkl,0.26246962,0.3419818459135925,24.812963,56.38167716488781
multimer_trembl_dupl,P04792_P04294,result_model_1_multimer_v3_pred_1.pkl,0.19489181,0.5939128045122946,21.427109,58.83992473909664
multimer_trembl_dupl,P04792_P10233,result_model_1_multimer_v3_pred_1.pkl,0.20312198,0.2940992353786661,26.428104,40.1049434122852
multimer_trembl_dupl,P05023_P04488,result_model_1_multimer_v3_pred_1.pkl,0.23215425,0.5889180933395162,21.952602,69.70759236678295
multimer_trembl_dupl,P05204_P10233,result_model_1_multimer_v3_pred_1.pkl,0.14658506,0.3140176453397274,26.738232,41.67819190814011
multimer_trembl_dupl,P06487_P06703,result_model_1_multimer_v3_pred_1.pkl,0.24159053,0.44764888478131304,23.67159,52.35484261261152
multimer_trembl_dupl,P06487_P20340,result_model_1_multimer_v3_pred_1.pkl,0.21029627,0.39506601981382294,23.645613,57.8909425957605
multimer_trembl_dupl,P06487_P51148,result_model_1_multimer_v3_pred_1.pkl,0.16992545,0.3785828601371224,24.15947,58.10081773175743
multimer_trembl_dupl,P06487_P62937,result_model_1_multimer_v3_pred_1.pkl,0.5688867,0.4031516735814028,22.880888,65.46145003538405
multimer_trembl_dupl,P06487_Q9H0U4,result_model_1_multimer_v3_pred_1.pkl,0.2692634,0.4142248813125188,23.166279,58.74294523915871
multimer_trembl_dupl,P06491_P10599,result_model_1_multimer_v3_pred_1.pkl,0.18595874,0.7924430821745138,15.706824,79.06143908059772
multimer_trembl_dupl,P06703_P04487,result_model_1_multimer_v3_pred_1.pkl,0.09923248,0.3490401321356137,24.868502,57.78399882943184
multimer_trembl_dupl,P06703_P10226,result_model_1_multimer_v3_pred_1.pkl,0.19333461,0.4698655755406607,23.454163,53.26323053253429
multimer_trembl_dupl,P06703_P10233,result_model_1_multimer_v3_pred_1.pkl,0.18296671,0.30826523764904523,25.646563,48.9646568271702
multimer_trembl_dupl,P06703_P10238,result_model_1_multimer_v3_pred_1.pkl,0.18112053,0.4431781197679049,24.645658,51.7430844841224
multimer_trembl_dupl,P06733_P04487,result_model_1_multimer_v3_pred_1.pkl,0.12197482,0.7296255574259025,15.113886,76.58708200471567
multimer_trembl_dupl,P06733_P10226,result_model_1_multimer_v3_pred_1.pkl,0.13350847,0.5139224430219714,21.870745,73.1318946213846
multimer_trembl_dupl,P06748_P04487,result_model_1_multimer_v3_pred_1.pkl,0.094693,0.301467986758518,27.093822,49.99029368517668
multimer_trembl_dupl,P07355_P06487,result_model_1_multimer_v3_pred_1.pkl,0.1689893,0.4928438148722003,22.529446,66.07032869060639
multimer_trembl_dupl,P07355_Q69091,result_model_1_multimer_v3_pred_1.pkl,0.20384356,0.5192130330426867,20.752457,70.60002840595914
multimer_trembl_dupl,P07384_P10231,result_model_1_multimer_v3_pred_1.pkl,0.25168312,0.49552912692046225,21.469421,74.80292356474837
multimer_trembl_dupl,P07437_P10233,result_model_1_multimer_v3_pred_1.pkl,0.16615412,0.6088304424364179,20.19607,65.66543193386373
multimer_trembl_dupl,P07737_P04487,result_model_1_multimer_v3_pred_1.pkl,0.28877375,0.49889565513751816,21.558401,64.88938815919128
multimer_trembl_dupl,P07737_P08543,result_model_1_multimer_v3_pred_1.pkl,0.66988015,0.6672192266451846,19.690649,68.42079048887292
multimer_trembl_dupl,P07737_P10233,result_model_1_multimer_v3_pred_1.pkl,0.19555752,0.38090342356722035,24.06745,55.67975108261747
multimer_trembl_dupl,P08133_P04288,result_model_1_multimer_v3_pred_1.pkl,0.18282351,0.46628085648263373,21.534584,76.86614640510429
multimer_trembl_dupl,P08133_P04488,result_model_1_multimer_v3_pred_1.pkl,0.1598265,0.4112644051506885,24.489477,64.9330849139262
multimer_trembl_dupl,P08133_P06487,result_model_1_multimer_v3_pred_1.pkl,0.16634595,0.48236414627791535,22.189165,70.50192610941744
multimer_trembl_dupl,P08133_Q69091,result_model_1_multimer_v3_pred_1.pkl,0.15279803,0.41008644210595113,23.22984,71.4393802289024
multimer_trembl_dupl,P08134_P10233,result_model_1_multimer_v3_pred_1.pkl,0.26908463,0.44552808907866387,23.222391,56.165275449654786
multimer_trembl_dupl,P08195_P10229,result_model_1_multimer_v3_pred_1.pkl,0.20254813,0.574265223751093,21.821665,63.42972944025117
multimer_trembl_dupl,P08392_P35268,result_model_1_multimer_v3_pred_1.pkl,0.26712656,0.4196032387962683,26.690453,51.05702080424943
multimer_trembl_dupl,P08758_P10233,result_model_1_multimer_v3_pred_1.pkl,0.16613603,0.5458372397659312,21.613321,63.438277780075566
multimer_trembl_dupl,P08758_Q69091,result_model_1_multimer_v3_pred_1.pkl,0.14109743,0.49450036666657377,21.597221,68.03551711702566
multimer_trembl_dupl,P08962_P10211,result_model_1_multimer_v3_pred_1.pkl,0.42153484,0.41679731151947386,25.36692,64.67858418827653
multimer_trembl_dupl,P09382_P10226,result_model_1_multimer_v3_pred_1.pkl,0.23533401,0.49689588068304963,22.14986,60.78739213840836
multimer_trembl_dupl,P09382_P10233,result_model_1_multimer_v3_pred_1.pkl,0.25496316,0.38426685539141303,23.913054,55.35230514365454
multimer_trembl_dupl,P09429_P10233,result_model_1_multimer_v3_pred_1.pkl,0.13133645,0.2597065209974416,26.292864,49.17942676153903
multimer_trembl_dupl,P09651_P04487,result_model_1_multimer_v3_pred_1.pkl,0.13568538,0.3994499966427246,25.874092,49.049394412668896
multimer_trembl_dupl,P09651_P10226,result_model_1_multimer_v3_pred_1.pkl,0.15208344,0.3939705647222457,25.804127,52.48760650773437
multimer_trembl_dupl,P09651_P10233,result_model_1_multimer_v3_pred_1.pkl,0.2420936,0.37683393893117695,26.278969,44.810699490239124
multimer_trembl_dupl,P09651_P10238,result_model_1_multimer_v3_pred_1.pkl,0.13499445,0.3652331745674251,26.67824,51.69945114823094
multimer_trembl_dupl,P0C0S5_P10233,result_model_1_multimer_v3_pred_1.pkl,0.23312989,0.30986338648179385,25.627151,46.21047737150877
multimer_trembl_dupl,P0DMV9_P04487,result_model_1_multimer_v3_pred_1.pkl,0.18487293,0.686220987665822,17.149656,74.47818699878623
multimer_trembl_dupl,P0DP25_P04288,result_model_1_multimer_v3_pred_1.pkl,0.12925051,0.5434590299852813,21.876556,63.935993256215056
multimer_trembl_dupl,P0DP25_P04488,result_model_1_multimer_v3_pred_1.pkl,0.30147344,0.34904025277111156,24.790995,55.352846819433566
multimer_trembl_dupl,P0DP25_P10211,result_model_1_multimer_v3_pred_1.pkl,0.19835205,0.41691474647971716,25.97775,59.51540792945835
multimer_trembl_dupl,P0DP25_P10233,result_model_1_multimer_v3_pred_1.pkl,0.14493364,0.272683196914428,25.934677,45.72402031804143
multimer_trembl_dupl,P10185_P05556,result_model_1_multimer_v3_pred_1.pkl,0.17732948,0.5239350838050624,22.671555,71.52940385780691
multimer_trembl_dupl,P10185_P07237,result_model_1_multimer_v3_pred_1.pkl,0.21416157,0.5387587863165832,19.890419,69.42194625237498
multimer_trembl_dupl,P10185_P09382,result_model_1_multimer_v3_pred_1.pkl,0.2307804,0.4543253211463355,20.388403,63.51630806735049
multimer_trembl_dupl,P10185_P11021,result_model_1_multimer_v3_pred_1.pkl,0.29450107,0.626736473234059,18.959044,71.7794553921178
multimer_trembl_dupl,P10185_P13667,result_model_1_multimer_v3_pred_1.pkl,0.23642598,0.5943471593381678,18.97034,72.06265908166156
multimer_trembl_dupl,P10185_P14314,result_model_1_multimer_v3_pred_1.pkl,0.17043559,0.41639957732977856,23.54212,65.60755225419517
multimer_trembl_dupl,P10185_P23284,result_model_1_multimer_v3_pred_1.pkl,0.17206345,0.48643138366915833,21.61967,61.54965148098124
multimer_trembl_dupl,P10185_P30101,result_model_1_multimer_v3_pred_1.pkl,0.18621592,0.540458896771243,20.079735,70.432889642247
multimer_trembl_dupl,P10185_P50454,result_model_1_multimer_v3_pred_1.pkl,0.20497432,0.6434912476646417,17.838537,69.79594842323169
multimer_trembl_dupl,P10209_P08670,result_model_1_multimer_v3_pred_1.pkl,0.13790369,0.443984017961369,26.34599,55.12939925050563
multimer_trembl_dupl,P10209_Q99877,result_model_1_multimer_v3_pred_1.pkl,0.15603608,0.6089001968205687,20.681587,60.756275277956156
multimer_trembl_dupl,P10211_P01889,result_model_1_multimer_v3_pred_1.pkl,0.2131251,0.3819714908591811,26.597431,62.84669729096123
multimer_trembl_dupl,P10211_P04844,result_model_1_multimer_v3_pred_1.pkl,0.18043867,0.3772242734966803,26.411863,68.50870565578207
multimer_trembl_dupl,P10211_P07237,result_model_1_multimer_v3_pred_1.pkl,0.20237306,0.351865719431477,26.098173,65.35942649647852
multimer_trembl_dupl,P10211_P08195,result_model_1_multimer_v3_pred_1.pkl,0.16975355,0.3808147604060651,26.982233,61.81269565901947
multimer_trembl_dupl,P10211_P08648,result_model_1_multimer_v3_pred_1.pkl,0.21459767,0.424984177645777,26.527721,67.07113264897949
multimer_trembl_dupl,P10211_P09382,result_model_1_multimer_v3_pred_1.pkl,0.21152931,0.4087615702781814,25.834482,62.33250352809095
multimer_trembl_dupl,P10211_P10321,result_model_1_multimer_v3_pred_1.pkl,0.18880562,0.3743153503941833,26.63852,63.00374380002676
multimer_trembl_dupl,P10211_P11021,result_model_1_multimer_v3_pred_1.pkl,0.3330136,0.43613951229264203,25.64043,67.14396255932004
multimer_trembl_dupl,P10211_P13667,result_model_1_multimer_v3_pred_1.pkl,0.18331365,0.37766312853248907,26.357983,66.03848862771781
multimer_trembl_dupl,P10211_P14625,result_model_1_multimer_v3_pred_1.pkl,0.18274754,0.38682871041500094,26.798038,63.126042787421035
multimer_trembl_dupl,P10211_P21589,result_model_1_multimer_v3_pred_1.pkl,0.16891985,0.38286710904301774,26.045471,67.63806778843932
multimer_trembl_dupl,P10211_P23284,result_model_1_multimer_v3_pred_1.pkl,0.18664004,0.39625395552034465,26.048555,65.9740054629627
multimer_trembl_dupl,P10211_P30101,result_model_1_multimer_v3_pred_1.pkl,0.16070928,0.34731118469612793,26.550426,66.36511934567132
multimer_trembl_dupl,P10211_P46977,result_model_1_multimer_v3_pred_1.pkl,0.42032787,0.5358802641253095,23.22857,69.2913981659959
multimer_trembl_dupl,P10211_P50454,result_model_1_multimer_v3_pred_1.pkl,0.5883903,0.5128627527302926,23.417606,69.47549543390488
multimer_trembl_dupl,P10211_P62979,result_model_1_multimer_v3_pred_1.pkl,0.13998969,0.39857190515962027,26.316193,61.29364669930931
multimer_trembl_dupl,P10211_Q12907,result_model_1_multimer_v3_pred_1.pkl,0.15449283,0.3595361931723583,26.760403,63.84346269666957
multimer_trembl_dupl,P10211_Q15084,result_model_1_multimer_v3_pred_1.pkl,0.15559769,0.362342561725492,27.039465,63.95411175246157
multimer_trembl_dupl,P10211_Q15293,result_model_1_multimer_v3_pred_1.pkl,0.22431667,0.3942287236721824,26.234661,58.87452966492782
multimer_trembl_dupl,P10211_Q8TCJ2,result_model_1_multimer_v3_pred_1.pkl,0.21183033,0.470434571868804,25.537502,64.77652800881734
multimer_trembl_dupl,P10211_Q99805,result_model_1_multimer_v3_pred_1.pkl,0.23764464,0.45462759499740535,25.322563,67.97738862334126
multimer_trembl_dupl,P10211_Q9BTV4,result_model_1_multimer_v3_pred_1.pkl,0.17614089,0.3694768607576664,26.135727,65.38134444244312
multimer_trembl_dupl,P10211_Q9BVC6,result_model_1_multimer_v3_pred_1.pkl,0.18815593,0.4000108521055785,26.780401,58.0770927853214
multimer_trembl_dupl,P10211_Q9BVK6,result_model_1_multimer_v3_pred_1.pkl,0.14962363,0.3877526190853384,26.535566,63.90141763717311
multimer_trembl_dupl,P10218_O00264,result_model_1_multimer_v3_pred_1.pkl,0.15834312,0.4065555225892005,22.77198,60.41132889830494
multimer_trembl_dupl,P10218_O15173,result_model_1_multimer_v3_pred_1.pkl,0.15198034,0.39926288935141324,23.664577,57.80361203488982
multimer_trembl_dupl,P10218_O75396,result_model_1_multimer_v3_pred_1.pkl,0.51497686,0.5516209252370199,20.198313,67.67457080937449
multimer_trembl_dupl,P10218_P10599,result_model_1_multimer_v3_pred_1.pkl,0.1348082,0.45170827305814404,21.03073,66.29030723209732
multimer_trembl_dupl,P10218_P26373,result_model_1_multimer_v3_pred_1.pkl,0.09177139,0.3658223172934733,24.566612,64.4280379674479
multimer_trembl_dupl,P10218_P39023,result_model_1_multimer_v3_pred_1.pkl,0.10617893,0.5304720144761523,21.559925,71.14112211439281
multimer_trembl_dupl,P10218_P60468,result_model_1_multimer_v3_pred_1.pkl,0.10560614,0.4569286980274457,23.33957,56.16771627286957
multimer_trembl_dupl,P10218_P61353,result_model_1_multimer_v3_pred_1.pkl,0.52910125,0.56383542191234,18.191969,70.56091447961987
multimer_trembl_dupl,P10218_Q9UNL2,result_model_1_multimer_v3_pred_1.pkl,0.120530486,0.34665094637570715,23.745667,60.759012327157706
multimer_trembl_dupl,P10225_P10233,result_model_1_multimer_v3_pred_1.pkl,0.18843439,0.5059007471151084,23.78711,54.40213998263553
multimer_trembl_dupl,P10228_P09382,result_model_1_multimer_v3_pred_1.pkl,0.1321064,0.3775960264363386,24.50549,60.60653879586141
multimer_trembl_dupl,P10230_Q9P0L0,result_model_1_multimer_v3_pred_1.pkl,0.445925,0.4628372941245429,25.244034,54.44286068067589
multimer_trembl_dupl,P10233_P63104,result_model_1_multimer_v3_pred_1.pkl,0.646204,0.5192909208969403,22.129032,59.69784655156083
multimer_trembl_dupl,P10233_P67809,result_model_1_multimer_v3_pred_1.pkl,0.14254496,0.2568163456756509,28.033958,40.55999059974982
multimer_trembl_dupl,P10233_Q15836,result_model_1_multimer_v3_pred_1.pkl,0.11618166,0.2713772284816582,27.023237,47.13393089614162
multimer_trembl_dupl,P10233_Q702N8,result_model_1_multimer_v3_pred_1.pkl,0.25046453,0.2634739012431241,30.042398,25.46734356640713
multimer_trembl_dupl,P10234_P06703,result_model_1_multimer_v3_pred_1.pkl,0.16601071,0.6754370796107263,16.090126,68.14123915368475
multimer_trembl_dupl,P10234_P57053,result_model_1_multimer_v3_pred_1.pkl,0.16144842,0.6445793843205615,17.958702,60.579687975809335
multimer_trembl_dupl,P10234_Q99877,result_model_1_multimer_v3_pred_1.pkl,0.22499368,0.6653538979156243,17.371168,61.66878980357638
multimer_trembl_dupl,P10599_P04487,result_model_1_multimer_v3_pred_1.pkl,0.0799671,0.4028477499992358,23.901793,69.62437011912743
multimer_trembl_dupl,P10599_P10226,result_model_1_multimer_v3_pred_1.pkl,0.21758556,0.5166202514874519,22.024246,61.02175668584168
multimer_trembl_dupl,P10599_P10233,result_model_1_multimer_v3_pred_1.pkl,0.29689187,0.35044521116361904,24.26716,58.28808890351451
multimer_trembl_dupl,P10599_P10235,result_model_1_multimer_v3_pred_1.pkl,0.1312,0.37648882029465336,23.612032,48.290213992464544
multimer_trembl_dupl,P11142_P03170,result_model_1_multimer_v3_pred_1.pkl,0.35900795,0.7760433378023738,13.034753,80.07529308051848
multimer_trembl_dupl,P11142_P04487,result_model_1_multimer_v3_pred_1.pkl,0.17790516,0.6898031442016378,17.02016,74.47289197675029
multimer_trembl_dupl,P11142_P10226,result_model_1_multimer_v3_pred_1.pkl,0.33257112,0.5147300674230777,22.806911,68.22015734308394
multimer_trembl_dupl,P11142_P10233,result_model_1_multimer_v3_pred_1.pkl,0.24097547,0.6076177937773023,20.553331,67.16026552799684
multimer_trembl_dupl,P11940_P10238,result_model_1_multimer_v3_pred_1.pkl,0.15859723,0.3295958444174836,27.59467,53.839151042887295
multimer_trembl_dupl,P12004_P10226,result_model_1_multimer_v3_pred_1.pkl,0.6930297,0.4301048907802994,22.540796,65.39848335438518
multimer_trembl_dupl,P13639_P04487,result_model_1_multimer_v3_pred_1.pkl,0.15608472,0.640582375748558,17.064426,75.80056414074971
multimer_trembl_dupl,P13726_P10211,result_model_1_multimer_v3_pred_1.pkl,0.16454184,0.3825291821932685,26.712116,62.68627941068441
multimer_trembl_dupl,P13797_P10226,result_model_1_multimer_v3_pred_1.pkl,0.14572975,0.4977309741235214,23.482113,65.8328732311071
multimer_trembl_dupl,P13987_P06484,result_model_1_multimer_v3_pred_1.pkl,0.16859978,0.30306854972530806,26.386366,44.79463992095689
multimer_trembl_dupl,P13987_P10211,result_model_1_multimer_v3_pred_1.pkl,0.13823658,0.40642492100924565,26.10593,62.849125605780834
multimer_trembl_dupl,P13987_P10229,result_model_1_multimer_v3_pred_1.pkl,0.156434,0.39836974429501393,21.482944,64.04353690030085
multimer_trembl_dupl,P13987_Q69091,result_model_1_multimer_v3_pred_1.pkl,0.10565228,0.4161644368227847,24.456987,55.81480689094229
multimer_trembl_dupl,P16070_P06487,result_model_1_multimer_v3_pred_1.pkl,0.21317118,0.27990828020507574,28.73826,38.12466659617273
multimer_trembl_dupl,P16070_P10228,result_model_1_multimer_v3_pred_1.pkl,0.18522264,0.33104775060248104,28.412556,44.54016851684612
multimer_trembl_dupl,P16070_Q69091,result_model_1_multimer_v3_pred_1.pkl,0.20692764,0.29622938851630715,28.570742,39.095709562536086
multimer_trembl_dupl,P16104_P10233,result_model_1_multimer_v3_pred_1.pkl,0.1482336,0.2839590034610193,26.218058,46.700711669869655
multimer_trembl_dupl,P16333_P10233,result_model_1_multimer_v3_pred_1.pkl,0.25608492,0.2822081635507909,26.754366,50.09241874170085
multimer_trembl_dupl,P16401_P10233,result_model_1_multimer_v3_pred_1.pkl,0.14158359,0.2703893972223167,27.783512,40.02028676000582
multimer_trembl_dupl,P16402_P10233,result_model_1_multimer_v3_pred_1.pkl,0.14440031,0.27224790579849323,27.653845,42.627049689731464
multimer_trembl_dupl,P17096_P04487,result_model_1_multimer_v3_pred_1.pkl,0.057260577,0.1182718028951397,27.98385,45.241447300174485
multimer_trembl_dupl,P17096_P10226,result_model_1_multimer_v3_pred_1.pkl,0.11823304,0.5113758153939654,23.565525,54.162392960376344
multimer_trembl_dupl,P17096_P10233,result_model_1_multimer_v3_pred_1.pkl,0.11621718,0.2926120143403329,27.460129,43.97541931522049
multimer_trembl_dupl,P18085_P04488,result_model_1_multimer_v3_pred_1.pkl,0.3153395,0.36525054734771556,24.588713,57.27871841186394
multimer_trembl_dupl,P18085_P10211,result_model_1_multimer_v3_pred_1.pkl,0.18123607,0.38856363094077395,25.951328,64.54165765831318
multimer_trembl_dupl,P18085_Q69091,result_model_1_multimer_v3_pred_1.pkl,0.22035128,0.4889382484059892,21.094524,63.03401725401311
multimer_trembl_dupl,P18124_P04487,result_model_1_multimer_v3_pred_1.pkl,0.08852996,0.4867705317199861,22.324537,65.72924847005457
multimer_trembl_dupl,P20340_P10233,result_model_1_multimer_v3_pred_1.pkl,0.28694713,0.4169895219843889,23.962723,52.998426712693615
multimer_trembl_dupl,P21291_P04487,result_model_1_multimer_v3_pred_1.pkl,0.07466729,0.22349165602466217,27.227753,56.40708904375311
multimer_trembl_dupl,P21926_P04488,result_model_1_multimer_v3_pred_1.pkl,0.23975025,0.3205207499579189,25.735655,55.609821751362645
multimer_trembl_dupl,P21926_P06477,result_model_1_multimer_v3_pred_1.pkl,0.21424574,0.6338542099234791,20.49307,68.75842254006629
multimer_trembl_dupl,P21926_P10211,result_model_1_multimer_v3_pred_1.pkl,0.26111424,0.4173146579180288,25.646383,61.72364911582374
multimer_trembl_dupl,P21926_P10229,result_model_1_multimer_v3_pred_1.pkl,0.15284777,0.4152126258694141,20.085716,55.01245286796709
multimer_trembl_dupl,P22626_P10226,result_model_1_multimer_v3_pred_1.pkl,0.14595434,0.40149040811181214,25.643524,53.763862894496235
multimer_trembl_dupl,P22626_P10233,result_model_1_multimer_v3_pred_1.pkl,0.1947684,0.36840078626005224,26.479757,45.97597816723654
multimer_trembl_dupl,P23284_P10229,result_model_1_multimer_v3_pred_1.pkl,0.1855787,0.5357900520782971,19.295654,68.33977475282367
multimer_trembl_dupl,P23396_P10233,result_model_1_multimer_v3_pred_1.pkl,0.15521997,0.3910898650130132,25.223093,58.14909173813735
multimer_trembl_dupl,P26373_P10233,result_model_1_multimer_v3_pred_1.pkl,0.099216744,0.28662971943580917,26.73756,55.60069721619335
multimer_trembl_dupl,P26583_P10233,result_model_1_multimer_v3_pred_1.pkl,0.11853352,0.25014137442591533,26.574007,48.47687339066019
multimer_trembl_dupl,P27635_P10233,result_model_1_multimer_v3_pred_1.pkl,0.21150066,0.4231350763609698,24.41291,59.3583275886977
multimer_trembl_dupl,P27797_P03170,result_model_1_multimer_v3_pred_1.pkl,0.24011433,0.67395243872061,16.419212,77.0240215749706
multimer_trembl_dupl,P27797_P04488,result_model_1_multimer_v3_pred_1.pkl,0.19791912,0.43205148316357433,24.68715,62.25997590293188
multimer_trembl_dupl,P27797_P10185,result_model_1_multimer_v3_pred_1.pkl,0.19878536,0.5474051247133258,20.703636,68.61830408391508
multimer_trembl_dupl,P27797_P10211,result_model_1_multimer_v3_pred_1.pkl,0.16700304,0.3549025137060551,26.552715,64.67919695562466
multimer_trembl_dupl,P27824_P10211,result_model_1_multimer_v3_pred_1.pkl,0.16064063,0.3405393405152223,27.540903,60.132329590652226
multimer_trembl_dupl,P27824_P10229,result_model_1_multimer_v3_pred_1.pkl,0.2109035,0.4948785631457683,23.65909,62.9520456304992
multimer_trembl_dupl,P27824_Q69091,result_model_1_multimer_v3_pred_1.pkl,0.18220659,0.416321809257694,25.23211,59.79563152296871
multimer_trembl_dupl,P30050_P04487,result_model_1_multimer_v3_pred_1.pkl,0.07188331,0.45422595763111284,22.793182,63.313058791891166
multimer_trembl_dupl,P30050_P10233,result_model_1_multimer_v3_pred_1.pkl,0.2559935,0.4110027910501718,23.511024,51.34323950971326
multimer_trembl_dupl,P31949_P03170,result_model_1_multimer_v3_pred_1.pkl,0.24620876,0.5253332858063593,18.479643,58.485941300045106
multimer_trembl_dupl,P31949_P10233,result_model_1_multimer_v3_pred_1.pkl,0.20025572,0.30874465063848544,25.409592,48.096344860639334
multimer_trembl_dupl,P32969_P10233,result_model_1_multimer_v3_pred_1.pkl,0.19200286,0.4002440537548996,24.37992,56.96445678661826
multimer_trembl_dupl,P35268_P04487,result_model_1_multimer_v3_pred_1.pkl,0.09875716,0.38271132795987894,24.29766,64.97550701495503
multimer_trembl_dupl,P35268_P10233,result_model_1_multimer_v3_pred_1.pkl,0.15391816,0.32227825089572615,25.412853,50.8816496368695
multimer_trembl_dupl,P36578_P04487,result_model_1_multimer_v3_pred_1.pkl,0.0921256,0.46633756309461444,23.988064,64.86882663185195
multimer_trembl_dupl,P38159_P10233,result_model_1_multimer_v3_pred_1.pkl,0.16575858,0.24591786692887907,28.555899,35.24941431087709
multimer_trembl_dupl,P39019_P04487,result_model_1_multimer_v3_pred_1.pkl,0.07984409,0.4523763318270453,23.189953,66.29826647618113
multimer_trembl_dupl,P39019_P10226,result_model_1_multimer_v3_pred_1.pkl,0.14699368,0.46773925366385916,23.751333,55.392112538660676
multimer_trembl_dupl,P39023_P04487,result_model_1_multimer_v3_pred_1.pkl,0.10248866,0.6371867754614836,18.894972,69.61698292146997
multimer_trembl_dupl,P40227_P10226,result_model_1_multimer_v3_pred_1.pkl,0.22397846,0.5044543764872784,22.275002,65.26759260482396
multimer_trembl_dupl,P40429_P04487,result_model_1_multimer_v3_pred_1.pkl,0.08648315,0.47891839109273576,22.460936,64.64201693750469
multimer_trembl_dupl,P42766_P04487,result_model_1_multimer_v3_pred_1.pkl,0.057448514,0.37396235213098383,24.686747,63.540404623080924
multimer_trembl_dupl,P42766_P10233,result_model_1_multimer_v3_pred_1.pkl,0.1140925,0.2889530091162028,26.173367,55.76289097391721
multimer_trembl_dupl,P45983_P04294,result_model_1_multimer_v3_pred_1.pkl,0.6694066,0.5079836200269525,21.452631,68.8234930757798
multimer_trembl_dupl,P46776_P10233,result_model_1_multimer_v3_pred_1.pkl,0.09814772,0.2867887974518026,26.399998,57.95645012935798
multimer_trembl_dupl,P46779_P04487,result_model_1_multimer_v3_pred_1.pkl,0.090041935,0.3696516409592306,24.603395,59.667879652525805
multimer_trembl_dupl,P47914_P04487,result_model_1_multimer_v3_pred_1.pkl,0.06053255,0.1992308075943169,27.861336,48.51069872832213
multimer_trembl_dupl,P49207_P10233,result_model_1_multimer_v3_pred_1.pkl,0.12180424,0.2802010021377252,26.94784,44.67813104112002
multimer_trembl_dupl,P49458_P04487,result_model_1_multimer_v3_pred_1.pkl,0.117403224,0.3325155652351739,24.149199,56.28721051987397
multimer_trembl_dupl,P49755_P10229,result_model_1_multimer_v3_pred_1.pkl,0.16668434,0.3463808387486506,22.598488,58.121524944722914
multimer_trembl_dupl,P50402_P10218,result_model_1_multimer_v3_pred_1.pkl,0.11706028,0.35806647883244924,26.697897,48.07611208778865
multimer_trembl_dupl,P50454_P10229,result_model_1_multimer_v3_pred_1.pkl,0.24836862,0.6947225516007558,15.496412,74.55962455201652
multimer_trembl_dupl,P50914_P04487,result_model_1_multimer_v3_pred_1.pkl,0.073951334,0.3616379982239907,25.866884,53.03187137339658
multimer_trembl_dupl,P50914_P10233,result_model_1_multimer_v3_pred_1.pkl,0.09099665,0.29502317297256536,27.229218,50.63989108394785
multimer_trembl_dupl,P52926_P10226,result_model_1_multimer_v3_pred_1.pkl,0.1613572,0.49793248446807004,23.983917,51.2001411571473
multimer_trembl_dupl,P55010_P10233,result_model_1_multimer_v3_pred_1.pkl,0.15092269,0.30964643447720375,26.758709,56.167794797215954
multimer_trembl_dupl,P57053_P04487,result_model_1_multimer_v3_pred_1.pkl,0.080695584,0.24871547383002962,25.956255,51.192491704160204
multimer_trembl_dupl,P57053_P10226,result_model_1_multimer_v3_pred_1.pkl,0.34612766,0.5299056806918752,22.80033,51.72579446163223
multimer_trembl_dupl,P57053_P10233,result_model_1_multimer_v3_pred_1.pkl,0.20306249,0.30734725079414094,26.41138,40.30845890742763
multimer_trembl_dupl,P58876_P10233,result_model_1_multimer_v3_pred_1.pkl,0.1713013,0.2974760439569822,26.314564,43.92770797646436
multimer_trembl_dupl,P60468_P04487,result_model_1_multimer_v3_pred_1.pkl,0.05667924,0.15408837098883937,27.820154,47.70494878214907
multimer_trembl_dupl,P60468_P10233,result_model_1_multimer_v3_pred_1.pkl,0.1738252,0.3067103989007255,26.934662,41.952127169434114
multimer_trembl_dupl,P60709_P04294,result_model_1_multimer_v3_pred_1.pkl,0.32386896,0.5317112513049257,20.41221,74.44168724721645
multimer_trembl_dupl,P60709_P04296,result_model_1_multimer_v3_pred_1.pkl,0.22715591,0.7022605725465416,18.136105,79.77792460662296
multimer_trembl_dupl,P60709_P04487,result_model_1_multimer_v3_pred_1.pkl,0.1540016,0.6970141760374473,16.15616,73.64731894145868
multimer_trembl_dupl,P60709_P06491,result_model_1_multimer_v3_pred_1.pkl,0.21822914,0.7041849006180582,19.026724,77.99606804706478
multimer_trembl_dupl,P60709_P10226,result_model_1_multimer_v3_pred_1.pkl,0.16018689,0.48936653097789906,22.378353,66.71013480424774
multimer_trembl_dupl,P60709_P10233,result_model_1_multimer_v3_pred_1.pkl,0.15647443,0.5804035081139176,20.878296,64.78471549763817
multimer_trembl_dupl,P60953_P06487,result_model_1_multimer_v3_pred_1.pkl,0.16552511,0.3856107510188058,23.497728,58.64756573335559
multimer_trembl_dupl,P61026_P10233,result_model_1_multimer_v3_pred_1.pkl,0.29838386,0.43181130130045353,23.49757,54.33469631047958
multimer_trembl_dupl,P61254_P04487,result_model_1_multimer_v3_pred_1.pkl,0.07404828,0.42047265981429083,23.726152,67.12238642500702
multimer_trembl_dupl,P61353_P04487,result_model_1_multimer_v3_pred_1.pkl,0.09258556,0.4423868869617892,23.054134,68.91086192975906
multimer_trembl_dupl,P61353_P10233,result_model_1_multimer_v3_pred_1.pkl,0.14266759,0.3400023306047558,25.483454,58.264387318516235
multimer_trembl_dupl,P61513_P10233,result_model_1_multimer_v3_pred_1.pkl,0.15999162,0.2979802901167007,25.923662,49.27108245119056
multimer_trembl_dupl,P61769_P10211,result_model_1_multimer_v3_pred_1.pkl,0.27428383,0.4071112244349244,25.617805,62.096849197197436
multimer_trembl_dupl,P61978_P10233,result_model_1_multimer_v3_pred_1.pkl,0.13171914,0.32764932475750275,27.424515,44.53696065997032
multimer_trembl_dupl,P62136_P10233,result_model_1_multimer_v3_pred_1.pkl,0.6054443,0.5405551049589647,21.809305,62.238410802090215
multimer_trembl_dupl,P62241_P04487,result_model_1_multimer_v3_pred_1.pkl,0.08054964,0.5377088732427515,21.370628,68.70510581036976
multimer_trembl_dupl,P62328_P04487,result_model_1_multimer_v3_pred_1.pkl,0.06466113,0.12874836585787724,26.98987,48.664472591159665
multimer_trembl_dupl,P62424_P04487,result_model_1_multimer_v3_pred_1.pkl,0.07793335,0.4545018358324461,23.340313,65.00019067718462
multimer_trembl_dupl,P62750_P04487,result_model_1_multimer_v3_pred_1.pkl,0.07591618,0.31875718266458575,26.108562,61.97496252483827
multimer_trembl_dupl,P62805_P10233,result_model_1_multimer_v3_pred_1.pkl,0.2154814,0.3142110239728819,26.1684,39.05025687626566
multimer_trembl_dupl,P62820_P10231,result_model_1_multimer_v3_pred_1.pkl,0.27302802,0.655892570667912,18.83344,67.96265263246784
multimer_trembl_dupl,P62820_P10233,result_model_1_multimer_v3_pred_1.pkl,0.28135094,0.4196182043749824,23.76072,53.48401347680102
multimer_trembl_dupl,P62851_P04487,result_model_1_multimer_v3_pred_1.pkl,0.08571577,0.28540317964608375,25.963375,58.14185630723246
multimer_trembl_dupl,P62857_P10233,result_model_1_multimer_v3_pred_1.pkl,0.2803495,0.33585555557562735,25.307688,45.33866787843808
multimer_trembl_dupl,P62888_P10233,result_model_1_multimer_v3_pred_1.pkl,0.16914828,0.32025414374066236,25.113653,52.63661846845457
multimer_trembl_dupl,P62899_P10233,result_model_1_multimer_v3_pred_1.pkl,0.17993681,0.29459677050903854,25.66535,47.748512723444044
multimer_trembl_dupl,P62906_P04487,result_model_1_multimer_v3_pred_1.pkl,0.08302498,0.5347725243102117,20.961542,69.9460048906973
multimer_trembl_dupl,P62913_P04487,result_model_1_multimer_v3_pred_1.pkl,0.08323314,0.49169819474220394,22.145205,70.33233876721502
multimer_trembl_dupl,P62913_P10233,result_model_1_multimer_v3_pred_1.pkl,0.20642313,0.40418388638462666,24.087397,57.11743242788126
multimer_trembl_dupl,P62917_P10233,result_model_1_multimer_v3_pred_1.pkl,0.11499102,0.37936207810304434,25.414614,56.43904773534472
multimer_trembl_dupl,P62937_P03170,result_model_1_multimer_v3_pred_1.pkl,0.20130463,0.6921299154570875,14.17477,73.10638810510028
multimer_trembl_dupl,P62937_P04294,result_model_1_multimer_v3_pred_1.pkl,0.24900886,0.6159365708224891,19.249372,70.79137867446957
multimer_trembl_dupl,P62937_P04487,result_model_1_multimer_v3_pred_1.pkl,0.78558886,0.5601179329906555,19.967052,73.39230401994998
multimer_trembl_dupl,P62937_P10226,result_model_1_multimer_v3_pred_1.pkl,0.15530649,0.4606473671963456,22.589792,63.76167106978886
multimer_trembl_dupl,P62937_P10233,result_model_1_multimer_v3_pred_1.pkl,0.22034147,0.4319053811484061,23.13499,60.611800818119846
multimer_trembl_dupl,P62942_P04294,result_model_1_multimer_v3_pred_1.pkl,0.258119,0.6381622149905273,19.169596,68.08384495097059
multimer_trembl_dupl,P62979_P06485,result_model_1_multimer_v3_pred_1.pkl,0.3862638,0.5835531855525715,19.163502,69.48672786997732
multimer_trembl_dupl,P62979_P10233,result_model_1_multimer_v3_pred_1.pkl,0.1697636,0.2535548881129911,26.96417,55.356273526088415
multimer_trembl_dupl,P62993_P10233,result_model_1_multimer_v3_pred_1.pkl,0.19172288,0.343196431952142,25.028778,51.62240332401465
multimer_trembl_dupl,P63220_P04487,result_model_1_multimer_v3_pred_1.pkl,0.08638515,0.31343947485575746,25.218227,59.74833739643389
multimer_trembl_dupl,P63241_P04487,result_model_1_multimer_v3_pred_1.pkl,0.09103518,0.42318783590320574,23.323372,65.87956963341271
multimer_trembl_dupl,P63241_P10233,result_model_1_multimer_v3_pred_1.pkl,0.16380975,0.3484357104120074,25.304632,54.16833786089194
multimer_trembl_dupl,P67870_P10233,result_model_1_multimer_v3_pred_1.pkl,0.49073374,0.494769414660657,22.970654,60.802969270223954
multimer_trembl_dupl,P68104_P03170,result_model_1_multimer_v3_pred_1.pkl,0.1984011,0.5883083254398322,15.659742,71.1883313298419
multimer_trembl_dupl,P68104_P04487,result_model_1_multimer_v3_pred_1.pkl,0.14824466,0.6284570808557564,17.456644,68.46735959654131
multimer_trembl_dupl,P68104_P10233,result_model_1_multimer_v3_pred_1.pkl,0.20169878,0.5313325254848289,20.919256,62.35358363428568
multimer_trembl_dupl,P68400_P10233,result_model_1_multimer_v3_pred_1.pkl,0.18421021,0.5468521838164273,21.943052,62.51740112247169
multimer_trembl_dupl,P83731_P04487,result_model_1_multimer_v3_pred_1.pkl,0.06503495,0.2561164206317068,26.754726,61.649523254452795
multimer_trembl_dupl,P83731_P10233,result_model_1_multimer_v3_pred_1.pkl,0.1188848,0.2535092635390889,27.317095,54.38137468645152
multimer_trembl_dupl,P84077_P10233,result_model_1_multimer_v3_pred_1.pkl,0.34811476,0.43806547094077797,23.195305,54.43170398606233
multimer_trembl_dupl,P84243_P04487,result_model_1_multimer_v3_pred_1.pkl,0.08937836,0.27440542292794845,26.170029,54.96696145187749
multimer_trembl_dupl,P84243_P10226,result_model_1_multimer_v3_pred_1.pkl,0.18535604,0.48946880901833,23.77394,52.1463896776843
multimer_trembl_dupl,P84243_P10233,result_model_1_multimer_v3_pred_1.pkl,0.16238576,0.28997471285171184,26.856722,39.63922683676816
multimer_trembl_dupl,Q00341_P04487,result_model_1_multimer_v3_pred_1.pkl,0.14950338,0.2993906736248674,27.775677,65.24657486287144
multimer_trembl_dupl,Q00839_P10226,result_model_1_multimer_v3_pred_1.pkl,0.17873737,0.40253330079102223,26.611425,52.944475199385614
multimer_trembl_dupl,Q01105_P04487,result_model_1_multimer_v3_pred_1.pkl,0.09426889,0.43732971003230403,24.608444,54.47554593599803
multimer_trembl_dupl,Q01105_P10233,result_model_1_multimer_v3_pred_1.pkl,0.13466881,0.3785325679265195,25.940706,48.463127708934245
multimer_trembl_dupl,Q02543_P04487,result_model_1_multimer_v3_pred_1.pkl,0.10308819,0.43615001338160103,22.978674,62.08932679379879
multimer_trembl_dupl,Q02818_P10220,result_model_1_multimer_v3_pred_1.pkl,0.26588616,0.36291466081864443,29.367977,49.16560034411381
multimer_trembl_dupl,Q02878_P04487,result_model_1_multimer_v3_pred_1.pkl,0.0756738,0.35402272231005416,26.369926,56.845471714871245
multimer_trembl_dupl,Q03518_P03170,result_model_1_multimer_v3_pred_1.pkl,0.2272439,0.5774586462752185,18.95001,69.6968055783563
multimer_trembl_dupl,Q05639_P04487,result_model_1_multimer_v3_pred_1.pkl,0.14582607,0.6018740882260316,17.872993,67.74507281241229
multimer_trembl_dupl,Q06830_P10226,result_model_1_multimer_v3_pred_1.pkl,0.109924704,0.4417300886658333,23.773472,63.9236545715345
multimer_trembl_dupl,Q07020_P04487,result_model_1_multimer_v3_pred_1.pkl,0.07437777,0.4327879487426183,23.669727,61.501304671955026
multimer_trembl_dupl,Q07020_P10233,result_model_1_multimer_v3_pred_1.pkl,0.20466658,0.3334850165048688,25.625027,50.70486764265591
multimer_trembl_dupl,Q10472_P04488,result_model_1_multimer_v3_pred_1.pkl,0.28591603,0.5263845988773078,22.908167,66.32189275978557
multimer_trembl_dupl,Q13123_P10233,result_model_1_multimer_v3_pred_1.pkl,0.2719779,0.22516702415727952,29.479145,38.96185449742667
multimer_trembl_dupl,Q13641_P10229,result_model_1_multimer_v3_pred_1.pkl,0.18846223,0.5335741771068405,21.95268,65.84661217399962
multimer_trembl_dupl,Q14011_P10233,result_model_1_multimer_v3_pred_1.pkl,0.19261353,0.3036552763954347,26.526749,45.953343708338835
multimer_trembl_dupl,Q14697_P10211,result_model_1_multimer_v3_pred_1.pkl,0.20648757,0.5679017885263066,23.320883,72.15138386652833
multimer_trembl_dupl,Q14847_P10233,result_model_1_multimer_v3_pred_1.pkl,0.34193826,0.3597173210819049,26.550314,43.71170033759777
multimer_trembl_dupl,Q15056_P10225,result_model_1_multimer_v3_pred_1.pkl,0.6687042,0.6439689768838235,19.776861,63.82490366283422
multimer_trembl_dupl,Q15056_P10231,result_model_1_multimer_v3_pred_1.pkl,0.13890243,0.6116470215375303,21.543262,59.201042496344236
multimer_trembl_dupl,Q15056_P10233,result_model_1_multimer_v3_pred_1.pkl,0.12909919,0.2567471605568554,27.731886,42.82231421773622
multimer_trembl_dupl,Q15691_P10233,result_model_1_multimer_v3_pred_1.pkl,0.11729112,0.3143184328877722,26.733812,52.773152809858274
multimer_trembl_dupl,Q16531_P10231,result_model_1_multimer_v3_pred_1.pkl,0.562288,0.6461745921224954,19.447475,78.8464563240227
multimer_trembl_dupl,Q16777_P10233,result_model_1_multimer_v3_pred_1.pkl,0.16751818,0.2937585797265817,25.990904,45.0929262540238
multimer_trembl_dupl,Q1KMD3_P10226,result_model_1_multimer_v3_pred_1.pkl,0.17629725,0.4273803519661271,25.894508,56.8954985802339
multimer_trembl_dupl,Q5QNW6_P10233,result_model_1_multimer_v3_pred_1.pkl,0.16799763,0.2971842039734392,26.189049,45.013282512408146
multimer_trembl_dupl,Q5VW38_P10229,result_model_1_multimer_v3_pred_1.pkl,0.21116409,0.5697101858404493,21.143518,61.51561056764224
multimer_trembl_dupl,Q69091_P09382,result_model_1_multimer_v3_pred_1.pkl,0.2543029,0.512797219264143,20.634512,66.61577816608852
multimer_trembl_dupl,Q69091_P11021,result_model_1_multimer_v3_pred_1.pkl,0.1669085,0.523140714157585,22.249048,67.08488885102184
multimer_trembl_dupl,Q69091_P27105,result_model_1_multimer_v3_pred_1.pkl,0.10952687,0.39560237027059103,24.240484,65.55602139826415
multimer_trembl_dupl,Q69091_P61224,result_model_1_multimer_v3_pred_1.pkl,0.13864933,0.3925275762842338,23.12748,60.91046432013068
multimer_trembl_dupl,Q69091_Q12907,result_model_1_multimer_v3_pred_1.pkl,0.15446955,0.4089558444167288,23.867596,62.70761162008698
multimer_trembl_dupl,Q69091_Q92835,result_model_1_multimer_v3_pred_1.pkl,0.2006799,0.5038618900024157,25.2988,59.946729479279135
multimer_trembl_dupl,Q6NZI2_P10233,result_model_1_multimer_v3_pred_1.pkl,0.26585215,0.24234550138625166,29.025827,36.09736982775621
multimer_trembl_dupl,Q70UQ0_P10218,result_model_1_multimer_v3_pred_1.pkl,0.095107615,0.3090098208497196,27.623554,61.28304261002323
multimer_trembl_dupl,Q71DI3_P10233,result_model_1_multimer_v3_pred_1.pkl,0.15403113,0.2889239615364297,26.80821,41.00305050908393
multimer_trembl_dupl,Q7Z7H5_P10229,result_model_1_multimer_v3_pred_1.pkl,0.14630306,0.3189781183451017,23.467857,54.23030694646239
multimer_trembl_dupl,Q8WWI1_P08543,result_model_1_multimer_v3_pred_1.pkl,0.2902673,0.4420068937503244,28.362831,42.29893809470169
multimer_trembl_dupl,Q93077_P10233,result_model_1_multimer_v3_pred_1.pkl,0.15770935,0.29128326873403565,26.079355,44.827597718490466
multimer_trembl_dupl,Q96AG4_P10218,result_model_1_multimer_v3_pred_1.pkl,0.27278858,0.43621293761853247,22.545753,68.42564336334124
multimer_trembl_dupl,Q99877_P03170,result_model_1_multimer_v3_pred_1.pkl,0.11736663,0.3354387833345083,22.413748,44.757914634602464
multimer_trembl_dupl,Q99877_P04294,result_model_1_multimer_v3_pred_1.pkl,0.19499369,0.6323857294073687,20.055038,62.94909348573237
multimer_trembl_dupl,Q99877_P04485,result_model_1_multimer_v3_pred_1.pkl,0.1489551,0.2288026837897184,27.061728,33.846534854849196
multimer_trembl_dupl,Q99877_P04487,result_model_1_multimer_v3_pred_1.pkl,0.09419365,0.3177948080230014,25.182213,57.41926199501791
multimer_trembl_dupl,Q99877_P10226,result_model_1_multimer_v3_pred_1.pkl,0.23384511,0.5128826643423607,23.000986,52.68404128772969
multimer_trembl_dupl,Q99877_P10231,result_model_1_multimer_v3_pred_1.pkl,0.25917286,0.7065978003022327,17.631718,67.78559474569087
multimer_trembl_dupl,Q99877_P10233,result_model_1_multimer_v3_pred_1.pkl,0.17990616,0.29989676208206945,26.199873,44.943010857810265
multimer_trembl_dupl,Q99878_P10233,result_model_1_multimer_v3_pred_1.pkl,0.16142431,0.2894959219583585,26.025814,45.97016081599218
multimer_trembl_dupl,Q99879_P10233,result_model_1_multimer_v3_pred_1.pkl,0.17102015,0.2971937359094954,26.311308,44.515070168598015
multimer_trembl_dupl,Q99880_P10233,result_model_1_multimer_v3_pred_1.pkl,0.19122325,0.3032403603753279,26.301205,42.599462576228
multimer_trembl_dupl,Q9BS26_P10211,result_model_1_multimer_v3_pred_1.pkl,0.14678732,0.3491191916084212,26.859953,63.25652173796911
multimer_trembl_dupl,Q9BVK6_P10229,result_model_1_multimer_v3_pred_1.pkl,0.14149769,0.31382545451857957,23.419876,57.538269259888224
multimer_trembl_dupl,Q9BXS5_P04488,result_model_1_multimer_v3_pred_1.pkl,0.2430524,0.3645536442616394,25.67384,59.02444661789109
multimer_trembl_dupl,Q9GZQ8_P10233,result_model_1_multimer_v3_pred_1.pkl,0.51431346,0.36002282533351776,24.37857,52.52604612290824
multimer_trembl_dupl,Q9H0U4_P10231,result_model_1_multimer_v3_pred_1.pkl,0.2821438,0.6718973968961277,18.199188,70.05646112208328
multimer_trembl_dupl,Q9H0U4_P10233,result_model_1_multimer_v3_pred_1.pkl,0.28278226,0.42256157755366197,23.588003,53.34613852879046
multimer_trembl_dupl,Q9H299_P10233,result_model_1_multimer_v3_pred_1.pkl,0.23698343,0.3214558191648244,24.902454,52.64508311281353
multimer_trembl_dupl,Q9H3P7_P04488,result_model_1_multimer_v3_pred_1.pkl,0.17357081,0.28356246806846624,27.495619,56.05404275805475
multimer_trembl_dupl,Q9HDC9_P10211,result_model_1_multimer_v3_pred_1.pkl,0.16820735,0.3824381058442249,25.916632,67.59742617900378
multimer_trembl_dupl,Q9NR12_P10233,result_model_1_multimer_v3_pred_1.pkl,0.14267725,0.21896222789819636,28.142776,44.02502609686942
multimer_trembl_dupl,Q9P2E9_P04487,result_model_1_multimer_v3_pred_1.pkl,0.14704189,0.1994551080251536,30.29637,34.900112802363665
multimer_trembl_dupl,Q9Y224_P10233,result_model_1_multimer_v3_pred_1.pkl,0.14860357,0.2627356063970645,26.832066,44.40048287120521
