multimer_subfamily_dupl,O00299_P04487,result_model_1_multimer_v3_pred_1.pkl,0.14777848,0.6146120070442758,18.615492,65.18718374093592
multimer_subfamily_dupl,O43169_P04488,result_model_1_multimer_v3_pred_1.pkl,0.20860696,0.3525279466012423,26.073734,53.048683886799765
multimer_subfamily_dupl,O43169_P10218,result_model_1_multimer_v3_pred_1.pkl,0.23703778,0.45779720074789576,22.610739,59.53563375853886
multimer_subfamily_dupl,O43852_P10185,result_model_1_multimer_v3_pred_1.pkl,0.20867027,0.5024888600113989,21.58881,53.28167283436204
multimer_subfamily_dupl,O43852_P10211,result_model_1_multimer_v3_pred_1.pkl,0.21983384,0.38595171467412237,26.450048,58.925582972013316
multimer_subfamily_dupl,O75396_P04487,result_model_1_multimer_v3_pred_1.pkl,0.09365642,0.4292851913447675,24.39631,60.88127597298419
multimer_subfamily_dupl,O75531_P10233,result_model_1_multimer_v3_pred_1.pkl,0.2447105,0.31775888880043285,25.33213,54.345323310165014
multimer_subfamily_dupl,P00338_P04487,result_model_1_multimer_v3_pred_1.pkl,0.17028815,0.6851616442729505,16.722828,72.14343859829243
multimer_subfamily_dupl,P00387_P04488,result_model_1_multimer_v3_pred_1.pkl,0.37302727,0.409303486955245,24.632742,60.19083504502193
multimer_subfamily_dupl,P01889_P10229,result_model_1_multimer_v3_pred_1.pkl,0.5254123,0.46751783179004136,21.533493,65.16274306064204
multimer_subfamily_dupl,P02511_P10233,result_model_1_multimer_v3_pred_1.pkl,0.18955396,0.291271671231884,26.424303,44.53590640895604
multimer_subfamily_dupl,P04083_P04488,result_model_1_multimer_v3_pred_1.pkl,0.15271723,0.44126653699044455,24.232464,60.39495670539895
multimer_subfamily_dupl,P04288_P06703,result_model_1_multimer_v3_pred_1.pkl,0.23402473,0.5890055349915088,19.957636,65.932806697556
multimer_subfamily_dupl,P04288_P62820,result_model_1_multimer_v3_pred_1.pkl,0.2418462,0.5526609597288998,20.629732,67.65456597249647
multimer_subfamily_dupl,P04288_P62979,result_model_1_multimer_v3_pred_1.pkl,0.16056637,0.5490858895299998,21.690214,64.62576952010664
multimer_subfamily_dupl,P04288_Q9H0U4,result_model_1_multimer_v3_pred_1.pkl,0.24682942,0.558331374590256,20.441439,68.0110848440244
multimer_subfamily_dupl,P04294_P13010,result_model_1_multimer_v3_pred_1.pkl,0.18407816,0.4355671106036143,24.317432,69.9129562002703
multimer_subfamily_dupl,P04294_P27348,result_model_1_multimer_v3_pred_1.pkl,0.58089536,0.5660475522094994,20.338427,70.08210292513843
multimer_subfamily_dupl,P04294_P31946,result_model_1_multimer_v3_pred_1.pkl,0.39961275,0.5642135681929897,20.648384,68.85970574835457
multimer_subfamily_dupl,P04294_P61981,result_model_1_multimer_v3_pred_1.pkl,0.35156602,0.5652162503697872,20.42479,69.72435209034758
multimer_subfamily_dupl,P04294_P62258,result_model_1_multimer_v3_pred_1.pkl,0.48555702,0.5542602550416481,20.778725,69.59764667762603
multimer_subfamily_dupl,P04294_P63104,result_model_1_multimer_v3_pred_1.pkl,0.3357926,0.5673138967016002,20.338043,68.81993199328458
multimer_subfamily_dupl,P04294_Q9Y4E8,result_model_1_multimer_v3_pred_1.pkl,0.302856,0.4283756040376292,25.144775,65.73271015688692
multimer_subfamily_dupl,P04296_P07737,result_model_1_multimer_v3_pred_1.pkl,0.21308932,0.7843920202632866,15.289489,79.31042827825904
multimer_subfamily_dupl,P04406_P04487,result_model_1_multimer_v3_pred_1.pkl,0.23692673,0.6936274188010236,16.323017,75.94414894861794
multimer_subfamily_dupl,P04406_P10226,result_model_1_multimer_v3_pred_1.pkl,0.11763173,0.4582422584022322,22.93718,69.68258159196849
multimer_subfamily_dupl,P04406_P10233,result_model_1_multimer_v3_pred_1.pkl,0.28445154,0.5697945935690931,21.132256,68.79281376263289
multimer_subfamily_dupl,P04487_P08670,result_model_1_multimer_v3_pred_1.pkl,0.08167903,0.22240188456063514,28.21073,57.34938806525366
multimer_subfamily_dupl,P04487_P67809,result_model_1_multimer_v3_pred_1.pkl,0.091928504,0.2648718529854315,28.427973,41.52738004324295
multimer_subfamily_dupl,P04488_O14828,result_model_1_multimer_v3_pred_1.pkl,0.22106701,0.3157138519178154,26.944752,54.59065353730282
multimer_subfamily_dupl,P04488_O15127,result_model_1_multimer_v3_pred_1.pkl,0.2526762,0.31394467321932173,26.85966,54.589709183493206
multimer_subfamily_dupl,P04488_O75396,result_model_1_multimer_v3_pred_1.pkl,0.21410842,0.33793533205349485,25.962797,56.7961231611994
multimer_subfamily_dupl,P04488_P06703,result_model_1_multimer_v3_pred_1.pkl,0.28453678,0.3718407952750675,25.383228,54.52790312366985
multimer_subfamily_dupl,P04488_P07237,result_model_1_multimer_v3_pred_1.pkl,0.19829683,0.4295722196975328,24.265715,61.81891532788231
multimer_subfamily_dupl,P04488_P11166,result_model_1_multimer_v3_pred_1.pkl,0.2312897,0.5000610952208633,23.459118,63.269135334438474
multimer_subfamily_dupl,P04488_P20340,result_model_1_multimer_v3_pred_1.pkl,0.18034703,0.32974400006212456,25.529013,54.197540811893894
multimer_subfamily_dupl,P04488_P60468,result_model_1_multimer_v3_pred_1.pkl,0.13575509,0.3529433465216907,26.175545,53.79530644359392
multimer_subfamily_dupl,P04488_P61019,result_model_1_multimer_v3_pred_1.pkl,0.2120066,0.352734020107204,24.9968,55.300128907304696
multimer_subfamily_dupl,P04488_P62820,result_model_1_multimer_v3_pred_1.pkl,0.20763592,0.3442420309894327,25.16166,53.274781437429105
multimer_subfamily_dupl,P04488_P62979,result_model_1_multimer_v3_pred_1.pkl,0.17442414,0.3417113038950424,25.927118,49.4921623198731
multimer_subfamily_dupl,P04488_Q15836,result_model_1_multimer_v3_pred_1.pkl,0.21892187,0.33703195421223053,26.07555,54.36957936284848
multimer_subfamily_dupl,P04488_Q96AJ9,result_model_1_multimer_v3_pred_1.pkl,0.15908888,0.3230069547150101,26.684072,56.547836355197084
multimer_subfamily_dupl,P04488_Q9BVC6,result_model_1_multimer_v3_pred_1.pkl,0.14836675,0.30604415338612556,27.483475,52.44022047816
multimer_subfamily_dupl,P04488_Q9GZQ8,result_model_1_multimer_v3_pred_1.pkl,0.7059179,0.35645480588102313,25.029274,55.53257635078451
multimer_subfamily_dupl,P04488_Q9H0U4,result_model_1_multimer_v3_pred_1.pkl,0.30441833,0.3646238295092108,24.687649,56.07034032061762
multimer_subfamily_dupl,P04488_Q9H4G4,result_model_1_multimer_v3_pred_1.pkl,0.25323454,0.3447585028060423,24.74922,55.52199982811805
multimer_subfamily_dupl,P04792_P04294,result_model_1_multimer_v3_pred_1.pkl,0.20340028,0.5967024018205669,21.304058,59.374574036421556
multimer_subfamily_dupl,P04792_P10233,result_model_1_multimer_v3_pred_1.pkl,0.20766193,0.29274522319682095,26.612564,38.483622357190164
multimer_subfamily_dupl,P05023_P04488,result_model_1_multimer_v3_pred_1.pkl,0.22657356,0.5894530583928935,21.91027,69.54460893159923
multimer_subfamily_dupl,P05204_P10233,result_model_1_multimer_v3_pred_1.pkl,0.1498394,0.3141754559349053,26.846819,40.80381188479855
multimer_subfamily_dupl,P06487_P06703,result_model_1_multimer_v3_pred_1.pkl,0.24469261,0.4417614242978872,23.87394,51.834839146870245
multimer_subfamily_dupl,P06487_P20340,result_model_1_multimer_v3_pred_1.pkl,0.1847356,0.3842317937469538,23.860085,58.11759270740349
multimer_subfamily_dupl,P06487_P51148,result_model_1_multimer_v3_pred_1.pkl,0.17631906,0.38186027812248946,23.98466,58.94043003938249
multimer_subfamily_dupl,P06487_P62937,result_model_1_multimer_v3_pred_1.pkl,0.51855123,0.4087625121942963,22.730576,65.16431127053468
P06487_Q9H0U4,0.21393802143164165
multimer_subfamily_dupl,P06491_P10599,result_model_1_multimer_v3_pred_1.pkl,0.16681412,0.7932678055899023,15.735426,78.43589504556027
multimer_subfamily_dupl,P06703_P04487,result_model_1_multimer_v3_pred_1.pkl,0.11018788,0.3477236090378841,24.85793,56.23455635349614
multimer_subfamily_dupl,P06703_P10226,result_model_1_multimer_v3_pred_1.pkl,0.17956278,0.47666092225167056,23.342087,54.6267791280712
multimer_subfamily_dupl,P06703_P10233,result_model_1_multimer_v3_pred_1.pkl,0.18560444,0.30908936803460474,25.66746,47.322120258962556
multimer_subfamily_dupl,P06703_P10238,result_model_1_multimer_v3_pred_1.pkl,0.1929846,0.4418809611734822,24.778898,52.13240212678301
multimer_subfamily_dupl,P06733_P04487,result_model_1_multimer_v3_pred_1.pkl,0.11590095,0.7273448607128179,15.21604,76.81917120930181
multimer_subfamily_dupl,P06733_P10226,result_model_1_multimer_v3_pred_1.pkl,0.13887614,0.5156708744393568,21.7213,72.85201816569538
multimer_subfamily_dupl,P06748_P04487,result_model_1_multimer_v3_pred_1.pkl,0.09512777,0.30249648139362145,27.070786,50.3342378770373
multimer_subfamily_dupl,P07355_P06487,result_model_1_multimer_v3_pred_1.pkl,0.14953871,0.49691846598131917,22.551933,67.7075993035352
multimer_subfamily_dupl,P07355_Q69091,result_model_1_multimer_v3_pred_1.pkl,0.15578473,0.49720665767090233,21.085745,71.32626832870936
multimer_subfamily_dupl,P07384_P10231,result_model_1_multimer_v3_pred_1.pkl,0.25012577,0.49587606943860185,21.398355,74.40157629023524
multimer_subfamily_dupl,P07437_P10233,result_model_1_multimer_v3_pred_1.pkl,0.17307498,0.6137397668023263,20.074837,66.75192708140749
multimer_subfamily_dupl,P07737_P04487,result_model_1_multimer_v3_pred_1.pkl,0.31736648,0.5015485604247686,21.633749,64.71118118669862
multimer_subfamily_dupl,P07737_P08543,result_model_1_multimer_v3_pred_1.pkl,0.6369989,0.6685039028473003,19.604326,68.48672981654154
multimer_subfamily_dupl,P07737_P10233,result_model_1_multimer_v3_pred_1.pkl,0.3404598,0.41464904562185323,23.329384,55.863942616227504
multimer_subfamily_dupl,P08133_P04288,result_model_1_multimer_v3_pred_1.pkl,0.16579008,0.42095281974570176,22.61736,75.48052902345277
multimer_subfamily_dupl,P08133_P04488,result_model_1_multimer_v3_pred_1.pkl,0.15866356,0.47005800379151796,23.488293,65.60578025008566
multimer_subfamily_dupl,P08133_P06487,result_model_1_multimer_v3_pred_1.pkl,0.170068,0.5422655826248558,21.164347,70.93854105040424
multimer_subfamily_dupl,P08133_Q69091,result_model_1_multimer_v3_pred_1.pkl,0.14498365,0.43145989029915927,22.801498,72.1564406092939
multimer_subfamily_dupl,P08134_P10233,result_model_1_multimer_v3_pred_1.pkl,0.25993562,0.44486519587852735,23.22027,56.346357333411994
multimer_subfamily_dupl,P08195_P10229,result_model_1_multimer_v3_pred_1.pkl,0.20094843,0.5744549393619403,21.883572,63.34337939682957
multimer_subfamily_dupl,P08392_P35268,result_model_1_multimer_v3_pred_1.pkl,0.2675241,0.4108897384232535,26.65682,52.95836393066897
multimer_subfamily_dupl,P08758_P10233,result_model_1_multimer_v3_pred_1.pkl,0.14310883,0.5437363438376651,21.82571,62.553576654606694
multimer_subfamily_dupl,P08758_Q69091,result_model_1_multimer_v3_pred_1.pkl,0.1493099,0.49912506721068667,20.862295,71.57859887653731
multimer_subfamily_dupl,P08962_P10211,result_model_1_multimer_v3_pred_1.pkl,0.27158827,0.4031926125070028,25.860327,63.28107868791313
multimer_subfamily_dupl,P09382_P10226,result_model_1_multimer_v3_pred_1.pkl,0.2158958,0.48990183102786145,22.271963,61.06753097743762
multimer_subfamily_dupl,P09382_P10233,result_model_1_multimer_v3_pred_1.pkl,0.2694575,0.3890357363555178,23.839144,56.284467789959336
multimer_subfamily_dupl,P09429_P10233,result_model_1_multimer_v3_pred_1.pkl,0.12428802,0.25728122163209755,26.459795,48.99270118961584
multimer_subfamily_dupl,P09651_P04487,result_model_1_multimer_v3_pred_1.pkl,0.120050736,0.3924011069837213,26.000172,48.501240117384555
multimer_subfamily_dupl,P09651_P10226,result_model_1_multimer_v3_pred_1.pkl,0.14590283,0.3865253714149879,26.003002,52.5232044677626
multimer_subfamily_dupl,P09651_P10233,result_model_1_multimer_v3_pred_1.pkl,0.32697248,0.4003870715874288,25.789383,46.835398991487814
multimer_subfamily_dupl,P09651_P10238,result_model_1_multimer_v3_pred_1.pkl,0.14076921,0.3701726503088932,26.582123,51.93874411925378
multimer_subfamily_dupl,P0C0S5_P10233,result_model_1_multimer_v3_pred_1.pkl,0.16587518,0.29024619746511143,26.155697,44.221444050892174
multimer_subfamily_dupl,P0DMV9_P04487,result_model_1_multimer_v3_pred_1.pkl,0.3607009,0.6899947476791501,16.978308,74.53687349326864
multimer_subfamily_dupl,P0DP25_P04288,result_model_1_multimer_v3_pred_1.pkl,0.12430401,0.5287134451676696,22.158627,61.900750624591595
multimer_subfamily_dupl,P0DP25_P04488,result_model_1_multimer_v3_pred_1.pkl,0.28392297,0.3536378759547082,25.253908,53.89168295584086
multimer_subfamily_dupl,P0DP25_P10211,result_model_1_multimer_v3_pred_1.pkl,0.64833033,0.41414733986345786,25.689535,62.91787962400312
multimer_subfamily_dupl,P0DP25_P10233,result_model_1_multimer_v3_pred_1.pkl,0.1448089,0.26945250974162327,26.06257,44.53769831623423
multimer_subfamily_dupl,P10185_P05556,result_model_1_multimer_v3_pred_1.pkl,0.22773728,0.530390545917468,22.429604,70.92516921553258
multimer_subfamily_dupl,P10185_P07237,result_model_1_multimer_v3_pred_1.pkl,0.2121385,0.5404762120161652,19.88894,68.63803013767087
multimer_subfamily_dupl,P10185_P09382,result_model_1_multimer_v3_pred_1.pkl,0.169702,0.44242275169853273,20.682781,62.233634409060734
multimer_subfamily_dupl,P10185_P11021,result_model_1_multimer_v3_pred_1.pkl,0.1641083,0.6033972963740836,19.67704,70.02269634131306
multimer_subfamily_dupl,P10185_P13667,result_model_1_multimer_v3_pred_1.pkl,0.23922677,0.5948570717584963,18.94724,71.11199596849679
multimer_subfamily_dupl,P10185_P14314,result_model_1_multimer_v3_pred_1.pkl,0.14797565,0.39351262952212795,24.186407,65.79297339567982
multimer_subfamily_dupl,P10185_P23284,result_model_1_multimer_v3_pred_1.pkl,0.17586997,0.48787001311008893,21.218363,64.15107739638293
multimer_subfamily_dupl,P10185_P30101,result_model_1_multimer_v3_pred_1.pkl,0.20809337,0.5547382150009442,19.506037,70.12258301810066
multimer_subfamily_dupl,P10185_P50454,result_model_1_multimer_v3_pred_1.pkl,0.19985251,0.6426066730268638,17.908392,70.3600659952506
multimer_subfamily_dupl,P10209_P08670,result_model_1_multimer_v3_pred_1.pkl,0.14181504,0.4470476843516411,26.29974,54.736724993767695
multimer_subfamily_dupl,P10209_Q99877,result_model_1_multimer_v3_pred_1.pkl,0.14895095,0.6003347752113923,20.967175,60.60948028440287
multimer_subfamily_dupl,P10211_P01889,result_model_1_multimer_v3_pred_1.pkl,0.20883393,0.39103829506681786,26.536251,61.935318461334845
multimer_subfamily_dupl,P10211_P04844,result_model_1_multimer_v3_pred_1.pkl,0.18418217,0.3780465363072485,26.274694,68.72538575456146
multimer_subfamily_dupl,P10211_P07237,result_model_1_multimer_v3_pred_1.pkl,0.19012412,0.361857935804791,26.394178,65.08068214912493
multimer_subfamily_dupl,P10211_P08195,result_model_1_multimer_v3_pred_1.pkl,0.16695534,0.3802499051291522,27.009693,61.33669145154015
multimer_subfamily_dupl,P10211_P08648,result_model_1_multimer_v3_pred_1.pkl,0.20397612,0.41408314080711184,26.791365,66.8556063239802
multimer_subfamily_dupl,P10211_P09382,result_model_1_multimer_v3_pred_1.pkl,0.21139103,0.40479879397096985,25.917534,62.54664219475699
multimer_subfamily_dupl,P10211_P10321,result_model_1_multimer_v3_pred_1.pkl,0.18231471,0.3806979877594949,26.729816,61.55932861587752
multimer_subfamily_dupl,P10211_P11021,result_model_1_multimer_v3_pred_1.pkl,0.1847358,0.4261690712242325,25.742085,66.9281374966444
multimer_subfamily_dupl,P10211_P13667,result_model_1_multimer_v3_pred_1.pkl,0.17821144,0.38299385276649384,26.291012,66.94426454868965
multimer_subfamily_dupl,P10211_P14625,result_model_1_multimer_v3_pred_1.pkl,0.18449242,0.38552216873630285,26.82867,63.41501490229077
multimer_subfamily_dupl,P10211_P21589,result_model_1_multimer_v3_pred_1.pkl,0.16538322,0.3772725891573626,26.095781,67.78188925671023
multimer_subfamily_dupl,P10211_P23284,result_model_1_multimer_v3_pred_1.pkl,0.21597946,0.40103400433077974,25.924198,66.40882726985474
multimer_subfamily_dupl,P10211_P30101,result_model_1_multimer_v3_pred_1.pkl,0.1645234,0.3513444386783712,26.414135,66.41279186714857
multimer_subfamily_dupl,P10211_P46977,result_model_1_multimer_v3_pred_1.pkl,0.44156492,0.5662121017393007,22.385147,70.77859006073254
multimer_subfamily_dupl,P10211_P50454,result_model_1_multimer_v3_pred_1.pkl,0.46009967,0.4677184405849187,24.280163,68.235594761207
multimer_subfamily_dupl,P10211_P62979,result_model_1_multimer_v3_pred_1.pkl,0.14147884,0.3901292852317695,26.415724,61.69894390471828
multimer_subfamily_dupl,P10211_Q12907,result_model_1_multimer_v3_pred_1.pkl,0.1553142,0.3667625692836097,26.706367,63.76072466268709
multimer_subfamily_dupl,P10211_Q15084,result_model_1_multimer_v3_pred_1.pkl,0.16968605,0.36089358013963474,26.93829,63.35713083657986
multimer_subfamily_dupl,P10211_Q15293,result_model_1_multimer_v3_pred_1.pkl,0.20735532,0.38687059106783805,26.38957,60.283555760800596
multimer_subfamily_dupl,P10211_Q8TCJ2,result_model_1_multimer_v3_pred_1.pkl,0.22107357,0.47898391995711265,25.356441,64.39677977983341
multimer_subfamily_dupl,P10211_Q99805,result_model_1_multimer_v3_pred_1.pkl,0.2629828,0.4551364779728587,25.391747,66.4963384653234
multimer_subfamily_dupl,P10211_Q9BTV4,result_model_1_multimer_v3_pred_1.pkl,0.1723797,0.36479504315897,26.145002,66.48978067381788
multimer_subfamily_dupl,P10211_Q9BVC6,result_model_1_multimer_v3_pred_1.pkl,0.1930421,0.40360349544346424,26.786135,56.77968158450342
multimer_subfamily_dupl,P10211_Q9BVK6,result_model_1_multimer_v3_pred_1.pkl,0.15912023,0.40177746217498833,26.253132,64.65073411726573
multimer_subfamily_dupl,P10218_O00264,result_model_1_multimer_v3_pred_1.pkl,0.18050414,0.4204330387574514,22.470852,61.78274119055328
multimer_subfamily_dupl,P10218_O15173,result_model_1_multimer_v3_pred_1.pkl,0.15252,0.39648528735901944,23.689564,57.31211571044494
multimer_subfamily_dupl,P10218_O75396,result_model_1_multimer_v3_pred_1.pkl,0.23430423,0.4355910255503801,22.032734,65.6073134088908
multimer_subfamily_dupl,P10218_P10599,result_model_1_multimer_v3_pred_1.pkl,0.1303264,0.45333172351301404,20.940851,65.6392399686412
multimer_subfamily_dupl,P10218_P26373,result_model_1_multimer_v3_pred_1.pkl,0.08960358,0.3649936266352321,24.576637,64.92392159821033
multimer_subfamily_dupl,P10218_P39023,result_model_1_multimer_v3_pred_1.pkl,0.35237515,0.6027625587331047,18.972162,72.05806114892133
multimer_subfamily_dupl,P10218_P60468,result_model_1_multimer_v3_pred_1.pkl,0.10216749,0.4538367132953169,23.42007,55.99032015133427
multimer_subfamily_dupl,P10218_P61353,result_model_1_multimer_v3_pred_1.pkl,0.2510699,0.4767329235084906,19.810083,66.78689036902392
multimer_subfamily_dupl,P10218_Q9UNL2,result_model_1_multimer_v3_pred_1.pkl,0.11977764,0.34643562287958785,23.58814,60.82506524669892
multimer_subfamily_dupl,P10225_P10233,result_model_1_multimer_v3_pred_1.pkl,0.26723817,0.5052516220427188,23.922726,54.40482345918723
multimer_subfamily_dupl,P10228_P09382,result_model_1_multimer_v3_pred_1.pkl,0.23986125,0.49900014092229117,22.19617,67.27227460406229
multimer_subfamily_dupl,P10230_Q9P0L0,result_model_1_multimer_v3_pred_1.pkl,0.16120635,0.47442994753203704,25.072891,55.57921965621979
multimer_subfamily_dupl,P10233_P63104,result_model_1_multimer_v3_pred_1.pkl,0.5668354,0.5102141727309961,22.254417,59.04091360376497
multimer_subfamily_dupl,P10233_P67809,result_model_1_multimer_v3_pred_1.pkl,0.1428981,0.25478438355515043,28.098711,40.64474808695175
multimer_subfamily_dupl,P10233_Q15836,result_model_1_multimer_v3_pred_1.pkl,0.10388485,0.2647379379829986,27.094584,45.805655674266085
multimer_subfamily_dupl,P10233_Q702N8,result_model_1_multimer_v3_pred_1.pkl,0.25308025,0.26025818127655986,30.085863,26.4425228193044
multimer_subfamily_dupl,P10234_P06703,result_model_1_multimer_v3_pred_1.pkl,0.24122477,0.6861258434253616,15.664913,68.32868341529118
multimer_subfamily_dupl,P10234_P57053,result_model_1_multimer_v3_pred_1.pkl,0.20656195,0.6592667366149791,17.55433,61.039410522808815
multimer_subfamily_dupl,P10234_Q99877,result_model_1_multimer_v3_pred_1.pkl,0.21360168,0.6635341059650306,17.345587,62.58211072637927
multimer_subfamily_dupl,P10599_P04487,result_model_1_multimer_v3_pred_1.pkl,0.085000195,0.4045917848323119,23.747433,70.15552765510864
multimer_subfamily_dupl,P10599_P10226,result_model_1_multimer_v3_pred_1.pkl,0.23712493,0.5141034027189014,22.10206,60.55367945087601
multimer_subfamily_dupl,P10599_P10233,result_model_1_multimer_v3_pred_1.pkl,0.25834233,0.33833659192622245,24.532757,57.089153879096536
multimer_subfamily_dupl,P10599_P10235,result_model_1_multimer_v3_pred_1.pkl,0.14477448,0.38679327716460316,23.371307,47.32636981376377
multimer_subfamily_dupl,P11142_P03170,result_model_1_multimer_v3_pred_1.pkl,0.42577597,0.7892892425543914,12.599302,81.42599426874311
multimer_subfamily_dupl,P11142_P04487,result_model_1_multimer_v3_pred_1.pkl,0.32315013,0.687034180293941,17.077646,74.53343844410693
multimer_subfamily_dupl,P11142_P10226,result_model_1_multimer_v3_pred_1.pkl,0.32277715,0.5403470013183863,22.126648,69.10200489852065
multimer_subfamily_dupl,P11142_P10233,result_model_1_multimer_v3_pred_1.pkl,0.15127054,0.5984136519030887,20.734001,67.32868569527392
multimer_subfamily_dupl,P11940_P10238,result_model_1_multimer_v3_pred_1.pkl,0.18998218,0.3263380857292394,27.641111,53.44946906181192
multimer_subfamily_dupl,P12004_P10226,result_model_1_multimer_v3_pred_1.pkl,0.55309224,0.4260988440730474,22.910515,63.00868788474235
multimer_subfamily_dupl,P13639_P04487,result_model_1_multimer_v3_pred_1.pkl,0.15370604,0.6468701027964863,16.772802,76.70590469578919
multimer_subfamily_dupl,P13726_P10211,result_model_1_multimer_v3_pred_1.pkl,0.1571256,0.38031133436113695,26.707169,62.138816519553316
multimer_subfamily_dupl,P13797_P10226,result_model_1_multimer_v3_pred_1.pkl,0.14863956,0.4995567395252164,23.392075,66.3157075354038
multimer_subfamily_dupl,P13987_P06484,result_model_1_multimer_v3_pred_1.pkl,0.15124512,0.3014602147041812,26.40095,45.36816513109411
multimer_subfamily_dupl,P13987_P10211,result_model_1_multimer_v3_pred_1.pkl,0.17510349,0.4069956703461948,26.124338,61.51362162258377
multimer_subfamily_dupl,P13987_P10229,result_model_1_multimer_v3_pred_1.pkl,0.15322366,0.40160546387138396,21.850895,62.89544591836623
multimer_subfamily_dupl,P13987_Q69091,result_model_1_multimer_v3_pred_1.pkl,0.10738818,0.4889985221091083,22.799942,61.780222241822706
multimer_subfamily_dupl,P16070_P06487,result_model_1_multimer_v3_pred_1.pkl,0.17252049,0.2736522248352632,28.918934,37.95303425239299
multimer_subfamily_dupl,P16070_P10228,result_model_1_multimer_v3_pred_1.pkl,0.18598354,0.3407104868066776,28.267859,44.40085883408739
multimer_subfamily_dupl,P16070_Q69091,result_model_1_multimer_v3_pred_1.pkl,0.19336924,0.3185334235965765,28.33602,41.244773206415026
multimer_subfamily_dupl,P16104_P10233,result_model_1_multimer_v3_pred_1.pkl,0.17240806,0.29263840278639497,26.271996,44.79577023338484
multimer_subfamily_dupl,P16333_P10233,result_model_1_multimer_v3_pred_1.pkl,0.31647134,0.27937788377408856,26.858976,50.50529882047025
multimer_subfamily_dupl,P16401_P10233,result_model_1_multimer_v3_pred_1.pkl,0.1400632,0.26777560025850267,27.75438,40.39117456533563
multimer_subfamily_dupl,P16402_P10233,result_model_1_multimer_v3_pred_1.pkl,0.1345065,0.2660942559589779,27.721493,40.64957169597461
multimer_subfamily_dupl,P17096_P04487,result_model_1_multimer_v3_pred_1.pkl,0.062343247,0.12100727284403842,27.863676,46.23224278439612
multimer_subfamily_dupl,P17096_P10226,result_model_1_multimer_v3_pred_1.pkl,0.12139535,0.5084562586049768,23.585617,54.465135765623685
multimer_subfamily_dupl,P17096_P10233,result_model_1_multimer_v3_pred_1.pkl,0.12329892,0.2925304839242792,27.400356,42.77208808333811
multimer_subfamily_dupl,P18085_P04488,result_model_1_multimer_v3_pred_1.pkl,0.30333215,0.3612692872803822,24.727043,55.88087550565254
multimer_subfamily_dupl,P18085_P10211,result_model_1_multimer_v3_pred_1.pkl,0.23964882,0.3940829904473072,25.81091,64.02008784814241
multimer_subfamily_dupl,P18085_Q69091,result_model_1_multimer_v3_pred_1.pkl,0.15254244,0.429884708332982,22.55258,60.14280858282002
multimer_subfamily_dupl,P18124_P04487,result_model_1_multimer_v3_pred_1.pkl,0.092097014,0.49212796796358216,21.990828,67.43775379561254
multimer_subfamily_dupl,P20340_P10233,result_model_1_multimer_v3_pred_1.pkl,0.46517706,0.4580331379219865,23.218042,54.24015294310752
multimer_subfamily_dupl,P21291_P04487,result_model_1_multimer_v3_pred_1.pkl,0.06772459,0.22214266794006204,27.288757,56.16954428922907
multimer_subfamily_dupl,P21926_P04488,result_model_1_multimer_v3_pred_1.pkl,0.24239683,0.3231449360728559,25.519934,54.80764959112138
multimer_subfamily_dupl,P21926_P06477,result_model_1_multimer_v3_pred_1.pkl,0.21915072,0.6291571874566779,20.6559,69.40666087876308
multimer_subfamily_dupl,P21926_P10211,result_model_1_multimer_v3_pred_1.pkl,0.2585914,0.41383662979434166,25.762287,61.19852884411534
multimer_subfamily_dupl,P21926_P10229,result_model_1_multimer_v3_pred_1.pkl,0.15315455,0.4251493519717711,19.755733,55.64432723108202
multimer_subfamily_dupl,P22626_P10226,result_model_1_multimer_v3_pred_1.pkl,0.14135233,0.3916493535845722,25.80148,52.64192514706369
multimer_subfamily_dupl,P22626_P10233,result_model_1_multimer_v3_pred_1.pkl,0.22387695,0.36766317251518926,26.436071,46.250165423504974
multimer_subfamily_dupl,P23284_P10229,result_model_1_multimer_v3_pred_1.pkl,0.19629666,0.5394901660871243,19.27233,67.31236799606665
multimer_subfamily_dupl,P23396_P10233,result_model_1_multimer_v3_pred_1.pkl,0.16117002,0.38944917215304575,25.183132,57.16439792261633
multimer_subfamily_dupl,P26373_P10233,result_model_1_multimer_v3_pred_1.pkl,0.10290576,0.2887541134276026,26.688332,56.277999309163036
multimer_subfamily_dupl,P26583_P10233,result_model_1_multimer_v3_pred_1.pkl,0.2576013,0.2662571825473133,26.278313,48.628846951265345
multimer_subfamily_dupl,P27635_P10233,result_model_1_multimer_v3_pred_1.pkl,0.22380456,0.42329790993558347,24.466549,59.46239839321407
multimer_subfamily_dupl,P27797_P03170,result_model_1_multimer_v3_pred_1.pkl,0.23154843,0.669370307206836,16.612885,77.24587713367261
multimer_subfamily_dupl,P27797_P04488,result_model_1_multimer_v3_pred_1.pkl,0.28763834,0.45055482375827727,24.344448,62.494457208428926
multimer_subfamily_dupl,P27797_P10185,result_model_1_multimer_v3_pred_1.pkl,0.18183368,0.5424777995274506,20.956766,67.92442835520119
multimer_subfamily_dupl,P27797_P10211,result_model_1_multimer_v3_pred_1.pkl,0.16463862,0.3569359358409747,26.511871,64.80994638237958
multimer_subfamily_dupl,P27824_P10211,result_model_1_multimer_v3_pred_1.pkl,0.1679031,0.3411947180379663,27.397516,60.629390704083725
multimer_subfamily_dupl,P27824_P10229,result_model_1_multimer_v3_pred_1.pkl,0.21605472,0.5034737144652875,23.437004,63.753319549893526
multimer_subfamily_dupl,P27824_Q69091,result_model_1_multimer_v3_pred_1.pkl,0.18818103,0.4162793932837091,25.326025,60.11667313728367
multimer_subfamily_dupl,P30050_P04487,result_model_1_multimer_v3_pred_1.pkl,0.07357661,0.4611987768548075,22.649473,64.228516303524
multimer_subfamily_dupl,P30050_P10233,result_model_1_multimer_v3_pred_1.pkl,0.53211313,0.4632369239551291,22.582165,50.384517267044416
multimer_subfamily_dupl,P31949_P03170,result_model_1_multimer_v3_pred_1.pkl,0.18905124,0.5019274559577018,19.449516,55.417519703400835
multimer_subfamily_dupl,P31949_P10233,result_model_1_multimer_v3_pred_1.pkl,0.20932761,0.31111434887640343,25.391233,47.228873893934924
multimer_subfamily_dupl,P32969_P10233,result_model_1_multimer_v3_pred_1.pkl,0.21730964,0.4140519565057359,24.098475,58.063442480981784
multimer_subfamily_dupl,P35268_P04487,result_model_1_multimer_v3_pred_1.pkl,0.09320045,0.3811747085648114,24.584185,61.41396705562072
multimer_subfamily_dupl,P35268_P10233,result_model_1_multimer_v3_pred_1.pkl,0.1517978,0.32217033209270646,25.578953,49.993738553181956
multimer_subfamily_dupl,P36578_P04487,result_model_1_multimer_v3_pred_1.pkl,0.09703907,0.48104904350469035,23.624306,65.7300638880007
multimer_subfamily_dupl,P38159_P10233,result_model_1_multimer_v3_pred_1.pkl,0.15503849,0.2434424964858925,28.645351,36.18440984400645
multimer_subfamily_dupl,P39019_P04487,result_model_1_multimer_v3_pred_1.pkl,0.07171623,0.44884927711790595,23.411636,67.5136391130718
multimer_subfamily_dupl,P39019_P10226,result_model_1_multimer_v3_pred_1.pkl,0.14803466,0.4722658534346379,23.549818,58.18697704909287
multimer_subfamily_dupl,P39023_P04487,result_model_1_multimer_v3_pred_1.pkl,0.10172135,0.639972724484703,18.857712,70.19861612694032
multimer_subfamily_dupl,P40227_P10226,result_model_1_multimer_v3_pred_1.pkl,0.22087574,0.5007378717687221,22.42898,66.08220468445278
multimer_subfamily_dupl,P40429_P04487,result_model_1_multimer_v3_pred_1.pkl,0.15815218,0.48005458988608896,22.341152,64.04644985661541
multimer_subfamily_dupl,P42766_P04487,result_model_1_multimer_v3_pred_1.pkl,0.056801952,0.37030225437352216,24.809158,64.09910945137923
multimer_subfamily_dupl,P42766_P10233,result_model_1_multimer_v3_pred_1.pkl,0.11145952,0.28669878501506907,26.252258,55.0036701864107
multimer_subfamily_dupl,P45983_P04294,result_model_1_multimer_v3_pred_1.pkl,0.65406096,0.5070173342549981,21.519785,68.70969946826766
multimer_subfamily_dupl,P46776_P10233,result_model_1_multimer_v3_pred_1.pkl,0.088951856,0.28388463708464606,26.497623,57.636061277494754
multimer_subfamily_dupl,P46779_P04487,result_model_1_multimer_v3_pred_1.pkl,0.08681471,0.35301170474446353,24.9341,58.582839516062144
multimer_subfamily_dupl,P47914_P04487,result_model_1_multimer_v3_pred_1.pkl,0.06169103,0.19751601733115728,27.86417,47.6215775768892
multimer_subfamily_dupl,P49207_P10233,result_model_1_multimer_v3_pred_1.pkl,0.10365593,0.2662604207456866,27.015936,47.20042042203708
multimer_subfamily_dupl,P49458_P04487,result_model_1_multimer_v3_pred_1.pkl,0.10506288,0.3298613673115931,24.397705,56.360069030903254
multimer_subfamily_dupl,P49755_P10229,result_model_1_multimer_v3_pred_1.pkl,0.15949848,0.33444547951509407,22.935192,57.05466258131577
multimer_subfamily_dupl,P50402_P10218,result_model_1_multimer_v3_pred_1.pkl,0.12571216,0.3609201976492914,26.560604,47.75858904413401
multimer_subfamily_dupl,P50454_P10229,result_model_1_multimer_v3_pred_1.pkl,0.22721376,0.689470952825963,15.755167,74.41199745318774
multimer_subfamily_dupl,P50914_P04487,result_model_1_multimer_v3_pred_1.pkl,0.074138105,0.36166275735537473,25.82115,55.41675345786568
multimer_subfamily_dupl,P50914_P10233,result_model_1_multimer_v3_pred_1.pkl,0.094340935,0.29765004435944725,27.196352,50.69315254202386
multimer_subfamily_dupl,P52926_P10226,result_model_1_multimer_v3_pred_1.pkl,0.123128116,0.49551516877814816,24.072325,51.476643667417
multimer_subfamily_dupl,P55010_P10233,result_model_1_multimer_v3_pred_1.pkl,0.15997276,0.31411736553787695,26.663774,56.196013121294826
multimer_subfamily_dupl,P57053_P04487,result_model_1_multimer_v3_pred_1.pkl,0.0819633,0.25205155920644107,25.873177,52.439796052021954
multimer_subfamily_dupl,P57053_P10226,result_model_1_multimer_v3_pred_1.pkl,0.38871238,0.5394812552504207,22.455503,52.61876147946687
multimer_subfamily_dupl,P57053_P10233,result_model_1_multimer_v3_pred_1.pkl,0.20050544,0.30669873217558474,26.283262,41.04768732261416
multimer_subfamily_dupl,P58876_P10233,result_model_1_multimer_v3_pred_1.pkl,0.16715726,0.292942451397883,26.191029,45.681892787576395
multimer_subfamily_dupl,P60468_P04487,result_model_1_multimer_v3_pred_1.pkl,0.055700492,0.153435103908183,27.856003,48.309466198713984
multimer_subfamily_dupl,P60468_P10233,result_model_1_multimer_v3_pred_1.pkl,0.17327157,0.30738608032554,26.875395,42.33186698338853
multimer_subfamily_dupl,P60709_P04294,result_model_1_multimer_v3_pred_1.pkl,0.3073913,0.5289914135458497,20.46749,73.58685174561666
multimer_subfamily_dupl,P60709_P04296,result_model_1_multimer_v3_pred_1.pkl,0.22266564,0.7048164200085335,17.965343,80.5563128824915
multimer_subfamily_dupl,P60709_P04487,result_model_1_multimer_v3_pred_1.pkl,0.13994476,0.6933970860590538,16.356792,73.15383249880473
multimer_subfamily_dupl,P60709_P06491,result_model_1_multimer_v3_pred_1.pkl,0.25446862,0.7256827586639893,18.157644,78.78595848690469
multimer_subfamily_dupl,P60709_P10226,result_model_1_multimer_v3_pred_1.pkl,0.34546053,0.49183389087212903,22.223278,67.98301708153359
multimer_subfamily_dupl,P60709_P10233,result_model_1_multimer_v3_pred_1.pkl,0.16831031,0.5838254022066631,20.71595,66.43357553894866
multimer_subfamily_dupl,P60953_P06487,result_model_1_multimer_v3_pred_1.pkl,0.17055662,0.3847338942914588,23.531355,58.94050107897701
multimer_subfamily_dupl,P61026_P10233,result_model_1_multimer_v3_pred_1.pkl,0.28323638,0.4181028446489529,23.689892,53.94215162533767
multimer_subfamily_dupl,P61254_P04487,result_model_1_multimer_v3_pred_1.pkl,0.06718532,0.41544188838920576,23.908096,64.83935128252033
multimer_subfamily_dupl,P61353_P04487,result_model_1_multimer_v3_pred_1.pkl,0.092319824,0.44304045181647095,23.114153,69.40495365374049
multimer_subfamily_dupl,P61353_P10233,result_model_1_multimer_v3_pred_1.pkl,0.15610667,0.33927865783404143,25.551197,58.569473722032946
multimer_subfamily_dupl,P61513_P10233,result_model_1_multimer_v3_pred_1.pkl,0.21045436,0.30976974882781194,25.893953,45.58721115523566
multimer_subfamily_dupl,P61769_P10211,result_model_1_multimer_v3_pred_1.pkl,0.3521812,0.4147740425182817,25.367287,62.073108754295475
multimer_subfamily_dupl,P61978_P10233,result_model_1_multimer_v3_pred_1.pkl,0.14736299,0.33129854731959335,27.219448,44.84926977180392
multimer_subfamily_dupl,P62136_P10233,result_model_1_multimer_v3_pred_1.pkl,0.62789094,0.5377028908513038,21.952562,62.27021205173466
multimer_subfamily_dupl,P62241_P04487,result_model_1_multimer_v3_pred_1.pkl,0.08236928,0.5393694565361606,21.329393,69.20397979724414
multimer_subfamily_dupl,P62328_P04487,result_model_1_multimer_v3_pred_1.pkl,0.06515971,0.12912399179421882,26.975138,47.84607529962126
multimer_subfamily_dupl,P62424_P04487,result_model_1_multimer_v3_pred_1.pkl,0.07829012,0.4565142281595535,23.342459,65.21517650341147
multimer_subfamily_dupl,P62750_P04487,result_model_1_multimer_v3_pred_1.pkl,0.07590687,0.31772413263593463,26.116426,61.56932065075848
multimer_subfamily_dupl,P62805_P10233,result_model_1_multimer_v3_pred_1.pkl,0.22728133,0.31420217525579636,26.135986,39.10990204350812
multimer_subfamily_dupl,P62820_P10231,result_model_1_multimer_v3_pred_1.pkl,0.325742,0.6778378726503019,17.912739,70.07600298221381
multimer_subfamily_dupl,P62820_P10233,result_model_1_multimer_v3_pred_1.pkl,0.2679006,0.42248893301584955,23.763746,52.918507237652626
multimer_subfamily_dupl,P62851_P04487,result_model_1_multimer_v3_pred_1.pkl,0.08245963,0.2822551310771298,26.20713,56.48032101302136
multimer_subfamily_dupl,P62857_P10233,result_model_1_multimer_v3_pred_1.pkl,0.30032077,0.34078493891621375,25.19967,46.42008019730343
multimer_subfamily_dupl,P62888_P10233,result_model_1_multimer_v3_pred_1.pkl,0.1702025,0.32107784232033443,25.038261,51.79778055773124
multimer_subfamily_dupl,P62899_P10233,result_model_1_multimer_v3_pred_1.pkl,0.17207302,0.29297784697713514,25.685421,47.523226682073826
multimer_subfamily_dupl,P62906_P04487,result_model_1_multimer_v3_pred_1.pkl,0.081002116,0.5362164079409804,21.078154,68.67869650729885
multimer_subfamily_dupl,P62913_P04487,result_model_1_multimer_v3_pred_1.pkl,0.07921925,0.48705392497580763,22.341326,68.36717021770984
multimer_subfamily_dupl,P62913_P10233,result_model_1_multimer_v3_pred_1.pkl,0.27732027,0.4196686501408533,23.680601,58.24812093894719
multimer_subfamily_dupl,P62917_P10233,result_model_1_multimer_v3_pred_1.pkl,0.12547135,0.37687985888110376,25.48895,55.22992344047306
multimer_subfamily_dupl,P62937_P03170,result_model_1_multimer_v3_pred_1.pkl,0.22684047,0.700227962433119,13.673548,70.60873677355336
multimer_subfamily_dupl,P62937_P04294,result_model_1_multimer_v3_pred_1.pkl,0.3408039,0.607257734142884,19.515667,71.13766634099213
multimer_subfamily_dupl,P62937_P04487,result_model_1_multimer_v3_pred_1.pkl,0.7421891,0.5609872948457642,19.875404,73.71540413498387
multimer_subfamily_dupl,P62937_P10226,result_model_1_multimer_v3_pred_1.pkl,0.14614126,0.4507726512175582,22.839514,63.66814316143074
multimer_subfamily_dupl,P62937_P10233,result_model_1_multimer_v3_pred_1.pkl,0.20954213,0.4320923106116551,23.305014,60.16550102136296
multimer_subfamily_dupl,P62942_P04294,result_model_1_multimer_v3_pred_1.pkl,0.28234676,0.6366299522157092,19.143295,68.0300571580669
multimer_subfamily_dupl,P62979_P06485,result_model_1_multimer_v3_pred_1.pkl,0.2114161,0.5394943094206187,20.36374,64.14729464423145
multimer_subfamily_dupl,P62979_P10233,result_model_1_multimer_v3_pred_1.pkl,0.15120363,0.25660449689756454,26.943941,52.907653726430595
multimer_subfamily_dupl,P62993_P10233,result_model_1_multimer_v3_pred_1.pkl,0.18268049,0.34325015764294126,24.931688,52.62412788448353
multimer_subfamily_dupl,P63220_P04487,result_model_1_multimer_v3_pred_1.pkl,0.083375946,0.3131964341074605,25.30276,60.936572362511924
multimer_subfamily_dupl,P63241_P04487,result_model_1_multimer_v3_pred_1.pkl,0.09014435,0.42219517297057263,23.49171,64.48549058171632
multimer_subfamily_dupl,P63241_P10233,result_model_1_multimer_v3_pred_1.pkl,0.14331663,0.3487846336117791,25.318138,53.808572244014975
multimer_subfamily_dupl,P67870_P10233,result_model_1_multimer_v3_pred_1.pkl,0.6099459,0.5207395049418629,22.363157,60.9614772777695
multimer_subfamily_dupl,P68104_P03170,result_model_1_multimer_v3_pred_1.pkl,0.19336401,0.5837738755374668,15.838256,70.94172195403718
multimer_subfamily_dupl,P68104_P04487,result_model_1_multimer_v3_pred_1.pkl,0.14565736,0.6322749658456509,17.4683,68.77635700707953
multimer_subfamily_dupl,P68104_P10233,result_model_1_multimer_v3_pred_1.pkl,0.19321829,0.5286462201739598,21.020998,62.46661879019062
P68400_P10233,0.2497570106840878
multimer_subfamily_dupl,P83731_P04487,result_model_1_multimer_v3_pred_1.pkl,0.066070475,0.2566407053597961,26.753632,61.51597339838261
multimer_subfamily_dupl,P83731_P10233,result_model_1_multimer_v3_pred_1.pkl,0.13813683,0.25218522550565065,27.375147,53.31191994578168
multimer_subfamily_dupl,P84077_P10233,result_model_1_multimer_v3_pred_1.pkl,0.39642882,0.4582862750497241,22.826561,55.124536001891194
multimer_subfamily_dupl,P84243_P04487,result_model_1_multimer_v3_pred_1.pkl,0.085293144,0.25149961233998097,26.481092,53.288425989128434
multimer_subfamily_dupl,P84243_P10226,result_model_1_multimer_v3_pred_1.pkl,0.19445112,0.4993572946295163,23.52329,53.0385344490357
multimer_subfamily_dupl,P84243_P10233,result_model_1_multimer_v3_pred_1.pkl,0.17524593,0.29406830232164727,26.73165,38.81687028056157
multimer_subfamily_dupl,Q00341_P04487,result_model_1_multimer_v3_pred_1.pkl,0.15035398,0.29564266730390953,27.826735,64.94236536691096
multimer_subfamily_dupl,Q00839_P10226,result_model_1_multimer_v3_pred_1.pkl,0.19123551,0.4028621779983683,26.577942,52.792112513282554
multimer_subfamily_dupl,Q01105_P04487,result_model_1_multimer_v3_pred_1.pkl,0.09353912,0.4333475188415088,24.708849,54.37644451414062
multimer_subfamily_dupl,Q01105_P10233,result_model_1_multimer_v3_pred_1.pkl,0.12867531,0.375056675022233,26.041885,48.56606363146928
multimer_subfamily_dupl,Q02543_P04487,result_model_1_multimer_v3_pred_1.pkl,0.12321046,0.4386530937248072,22.887245,61.467512774513374
multimer_subfamily_dupl,Q02818_P10220,result_model_1_multimer_v3_pred_1.pkl,0.2769157,0.3746178533362874,29.35001,50.94176711528661
multimer_subfamily_dupl,Q02878_P04487,result_model_1_multimer_v3_pred_1.pkl,0.07642293,0.3644010782210444,26.003149,60.573548728401555
multimer_subfamily_dupl,Q03518_P03170,result_model_1_multimer_v3_pred_1.pkl,0.24398762,0.5917840094444223,18.600925,70.269153222245
multimer_subfamily_dupl,Q05639_P04487,result_model_1_multimer_v3_pred_1.pkl,0.14319384,0.5854190488920745,18.14946,68.33099227023975
multimer_subfamily_dupl,Q06830_P10226,result_model_1_multimer_v3_pred_1.pkl,0.11627494,0.4415913137612136,23.826857,63.95015464662757
multimer_subfamily_dupl,Q07020_P04487,result_model_1_multimer_v3_pred_1.pkl,0.0729964,0.433200957203803,23.749886,63.194772302238725
multimer_subfamily_dupl,Q07020_P10233,result_model_1_multimer_v3_pred_1.pkl,0.1780904,0.3286975010065279,25.7287,49.44583096317002
multimer_subfamily_dupl,Q10472_P04488,result_model_1_multimer_v3_pred_1.pkl,0.29434428,0.5228483699302334,23.032862,65.38765238579542
multimer_subfamily_dupl,Q13123_P10233,result_model_1_multimer_v3_pred_1.pkl,0.2897917,0.22873049784002777,29.449413,39.06312447279626
multimer_subfamily_dupl,Q13641_P10229,result_model_1_multimer_v3_pred_1.pkl,0.15227222,0.5243119964337868,22.035961,66.38472328259724
multimer_subfamily_dupl,Q14011_P10233,result_model_1_multimer_v3_pred_1.pkl,0.18543746,0.300152111611034,26.585592,45.382590032223476
multimer_subfamily_dupl,Q14697_P10211,result_model_1_multimer_v3_pred_1.pkl,0.22242817,0.5698097780461179,23.245747,72.4059914308768
multimer_subfamily_dupl,Q14847_P10233,result_model_1_multimer_v3_pred_1.pkl,0.2194926,0.2994038610404039,27.244234,40.79559939159955
multimer_subfamily_dupl,Q15056_P10225,result_model_1_multimer_v3_pred_1.pkl,0.66658044,0.6506179828851522,19.544712,64.03698741041275
multimer_subfamily_dupl,Q15056_P10231,result_model_1_multimer_v3_pred_1.pkl,0.13838455,0.6079704960967225,21.68751,58.5009162761271
multimer_subfamily_dupl,Q15056_P10233,result_model_1_multimer_v3_pred_1.pkl,0.12321648,0.2564815363116353,27.68191,42.67832029507285
multimer_subfamily_dupl,Q15691_P10233,result_model_1_multimer_v3_pred_1.pkl,0.12775503,0.312790645585383,26.64103,51.88125312994627
multimer_subfamily_dupl,Q16531_P10231,result_model_1_multimer_v3_pred_1.pkl,0.75406605,0.6798051472246727,18.33539,80.60569953725599
multimer_subfamily_dupl,Q16777_P10233,result_model_1_multimer_v3_pred_1.pkl,0.16158979,0.293066418398027,25.980059,44.61562429939007
multimer_subfamily_dupl,Q1KMD3_P10226,result_model_1_multimer_v3_pred_1.pkl,0.17633054,0.4290579358722042,25.867775,56.623341078951455
multimer_subfamily_dupl,Q5QNW6_P10233,result_model_1_multimer_v3_pred_1.pkl,0.17527494,0.29874456490822354,26.3861,41.92566546389296
multimer_subfamily_dupl,Q5VW38_P10229,result_model_1_multimer_v3_pred_1.pkl,0.20197846,0.5695880608839259,21.203281,61.336624899488456
multimer_subfamily_dupl,Q69091_P09382,result_model_1_multimer_v3_pred_1.pkl,0.16514912,0.4531068747288092,22.191103,63.06783621527163
multimer_subfamily_dupl,Q69091_P11021,result_model_1_multimer_v3_pred_1.pkl,0.17448662,0.5194282858291459,22.40305,67.34453926632878
multimer_subfamily_dupl,Q69091_P27105,result_model_1_multimer_v3_pred_1.pkl,0.12187126,0.3692872047348319,24.642588,64.50402919634861
multimer_subfamily_dupl,Q69091_P61224,result_model_1_multimer_v3_pred_1.pkl,0.14417872,0.47194484617891824,21.517006,66.70450310214888
multimer_subfamily_dupl,Q69091_Q12907,result_model_1_multimer_v3_pred_1.pkl,0.14160436,0.4003325359966624,23.990631,61.554924176651625
multimer_subfamily_dupl,Q69091_Q92835,result_model_1_multimer_v3_pred_1.pkl,0.2706509,0.5252825614368273,25.004028,58.417880381492786
multimer_subfamily_dupl,Q6NZI2_P10233,result_model_1_multimer_v3_pred_1.pkl,0.22208335,0.23891072686518305,29.001526,35.71611140684662
multimer_subfamily_dupl,Q70UQ0_P10218,result_model_1_multimer_v3_pred_1.pkl,0.09834706,0.30813205587370907,27.644499,58.75482939740601
multimer_subfamily_dupl,Q71DI3_P10233,result_model_1_multimer_v3_pred_1.pkl,0.14667088,0.2844655758953715,26.804913,41.53071935496138
multimer_subfamily_dupl,Q7Z7H5_P10229,result_model_1_multimer_v3_pred_1.pkl,0.12405044,0.3134761709538629,23.568926,55.886592440451295
multimer_subfamily_dupl,Q8WWI1_P08543,result_model_1_multimer_v3_pred_1.pkl,0.61661875,0.44724346122261827,28.258375,42.77621125727599
multimer_subfamily_dupl,Q93077_P10233,result_model_1_multimer_v3_pred_1.pkl,0.17178231,0.2950074150311983,26.034733,44.863092350045015
multimer_subfamily_dupl,Q96AG4_P10218,result_model_1_multimer_v3_pred_1.pkl,0.17791277,0.38764884806119326,23.66608,65.47671086502737
multimer_subfamily_dupl,Q99877_P03170,result_model_1_multimer_v3_pred_1.pkl,0.16550031,0.38239988660237056,21.822723,49.37131806618306
multimer_subfamily_dupl,Q99877_P04294,result_model_1_multimer_v3_pred_1.pkl,0.21653286,0.6366839795189638,19.858465,63.23723176152516
multimer_subfamily_dupl,Q99877_P04485,result_model_1_multimer_v3_pred_1.pkl,0.13683653,0.23468328732226212,26.95942,36.98680169884199
multimer_subfamily_dupl,Q99877_P04487,result_model_1_multimer_v3_pred_1.pkl,0.09228127,0.31448744782789606,25.359844,56.355966737789856
multimer_subfamily_dupl,Q99877_P10226,result_model_1_multimer_v3_pred_1.pkl,0.2321478,0.5133237380462942,22.953968,53.19480959586407
multimer_subfamily_dupl,Q99877_P10231,result_model_1_multimer_v3_pred_1.pkl,0.24805388,0.6959151316881358,18.235863,65.55467094356588
multimer_subfamily_dupl,Q99877_P10233,result_model_1_multimer_v3_pred_1.pkl,0.17159039,0.29664205562771506,26.172205,44.441951136037574
multimer_subfamily_dupl,Q99878_P10233,result_model_1_multimer_v3_pred_1.pkl,0.16703555,0.2958262827621291,25.899857,46.05467202298315
multimer_subfamily_dupl,Q99879_P10233,result_model_1_multimer_v3_pred_1.pkl,0.16478458,0.294683050235214,26.196949,44.58929687505151
multimer_subfamily_dupl,Q99880_P10233,result_model_1_multimer_v3_pred_1.pkl,0.38945332,0.2917604908732467,25.862795,48.8032397596421
multimer_subfamily_dupl,Q9BS26_P10211,result_model_1_multimer_v3_pred_1.pkl,0.16704649,0.36726338147609217,26.602165,62.68776298477466
multimer_subfamily_dupl,Q9BVK6_P10229,result_model_1_multimer_v3_pred_1.pkl,0.1483098,0.3066698128158614,23.50202,55.7339232912187
multimer_subfamily_dupl,Q9BXS5_P04488,result_model_1_multimer_v3_pred_1.pkl,0.33587283,0.36965826272829594,25.424753,58.684763338137806
multimer_subfamily_dupl,Q9GZQ8_P10233,result_model_1_multimer_v3_pred_1.pkl,0.27203757,0.36897234470884793,24.004992,51.068563410139824
multimer_subfamily_dupl,Q9H0U4_P10231,result_model_1_multimer_v3_pred_1.pkl,0.19731383,0.6472906359551072,19.261356,66.90738980308042
multimer_subfamily_dupl,Q9H0U4_P10233,result_model_1_multimer_v3_pred_1.pkl,0.27648664,0.4207972725287142,23.661684,53.301931487312174
multimer_subfamily_dupl,Q9H299_P10233,result_model_1_multimer_v3_pred_1.pkl,0.26011813,0.3281737572813157,24.792826,52.09590356405758
multimer_subfamily_dupl,Q9H3P7_P04488,result_model_1_multimer_v3_pred_1.pkl,0.15787162,0.281318196516245,27.537167,54.91415539726767
multimer_subfamily_dupl,Q9HDC9_P10211,result_model_1_multimer_v3_pred_1.pkl,0.16906382,0.38729096728111867,25.826765,65.03113675901012
multimer_subfamily_dupl,Q9NR12_P10233,result_model_1_multimer_v3_pred_1.pkl,0.12376988,0.22322731967082038,28.161135,44.801311029703214
multimer_subfamily_dupl,Q9P2E9_P04487,result_model_1_multimer_v3_pred_1.pkl,0.1505262,0.1944119168408195,30.325253,35.11581431229443
multimer_subfamily_dupl,Q9Y224_P10233,result_model_1_multimer_v3_pred_1.pkl,0.14818248,0.2597006514894229,26.917482,44.47012085309278
