multimer_trembl_dupl,O00299_P04487,unrelaxed_model_1_multimer_v3_pred_1,0.397
multimer_trembl_dupl,O43169_P04488,unrelaxed_model_1_multimer_v3_pred_1,0.078
multimer_trembl_dupl,O43169_P10218,unrelaxed_model_1_multimer_v3_pred_1,0.08
multimer_trembl_dupl,O43852_P10185,unrelaxed_model_1_multimer_v3_pred_1,0.065
multimer_trembl_dupl,O43852_P10211,unrelaxed_model_1_multimer_v3_pred_1,0.126
multimer_trembl_dupl,O75396_P04487,unrelaxed_model_1_multimer_v3_pred_1,0.018
multimer_trembl_dupl,O75531_P10233,unrelaxed_model_1_multimer_v3_pred_1,0.039
multimer_trembl_dupl,P00338_P04487,unrelaxed_model_1_multimer_v3_pred_1,0.204
multimer_trembl_dupl,P00387_P04488,unrelaxed_model_1_multimer_v3_pred_1,0.402
multimer_trembl_dupl,P01889_P10229,unrelaxed_model_1_multimer_v3_pred_1,0.244
multimer_trembl_dupl,P02511_P10233,unrelaxed_model_1_multimer_v3_pred_1,0.061
multimer_trembl_dupl,P04083_P04488,unrelaxed_model_1_multimer_v3_pred_1,0.169
multimer_trembl_dupl,P04288_P06703,unrelaxed_model_1_multimer_v3_pred_1,0.059
multimer_trembl_dupl,P04288_P62820,unrelaxed_model_1_multimer_v3_pred_1,0.066
multimer_trembl_dupl,P04288_P62979,unrelaxed_model_1_multimer_v3_pred_1,0.093
multimer_trembl_dupl,P04288_Q9H0U4,unrelaxed_model_1_multimer_v3_pred_1,0.061
multimer_trembl_dupl,P04294_P13010,unrelaxed_model_1_multimer_v3_pred_1,0.203
multimer_trembl_dupl,P04294_P27348,unrelaxed_model_1_multimer_v3_pred_1,0.586
multimer_trembl_dupl,P04294_P31946,unrelaxed_model_1_multimer_v3_pred_1,0.426
multimer_trembl_dupl,P04294_P61981,unrelaxed_model_1_multimer_v3_pred_1,0.292
multimer_trembl_dupl,P04294_P62258,unrelaxed_model_1_multimer_v3_pred_1,0.224
multimer_trembl_dupl,P04294_P63104,unrelaxed_model_1_multimer_v3_pred_1,0.196
multimer_trembl_dupl,P04294_Q9Y4E8,unrelaxed_model_1_multimer_v3_pred_1,0.14
multimer_trembl_dupl,P04296_P07737,unrelaxed_model_1_multimer_v3_pred_1,0.098
multimer_trembl_dupl,P04406_P04487,unrelaxed_model_1_multimer_v3_pred_1,0.256
multimer_trembl_dupl,P04406_P10226,unrelaxed_model_1_multimer_v3_pred_1,0.409
multimer_trembl_dupl,P04406_P10233,unrelaxed_model_1_multimer_v3_pred_1,0.29
multimer_trembl_dupl,P04487_P08670,unrelaxed_model_1_multimer_v3_pred_1,0
multimer_trembl_dupl,P04487_P67809,unrelaxed_model_1_multimer_v3_pred_1,0.019
multimer_trembl_dupl,P04488_O14828,unrelaxed_model_1_multimer_v3_pred_1,0.147
multimer_trembl_dupl,P04488_O15127,unrelaxed_model_1_multimer_v3_pred_1,0.054
multimer_trembl_dupl,P04488_O75396,unrelaxed_model_1_multimer_v3_pred_1,0.168
multimer_trembl_dupl,P04488_P06703,unrelaxed_model_1_multimer_v3_pred_1,0.053
multimer_trembl_dupl,P04488_P07237,unrelaxed_model_1_multimer_v3_pred_1,0.217
multimer_trembl_dupl,P04488_P11166,unrelaxed_model_1_multimer_v3_pred_1,0.109
multimer_trembl_dupl,P04488_P20340,unrelaxed_model_1_multimer_v3_pred_1,0.224
multimer_trembl_dupl,P04488_P60468,unrelaxed_model_1_multimer_v3_pred_1,0.051
multimer_trembl_dupl,P04488_P61019,unrelaxed_model_1_multimer_v3_pred_1,0.058
multimer_trembl_dupl,P04488_P62820,unrelaxed_model_1_multimer_v3_pred_1,0.175
multimer_trembl_dupl,P04488_P62979,unrelaxed_model_1_multimer_v3_pred_1,0.131
multimer_trembl_dupl,P04488_Q15836,unrelaxed_model_1_multimer_v3_pred_1,0.055
multimer_trembl_dupl,P04488_Q96AJ9,unrelaxed_model_1_multimer_v3_pred_1,0.071
multimer_trembl_dupl,P04488_Q9BVC6,unrelaxed_model_1_multimer_v3_pred_1,0.022
multimer_trembl_dupl,P04488_Q9GZQ8,unrelaxed_model_1_multimer_v3_pred_1,0.171
multimer_trembl_dupl,P04488_Q9H0U4,unrelaxed_model_1_multimer_v3_pred_1,0.049
multimer_trembl_dupl,P04488_Q9H4G4,unrelaxed_model_1_multimer_v3_pred_1,0.149
multimer_trembl_dupl,P04792_P04294,unrelaxed_model_1_multimer_v3_pred_1,0.058
multimer_trembl_dupl,P04792_P10233,unrelaxed_model_1_multimer_v3_pred_1,0.06
multimer_trembl_dupl,P05023_P04488,unrelaxed_model_1_multimer_v3_pred_1,0.189
multimer_trembl_dupl,P05204_P10233,unrelaxed_model_1_multimer_v3_pred_1,0.106
multimer_trembl_dupl,P06487_P06703,unrelaxed_model_1_multimer_v3_pred_1,0.208
multimer_trembl_dupl,P06487_P20340,unrelaxed_model_1_multimer_v3_pred_1,0.08
multimer_trembl_dupl,P06487_P51148,unrelaxed_model_1_multimer_v3_pred_1,0.071
multimer_trembl_dupl,P06487_P62937,unrelaxed_model_1_multimer_v3_pred_1,0.283
multimer_trembl_dupl,P06487_Q9H0U4,unrelaxed_model_1_multimer_v3_pred_1,0.082
multimer_trembl_dupl,P06491_P10599,unrelaxed_model_1_multimer_v3_pred_1,0.031
multimer_trembl_dupl,P06703_P04487,unrelaxed_model_1_multimer_v3_pred_1,0
multimer_trembl_dupl,P06703_P10226,unrelaxed_model_1_multimer_v3_pred_1,0.162
multimer_trembl_dupl,P06703_P10233,unrelaxed_model_1_multimer_v3_pred_1,0.039
multimer_trembl_dupl,P06703_P10238,unrelaxed_model_1_multimer_v3_pred_1,0.115
multimer_trembl_dupl,P06733_P04487,unrelaxed_model_1_multimer_v3_pred_1,0.025
multimer_trembl_dupl,P06733_P10226,unrelaxed_model_1_multimer_v3_pred_1,0.223
multimer_trembl_dupl,P06748_P04487,unrelaxed_model_1_multimer_v3_pred_1,0.022
multimer_trembl_dupl,P07355_P06487,unrelaxed_model_1_multimer_v3_pred_1,0.153
multimer_trembl_dupl,P07355_Q69091,unrelaxed_model_1_multimer_v3_pred_1,0.095
multimer_trembl_dupl,P07384_P10231,unrelaxed_model_1_multimer_v3_pred_1,0.288
multimer_trembl_dupl,P07437_P10233,unrelaxed_model_1_multimer_v3_pred_1,0.123
multimer_trembl_dupl,P07737_P04487,unrelaxed_model_1_multimer_v3_pred_1,0.087
multimer_trembl_dupl,P07737_P08543,unrelaxed_model_1_multimer_v3_pred_1,0.104
multimer_trembl_dupl,P07737_P10233,unrelaxed_model_1_multimer_v3_pred_1,0.121
multimer_trembl_dupl,P08133_P04288,unrelaxed_model_1_multimer_v3_pred_1,0.03
multimer_trembl_dupl,P08133_P04488,unrelaxed_model_1_multimer_v3_pred_1,0.257
multimer_trembl_dupl,P08133_P06487,unrelaxed_model_1_multimer_v3_pred_1,0.214
multimer_trembl_dupl,P08133_Q69091,unrelaxed_model_1_multimer_v3_pred_1,0.219
multimer_trembl_dupl,P08134_P10233,unrelaxed_model_1_multimer_v3_pred_1,0.092
multimer_trembl_dupl,P08195_P10229,unrelaxed_model_1_multimer_v3_pred_1,0.167
multimer_trembl_dupl,P08392_P35268,unrelaxed_model_1_multimer_v3_pred_1,0.037
multimer_trembl_dupl,P08758_P10233,unrelaxed_model_1_multimer_v3_pred_1,0.1
multimer_trembl_dupl,P08758_Q69091,unrelaxed_model_1_multimer_v3_pred_1,0.09
multimer_trembl_dupl,P08962_P10211,unrelaxed_model_1_multimer_v3_pred_1,0.182
multimer_trembl_dupl,P09382_P10226,unrelaxed_model_1_multimer_v3_pred_1,0.111
multimer_trembl_dupl,P09382_P10233,unrelaxed_model_1_multimer_v3_pred_1,0.084
multimer_trembl_dupl,P09429_P10233,unrelaxed_model_1_multimer_v3_pred_1,0.101
multimer_trembl_dupl,P09651_P04487,unrelaxed_model_1_multimer_v3_pred_1,0.042
multimer_trembl_dupl,P09651_P10226,unrelaxed_model_1_multimer_v3_pred_1,0.165
multimer_trembl_dupl,P09651_P10233,unrelaxed_model_1_multimer_v3_pred_1,0.141
multimer_trembl_dupl,P09651_P10238,unrelaxed_model_1_multimer_v3_pred_1,0.17
multimer_trembl_dupl,P0C0S5_P10233,unrelaxed_model_1_multimer_v3_pred_1,0.109
multimer_trembl_dupl,P0DMV9_P04487,unrelaxed_model_1_multimer_v3_pred_1,0.133
multimer_trembl_dupl,P0DP25_P04288,unrelaxed_model_1_multimer_v3_pred_1,0.025
multimer_trembl_dupl,P0DP25_P04488,unrelaxed_model_1_multimer_v3_pred_1,0.251
multimer_trembl_dupl,P0DP25_P10211,unrelaxed_model_1_multimer_v3_pred_1,0.11
multimer_trembl_dupl,P0DP25_P10233,unrelaxed_model_1_multimer_v3_pred_1,0.047
multimer_trembl_dupl,P10185_P05556,unrelaxed_model_1_multimer_v3_pred_1,0.196
multimer_trembl_dupl,P10185_P07237,unrelaxed_model_1_multimer_v3_pred_1,0.131
multimer_trembl_dupl,P10185_P09382,unrelaxed_model_1_multimer_v3_pred_1,0.05
multimer_trembl_dupl,P10185_P11021,unrelaxed_model_1_multimer_v3_pred_1,0.254
multimer_trembl_dupl,P10185_P13667,unrelaxed_model_1_multimer_v3_pred_1,0.08
multimer_trembl_dupl,P10185_P14314,unrelaxed_model_1_multimer_v3_pred_1,0.041
multimer_trembl_dupl,P10185_P23284,unrelaxed_model_1_multimer_v3_pred_1,0.076
multimer_trembl_dupl,P10185_P30101,unrelaxed_model_1_multimer_v3_pred_1,0.066
multimer_trembl_dupl,P10185_P50454,unrelaxed_model_1_multimer_v3_pred_1,0.085
multimer_trembl_dupl,P10209_P08670,unrelaxed_model_1_multimer_v3_pred_1,0.023
multimer_trembl_dupl,P10209_Q99877,unrelaxed_model_1_multimer_v3_pred_1,0.03
multimer_trembl_dupl,P10211_P01889,unrelaxed_model_1_multimer_v3_pred_1,0.375
multimer_trembl_dupl,P10211_P04844,unrelaxed_model_1_multimer_v3_pred_1,0.187
multimer_trembl_dupl,P10211_P07237,unrelaxed_model_1_multimer_v3_pred_1,0.1
multimer_trembl_dupl,P10211_P08195,unrelaxed_model_1_multimer_v3_pred_1,0.043
multimer_trembl_dupl,P10211_P08648,unrelaxed_model_1_multimer_v3_pred_1,0.187
multimer_trembl_dupl,P10211_P09382,unrelaxed_model_1_multimer_v3_pred_1,0.158
multimer_trembl_dupl,P10211_P10321,unrelaxed_model_1_multimer_v3_pred_1,0.335
multimer_trembl_dupl,P10211_P11021,unrelaxed_model_1_multimer_v3_pred_1,0.568
multimer_trembl_dupl,P10211_P13667,unrelaxed_model_1_multimer_v3_pred_1,0.332
multimer_trembl_dupl,P10211_P14625,unrelaxed_model_1_multimer_v3_pred_1,0.337
multimer_trembl_dupl,P10211_P21589,unrelaxed_model_1_multimer_v3_pred_1,0.421
multimer_trembl_dupl,P10211_P23284,unrelaxed_model_1_multimer_v3_pred_1,0.3
multimer_trembl_dupl,P10211_P30101,unrelaxed_model_1_multimer_v3_pred_1,0.106
multimer_trembl_dupl,P10211_P46977,unrelaxed_model_1_multimer_v3_pred_1,0.158
multimer_trembl_dupl,P10211_P50454,unrelaxed_model_1_multimer_v3_pred_1,0.232
multimer_trembl_dupl,P10211_P62979,unrelaxed_model_1_multimer_v3_pred_1,0.023
multimer_trembl_dupl,P10211_Q12907,unrelaxed_model_1_multimer_v3_pred_1,0.098
multimer_trembl_dupl,P10211_Q15084,unrelaxed_model_1_multimer_v3_pred_1,0.251
multimer_trembl_dupl,P10211_Q15293,unrelaxed_model_1_multimer_v3_pred_1,0.078
multimer_trembl_dupl,P10211_Q8TCJ2,unrelaxed_model_1_multimer_v3_pred_1,0.341
multimer_trembl_dupl,P10211_Q99805,unrelaxed_model_1_multimer_v3_pred_1,0.081
multimer_trembl_dupl,P10211_Q9BTV4,unrelaxed_model_1_multimer_v3_pred_1,0.435
multimer_trembl_dupl,P10211_Q9BVC6,unrelaxed_model_1_multimer_v3_pred_1,0.033
multimer_trembl_dupl,P10211_Q9BVK6,unrelaxed_model_1_multimer_v3_pred_1,0.033
multimer_trembl_dupl,P10218_O00264,unrelaxed_model_1_multimer_v3_pred_1,0.069
multimer_trembl_dupl,P10218_O15173,unrelaxed_model_1_multimer_v3_pred_1,0.185
multimer_trembl_dupl,P10218_O75396,unrelaxed_model_1_multimer_v3_pred_1,0.186
multimer_trembl_dupl,P10218_P10599,unrelaxed_model_1_multimer_v3_pred_1,0.126
multimer_trembl_dupl,P10218_P26373,unrelaxed_model_1_multimer_v3_pred_1,0.043
multimer_trembl_dupl,P10218_P39023,unrelaxed_model_1_multimer_v3_pred_1,0.212
multimer_trembl_dupl,P10218_P60468,unrelaxed_model_1_multimer_v3_pred_1,0.073
multimer_trembl_dupl,P10218_P61353,unrelaxed_model_1_multimer_v3_pred_1,0.193
multimer_trembl_dupl,P10218_Q9UNL2,unrelaxed_model_1_multimer_v3_pred_1,0.109
multimer_trembl_dupl,P10225_P10233,unrelaxed_model_1_multimer_v3_pred_1,0.065
multimer_trembl_dupl,P10228_P09382,unrelaxed_model_1_multimer_v3_pred_1,0.187
multimer_trembl_dupl,P10230_Q9P0L0,unrelaxed_model_1_multimer_v3_pred_1,0.408
multimer_trembl_dupl,P10233_P63104,unrelaxed_model_1_multimer_v3_pred_1,0.158
multimer_trembl_dupl,P10233_P67809,unrelaxed_model_1_multimer_v3_pred_1,0.027
multimer_trembl_dupl,P10233_Q15836,unrelaxed_model_1_multimer_v3_pred_1,0.021
multimer_trembl_dupl,P10233_Q702N8,unrelaxed_model_1_multimer_v3_pred_1,0.029
multimer_trembl_dupl,P10234_P06703,unrelaxed_model_1_multimer_v3_pred_1,0.063
multimer_trembl_dupl,P10234_P57053,unrelaxed_model_1_multimer_v3_pred_1,0.076
multimer_trembl_dupl,P10234_Q99877,unrelaxed_model_1_multimer_v3_pred_1,0.068
multimer_trembl_dupl,P10599_P04487,unrelaxed_model_1_multimer_v3_pred_1,0
multimer_trembl_dupl,P10599_P10226,unrelaxed_model_1_multimer_v3_pred_1,0.176
multimer_trembl_dupl,P10599_P10233,unrelaxed_model_1_multimer_v3_pred_1,0.044
multimer_trembl_dupl,P10599_P10235,unrelaxed_model_1_multimer_v3_pred_1,0.034
multimer_trembl_dupl,P11142_P03170,unrelaxed_model_1_multimer_v3_pred_1,0.202
multimer_trembl_dupl,P11142_P04487,unrelaxed_model_1_multimer_v3_pred_1,0.122
multimer_trembl_dupl,P11142_P10226,unrelaxed_model_1_multimer_v3_pred_1,0.278
multimer_trembl_dupl,P11142_P10233,unrelaxed_model_1_multimer_v3_pred_1,0.215
multimer_trembl_dupl,P11940_P10238,unrelaxed_model_1_multimer_v3_pred_1,0.111
multimer_trembl_dupl,P12004_P10226,unrelaxed_model_1_multimer_v3_pred_1,0.34
multimer_trembl_dupl,P13639_P04487,unrelaxed_model_1_multimer_v3_pred_1,0.031
multimer_trembl_dupl,P13726_P10211,unrelaxed_model_1_multimer_v3_pred_1,0.159
multimer_trembl_dupl,P13797_P10226,unrelaxed_model_1_multimer_v3_pred_1,0.069
multimer_trembl_dupl,P13987_P06484,unrelaxed_model_1_multimer_v3_pred_1,0.052
multimer_trembl_dupl,P13987_P10211,unrelaxed_model_1_multimer_v3_pred_1,0.037
multimer_trembl_dupl,P13987_P10229,unrelaxed_model_1_multimer_v3_pred_1,0.102
multimer_trembl_dupl,P13987_Q69091,unrelaxed_model_1_multimer_v3_pred_1,0.088
multimer_trembl_dupl,P16070_P06487,unrelaxed_model_1_multimer_v3_pred_1,0.076
multimer_trembl_dupl,P16070_P10228,unrelaxed_model_1_multimer_v3_pred_1,0.063
multimer_trembl_dupl,P16070_Q69091,unrelaxed_model_1_multimer_v3_pred_1,0.028
multimer_trembl_dupl,P16104_P10233,unrelaxed_model_1_multimer_v3_pred_1,0.082
multimer_trembl_dupl,P16333_P10233,unrelaxed_model_1_multimer_v3_pred_1,0.151
multimer_trembl_dupl,P16401_P10233,unrelaxed_model_1_multimer_v3_pred_1,0.061
multimer_trembl_dupl,P16402_P10233,unrelaxed_model_1_multimer_v3_pred_1,0.066
multimer_trembl_dupl,P17096_P04487,unrelaxed_model_1_multimer_v3_pred_1,0
multimer_trembl_dupl,P17096_P10226,unrelaxed_model_1_multimer_v3_pred_1,0.019
multimer_trembl_dupl,P17096_P10233,unrelaxed_model_1_multimer_v3_pred_1,0.019
multimer_trembl_dupl,P18085_P04488,unrelaxed_model_1_multimer_v3_pred_1,0.066
multimer_trembl_dupl,P18085_P10211,unrelaxed_model_1_multimer_v3_pred_1,0.48
multimer_trembl_dupl,P18085_Q69091,unrelaxed_model_1_multimer_v3_pred_1,0.073
multimer_trembl_dupl,P18124_P04487,unrelaxed_model_1_multimer_v3_pred_1,0
multimer_trembl_dupl,P20340_P10233,unrelaxed_model_1_multimer_v3_pred_1,0.086
multimer_trembl_dupl,P21291_P04487,unrelaxed_model_1_multimer_v3_pred_1,0.023
multimer_trembl_dupl,P21926_P04488,unrelaxed_model_1_multimer_v3_pred_1,0.1
multimer_trembl_dupl,P21926_P06477,unrelaxed_model_1_multimer_v3_pred_1,0.106
multimer_trembl_dupl,P21926_P10211,unrelaxed_model_1_multimer_v3_pred_1,0.109
multimer_trembl_dupl,P21926_P10229,unrelaxed_model_1_multimer_v3_pred_1,0.183
multimer_trembl_dupl,P22626_P10226,unrelaxed_model_1_multimer_v3_pred_1,0.115
multimer_trembl_dupl,P22626_P10233,unrelaxed_model_1_multimer_v3_pred_1,0.185
multimer_trembl_dupl,P23284_P10229,unrelaxed_model_1_multimer_v3_pred_1,0.129
multimer_trembl_dupl,P23396_P10233,unrelaxed_model_1_multimer_v3_pred_1,0.032
multimer_trembl_dupl,P26373_P10233,unrelaxed_model_1_multimer_v3_pred_1,0.019
multimer_trembl_dupl,P26583_P10233,unrelaxed_model_1_multimer_v3_pred_1,0.093
multimer_trembl_dupl,P27635_P10233,unrelaxed_model_1_multimer_v3_pred_1,0.103
multimer_trembl_dupl,P27797_P03170,unrelaxed_model_1_multimer_v3_pred_1,0.088
multimer_trembl_dupl,P27797_P04488,unrelaxed_model_1_multimer_v3_pred_1,0.093
multimer_trembl_dupl,P27797_P10185,unrelaxed_model_1_multimer_v3_pred_1,0.06
multimer_trembl_dupl,P27797_P10211,unrelaxed_model_1_multimer_v3_pred_1,0.479
multimer_trembl_dupl,P27824_P10211,unrelaxed_model_1_multimer_v3_pred_1,0.203
multimer_trembl_dupl,P27824_P10229,unrelaxed_model_1_multimer_v3_pred_1,0.09
multimer_trembl_dupl,P27824_Q69091,unrelaxed_model_1_multimer_v3_pred_1,0.036
multimer_trembl_dupl,P30050_P04487,unrelaxed_model_1_multimer_v3_pred_1,0
multimer_trembl_dupl,P30050_P10233,unrelaxed_model_1_multimer_v3_pred_1,0.113
multimer_trembl_dupl,P31949_P03170,unrelaxed_model_1_multimer_v3_pred_1,0.153
multimer_trembl_dupl,P31949_P10233,unrelaxed_model_1_multimer_v3_pred_1,0.067
multimer_trembl_dupl,P32969_P10233,unrelaxed_model_1_multimer_v3_pred_1,0.043
multimer_trembl_dupl,P35268_P04487,unrelaxed_model_1_multimer_v3_pred_1,0.019
multimer_trembl_dupl,P35268_P10233,unrelaxed_model_1_multimer_v3_pred_1,0.058
multimer_trembl_dupl,P36578_P04487,unrelaxed_model_1_multimer_v3_pred_1,0.018
multimer_trembl_dupl,P38159_P10233,unrelaxed_model_1_multimer_v3_pred_1,0.049
multimer_trembl_dupl,P39019_P04487,unrelaxed_model_1_multimer_v3_pred_1,0
multimer_trembl_dupl,P39019_P10226,unrelaxed_model_1_multimer_v3_pred_1,0.109
multimer_trembl_dupl,P39023_P04487,unrelaxed_model_1_multimer_v3_pred_1,0.02
multimer_trembl_dupl,P40227_P10226,unrelaxed_model_1_multimer_v3_pred_1,0.159
multimer_trembl_dupl,P40429_P04487,unrelaxed_model_1_multimer_v3_pred_1,0.019
multimer_trembl_dupl,P42766_P04487,unrelaxed_model_1_multimer_v3_pred_1,0
multimer_trembl_dupl,P42766_P10233,unrelaxed_model_1_multimer_v3_pred_1,0.039
multimer_trembl_dupl,P45983_P04294,unrelaxed_model_1_multimer_v3_pred_1,0.475
multimer_trembl_dupl,P46776_P10233,unrelaxed_model_1_multimer_v3_pred_1,0.02
multimer_trembl_dupl,P46779_P04487,unrelaxed_model_1_multimer_v3_pred_1,0
multimer_trembl_dupl,P47914_P04487,unrelaxed_model_1_multimer_v3_pred_1,0
multimer_trembl_dupl,P49207_P10233,unrelaxed_model_1_multimer_v3_pred_1,0.042
multimer_trembl_dupl,P49458_P04487,unrelaxed_model_1_multimer_v3_pred_1,0
multimer_trembl_dupl,P49755_P10229,unrelaxed_model_1_multimer_v3_pred_1,0.089
multimer_trembl_dupl,P50402_P10218,unrelaxed_model_1_multimer_v3_pred_1,0.04
multimer_trembl_dupl,P50454_P10229,unrelaxed_model_1_multimer_v3_pred_1,0.121
multimer_trembl_dupl,P50914_P04487,unrelaxed_model_1_multimer_v3_pred_1,0
multimer_trembl_dupl,P50914_P10233,unrelaxed_model_1_multimer_v3_pred_1,0.026
multimer_trembl_dupl,P52926_P10226,unrelaxed_model_1_multimer_v3_pred_1,0.027
multimer_trembl_dupl,P55010_P10233,unrelaxed_model_1_multimer_v3_pred_1,0.179
multimer_trembl_dupl,P57053_P04487,unrelaxed_model_1_multimer_v3_pred_1,0.019
multimer_trembl_dupl,P57053_P10226,unrelaxed_model_1_multimer_v3_pred_1,0.098
multimer_trembl_dupl,P57053_P10233,unrelaxed_model_1_multimer_v3_pred_1,0.053
multimer_trembl_dupl,P58876_P10233,unrelaxed_model_1_multimer_v3_pred_1,0.042
multimer_trembl_dupl,P60468_P04487,unrelaxed_model_1_multimer_v3_pred_1,0
multimer_trembl_dupl,P60468_P10233,unrelaxed_model_1_multimer_v3_pred_1,0.057
multimer_trembl_dupl,P60709_P04294,unrelaxed_model_1_multimer_v3_pred_1,0.423
multimer_trembl_dupl,P60709_P04296,unrelaxed_model_1_multimer_v3_pred_1,0.202
multimer_trembl_dupl,P60709_P04487,unrelaxed_model_1_multimer_v3_pred_1,0.071
multimer_trembl_dupl,P60709_P06491,unrelaxed_model_1_multimer_v3_pred_1,0.069
multimer_trembl_dupl,P60709_P10226,unrelaxed_model_1_multimer_v3_pred_1,0.664
multimer_trembl_dupl,P60709_P10233,unrelaxed_model_1_multimer_v3_pred_1,0.065
multimer_trembl_dupl,P60953_P06487,unrelaxed_model_1_multimer_v3_pred_1,0.121
multimer_trembl_dupl,P61026_P10233,unrelaxed_model_1_multimer_v3_pred_1,0.058
multimer_trembl_dupl,P61254_P04487,unrelaxed_model_1_multimer_v3_pred_1,0
multimer_trembl_dupl,P61353_P04487,unrelaxed_model_1_multimer_v3_pred_1,0
multimer_trembl_dupl,P61353_P10233,unrelaxed_model_1_multimer_v3_pred_1,0.02
multimer_trembl_dupl,P61513_P10233,unrelaxed_model_1_multimer_v3_pred_1,0.139
multimer_trembl_dupl,P61769_P10211,unrelaxed_model_1_multimer_v3_pred_1,0.083
multimer_trembl_dupl,P61978_P10233,unrelaxed_model_1_multimer_v3_pred_1,0.088
multimer_trembl_dupl,P62136_P10233,unrelaxed_model_1_multimer_v3_pred_1,0.19
multimer_trembl_dupl,P62241_P04487,unrelaxed_model_1_multimer_v3_pred_1,0
multimer_trembl_dupl,P62328_P04487,unrelaxed_model_1_multimer_v3_pred_1,0.02
multimer_trembl_dupl,P62424_P04487,unrelaxed_model_1_multimer_v3_pred_1,0
multimer_trembl_dupl,P62750_P04487,unrelaxed_model_1_multimer_v3_pred_1,0
multimer_trembl_dupl,P62805_P10233,unrelaxed_model_1_multimer_v3_pred_1,0.055
multimer_trembl_dupl,P62820_P10231,unrelaxed_model_1_multimer_v3_pred_1,0.052
multimer_trembl_dupl,P62820_P10233,unrelaxed_model_1_multimer_v3_pred_1,0.041
multimer_trembl_dupl,P62851_P04487,unrelaxed_model_1_multimer_v3_pred_1,0
multimer_trembl_dupl,P62857_P10233,unrelaxed_model_1_multimer_v3_pred_1,0.046
multimer_trembl_dupl,P62888_P10233,unrelaxed_model_1_multimer_v3_pred_1,0.061
multimer_trembl_dupl,P62899_P10233,unrelaxed_model_1_multimer_v3_pred_1,0.051
multimer_trembl_dupl,P62906_P04487,unrelaxed_model_1_multimer_v3_pred_1,0
multimer_trembl_dupl,P62913_P04487,unrelaxed_model_1_multimer_v3_pred_1,0
multimer_trembl_dupl,P62913_P10233,unrelaxed_model_1_multimer_v3_pred_1,0.035
multimer_trembl_dupl,P62917_P10233,unrelaxed_model_1_multimer_v3_pred_1,0.02
multimer_trembl_dupl,P62937_P03170,unrelaxed_model_1_multimer_v3_pred_1,0.069
multimer_trembl_dupl,P62937_P04294,unrelaxed_model_1_multimer_v3_pred_1,0.154
multimer_trembl_dupl,P62937_P04487,unrelaxed_model_1_multimer_v3_pred_1,0.264
multimer_trembl_dupl,P62937_P10226,unrelaxed_model_1_multimer_v3_pred_1,0.097
multimer_trembl_dupl,P62937_P10233,unrelaxed_model_1_multimer_v3_pred_1,0.129
multimer_trembl_dupl,P62942_P04294,unrelaxed_model_1_multimer_v3_pred_1,0.143
multimer_trembl_dupl,P62979_P06485,unrelaxed_model_1_multimer_v3_pred_1,0.168
multimer_trembl_dupl,P62979_P10233,unrelaxed_model_1_multimer_v3_pred_1,0.032
multimer_trembl_dupl,P62993_P10233,unrelaxed_model_1_multimer_v3_pred_1,0.115
multimer_trembl_dupl,P63220_P04487,unrelaxed_model_1_multimer_v3_pred_1,0
multimer_trembl_dupl,P63241_P04487,unrelaxed_model_1_multimer_v3_pred_1,0
multimer_trembl_dupl,P63241_P10233,unrelaxed_model_1_multimer_v3_pred_1,0.242
multimer_trembl_dupl,P67870_P10233,unrelaxed_model_1_multimer_v3_pred_1,0.168
multimer_trembl_dupl,P68104_P03170,unrelaxed_model_1_multimer_v3_pred_1,0.059
multimer_trembl_dupl,P68104_P04487,unrelaxed_model_1_multimer_v3_pred_1,0.029
multimer_trembl_dupl,P68104_P10233,unrelaxed_model_1_multimer_v3_pred_1,0.097
multimer_trembl_dupl,P68400_P10233,unrelaxed_model_1_multimer_v3_pred_1,0.131
multimer_trembl_dupl,P83731_P04487,unrelaxed_model_1_multimer_v3_pred_1,0
multimer_trembl_dupl,P83731_P10233,unrelaxed_model_1_multimer_v3_pred_1,0.019
multimer_trembl_dupl,P84077_P10233,unrelaxed_model_1_multimer_v3_pred_1,0.069
multimer_trembl_dupl,P84243_P04487,unrelaxed_model_1_multimer_v3_pred_1,0.025
multimer_trembl_dupl,P84243_P10226,unrelaxed_model_1_multimer_v3_pred_1,0.042
multimer_trembl_dupl,P84243_P10233,unrelaxed_model_1_multimer_v3_pred_1,0.032
multimer_trembl_dupl,Q00341_P04487,unrelaxed_model_1_multimer_v3_pred_1,0.02
multimer_trembl_dupl,Q00839_P10226,unrelaxed_model_1_multimer_v3_pred_1,0.095
multimer_trembl_dupl,Q01105_P04487,unrelaxed_model_1_multimer_v3_pred_1,0.022
multimer_trembl_dupl,Q01105_P10233,unrelaxed_model_1_multimer_v3_pred_1,0.185
multimer_trembl_dupl,Q02543_P04487,unrelaxed_model_1_multimer_v3_pred_1,0.163
multimer_trembl_dupl,Q02818_P10220,unrelaxed_model_1_multimer_v3_pred_1,0.115
multimer_trembl_dupl,Q02878_P04487,unrelaxed_model_1_multimer_v3_pred_1,0.021
multimer_trembl_dupl,Q03518_P03170,unrelaxed_model_1_multimer_v3_pred_1,0.088
multimer_trembl_dupl,Q05639_P04487,unrelaxed_model_1_multimer_v3_pred_1,0.026
multimer_trembl_dupl,Q06830_P10226,unrelaxed_model_1_multimer_v3_pred_1,0.027
multimer_trembl_dupl,Q07020_P04487,unrelaxed_model_1_multimer_v3_pred_1,0
multimer_trembl_dupl,Q07020_P10233,unrelaxed_model_1_multimer_v3_pred_1,0.092
multimer_trembl_dupl,Q10472_P04488,unrelaxed_model_1_multimer_v3_pred_1,0.276
multimer_trembl_dupl,Q13123_P10233,unrelaxed_model_1_multimer_v3_pred_1,0.078
multimer_trembl_dupl,Q13641_P10229,unrelaxed_model_1_multimer_v3_pred_1,0.175
multimer_trembl_dupl,Q14011_P10233,unrelaxed_model_1_multimer_v3_pred_1,0.04
multimer_trembl_dupl,Q14697_P10211,unrelaxed_model_1_multimer_v3_pred_1,0.396
multimer_trembl_dupl,Q14847_P10233,unrelaxed_model_1_multimer_v3_pred_1,0.309
multimer_trembl_dupl,Q15056_P10225,unrelaxed_model_1_multimer_v3_pred_1,0.348
multimer_trembl_dupl,Q15056_P10231,unrelaxed_model_1_multimer_v3_pred_1,0.035
multimer_trembl_dupl,Q15056_P10233,unrelaxed_model_1_multimer_v3_pred_1,0.058
multimer_trembl_dupl,Q15691_P10233,unrelaxed_model_1_multimer_v3_pred_1,0.024
multimer_trembl_dupl,Q16531_P10231,unrelaxed_model_1_multimer_v3_pred_1,0.333
multimer_trembl_dupl,Q16777_P10233,unrelaxed_model_1_multimer_v3_pred_1,0.083
multimer_trembl_dupl,Q1KMD3_P10226,unrelaxed_model_1_multimer_v3_pred_1,0.031
multimer_trembl_dupl,Q5QNW6_P10233,unrelaxed_model_1_multimer_v3_pred_1,0.049
multimer_trembl_dupl,Q5VW38_P10229,unrelaxed_model_1_multimer_v3_pred_1,0.293
multimer_trembl_dupl,Q69091_P09382,unrelaxed_model_1_multimer_v3_pred_1,0.047
multimer_trembl_dupl,Q69091_P11021,unrelaxed_model_1_multimer_v3_pred_1,0.148
multimer_trembl_dupl,Q69091_P27105,unrelaxed_model_1_multimer_v3_pred_1,0.48
multimer_trembl_dupl,Q69091_P61224,unrelaxed_model_1_multimer_v3_pred_1,0.176
multimer_trembl_dupl,Q69091_Q12907,unrelaxed_model_1_multimer_v3_pred_1,0.192
multimer_trembl_dupl,Q69091_Q92835,unrelaxed_model_1_multimer_v3_pred_1,0.526
multimer_trembl_dupl,Q6NZI2_P10233,unrelaxed_model_1_multimer_v3_pred_1,0.044
multimer_trembl_dupl,Q70UQ0_P10218,unrelaxed_model_1_multimer_v3_pred_1,0
multimer_trembl_dupl,Q71DI3_P10233,unrelaxed_model_1_multimer_v3_pred_1,0.052
multimer_trembl_dupl,Q7Z7H5_P10229,unrelaxed_model_1_multimer_v3_pred_1,0.052
multimer_trembl_dupl,Q8WWI1_P08543,unrelaxed_model_1_multimer_v3_pred_1,0.037
multimer_trembl_dupl,Q93077_P10233,unrelaxed_model_1_multimer_v3_pred_1,0.109
multimer_trembl_dupl,Q96AG4_P10218,unrelaxed_model_1_multimer_v3_pred_1,0.091
multimer_trembl_dupl,Q99877_P03170,unrelaxed_model_1_multimer_v3_pred_1,0.083
multimer_trembl_dupl,Q99877_P04294,unrelaxed_model_1_multimer_v3_pred_1,0.035
multimer_trembl_dupl,Q99877_P04485,unrelaxed_model_1_multimer_v3_pred_1,0.048
multimer_trembl_dupl,Q99877_P04487,unrelaxed_model_1_multimer_v3_pred_1,0.032
multimer_trembl_dupl,Q99877_P10226,unrelaxed_model_1_multimer_v3_pred_1,0.085
multimer_trembl_dupl,Q99877_P10231,unrelaxed_model_1_multimer_v3_pred_1,0.051
multimer_trembl_dupl,Q99877_P10233,unrelaxed_model_1_multimer_v3_pred_1,0.042
multimer_trembl_dupl,Q99878_P10233,unrelaxed_model_1_multimer_v3_pred_1,0.066
multimer_trembl_dupl,Q99879_P10233,unrelaxed_model_1_multimer_v3_pred_1,0.038
multimer_trembl_dupl,Q99880_P10233,unrelaxed_model_1_multimer_v3_pred_1,0.038
multimer_trembl_dupl,Q9BS26_P10211,unrelaxed_model_1_multimer_v3_pred_1,0.098
multimer_trembl_dupl,Q9BVK6_P10229,unrelaxed_model_1_multimer_v3_pred_1,0.084
multimer_trembl_dupl,Q9BXS5_P04488,unrelaxed_model_1_multimer_v3_pred_1,0.138
multimer_trembl_dupl,Q9GZQ8_P10233,unrelaxed_model_1_multimer_v3_pred_1,0.121
multimer_trembl_dupl,Q9H0U4_P10231,unrelaxed_model_1_multimer_v3_pred_1,0.047
multimer_trembl_dupl,Q9H0U4_P10233,unrelaxed_model_1_multimer_v3_pred_1,0.041
multimer_trembl_dupl,Q9H299_P10233,unrelaxed_model_1_multimer_v3_pred_1,0.064
multimer_trembl_dupl,Q9H3P7_P04488,unrelaxed_model_1_multimer_v3_pred_1,0.234
multimer_trembl_dupl,Q9HDC9_P10211,unrelaxed_model_1_multimer_v3_pred_1,0.329
multimer_trembl_dupl,Q9NR12_P10233,unrelaxed_model_1_multimer_v3_pred_1,0.033
multimer_trembl_dupl,Q9P2E9_P04487,unrelaxed_model_1_multimer_v3_pred_1,0.019
multimer_trembl_dupl,Q9Y224_P10233,unrelaxed_model_1_multimer_v3_pred_1,0.039
