multimer_family_dupl25,O00299_P04487,unrelaxed_model_1_multimer_v3_pred_1,0.674956,0.674959
multimer_family_dupl25,O00299_P04487,unrelaxed_model_1_multimer_v3_pred_2,0.684766,0.684769
multimer_family_dupl25,O00299_P04487,unrelaxed_model_1_multimer_v3_pred_3,0.672192,0.672194
multimer_family_dupl25,O00299_P04487,unrelaxed_model_1_multimer_v3_pred_4,0.662643,0.662646
multimer_family_dupl25,O00299_P04487,unrelaxed_model_1_multimer_v3_pred_5,0.673055,0.673058
multimer_family_dupl25,O00299_P04487,unrelaxed_model_2_multimer_v3_pred_1,0.642436,0.642439
multimer_family_dupl25,O00299_P04487,unrelaxed_model_2_multimer_v3_pred_2,0.653273,0.653276
multimer_family_dupl25,O00299_P04487,unrelaxed_model_2_multimer_v3_pred_3,0.661519,0.661522
multimer_family_dupl25,O00299_P04487,unrelaxed_model_2_multimer_v3_pred_4,0.642803,0.642806
multimer_family_dupl25,O00299_P04487,unrelaxed_model_2_multimer_v3_pred_5,0.666108,0.66611
multimer_family_dupl25,O00299_P04487,unrelaxed_model_3_multimer_v3_pred_1,0.664528,0.664531
multimer_family_dupl25,O00299_P04487,unrelaxed_model_3_multimer_v3_pred_2,0.678015,0.678018
multimer_family_dupl25,O00299_P04487,unrelaxed_model_3_multimer_v3_pred_3,0.678997,0.679
multimer_family_dupl25,O00299_P04487,unrelaxed_model_3_multimer_v3_pred_4,0.677551,0.677554
multimer_family_dupl25,O00299_P04487,unrelaxed_model_3_multimer_v3_pred_5,0.687311,0.687314
multimer_family_dupl25,O00299_P04487,unrelaxed_model_4_multimer_v3_pred_1,0.670614,0.670616
multimer_family_dupl25,O00299_P04487,unrelaxed_model_4_multimer_v3_pred_2,0.669424,0.669427
multimer_family_dupl25,O00299_P04487,unrelaxed_model_4_multimer_v3_pred_3,0.671928,0.671931
multimer_family_dupl25,O00299_P04487,unrelaxed_model_4_multimer_v3_pred_4,0.666441,0.666444
multimer_family_dupl25,O00299_P04487,unrelaxed_model_4_multimer_v3_pred_5,0.669889,0.669892
multimer_family_dupl25,O00299_P04487,unrelaxed_model_5_multimer_v3_pred_1,0.64269,0.642693
multimer_family_dupl25,O00299_P04487,unrelaxed_model_5_multimer_v3_pred_2,0.649692,0.649694
multimer_family_dupl25,O00299_P04487,unrelaxed_model_5_multimer_v3_pred_3,0.642711,0.642714
multimer_family_dupl25,O00299_P04487,unrelaxed_model_5_multimer_v3_pred_4,0.640618,0.640621
multimer_family_dupl25,O00299_P04487,unrelaxed_model_5_multimer_v3_pred_5,0.648669,0.648672
multimer_family_dupl25,O43169_P04488,unrelaxed_model_1_multimer_v3_pred_1,0.399454,0.399457
multimer_family_dupl25,O43169_P04488,unrelaxed_model_1_multimer_v3_pred_2,0.361578,0.361581
multimer_family_dupl25,O43169_P04488,unrelaxed_model_1_multimer_v3_pred_3,0.4295,0.429503
multimer_family_dupl25,O43169_P04488,unrelaxed_model_1_multimer_v3_pred_4,0.393412,0.393415
multimer_family_dupl25,O43169_P04488,unrelaxed_model_1_multimer_v3_pred_5,0.363137,0.36314
multimer_family_dupl25,O43169_P04488,unrelaxed_model_2_multimer_v3_pred_1,0.409139,0.409142
multimer_family_dupl25,O43169_P04488,unrelaxed_model_2_multimer_v3_pred_2,0.450801,0.450804
multimer_family_dupl25,O43169_P04488,unrelaxed_model_2_multimer_v3_pred_3,0.470931,0.470934
multimer_family_dupl25,O43169_P04488,unrelaxed_model_2_multimer_v3_pred_4,0.471635,0.471638
multimer_family_dupl25,O43169_P04488,unrelaxed_model_2_multimer_v3_pred_5,0.453944,0.453947
multimer_family_dupl25,O43169_P04488,unrelaxed_model_3_multimer_v3_pred_1,0.386921,0.386924
multimer_family_dupl25,O43169_P04488,unrelaxed_model_3_multimer_v3_pred_2,0.380508,0.380511
multimer_family_dupl25,O43169_P04488,unrelaxed_model_3_multimer_v3_pred_3,0.427848,0.42785
multimer_family_dupl25,O43169_P04488,unrelaxed_model_3_multimer_v3_pred_4,0.373902,0.373904
multimer_family_dupl25,O43169_P04488,unrelaxed_model_3_multimer_v3_pred_5,0.380148,0.380151
multimer_family_dupl25,O43169_P04488,unrelaxed_model_4_multimer_v3_pred_1,0.437544,0.437546
multimer_family_dupl25,O43169_P04488,unrelaxed_model_4_multimer_v3_pred_2,0.35806,0.358063
multimer_family_dupl25,O43169_P04488,unrelaxed_model_4_multimer_v3_pred_3,0.427298,0.427301
multimer_family_dupl25,O43169_P04488,unrelaxed_model_4_multimer_v3_pred_4,0.457819,0.457822
multimer_family_dupl25,O43169_P04488,unrelaxed_model_4_multimer_v3_pred_5,0.441526,0.441528
multimer_family_dupl25,O43169_P04488,unrelaxed_model_5_multimer_v3_pred_1,0.454836,0.454839
multimer_family_dupl25,O43169_P04488,unrelaxed_model_5_multimer_v3_pred_2,0.417672,0.417675
multimer_family_dupl25,O43169_P04488,unrelaxed_model_5_multimer_v3_pred_3,0.450478,0.45048
multimer_family_dupl25,O43169_P04488,unrelaxed_model_5_multimer_v3_pred_4,0.474403,0.474406
multimer_family_dupl25,O43169_P04488,unrelaxed_model_5_multimer_v3_pred_5,0.448874,0.448877
multimer_family_dupl25,O43169_P10218,unrelaxed_model_1_multimer_v3_pred_1,0.602934,0.602937
multimer_family_dupl25,O43169_P10218,unrelaxed_model_1_multimer_v3_pred_2,0.571075,0.571078
multimer_family_dupl25,O43169_P10218,unrelaxed_model_1_multimer_v3_pred_3,0.508303,0.508306
multimer_family_dupl25,O43169_P10218,unrelaxed_model_1_multimer_v3_pred_4,0.531505,0.531508
multimer_family_dupl25,O43169_P10218,unrelaxed_model_1_multimer_v3_pred_5,0.498204,0.498207
multimer_family_dupl25,O43169_P10218,unrelaxed_model_2_multimer_v3_pred_1,0.613202,0.613205
multimer_family_dupl25,O43169_P10218,unrelaxed_model_2_multimer_v3_pred_2,0.616984,0.616986
multimer_family_dupl25,O43169_P10218,unrelaxed_model_2_multimer_v3_pred_3,0.616161,0.616164
multimer_family_dupl25,O43169_P10218,unrelaxed_model_2_multimer_v3_pred_4,0.618992,0.618994
multimer_family_dupl25,O43169_P10218,unrelaxed_model_2_multimer_v3_pred_5,0.50692,0.506922
multimer_family_dupl25,O43169_P10218,unrelaxed_model_3_multimer_v3_pred_1,0.618365,0.618368
multimer_family_dupl25,O43169_P10218,unrelaxed_model_3_multimer_v3_pred_2,0.613879,0.613882
multimer_family_dupl25,O43169_P10218,unrelaxed_model_3_multimer_v3_pred_3,0.622264,0.622267
multimer_family_dupl25,O43169_P10218,unrelaxed_model_3_multimer_v3_pred_4,0.619646,0.619649
multimer_family_dupl25,O43169_P10218,unrelaxed_model_3_multimer_v3_pred_5,0.608836,0.608839
multimer_family_dupl25,O43169_P10218,unrelaxed_model_4_multimer_v3_pred_1,0.618778,0.61878
multimer_family_dupl25,O43169_P10218,unrelaxed_model_4_multimer_v3_pred_2,0.607939,0.607942
multimer_family_dupl25,O43169_P10218,unrelaxed_model_4_multimer_v3_pred_3,0.60364,0.603642
multimer_family_dupl25,O43169_P10218,unrelaxed_model_4_multimer_v3_pred_4,0.587762,0.587764
multimer_family_dupl25,O43169_P10218,unrelaxed_model_4_multimer_v3_pred_5,0.59851,0.598513
multimer_family_dupl25,O43169_P10218,unrelaxed_model_5_multimer_v3_pred_1,0.567728,0.567731
multimer_family_dupl25,O43169_P10218,unrelaxed_model_5_multimer_v3_pred_2,0.510489,0.510492
multimer_family_dupl25,O43169_P10218,unrelaxed_model_5_multimer_v3_pred_3,0.593514,0.593517
multimer_family_dupl25,O43169_P10218,unrelaxed_model_5_multimer_v3_pred_4,0.505582,0.505584
multimer_family_dupl25,O43169_P10218,unrelaxed_model_5_multimer_v3_pred_5,0.604749,0.604752
multimer_family_dupl25,O43852_P10185,unrelaxed_model_1_multimer_v3_pred_1,0.591603,0.591606
multimer_family_dupl25,O43852_P10185,unrelaxed_model_1_multimer_v3_pred_2,0.587986,0.587989
multimer_family_dupl25,O43852_P10185,unrelaxed_model_1_multimer_v3_pred_3,0.607324,0.607326
multimer_family_dupl25,O43852_P10185,unrelaxed_model_1_multimer_v3_pred_4,0.561622,0.561625
multimer_family_dupl25,O43852_P10185,unrelaxed_model_1_multimer_v3_pred_5,0.604934,0.604937
multimer_family_dupl25,O43852_P10185,unrelaxed_model_2_multimer_v3_pred_1,0.591688,0.591691
multimer_family_dupl25,O43852_P10185,unrelaxed_model_2_multimer_v3_pred_2,0.581313,0.581316
multimer_family_dupl25,O43852_P10185,unrelaxed_model_2_multimer_v3_pred_3,0.562722,0.562725
multimer_family_dupl25,O43852_P10185,unrelaxed_model_2_multimer_v3_pred_4,0.591295,0.591298
multimer_family_dupl25,O43852_P10185,unrelaxed_model_2_multimer_v3_pred_5,0.568224,0.568226
multimer_family_dupl25,O43852_P10185,unrelaxed_model_3_multimer_v3_pred_1,0.572255,0.572258
multimer_family_dupl25,O43852_P10185,unrelaxed_model_3_multimer_v3_pred_2,0.590004,0.590007
multimer_family_dupl25,O43852_P10185,unrelaxed_model_3_multimer_v3_pred_3,0.572542,0.572545
multimer_family_dupl25,O43852_P10185,unrelaxed_model_3_multimer_v3_pred_4,0.56596,0.565963
multimer_family_dupl25,O43852_P10185,unrelaxed_model_3_multimer_v3_pred_5,0.576779,0.576782
multimer_family_dupl25,O43852_P10185,unrelaxed_model_4_multimer_v3_pred_1,0.598428,0.59843
multimer_family_dupl25,O43852_P10185,unrelaxed_model_4_multimer_v3_pred_2,0.603699,0.603702
multimer_family_dupl25,O43852_P10185,unrelaxed_model_4_multimer_v3_pred_3,0.609928,0.609931
multimer_family_dupl25,O43852_P10185,unrelaxed_model_4_multimer_v3_pred_4,0.595436,0.595438
multimer_family_dupl25,O43852_P10185,unrelaxed_model_4_multimer_v3_pred_5,0.578678,0.578681
multimer_family_dupl25,O43852_P10185,unrelaxed_model_5_multimer_v3_pred_1,0.551956,0.551958
multimer_family_dupl25,O43852_P10185,unrelaxed_model_5_multimer_v3_pred_2,0.572299,0.572302
multimer_family_dupl25,O43852_P10185,unrelaxed_model_5_multimer_v3_pred_3,0.570702,0.570705
multimer_family_dupl25,O43852_P10185,unrelaxed_model_5_multimer_v3_pred_4,0.557469,0.557472
multimer_family_dupl25,O43852_P10185,unrelaxed_model_5_multimer_v3_pred_5,0.58448,0.584483
multimer_family_dupl25,O43852_P10211,unrelaxed_model_1_multimer_v3_pred_1,0.528184,0.528187
multimer_family_dupl25,O43852_P10211,unrelaxed_model_1_multimer_v3_pred_2,0.51063,0.510632
multimer_family_dupl25,O43852_P10211,unrelaxed_model_1_multimer_v3_pred_3,0.481726,0.481729
multimer_family_dupl25,O43852_P10211,unrelaxed_model_1_multimer_v3_pred_4,0.520472,0.520475
multimer_family_dupl25,O43852_P10211,unrelaxed_model_1_multimer_v3_pred_5,0.536369,0.536372
multimer_family_dupl25,O43852_P10211,unrelaxed_model_2_multimer_v3_pred_1,0.468486,0.468488
multimer_family_dupl25,O43852_P10211,unrelaxed_model_2_multimer_v3_pred_2,0.432676,0.432679
multimer_family_dupl25,O43852_P10211,unrelaxed_model_2_multimer_v3_pred_3,0.478272,0.478275
multimer_family_dupl25,O43852_P10211,unrelaxed_model_2_multimer_v3_pred_4,0.400105,0.400108
multimer_family_dupl25,O43852_P10211,unrelaxed_model_2_multimer_v3_pred_5,0.415534,0.415537
multimer_family_dupl25,O43852_P10211,unrelaxed_model_3_multimer_v3_pred_1,0.511992,0.511995
multimer_family_dupl25,O43852_P10211,unrelaxed_model_3_multimer_v3_pred_2,0.540612,0.540614
multimer_family_dupl25,O43852_P10211,unrelaxed_model_3_multimer_v3_pred_3,0.512987,0.51299
multimer_family_dupl25,O43852_P10211,unrelaxed_model_3_multimer_v3_pred_4,0.500322,0.500325
multimer_family_dupl25,O43852_P10211,unrelaxed_model_3_multimer_v3_pred_5,0.536173,0.536176
multimer_family_dupl25,O43852_P10211,unrelaxed_model_4_multimer_v3_pred_1,0.44924,0.449242
multimer_family_dupl25,O43852_P10211,unrelaxed_model_4_multimer_v3_pred_2,0.523291,0.523294
multimer_family_dupl25,O43852_P10211,unrelaxed_model_4_multimer_v3_pred_3,0.414534,0.414536
multimer_family_dupl25,O43852_P10211,unrelaxed_model_4_multimer_v3_pred_4,0.445741,0.445744
multimer_family_dupl25,O43852_P10211,unrelaxed_model_4_multimer_v3_pred_5,0.533064,0.533066
multimer_family_dupl25,O43852_P10211,unrelaxed_model_5_multimer_v3_pred_1,0.540747,0.54075
multimer_family_dupl25,O43852_P10211,unrelaxed_model_5_multimer_v3_pred_2,0.50509,0.505092
multimer_family_dupl25,O43852_P10211,unrelaxed_model_5_multimer_v3_pred_3,0.44873,0.448733
multimer_family_dupl25,O43852_P10211,unrelaxed_model_5_multimer_v3_pred_4,0.49362,0.493623
multimer_family_dupl25,O43852_P10211,unrelaxed_model_5_multimer_v3_pred_5,0.538874,0.538877
multimer_family_dupl25,O75396_P04487,unrelaxed_model_1_multimer_v3_pred_1,0.495206,0.495209
multimer_family_dupl25,O75396_P04487,unrelaxed_model_1_multimer_v3_pred_2,0.520277,0.52028
multimer_family_dupl25,O75396_P04487,unrelaxed_model_1_multimer_v3_pred_3,0.491509,0.491512
multimer_family_dupl25,O75396_P04487,unrelaxed_model_1_multimer_v3_pred_4,0.496184,0.496186
multimer_family_dupl25,O75396_P04487,unrelaxed_model_1_multimer_v3_pred_5,0.495276,0.495279
multimer_family_dupl25,O75396_P04487,unrelaxed_model_2_multimer_v3_pred_1,0.532079,0.532082
multimer_family_dupl25,O75396_P04487,unrelaxed_model_2_multimer_v3_pred_2,0.52346,0.523463
multimer_family_dupl25,O75396_P04487,unrelaxed_model_2_multimer_v3_pred_3,0.521615,0.521618
multimer_family_dupl25,O75396_P04487,unrelaxed_model_2_multimer_v3_pred_4,0.520253,0.520256
multimer_family_dupl25,O75396_P04487,unrelaxed_model_2_multimer_v3_pred_5,0.523832,0.523835
multimer_family_dupl25,O75396_P04487,unrelaxed_model_3_multimer_v3_pred_1,0.534448,0.534451
multimer_family_dupl25,O75396_P04487,unrelaxed_model_3_multimer_v3_pred_2,0.515511,0.515514
multimer_family_dupl25,O75396_P04487,unrelaxed_model_3_multimer_v3_pred_3,0.521936,0.521939
multimer_family_dupl25,O75396_P04487,unrelaxed_model_3_multimer_v3_pred_4,0.537316,0.537319
multimer_family_dupl25,O75396_P04487,unrelaxed_model_3_multimer_v3_pred_5,0.5401,0.540103
multimer_family_dupl25,O75396_P04487,unrelaxed_model_4_multimer_v3_pred_1,0.515321,0.515324
multimer_family_dupl25,O75396_P04487,unrelaxed_model_4_multimer_v3_pred_2,0.504275,0.504278
multimer_family_dupl25,O75396_P04487,unrelaxed_model_4_multimer_v3_pred_3,0.518458,0.51846
multimer_family_dupl25,O75396_P04487,unrelaxed_model_4_multimer_v3_pred_4,0.515291,0.515294
multimer_family_dupl25,O75396_P04487,unrelaxed_model_4_multimer_v3_pred_5,0.502117,0.50212
multimer_family_dupl25,O75396_P04487,unrelaxed_model_5_multimer_v3_pred_1,0.515744,0.515746
multimer_family_dupl25,O75396_P04487,unrelaxed_model_5_multimer_v3_pred_2,0.502932,0.502935
multimer_family_dupl25,O75396_P04487,unrelaxed_model_5_multimer_v3_pred_3,0.513412,0.513415
multimer_family_dupl25,O75396_P04487,unrelaxed_model_5_multimer_v3_pred_4,0.498792,0.498795
multimer_family_dupl25,O75396_P04487,unrelaxed_model_5_multimer_v3_pred_5,0.515393,0.515396
multimer_family_dupl25,O75531_P10233,unrelaxed_model_1_multimer_v3_pred_1,0.421539,0.421542
multimer_family_dupl25,O75531_P10233,unrelaxed_model_1_multimer_v3_pred_2,0.421834,0.421837
multimer_family_dupl25,O75531_P10233,unrelaxed_model_1_multimer_v3_pred_3,0.36953,0.369533
multimer_family_dupl25,O75531_P10233,unrelaxed_model_1_multimer_v3_pred_4,0.417311,0.417314
multimer_family_dupl25,O75531_P10233,unrelaxed_model_1_multimer_v3_pred_5,0.413766,0.413768
multimer_family_dupl25,O75531_P10233,unrelaxed_model_2_multimer_v3_pred_1,0.418126,0.418129
multimer_family_dupl25,O75531_P10233,unrelaxed_model_2_multimer_v3_pred_2,0.40953,0.409533
multimer_family_dupl25,O75531_P10233,unrelaxed_model_2_multimer_v3_pred_3,0.420738,0.420741
multimer_family_dupl25,O75531_P10233,unrelaxed_model_2_multimer_v3_pred_4,0.422543,0.422546
multimer_family_dupl25,O75531_P10233,unrelaxed_model_2_multimer_v3_pred_5,0.412272,0.412275
multimer_family_dupl25,O75531_P10233,unrelaxed_model_3_multimer_v3_pred_1,0.3871,0.387103
multimer_family_dupl25,O75531_P10233,unrelaxed_model_3_multimer_v3_pred_2,0.389324,0.389327
multimer_family_dupl25,O75531_P10233,unrelaxed_model_3_multimer_v3_pred_3,0.375344,0.375347
multimer_family_dupl25,O75531_P10233,unrelaxed_model_3_multimer_v3_pred_4,0.380594,0.380596
multimer_family_dupl25,O75531_P10233,unrelaxed_model_3_multimer_v3_pred_5,0.379047,0.37905
multimer_family_dupl25,O75531_P10233,unrelaxed_model_4_multimer_v3_pred_1,0.369032,0.369034
multimer_family_dupl25,O75531_P10233,unrelaxed_model_4_multimer_v3_pred_2,0.349331,0.349334
multimer_family_dupl25,O75531_P10233,unrelaxed_model_4_multimer_v3_pred_3,0.325919,0.325922
multimer_family_dupl25,O75531_P10233,unrelaxed_model_4_multimer_v3_pred_4,0.372001,0.372004
multimer_family_dupl25,O75531_P10233,unrelaxed_model_4_multimer_v3_pred_5,0.370916,0.370918
multimer_family_dupl25,O75531_P10233,unrelaxed_model_5_multimer_v3_pred_1,0.414724,0.414726
multimer_family_dupl25,O75531_P10233,unrelaxed_model_5_multimer_v3_pred_2,0.403346,0.403349
multimer_family_dupl25,O75531_P10233,unrelaxed_model_5_multimer_v3_pred_3,0.405924,0.405927
multimer_family_dupl25,O75531_P10233,unrelaxed_model_5_multimer_v3_pred_4,0.399734,0.399737
multimer_family_dupl25,O75531_P10233,unrelaxed_model_5_multimer_v3_pred_5,0.406001,0.406004
multimer_family_dupl25,P00338_P04487,unrelaxed_model_1_multimer_v3_pred_1,0.736561,0.736564
multimer_family_dupl25,P00338_P04487,unrelaxed_model_1_multimer_v3_pred_2,0.724926,0.724929
multimer_family_dupl25,P00338_P04487,unrelaxed_model_1_multimer_v3_pred_3,0.740646,0.740649
multimer_family_dupl25,P00338_P04487,unrelaxed_model_1_multimer_v3_pred_4,0.72603,0.726033
multimer_family_dupl25,P00338_P04487,unrelaxed_model_1_multimer_v3_pred_5,0.736846,0.736849
multimer_family_dupl25,P00338_P04487,unrelaxed_model_2_multimer_v3_pred_1,0.743842,0.743845
multimer_family_dupl25,P00338_P04487,unrelaxed_model_2_multimer_v3_pred_2,0.739744,0.739747
multimer_family_dupl25,P00338_P04487,unrelaxed_model_2_multimer_v3_pred_3,0.737598,0.7376
multimer_family_dupl25,P00338_P04487,unrelaxed_model_2_multimer_v3_pred_4,0.740041,0.740044
multimer_family_dupl25,P00338_P04487,unrelaxed_model_2_multimer_v3_pred_5,0.744116,0.744119
multimer_family_dupl25,P00338_P04487,unrelaxed_model_3_multimer_v3_pred_1,0.732972,0.732974
multimer_family_dupl25,P00338_P04487,unrelaxed_model_3_multimer_v3_pred_2,0.728228,0.72823
multimer_family_dupl25,P00338_P04487,unrelaxed_model_3_multimer_v3_pred_3,0.750366,0.750368
multimer_family_dupl25,P00338_P04487,unrelaxed_model_3_multimer_v3_pred_4,0.74007,0.740073
multimer_family_dupl25,P00338_P04487,unrelaxed_model_3_multimer_v3_pred_5,0.745154,0.745157
multimer_family_dupl25,P00338_P04487,unrelaxed_model_4_multimer_v3_pred_1,0.757578,0.757581
multimer_family_dupl25,P00338_P04487,unrelaxed_model_4_multimer_v3_pred_2,0.756104,0.756107
multimer_family_dupl25,P00338_P04487,unrelaxed_model_4_multimer_v3_pred_3,0.753259,0.753262
multimer_family_dupl25,P00338_P04487,unrelaxed_model_4_multimer_v3_pred_4,0.762008,0.762011
multimer_family_dupl25,P00338_P04487,unrelaxed_model_4_multimer_v3_pred_5,0.760746,0.760749
multimer_family_dupl25,P00338_P04487,unrelaxed_model_5_multimer_v3_pred_1,0.749513,0.749516
multimer_family_dupl25,P00338_P04487,unrelaxed_model_5_multimer_v3_pred_2,0.756844,0.756847
multimer_family_dupl25,P00338_P04487,unrelaxed_model_5_multimer_v3_pred_3,0.739622,0.739625
multimer_family_dupl25,P00338_P04487,unrelaxed_model_5_multimer_v3_pred_4,0.75727,0.757273
multimer_family_dupl25,P00338_P04487,unrelaxed_model_5_multimer_v3_pred_5,0.742406,0.742408
multimer_family_dupl25,P00387_P04488,unrelaxed_model_1_multimer_v3_pred_1,0.450653,0.450656
multimer_family_dupl25,P00387_P04488,unrelaxed_model_1_multimer_v3_pred_2,0.456491,0.456494
multimer_family_dupl25,P00387_P04488,unrelaxed_model_1_multimer_v3_pred_3,0.502367,0.50237
multimer_family_dupl25,P00387_P04488,unrelaxed_model_1_multimer_v3_pred_4,0.4858,0.485803
multimer_family_dupl25,P00387_P04488,unrelaxed_model_1_multimer_v3_pred_5,0.475726,0.475729
multimer_family_dupl25,P00387_P04488,unrelaxed_model_2_multimer_v3_pred_1,0.515277,0.51528
multimer_family_dupl25,P00387_P04488,unrelaxed_model_2_multimer_v3_pred_2,0.461298,0.4613
multimer_family_dupl25,P00387_P04488,unrelaxed_model_2_multimer_v3_pred_3,0.470216,0.470218
multimer_family_dupl25,P00387_P04488,unrelaxed_model_2_multimer_v3_pred_4,0.523703,0.523706
multimer_family_dupl25,P00387_P04488,unrelaxed_model_2_multimer_v3_pred_5,0.451885,0.451888
multimer_family_dupl25,P00387_P04488,unrelaxed_model_3_multimer_v3_pred_1,0.423874,0.423876
multimer_family_dupl25,P00387_P04488,unrelaxed_model_3_multimer_v3_pred_2,0.446569,0.446572
multimer_family_dupl25,P00387_P04488,unrelaxed_model_3_multimer_v3_pred_3,0.490767,0.49077
multimer_family_dupl25,P00387_P04488,unrelaxed_model_3_multimer_v3_pred_4,0.485972,0.485975
multimer_family_dupl25,P00387_P04488,unrelaxed_model_3_multimer_v3_pred_5,0.504941,0.504944
multimer_family_dupl25,P00387_P04488,unrelaxed_model_4_multimer_v3_pred_1,0.497018,0.497021
multimer_family_dupl25,P00387_P04488,unrelaxed_model_4_multimer_v3_pred_2,0.509676,0.509678
multimer_family_dupl25,P00387_P04488,unrelaxed_model_4_multimer_v3_pred_3,0.495014,0.495017
multimer_family_dupl25,P00387_P04488,unrelaxed_model_4_multimer_v3_pred_4,0.514861,0.514864
multimer_family_dupl25,P00387_P04488,unrelaxed_model_4_multimer_v3_pred_5,0.463499,0.463502
multimer_family_dupl25,P00387_P04488,unrelaxed_model_5_multimer_v3_pred_1,0.448346,0.448349
multimer_family_dupl25,P00387_P04488,unrelaxed_model_5_multimer_v3_pred_2,0.466581,0.466584
multimer_family_dupl25,P00387_P04488,unrelaxed_model_5_multimer_v3_pred_3,0.450404,0.450406
multimer_family_dupl25,P00387_P04488,unrelaxed_model_5_multimer_v3_pred_4,0.440133,0.440136
multimer_family_dupl25,P00387_P04488,unrelaxed_model_5_multimer_v3_pred_5,0.47013,0.470133
multimer_family_dupl25,P01889_P10229,unrelaxed_model_1_multimer_v3_pred_1,0.69068,0.690683
multimer_family_dupl25,P01889_P10229,unrelaxed_model_1_multimer_v3_pred_2,0.684459,0.684462
multimer_family_dupl25,P01889_P10229,unrelaxed_model_1_multimer_v3_pred_3,0.684972,0.684974
multimer_family_dupl25,P01889_P10229,unrelaxed_model_1_multimer_v3_pred_4,0.665482,0.665484
multimer_family_dupl25,P01889_P10229,unrelaxed_model_1_multimer_v3_pred_5,0.684875,0.684878
multimer_family_dupl25,P01889_P10229,unrelaxed_model_2_multimer_v3_pred_1,0.677186,0.677189
multimer_family_dupl25,P01889_P10229,unrelaxed_model_2_multimer_v3_pred_2,0.683092,0.683095
multimer_family_dupl25,P01889_P10229,unrelaxed_model_2_multimer_v3_pred_3,0.668279,0.668282
multimer_family_dupl25,P01889_P10229,unrelaxed_model_2_multimer_v3_pred_4,0.69107,0.691072
multimer_family_dupl25,P01889_P10229,unrelaxed_model_2_multimer_v3_pred_5,0.661526,0.661529
multimer_family_dupl25,P01889_P10229,unrelaxed_model_3_multimer_v3_pred_1,0.620153,0.620156
multimer_family_dupl25,P01889_P10229,unrelaxed_model_3_multimer_v3_pred_2,0.649447,0.64945
multimer_family_dupl25,P01889_P10229,unrelaxed_model_3_multimer_v3_pred_3,0.592251,0.592254
multimer_family_dupl25,P01889_P10229,unrelaxed_model_3_multimer_v3_pred_4,0.603527,0.60353
multimer_family_dupl25,P01889_P10229,unrelaxed_model_3_multimer_v3_pred_5,0.612704,0.612706
multimer_family_dupl25,P01889_P10229,unrelaxed_model_4_multimer_v3_pred_1,0.708878,0.708881
multimer_family_dupl25,P01889_P10229,unrelaxed_model_4_multimer_v3_pred_2,0.715772,0.715775
multimer_family_dupl25,P01889_P10229,unrelaxed_model_4_multimer_v3_pred_3,0.686539,0.686542
multimer_family_dupl25,P01889_P10229,unrelaxed_model_4_multimer_v3_pred_4,0.690428,0.690431
multimer_family_dupl25,P01889_P10229,unrelaxed_model_4_multimer_v3_pred_5,0.679602,0.679605
multimer_family_dupl25,P01889_P10229,unrelaxed_model_5_multimer_v3_pred_1,0.657883,0.657886
multimer_family_dupl25,P01889_P10229,unrelaxed_model_5_multimer_v3_pred_2,0.666814,0.666817
multimer_family_dupl25,P01889_P10229,unrelaxed_model_5_multimer_v3_pred_3,0.683775,0.683778
multimer_family_dupl25,P01889_P10229,unrelaxed_model_5_multimer_v3_pred_4,0.649548,0.649551
multimer_family_dupl25,P01889_P10229,unrelaxed_model_5_multimer_v3_pred_5,0.70351,0.703513
multimer_family_dupl25,P02511_P10233,unrelaxed_model_1_multimer_v3_pred_1,0.362582,0.362584
multimer_family_dupl25,P02511_P10233,unrelaxed_model_1_multimer_v3_pred_2,0.362654,0.362656
multimer_family_dupl25,P02511_P10233,unrelaxed_model_1_multimer_v3_pred_3,0.374706,0.374709
multimer_family_dupl25,P02511_P10233,unrelaxed_model_1_multimer_v3_pred_4,0.355129,0.355132
multimer_family_dupl25,P02511_P10233,unrelaxed_model_1_multimer_v3_pred_5,0.360694,0.360697
multimer_family_dupl25,P02511_P10233,unrelaxed_model_2_multimer_v3_pred_1,0.410238,0.410241
multimer_family_dupl25,P02511_P10233,unrelaxed_model_2_multimer_v3_pred_2,0.349002,0.349005
multimer_family_dupl25,P02511_P10233,unrelaxed_model_2_multimer_v3_pred_3,0.415775,0.415778
multimer_family_dupl25,P02511_P10233,unrelaxed_model_2_multimer_v3_pred_4,0.370469,0.370472
multimer_family_dupl25,P02511_P10233,unrelaxed_model_2_multimer_v3_pred_5,0.384046,0.384049
multimer_family_dupl25,P02511_P10233,unrelaxed_model_3_multimer_v3_pred_1,0.346659,0.346662
multimer_family_dupl25,P02511_P10233,unrelaxed_model_3_multimer_v3_pred_2,0.353997,0.354
multimer_family_dupl25,P02511_P10233,unrelaxed_model_3_multimer_v3_pred_3,0.36152,0.361523
multimer_family_dupl25,P02511_P10233,unrelaxed_model_3_multimer_v3_pred_4,0.357937,0.35794
multimer_family_dupl25,P02511_P10233,unrelaxed_model_3_multimer_v3_pred_5,0.348388,0.34839
multimer_family_dupl25,P02511_P10233,unrelaxed_model_4_multimer_v3_pred_1,0.405272,0.405274
multimer_family_dupl25,P02511_P10233,unrelaxed_model_4_multimer_v3_pred_2,0.384161,0.384164
multimer_family_dupl25,P02511_P10233,unrelaxed_model_4_multimer_v3_pred_3,0.383021,0.383024
multimer_family_dupl25,P02511_P10233,unrelaxed_model_4_multimer_v3_pred_4,0.390014,0.390017
multimer_family_dupl25,P02511_P10233,unrelaxed_model_4_multimer_v3_pred_5,0.394694,0.394697
multimer_family_dupl25,P02511_P10233,unrelaxed_model_5_multimer_v3_pred_1,0.402585,0.402588
multimer_family_dupl25,P02511_P10233,unrelaxed_model_5_multimer_v3_pred_2,0.33854,0.338543
multimer_family_dupl25,P02511_P10233,unrelaxed_model_5_multimer_v3_pred_3,0.397348,0.397351
multimer_family_dupl25,P02511_P10233,unrelaxed_model_5_multimer_v3_pred_4,0.385203,0.385206
multimer_family_dupl25,P02511_P10233,unrelaxed_model_5_multimer_v3_pred_5,0.365961,0.365964
multimer_family_dupl25,P04083_P04488,unrelaxed_model_1_multimer_v3_pred_1,0.51074,0.510743
multimer_family_dupl25,P04083_P04488,unrelaxed_model_1_multimer_v3_pred_2,0.50358,0.503583
multimer_family_dupl25,P04083_P04488,unrelaxed_model_1_multimer_v3_pred_3,0.466965,0.466968
multimer_family_dupl25,P04083_P04488,unrelaxed_model_1_multimer_v3_pred_4,0.463238,0.463241
multimer_family_dupl25,P04083_P04488,unrelaxed_model_1_multimer_v3_pred_5,0.479198,0.479201
multimer_family_dupl25,P04083_P04488,unrelaxed_model_2_multimer_v3_pred_1,0.514466,0.514468
multimer_family_dupl25,P04083_P04488,unrelaxed_model_2_multimer_v3_pred_2,0.463989,0.463992
multimer_family_dupl25,P04083_P04488,unrelaxed_model_2_multimer_v3_pred_3,0.510698,0.510701
multimer_family_dupl25,P04083_P04488,unrelaxed_model_2_multimer_v3_pred_4,0.480742,0.480745
multimer_family_dupl25,P04083_P04488,unrelaxed_model_2_multimer_v3_pred_5,0.4844,0.484403
multimer_family_dupl25,P04083_P04488,unrelaxed_model_3_multimer_v3_pred_1,0.502312,0.502315
multimer_family_dupl25,P04083_P04488,unrelaxed_model_3_multimer_v3_pred_2,0.516978,0.51698
multimer_family_dupl25,P04083_P04488,unrelaxed_model_3_multimer_v3_pred_3,0.511583,0.511586
multimer_family_dupl25,P04083_P04488,unrelaxed_model_3_multimer_v3_pred_4,0.510788,0.51079
multimer_family_dupl25,P04083_P04488,unrelaxed_model_3_multimer_v3_pred_5,0.509979,0.509982
multimer_family_dupl25,P04083_P04488,unrelaxed_model_4_multimer_v3_pred_1,0.4835,0.483502
multimer_family_dupl25,P04083_P04488,unrelaxed_model_4_multimer_v3_pred_2,0.476383,0.476386
multimer_family_dupl25,P04083_P04488,unrelaxed_model_4_multimer_v3_pred_3,0.403419,0.403422
multimer_family_dupl25,P04083_P04488,unrelaxed_model_4_multimer_v3_pred_4,0.483315,0.483318
multimer_family_dupl25,P04083_P04488,unrelaxed_model_4_multimer_v3_pred_5,0.449059,0.449062
multimer_family_dupl25,P04083_P04488,unrelaxed_model_5_multimer_v3_pred_1,0.462598,0.462601
multimer_family_dupl25,P04083_P04488,unrelaxed_model_5_multimer_v3_pred_2,0.491507,0.49151
multimer_family_dupl25,P04083_P04488,unrelaxed_model_5_multimer_v3_pred_3,0.486142,0.486145
multimer_family_dupl25,P04083_P04488,unrelaxed_model_5_multimer_v3_pred_4,0.460772,0.460775
multimer_family_dupl25,P04083_P04488,unrelaxed_model_5_multimer_v3_pred_5,0.444025,0.444028
multimer_family_dupl25,P04288_P06703,unrelaxed_model_1_multimer_v3_pred_1,0.744072,0.744075
multimer_family_dupl25,P04288_P06703,unrelaxed_model_1_multimer_v3_pred_2,0.737104,0.737107
multimer_family_dupl25,P04288_P06703,unrelaxed_model_1_multimer_v3_pred_3,0.671216,0.671219
multimer_family_dupl25,P04288_P06703,unrelaxed_model_1_multimer_v3_pred_4,0.669925,0.669928
multimer_family_dupl25,P04288_P06703,unrelaxed_model_1_multimer_v3_pred_5,0.751032,0.751034
multimer_family_dupl25,P04288_P06703,unrelaxed_model_2_multimer_v3_pred_1,0.745982,0.745985
multimer_family_dupl25,P04288_P06703,unrelaxed_model_2_multimer_v3_pred_2,0.746933,0.746936
multimer_family_dupl25,P04288_P06703,unrelaxed_model_2_multimer_v3_pred_3,0.736773,0.736776
multimer_family_dupl25,P04288_P06703,unrelaxed_model_2_multimer_v3_pred_4,0.747587,0.74759
multimer_family_dupl25,P04288_P06703,unrelaxed_model_2_multimer_v3_pred_5,0.736677,0.73668
multimer_family_dupl25,P04288_P06703,unrelaxed_model_3_multimer_v3_pred_1,0.739417,0.73942
multimer_family_dupl25,P04288_P06703,unrelaxed_model_3_multimer_v3_pred_2,0.733247,0.73325
multimer_family_dupl25,P04288_P06703,unrelaxed_model_3_multimer_v3_pred_3,0.747724,0.747726
multimer_family_dupl25,P04288_P06703,unrelaxed_model_3_multimer_v3_pred_4,0.74411,0.744112
multimer_family_dupl25,P04288_P06703,unrelaxed_model_3_multimer_v3_pred_5,0.74723,0.747233
multimer_family_dupl25,P04288_P06703,unrelaxed_model_4_multimer_v3_pred_1,0.73014,0.730142
multimer_family_dupl25,P04288_P06703,unrelaxed_model_4_multimer_v3_pred_2,0.72461,0.724613
multimer_family_dupl25,P04288_P06703,unrelaxed_model_4_multimer_v3_pred_3,0.723145,0.723148
multimer_family_dupl25,P04288_P06703,unrelaxed_model_4_multimer_v3_pred_4,0.733054,0.733056
multimer_family_dupl25,P04288_P06703,unrelaxed_model_4_multimer_v3_pred_5,0.725505,0.725508
multimer_family_dupl25,P04288_P06703,unrelaxed_model_5_multimer_v3_pred_1,0.688864,0.688867
multimer_family_dupl25,P04288_P06703,unrelaxed_model_5_multimer_v3_pred_2,0.727884,0.727887
multimer_family_dupl25,P04288_P06703,unrelaxed_model_5_multimer_v3_pred_3,0.71238,0.712382
multimer_family_dupl25,P04288_P06703,unrelaxed_model_5_multimer_v3_pred_4,0.750402,0.750404
multimer_family_dupl25,P04288_P06703,unrelaxed_model_5_multimer_v3_pred_5,0.737865,0.737868
multimer_family_dupl25,P04288_P62820,unrelaxed_model_1_multimer_v3_pred_1,0.812323,0.812326
multimer_family_dupl25,P04288_P62820,unrelaxed_model_1_multimer_v3_pred_2,0.816896,0.816899
multimer_family_dupl25,P04288_P62820,unrelaxed_model_1_multimer_v3_pred_3,0.808952,0.808955
multimer_family_dupl25,P04288_P62820,unrelaxed_model_1_multimer_v3_pred_4,0.793796,0.793799
multimer_family_dupl25,P04288_P62820,unrelaxed_model_1_multimer_v3_pred_5,0.812258,0.81226
multimer_family_dupl25,P04288_P62820,unrelaxed_model_2_multimer_v3_pred_1,0.820062,0.820065
multimer_family_dupl25,P04288_P62820,unrelaxed_model_2_multimer_v3_pred_2,0.820036,0.820039
multimer_family_dupl25,P04288_P62820,unrelaxed_model_2_multimer_v3_pred_3,0.821409,0.821412
multimer_family_dupl25,P04288_P62820,unrelaxed_model_2_multimer_v3_pred_4,0.824644,0.824647
multimer_family_dupl25,P04288_P62820,unrelaxed_model_2_multimer_v3_pred_5,0.830907,0.83091
multimer_family_dupl25,P04288_P62820,unrelaxed_model_3_multimer_v3_pred_1,0.807928,0.807931
multimer_family_dupl25,P04288_P62820,unrelaxed_model_3_multimer_v3_pred_2,0.829595,0.829598
multimer_family_dupl25,P04288_P62820,unrelaxed_model_3_multimer_v3_pred_3,0.753441,0.753444
multimer_family_dupl25,P04288_P62820,unrelaxed_model_3_multimer_v3_pred_4,0.80351,0.803513
multimer_family_dupl25,P04288_P62820,unrelaxed_model_3_multimer_v3_pred_5,0.802174,0.802176
multimer_family_dupl25,P04288_P62820,unrelaxed_model_4_multimer_v3_pred_1,0.796333,0.796336
multimer_family_dupl25,P04288_P62820,unrelaxed_model_4_multimer_v3_pred_2,0.799414,0.799416
multimer_family_dupl25,P04288_P62820,unrelaxed_model_4_multimer_v3_pred_3,0.812622,0.812624
multimer_family_dupl25,P04288_P62820,unrelaxed_model_4_multimer_v3_pred_4,0.782443,0.782446
multimer_family_dupl25,P04288_P62820,unrelaxed_model_4_multimer_v3_pred_5,0.806983,0.806986
multimer_family_dupl25,P04288_P62820,unrelaxed_model_5_multimer_v3_pred_1,0.817848,0.81785
multimer_family_dupl25,P04288_P62820,unrelaxed_model_5_multimer_v3_pred_2,0.80741,0.807412
multimer_family_dupl25,P04288_P62820,unrelaxed_model_5_multimer_v3_pred_3,0.791821,0.791824
multimer_family_dupl25,P04288_P62820,unrelaxed_model_5_multimer_v3_pred_4,0.804736,0.804739
multimer_family_dupl25,P04288_P62820,unrelaxed_model_5_multimer_v3_pred_5,0.81274,0.812742
multimer_family_dupl25,P04288_P62979,unrelaxed_model_1_multimer_v3_pred_1,0.678832,0.678835
multimer_family_dupl25,P04288_P62979,unrelaxed_model_1_multimer_v3_pred_2,0.71378,0.713783
multimer_family_dupl25,P04288_P62979,unrelaxed_model_1_multimer_v3_pred_3,0.713149,0.713152
multimer_family_dupl25,P04288_P62979,unrelaxed_model_1_multimer_v3_pred_4,0.707398,0.707401
multimer_family_dupl25,P04288_P62979,unrelaxed_model_1_multimer_v3_pred_5,0.714857,0.71486
multimer_family_dupl25,P04288_P62979,unrelaxed_model_2_multimer_v3_pred_1,0.638032,0.638035
multimer_family_dupl25,P04288_P62979,unrelaxed_model_2_multimer_v3_pred_2,0.669545,0.669548
multimer_family_dupl25,P04288_P62979,unrelaxed_model_2_multimer_v3_pred_3,0.641838,0.64184
multimer_family_dupl25,P04288_P62979,unrelaxed_model_2_multimer_v3_pred_4,0.666543,0.666546
multimer_family_dupl25,P04288_P62979,unrelaxed_model_2_multimer_v3_pred_5,0.646912,0.646915
multimer_family_dupl25,P04288_P62979,unrelaxed_model_3_multimer_v3_pred_1,0.627436,0.627439
multimer_family_dupl25,P04288_P62979,unrelaxed_model_3_multimer_v3_pred_2,0.64795,0.647952
multimer_family_dupl25,P04288_P62979,unrelaxed_model_3_multimer_v3_pred_3,0.710803,0.710806
multimer_family_dupl25,P04288_P62979,unrelaxed_model_3_multimer_v3_pred_4,0.651136,0.651139
multimer_family_dupl25,P04288_P62979,unrelaxed_model_3_multimer_v3_pred_5,0.625245,0.625248
multimer_family_dupl25,P04288_P62979,unrelaxed_model_4_multimer_v3_pred_1,0.723703,0.723706
multimer_family_dupl25,P04288_P62979,unrelaxed_model_4_multimer_v3_pred_2,0.715872,0.715875
multimer_family_dupl25,P04288_P62979,unrelaxed_model_4_multimer_v3_pred_3,0.724488,0.724491
multimer_family_dupl25,P04288_P62979,unrelaxed_model_4_multimer_v3_pred_4,0.71696,0.716963
multimer_family_dupl25,P04288_P62979,unrelaxed_model_4_multimer_v3_pred_5,0.724853,0.724856
multimer_family_dupl25,P04288_P62979,unrelaxed_model_5_multimer_v3_pred_1,0.699612,0.699615
multimer_family_dupl25,P04288_P62979,unrelaxed_model_5_multimer_v3_pred_2,0.735709,0.735712
multimer_family_dupl25,P04288_P62979,unrelaxed_model_5_multimer_v3_pred_3,0.686847,0.68685
multimer_family_dupl25,P04288_P62979,unrelaxed_model_5_multimer_v3_pred_4,0.726952,0.726954
multimer_family_dupl25,P04288_P62979,unrelaxed_model_5_multimer_v3_pred_5,0.72743,0.727433
multimer_family_dupl25,P04288_Q9H0U4,unrelaxed_model_1_multimer_v3_pred_1,0.736614,0.736617
multimer_family_dupl25,P04288_Q9H0U4,unrelaxed_model_1_multimer_v3_pred_2,0.776512,0.776514
multimer_family_dupl25,P04288_Q9H0U4,unrelaxed_model_1_multimer_v3_pred_3,0.81413,0.814132
multimer_family_dupl25,P04288_Q9H0U4,unrelaxed_model_1_multimer_v3_pred_4,0.804491,0.804494
multimer_family_dupl25,P04288_Q9H0U4,unrelaxed_model_1_multimer_v3_pred_5,0.806474,0.806476
multimer_family_dupl25,P04288_Q9H0U4,unrelaxed_model_2_multimer_v3_pred_1,0.769233,0.769236
multimer_family_dupl25,P04288_Q9H0U4,unrelaxed_model_2_multimer_v3_pred_2,0.746635,0.746638
multimer_family_dupl25,P04288_Q9H0U4,unrelaxed_model_2_multimer_v3_pred_3,0.80855,0.808553
multimer_family_dupl25,P04288_Q9H0U4,unrelaxed_model_2_multimer_v3_pred_4,0.802725,0.802728
multimer_family_dupl25,P04288_Q9H0U4,unrelaxed_model_2_multimer_v3_pred_5,0.732229,0.732232
multimer_family_dupl25,P04288_Q9H0U4,unrelaxed_model_3_multimer_v3_pred_1,0.622212,0.622214
multimer_family_dupl25,P04288_Q9H0U4,unrelaxed_model_3_multimer_v3_pred_2,0.783536,0.783539
multimer_family_dupl25,P04288_Q9H0U4,unrelaxed_model_3_multimer_v3_pred_3,0.730874,0.730877
multimer_family_dupl25,P04288_Q9H0U4,unrelaxed_model_3_multimer_v3_pred_4,0.765585,0.765588
multimer_family_dupl25,P04288_Q9H0U4,unrelaxed_model_3_multimer_v3_pred_5,0.788184,0.788187
multimer_family_dupl25,P04288_Q9H0U4,unrelaxed_model_4_multimer_v3_pred_1,0.806839,0.806842
multimer_family_dupl25,P04288_Q9H0U4,unrelaxed_model_4_multimer_v3_pred_2,0.754071,0.754074
multimer_family_dupl25,P04288_Q9H0U4,unrelaxed_model_4_multimer_v3_pred_3,0.803037,0.80304
multimer_family_dupl25,P04288_Q9H0U4,unrelaxed_model_4_multimer_v3_pred_4,0.788346,0.788349
multimer_family_dupl25,P04288_Q9H0U4,unrelaxed_model_4_multimer_v3_pred_5,0.781752,0.781755
multimer_family_dupl25,P04288_Q9H0U4,unrelaxed_model_5_multimer_v3_pred_1,0.80599,0.805993
multimer_family_dupl25,P04288_Q9H0U4,unrelaxed_model_5_multimer_v3_pred_2,0.82082,0.820823
multimer_family_dupl25,P04288_Q9H0U4,unrelaxed_model_5_multimer_v3_pred_3,0.801087,0.80109
multimer_family_dupl25,P04288_Q9H0U4,unrelaxed_model_5_multimer_v3_pred_4,0.804354,0.804357
multimer_family_dupl25,P04288_Q9H0U4,unrelaxed_model_5_multimer_v3_pred_5,0.811407,0.81141
multimer_family_dupl25,P04294_P13010,unrelaxed_model_1_multimer_v3_pred_1,0.5826,0.582602
multimer_family_dupl25,P04294_P13010,unrelaxed_model_1_multimer_v3_pred_2,0.558962,0.558965
multimer_family_dupl25,P04294_P13010,unrelaxed_model_1_multimer_v3_pred_3,0.545333,0.545336
multimer_family_dupl25,P04294_P13010,unrelaxed_model_1_multimer_v3_pred_4,0.570154,0.570157
multimer_family_dupl25,P04294_P13010,unrelaxed_model_1_multimer_v3_pred_5,0.579409,0.579412
multimer_family_dupl25,P04294_P13010,unrelaxed_model_2_multimer_v3_pred_1,0.584043,0.584046
multimer_family_dupl25,P04294_P13010,unrelaxed_model_2_multimer_v3_pred_2,0.590547,0.59055
multimer_family_dupl25,P04294_P13010,unrelaxed_model_2_multimer_v3_pred_3,0.545846,0.545848
multimer_family_dupl25,P04294_P13010,unrelaxed_model_2_multimer_v3_pred_4,0.593004,0.593007
multimer_family_dupl25,P04294_P13010,unrelaxed_model_2_multimer_v3_pred_5,0.444164,0.444167
multimer_family_dupl25,P04294_P13010,unrelaxed_model_3_multimer_v3_pred_1,0.446695,0.446698
multimer_family_dupl25,P04294_P13010,unrelaxed_model_3_multimer_v3_pred_2,0.429623,0.429626
multimer_family_dupl25,P04294_P13010,unrelaxed_model_3_multimer_v3_pred_3,0.578944,0.578946
multimer_family_dupl25,P04294_P13010,unrelaxed_model_3_multimer_v3_pred_4,0.446148,0.44615
multimer_family_dupl25,P04294_P13010,unrelaxed_model_3_multimer_v3_pred_5,0.589721,0.589724
multimer_family_dupl25,P04294_P13010,unrelaxed_model_4_multimer_v3_pred_1,0.573386,0.573388
multimer_family_dupl25,P04294_P13010,unrelaxed_model_4_multimer_v3_pred_2,0.529896,0.529899
multimer_family_dupl25,P04294_P13010,unrelaxed_model_4_multimer_v3_pred_3,0.471155,0.471158
multimer_family_dupl25,P04294_P13010,unrelaxed_model_4_multimer_v3_pred_4,0.518834,0.518837
multimer_family_dupl25,P04294_P13010,unrelaxed_model_4_multimer_v3_pred_5,0.497912,0.497915
multimer_family_dupl25,P04294_P13010,unrelaxed_model_5_multimer_v3_pred_1,0.588176,0.588179
multimer_family_dupl25,P04294_P13010,unrelaxed_model_5_multimer_v3_pred_2,0.589222,0.589225
multimer_family_dupl25,P04294_P13010,unrelaxed_model_5_multimer_v3_pred_3,0.553718,0.55372
multimer_family_dupl25,P04294_P13010,unrelaxed_model_5_multimer_v3_pred_4,0.584562,0.584565
multimer_family_dupl25,P04294_P13010,unrelaxed_model_5_multimer_v3_pred_5,0.595125,0.595128
multimer_family_dupl25,P04294_P27348,unrelaxed_model_1_multimer_v3_pred_1,0.611809,0.611812
multimer_family_dupl25,P04294_P27348,unrelaxed_model_1_multimer_v3_pred_2,0.616089,0.616092
multimer_family_dupl25,P04294_P27348,unrelaxed_model_1_multimer_v3_pred_3,0.626847,0.62685
multimer_family_dupl25,P04294_P27348,unrelaxed_model_1_multimer_v3_pred_4,0.605015,0.605018
multimer_family_dupl25,P04294_P27348,unrelaxed_model_1_multimer_v3_pred_5,0.594286,0.594288
multimer_family_dupl25,P04294_P27348,unrelaxed_model_2_multimer_v3_pred_1,0.619363,0.619366
multimer_family_dupl25,P04294_P27348,unrelaxed_model_2_multimer_v3_pred_2,0.6155,0.615503
multimer_family_dupl25,P04294_P27348,unrelaxed_model_2_multimer_v3_pred_3,0.624931,0.624934
multimer_family_dupl25,P04294_P27348,unrelaxed_model_2_multimer_v3_pred_4,0.591813,0.591816
multimer_family_dupl25,P04294_P27348,unrelaxed_model_2_multimer_v3_pred_5,0.620563,0.620566
multimer_family_dupl25,P04294_P27348,unrelaxed_model_3_multimer_v3_pred_1,0.603828,0.603831
multimer_family_dupl25,P04294_P27348,unrelaxed_model_3_multimer_v3_pred_2,0.613608,0.613611
multimer_family_dupl25,P04294_P27348,unrelaxed_model_3_multimer_v3_pred_3,0.611999,0.612002
multimer_family_dupl25,P04294_P27348,unrelaxed_model_3_multimer_v3_pred_4,0.609944,0.609947
multimer_family_dupl25,P04294_P27348,unrelaxed_model_3_multimer_v3_pred_5,0.612427,0.61243
multimer_family_dupl25,P04294_P27348,unrelaxed_model_4_multimer_v3_pred_1,0.607056,0.607059
multimer_family_dupl25,P04294_P27348,unrelaxed_model_4_multimer_v3_pred_2,0.599263,0.599266
multimer_family_dupl25,P04294_P27348,unrelaxed_model_4_multimer_v3_pred_3,0.611439,0.611442
multimer_family_dupl25,P04294_P27348,unrelaxed_model_4_multimer_v3_pred_4,0.60867,0.608673
multimer_family_dupl25,P04294_P27348,unrelaxed_model_4_multimer_v3_pred_5,0.599576,0.599579
multimer_family_dupl25,P04294_P27348,unrelaxed_model_5_multimer_v3_pred_1,0.604838,0.604841
multimer_family_dupl25,P04294_P27348,unrelaxed_model_5_multimer_v3_pred_2,0.62161,0.621613
multimer_family_dupl25,P04294_P27348,unrelaxed_model_5_multimer_v3_pred_3,0.611562,0.611565
multimer_family_dupl25,P04294_P27348,unrelaxed_model_5_multimer_v3_pred_4,0.597224,0.597227
multimer_family_dupl25,P04294_P27348,unrelaxed_model_5_multimer_v3_pred_5,0.585998,0.586001
multimer_family_dupl25,P04294_P31946,unrelaxed_model_1_multimer_v3_pred_1,0.592726,0.592729
multimer_family_dupl25,P04294_P31946,unrelaxed_model_1_multimer_v3_pred_2,0.638285,0.638288
multimer_family_dupl25,P04294_P31946,unrelaxed_model_1_multimer_v3_pred_3,0.641461,0.641464
multimer_family_dupl25,P04294_P31946,unrelaxed_model_1_multimer_v3_pred_4,0.644901,0.644904
multimer_family_dupl25,P04294_P31946,unrelaxed_model_1_multimer_v3_pred_5,0.648655,0.648658
multimer_family_dupl25,P04294_P31946,unrelaxed_model_2_multimer_v3_pred_1,0.613499,0.613502
multimer_family_dupl25,P04294_P31946,unrelaxed_model_2_multimer_v3_pred_2,0.607613,0.607616
multimer_family_dupl25,P04294_P31946,unrelaxed_model_2_multimer_v3_pred_3,0.610745,0.610748
multimer_family_dupl25,P04294_P31946,unrelaxed_model_2_multimer_v3_pred_4,0.609213,0.609216
multimer_family_dupl25,P04294_P31946,unrelaxed_model_2_multimer_v3_pred_5,0.61288,0.612883
multimer_family_dupl25,P04294_P31946,unrelaxed_model_3_multimer_v3_pred_1,0.61739,0.617393
multimer_family_dupl25,P04294_P31946,unrelaxed_model_3_multimer_v3_pred_2,0.619938,0.61994
multimer_family_dupl25,P04294_P31946,unrelaxed_model_3_multimer_v3_pred_3,0.621772,0.621775
multimer_family_dupl25,P04294_P31946,unrelaxed_model_3_multimer_v3_pred_4,0.606001,0.606004
multimer_family_dupl25,P04294_P31946,unrelaxed_model_3_multimer_v3_pred_5,0.641869,0.641872
multimer_family_dupl25,P04294_P31946,unrelaxed_model_4_multimer_v3_pred_1,0.600902,0.600904
multimer_family_dupl25,P04294_P31946,unrelaxed_model_4_multimer_v3_pred_2,0.585286,0.585289
multimer_family_dupl25,P04294_P31946,unrelaxed_model_4_multimer_v3_pred_3,0.60493,0.604932
multimer_family_dupl25,P04294_P31946,unrelaxed_model_4_multimer_v3_pred_4,0.618892,0.618895
multimer_family_dupl25,P04294_P31946,unrelaxed_model_4_multimer_v3_pred_5,0.605084,0.605086
multimer_family_dupl25,P04294_P31946,unrelaxed_model_5_multimer_v3_pred_1,0.615187,0.61519
multimer_family_dupl25,P04294_P31946,unrelaxed_model_5_multimer_v3_pred_2,0.64429,0.644293
multimer_family_dupl25,P04294_P31946,unrelaxed_model_5_multimer_v3_pred_3,0.62184,0.621843
multimer_family_dupl25,P04294_P31946,unrelaxed_model_5_multimer_v3_pred_4,0.647344,0.647347
multimer_family_dupl25,P04294_P31946,unrelaxed_model_5_multimer_v3_pred_5,0.618339,0.618342
multimer_family_dupl25,P04294_P61981,unrelaxed_model_1_multimer_v3_pred_1,0.623563,0.623566
multimer_family_dupl25,P04294_P61981,unrelaxed_model_1_multimer_v3_pred_2,0.638755,0.638758
multimer_family_dupl25,P04294_P61981,unrelaxed_model_1_multimer_v3_pred_3,0.626098,0.626101
multimer_family_dupl25,P04294_P61981,unrelaxed_model_1_multimer_v3_pred_4,0.632617,0.63262
multimer_family_dupl25,P04294_P61981,unrelaxed_model_1_multimer_v3_pred_5,0.640158,0.64016
multimer_family_dupl25,P04294_P61981,unrelaxed_model_2_multimer_v3_pred_1,0.611189,0.611192
multimer_family_dupl25,P04294_P61981,unrelaxed_model_2_multimer_v3_pred_2,0.62377,0.623773
multimer_family_dupl25,P04294_P61981,unrelaxed_model_2_multimer_v3_pred_3,0.613656,0.613659
multimer_family_dupl25,P04294_P61981,unrelaxed_model_2_multimer_v3_pred_4,0.62293,0.622933
multimer_family_dupl25,P04294_P61981,unrelaxed_model_2_multimer_v3_pred_5,0.620244,0.620247
multimer_family_dupl25,P04294_P61981,unrelaxed_model_3_multimer_v3_pred_1,0.629339,0.629342
multimer_family_dupl25,P04294_P61981,unrelaxed_model_3_multimer_v3_pred_2,0.59545,0.595453
multimer_family_dupl25,P04294_P61981,unrelaxed_model_3_multimer_v3_pred_3,0.620972,0.620975
multimer_family_dupl25,P04294_P61981,unrelaxed_model_3_multimer_v3_pred_4,0.618468,0.61847
multimer_family_dupl25,P04294_P61981,unrelaxed_model_3_multimer_v3_pred_5,0.625301,0.625304
multimer_family_dupl25,P04294_P61981,unrelaxed_model_4_multimer_v3_pred_1,0.603901,0.603904
multimer_family_dupl25,P04294_P61981,unrelaxed_model_4_multimer_v3_pred_2,0.611931,0.611934
multimer_family_dupl25,P04294_P61981,unrelaxed_model_4_multimer_v3_pred_3,0.611039,0.611042
multimer_family_dupl25,P04294_P61981,unrelaxed_model_4_multimer_v3_pred_4,0.605292,0.605295
multimer_family_dupl25,P04294_P61981,unrelaxed_model_4_multimer_v3_pred_5,0.610103,0.610106
multimer_family_dupl25,P04294_P61981,unrelaxed_model_5_multimer_v3_pred_1,0.613936,0.613938
multimer_family_dupl25,P04294_P61981,unrelaxed_model_5_multimer_v3_pred_2,0.616864,0.616867
multimer_family_dupl25,P04294_P61981,unrelaxed_model_5_multimer_v3_pred_3,0.594249,0.594252
multimer_family_dupl25,P04294_P61981,unrelaxed_model_5_multimer_v3_pred_4,0.626764,0.626766
multimer_family_dupl25,P04294_P61981,unrelaxed_model_5_multimer_v3_pred_5,0.619081,0.619084
multimer_family_dupl25,P04294_P62258,unrelaxed_model_1_multimer_v3_pred_1,0.600827,0.60083
multimer_family_dupl25,P04294_P62258,unrelaxed_model_1_multimer_v3_pred_2,0.627155,0.627158
multimer_family_dupl25,P04294_P62258,unrelaxed_model_1_multimer_v3_pred_3,0.612521,0.612524
multimer_family_dupl25,P04294_P62258,unrelaxed_model_1_multimer_v3_pred_4,0.597996,0.597999
multimer_family_dupl25,P04294_P62258,unrelaxed_model_1_multimer_v3_pred_5,0.615381,0.615384
multimer_family_dupl25,P04294_P62258,unrelaxed_model_2_multimer_v3_pred_1,0.634585,0.634588
multimer_family_dupl25,P04294_P62258,unrelaxed_model_2_multimer_v3_pred_2,0.62794,0.627943
multimer_family_dupl25,P04294_P62258,unrelaxed_model_2_multimer_v3_pred_3,0.610882,0.610885
multimer_family_dupl25,P04294_P62258,unrelaxed_model_2_multimer_v3_pred_4,0.635083,0.635086
multimer_family_dupl25,P04294_P62258,unrelaxed_model_2_multimer_v3_pred_5,0.617223,0.617226
multimer_family_dupl25,P04294_P62258,unrelaxed_model_3_multimer_v3_pred_1,0.617902,0.617904
multimer_family_dupl25,P04294_P62258,unrelaxed_model_3_multimer_v3_pred_2,0.588564,0.588567
multimer_family_dupl25,P04294_P62258,unrelaxed_model_3_multimer_v3_pred_3,0.630773,0.630776
multimer_family_dupl25,P04294_P62258,unrelaxed_model_3_multimer_v3_pred_4,0.61237,0.612373
multimer_family_dupl25,P04294_P62258,unrelaxed_model_3_multimer_v3_pred_5,0.628088,0.628091
multimer_family_dupl25,P04294_P62258,unrelaxed_model_4_multimer_v3_pred_1,0.576797,0.5768
multimer_family_dupl25,P04294_P62258,unrelaxed_model_4_multimer_v3_pred_2,0.584558,0.58456
multimer_family_dupl25,P04294_P62258,unrelaxed_model_4_multimer_v3_pred_3,0.606276,0.606279
multimer_family_dupl25,P04294_P62258,unrelaxed_model_4_multimer_v3_pred_4,0.585957,0.58596
multimer_family_dupl25,P04294_P62258,unrelaxed_model_4_multimer_v3_pred_5,0.608633,0.608636
multimer_family_dupl25,P04294_P62258,unrelaxed_model_5_multimer_v3_pred_1,0.59235,0.592353
multimer_family_dupl25,P04294_P62258,unrelaxed_model_5_multimer_v3_pred_2,0.577439,0.577442
multimer_family_dupl25,P04294_P62258,unrelaxed_model_5_multimer_v3_pred_3,0.573484,0.573486
multimer_family_dupl25,P04294_P62258,unrelaxed_model_5_multimer_v3_pred_4,0.580426,0.580428
multimer_family_dupl25,P04294_P62258,unrelaxed_model_5_multimer_v3_pred_5,0.608264,0.608266
multimer_family_dupl25,P04294_P63104,unrelaxed_model_1_multimer_v3_pred_1,0.617316,0.617319
multimer_family_dupl25,P04294_P63104,unrelaxed_model_1_multimer_v3_pred_2,0.647979,0.647982
multimer_family_dupl25,P04294_P63104,unrelaxed_model_1_multimer_v3_pred_3,0.59225,0.592253
multimer_family_dupl25,P04294_P63104,unrelaxed_model_1_multimer_v3_pred_4,0.595935,0.595938
multimer_family_dupl25,P04294_P63104,unrelaxed_model_1_multimer_v3_pred_5,0.611636,0.611638
multimer_family_dupl25,P04294_P63104,unrelaxed_model_2_multimer_v3_pred_1,0.630335,0.630338
multimer_family_dupl25,P04294_P63104,unrelaxed_model_2_multimer_v3_pred_2,0.642372,0.642375
multimer_family_dupl25,P04294_P63104,unrelaxed_model_2_multimer_v3_pred_3,0.647936,0.647939
multimer_family_dupl25,P04294_P63104,unrelaxed_model_2_multimer_v3_pred_4,0.645826,0.645829
multimer_family_dupl25,P04294_P63104,unrelaxed_model_2_multimer_v3_pred_5,0.647637,0.64764
multimer_family_dupl25,P04294_P63104,unrelaxed_model_3_multimer_v3_pred_1,0.619659,0.619662
multimer_family_dupl25,P04294_P63104,unrelaxed_model_3_multimer_v3_pred_2,0.612451,0.612454
multimer_family_dupl25,P04294_P63104,unrelaxed_model_3_multimer_v3_pred_3,0.62752,0.627522
multimer_family_dupl25,P04294_P63104,unrelaxed_model_3_multimer_v3_pred_4,0.630098,0.630101
multimer_family_dupl25,P04294_P63104,unrelaxed_model_3_multimer_v3_pred_5,0.625917,0.62592
multimer_family_dupl25,P04294_P63104,unrelaxed_model_4_multimer_v3_pred_1,0.617702,0.617704
multimer_family_dupl25,P04294_P63104,unrelaxed_model_4_multimer_v3_pred_2,0.607226,0.607229
multimer_family_dupl25,P04294_P63104,unrelaxed_model_4_multimer_v3_pred_3,0.597977,0.59798
multimer_family_dupl25,P04294_P63104,unrelaxed_model_4_multimer_v3_pred_4,0.590076,0.590078
multimer_family_dupl25,P04294_P63104,unrelaxed_model_4_multimer_v3_pred_5,0.614789,0.614792
multimer_family_dupl25,P04294_P63104,unrelaxed_model_5_multimer_v3_pred_1,0.595904,0.595907
multimer_family_dupl25,P04294_P63104,unrelaxed_model_5_multimer_v3_pred_2,0.574642,0.574644
multimer_family_dupl25,P04294_P63104,unrelaxed_model_5_multimer_v3_pred_3,0.613913,0.613916
multimer_family_dupl25,P04294_P63104,unrelaxed_model_5_multimer_v3_pred_4,0.604977,0.60498
multimer_family_dupl25,P04294_P63104,unrelaxed_model_5_multimer_v3_pred_5,0.612889,0.612892
multimer_family_dupl25,P04294_Q9Y4E8,unrelaxed_model_1_multimer_v3_pred_1,0.50138,0.501383
multimer_family_dupl25,P04294_Q9Y4E8,unrelaxed_model_1_multimer_v3_pred_2,0.464307,0.46431
multimer_family_dupl25,P04294_Q9Y4E8,unrelaxed_model_1_multimer_v3_pred_3,0.527915,0.527918
multimer_family_dupl25,P04294_Q9Y4E8,unrelaxed_model_1_multimer_v3_pred_4,0.519871,0.519874
multimer_family_dupl25,P04294_Q9Y4E8,unrelaxed_model_1_multimer_v3_pred_5,0.527528,0.527531
multimer_family_dupl25,P04294_Q9Y4E8,unrelaxed_model_2_multimer_v3_pred_1,0.527109,0.527112
multimer_family_dupl25,P04294_Q9Y4E8,unrelaxed_model_2_multimer_v3_pred_2,0.52051,0.520513
multimer_family_dupl25,P04294_Q9Y4E8,unrelaxed_model_2_multimer_v3_pred_3,0.53085,0.530852
multimer_family_dupl25,P04294_Q9Y4E8,unrelaxed_model_2_multimer_v3_pred_4,0.517249,0.517252
multimer_family_dupl25,P04294_Q9Y4E8,unrelaxed_model_2_multimer_v3_pred_5,0.426088,0.426091
multimer_family_dupl25,P04294_Q9Y4E8,unrelaxed_model_3_multimer_v3_pred_1,0.556166,0.556169
multimer_family_dupl25,P04294_Q9Y4E8,unrelaxed_model_3_multimer_v3_pred_2,0.568347,0.56835
multimer_family_dupl25,P04294_Q9Y4E8,unrelaxed_model_3_multimer_v3_pred_3,0.482682,0.482685
multimer_family_dupl25,P04294_Q9Y4E8,unrelaxed_model_3_multimer_v3_pred_4,0.55877,0.558772
multimer_family_dupl25,P04294_Q9Y4E8,unrelaxed_model_3_multimer_v3_pred_5,0.569418,0.56942
multimer_family_dupl25,P04294_Q9Y4E8,unrelaxed_model_4_multimer_v3_pred_1,0.460907,0.46091
multimer_family_dupl25,P04294_Q9Y4E8,unrelaxed_model_4_multimer_v3_pred_2,0.44305,0.443052
multimer_family_dupl25,P04294_Q9Y4E8,unrelaxed_model_4_multimer_v3_pred_3,0.428448,0.428451
multimer_family_dupl25,P04294_Q9Y4E8,unrelaxed_model_4_multimer_v3_pred_4,0.465531,0.465534
multimer_family_dupl25,P04294_Q9Y4E8,unrelaxed_model_4_multimer_v3_pred_5,0.456727,0.45673
multimer_family_dupl25,P04294_Q9Y4E8,unrelaxed_model_5_multimer_v3_pred_1,0.553351,0.553354
multimer_family_dupl25,P04294_Q9Y4E8,unrelaxed_model_5_multimer_v3_pred_2,0.541731,0.541734
multimer_family_dupl25,P04294_Q9Y4E8,unrelaxed_model_5_multimer_v3_pred_3,0.546744,0.546746
multimer_family_dupl25,P04294_Q9Y4E8,unrelaxed_model_5_multimer_v3_pred_4,0.504427,0.50443
multimer_family_dupl25,P04294_Q9Y4E8,unrelaxed_model_5_multimer_v3_pred_5,0.539268,0.539271
multimer_family_dupl25,P04296_P07737,unrelaxed_model_1_multimer_v3_pred_1,0.874784,0.874787
multimer_family_dupl25,P04296_P07737,unrelaxed_model_1_multimer_v3_pred_2,0.901194,0.901197
multimer_family_dupl25,P04296_P07737,unrelaxed_model_1_multimer_v3_pred_3,0.894126,0.894129
multimer_family_dupl25,P04296_P07737,unrelaxed_model_1_multimer_v3_pred_4,0.89456,0.894563
multimer_family_dupl25,P04296_P07737,unrelaxed_model_1_multimer_v3_pred_5,0.885778,0.885781
multimer_family_dupl25,P04296_P07737,unrelaxed_model_2_multimer_v3_pred_1,0.867708,0.86771
multimer_family_dupl25,P04296_P07737,unrelaxed_model_2_multimer_v3_pred_2,0.88137,0.881373
multimer_family_dupl25,P04296_P07737,unrelaxed_model_2_multimer_v3_pred_3,0.859179,0.859182
multimer_family_dupl25,P04296_P07737,unrelaxed_model_2_multimer_v3_pred_4,0.854287,0.85429
multimer_family_dupl25,P04296_P07737,unrelaxed_model_2_multimer_v3_pred_5,0.863796,0.863798
multimer_family_dupl25,P04296_P07737,unrelaxed_model_3_multimer_v3_pred_1,0.797934,0.797936
multimer_family_dupl25,P04296_P07737,unrelaxed_model_3_multimer_v3_pred_2,0.862538,0.862541
multimer_family_dupl25,P04296_P07737,unrelaxed_model_3_multimer_v3_pred_3,0.858352,0.858355
multimer_family_dupl25,P04296_P07737,unrelaxed_model_3_multimer_v3_pred_4,0.848765,0.848768
multimer_family_dupl25,P04296_P07737,unrelaxed_model_3_multimer_v3_pred_5,0.864137,0.86414
multimer_family_dupl25,P04296_P07737,unrelaxed_model_4_multimer_v3_pred_1,0.90124,0.901242
multimer_family_dupl25,P04296_P07737,unrelaxed_model_4_multimer_v3_pred_2,0.900935,0.900938
multimer_family_dupl25,P04296_P07737,unrelaxed_model_4_multimer_v3_pred_3,0.886648,0.886651
multimer_family_dupl25,P04296_P07737,unrelaxed_model_4_multimer_v3_pred_4,0.904729,0.904732
multimer_family_dupl25,P04296_P07737,unrelaxed_model_4_multimer_v3_pred_5,0.904332,0.904335
multimer_family_dupl25,P04296_P07737,unrelaxed_model_5_multimer_v3_pred_1,0.890252,0.890255
multimer_family_dupl25,P04296_P07737,unrelaxed_model_5_multimer_v3_pred_2,0.854858,0.854861
multimer_family_dupl25,P04296_P07737,unrelaxed_model_5_multimer_v3_pred_3,0.875482,0.875484
multimer_family_dupl25,P04296_P07737,unrelaxed_model_5_multimer_v3_pred_4,0.859268,0.859271
multimer_family_dupl25,P04296_P07737,unrelaxed_model_5_multimer_v3_pred_5,0.883528,0.883531
multimer_family_dupl25,P04406_P04487,unrelaxed_model_1_multimer_v3_pred_1,0.725659,0.725662
multimer_family_dupl25,P04406_P04487,unrelaxed_model_1_multimer_v3_pred_2,0.716295,0.716298
multimer_family_dupl25,P04406_P04487,unrelaxed_model_1_multimer_v3_pred_3,0.727252,0.727255
multimer_family_dupl25,P04406_P04487,unrelaxed_model_1_multimer_v3_pred_4,0.724276,0.724278
multimer_family_dupl25,P04406_P04487,unrelaxed_model_1_multimer_v3_pred_5,0.720873,0.720876
multimer_family_dupl25,P04406_P04487,unrelaxed_model_2_multimer_v3_pred_1,0.726919,0.726922
multimer_family_dupl25,P04406_P04487,unrelaxed_model_2_multimer_v3_pred_2,0.735614,0.735616
multimer_family_dupl25,P04406_P04487,unrelaxed_model_2_multimer_v3_pred_3,0.728787,0.72879
multimer_family_dupl25,P04406_P04487,unrelaxed_model_2_multimer_v3_pred_4,0.72313,0.723133
multimer_family_dupl25,P04406_P04487,unrelaxed_model_2_multimer_v3_pred_5,0.729458,0.72946
multimer_family_dupl25,P04406_P04487,unrelaxed_model_3_multimer_v3_pred_1,0.72876,0.728763
multimer_family_dupl25,P04406_P04487,unrelaxed_model_3_multimer_v3_pred_2,0.720155,0.720158
multimer_family_dupl25,P04406_P04487,unrelaxed_model_3_multimer_v3_pred_3,0.717072,0.717075
multimer_family_dupl25,P04406_P04487,unrelaxed_model_3_multimer_v3_pred_4,0.713038,0.71304
multimer_family_dupl25,P04406_P04487,unrelaxed_model_3_multimer_v3_pred_5,0.714896,0.714899
multimer_family_dupl25,P04406_P04487,unrelaxed_model_4_multimer_v3_pred_1,0.715858,0.715861
multimer_family_dupl25,P04406_P04487,unrelaxed_model_4_multimer_v3_pred_2,0.719211,0.719214
multimer_family_dupl25,P04406_P04487,unrelaxed_model_4_multimer_v3_pred_3,0.726722,0.726724
multimer_family_dupl25,P04406_P04487,unrelaxed_model_4_multimer_v3_pred_4,0.721951,0.721954
multimer_family_dupl25,P04406_P04487,unrelaxed_model_4_multimer_v3_pred_5,0.724134,0.724137
multimer_family_dupl25,P04406_P04487,unrelaxed_model_5_multimer_v3_pred_1,0.705219,0.705222
multimer_family_dupl25,P04406_P04487,unrelaxed_model_5_multimer_v3_pred_2,0.724549,0.724552
multimer_family_dupl25,P04406_P04487,unrelaxed_model_5_multimer_v3_pred_3,0.72008,0.720083
multimer_family_dupl25,P04406_P04487,unrelaxed_model_5_multimer_v3_pred_4,0.725567,0.72557
multimer_family_dupl25,P04406_P04487,unrelaxed_model_5_multimer_v3_pred_5,0.71616,0.716163
