multimer_family,O00299_P04487,result_model_1_multimer_v3_pred_1.pkl,0.13504946,0.6115634430844683,18.870747,65.22473240562184
multimer_family,O43169_P04488,result_model_1_multimer_v3_pred_1.pkl,0.18528557,0.3428093782976258,26.261406,49.44149511500655
multimer_family,O43169_P10218,result_model_1_multimer_v3_pred_1.pkl,0.23278362,0.4632430659300833,22.554403,60.219919890281375
multimer_family,O43852_P10185,result_model_1_multimer_v3_pred_1.pkl,0.18513322,0.49171372938935787,21.729408,55.004786519461526
multimer_family,O43852_P10211,result_model_1_multimer_v3_pred_1.pkl,0.19851768,0.40053055417365585,26.212397,59.01007734918868
multimer_family,O75396_P04487,result_model_1_multimer_v3_pred_1.pkl,0.09551792,0.43162953824717704,24.227615,61.37086019554432
multimer_family,O75531_P10233,result_model_1_multimer_v3_pred_1.pkl,0.15288925,0.29130453231642295,26.012424,52.63077419366641
multimer_family,P00338_P04487,result_model_1_multimer_v3_pred_1.pkl,0.16914457,0.6878151720057519,16.568647,71.62955222912765
multimer_family,P00387_P04488,result_model_1_multimer_v3_pred_1.pkl,0.24413975,0.41311242102600926,24.604528,60.46122505389981
multimer_family,P01889_P10229,result_model_1_multimer_v3_pred_1.pkl,0.57429624,0.5176456949056929,20.291655,65.42809958407565
multimer_family,P02511_P10233,result_model_1_multimer_v3_pred_1.pkl,0.1992198,0.29365569183439927,26.403036,44.11191617718948
multimer_family,P04083_P04488,result_model_1_multimer_v3_pred_1.pkl,0.15357447,0.4502642400612295,24.18039,60.57921225641296
multimer_family,P04288_P06703,result_model_1_multimer_v3_pred_1.pkl,0.23213308,0.5926897855863227,19.744871,66.75740690343271
multimer_family,P04288_P62820,result_model_1_multimer_v3_pred_1.pkl,0.28897953,0.5664525771853113,20.043884,69.04242861494245
multimer_family,P04288_P62979,result_model_1_multimer_v3_pred_1.pkl,0.1408293,0.5508736635341912,21.776505,65.74499941648196
multimer_family,P04288_Q9H0U4,result_model_1_multimer_v3_pred_1.pkl,0.25622123,0.5615626068851701,20.37385,68.26982232110308
multimer_family,P04294_P13010,result_model_1_multimer_v3_pred_1.pkl,0.27564198,0.4360684750402202,24.351461,69.38131327271343
multimer_family,P04294_P27348,result_model_1_multimer_v3_pred_1.pkl,0.566232,0.5591350108680162,20.610674,70.16540281044674
multimer_family,P04294_P31946,result_model_1_multimer_v3_pred_1.pkl,0.4293396,0.5591674845926249,20.736164,69.38474829498607
multimer_family,P04294_P61981,result_model_1_multimer_v3_pred_1.pkl,0.55657715,0.5562477925086401,20.66565,70.49927102495016
multimer_family,P04294_P62258,result_model_1_multimer_v3_pred_1.pkl,0.5072584,0.5540414772501223,20.846937,69.78084474245847
multimer_family,P04294_P63104,result_model_1_multimer_v3_pred_1.pkl,0.55001116,0.5608919433132855,20.608429,69.90549491587174
multimer_family,P04294_Q9Y4E8,result_model_1_multimer_v3_pred_1.pkl,0.38093442,0.4788720053037376,24.214808,65.51883801891144
multimer_family,P04296_P07737,result_model_1_multimer_v3_pred_1.pkl,0.3017305,0.7875930135285722,15.121235,78.43623132950292
multimer_family,P04406_P04487,result_model_1_multimer_v3_pred_1.pkl,0.23225315,0.6921963689018245,16.366024,73.81574732247753
multimer_family,P04406_P10226,result_model_1_multimer_v3_pred_1.pkl,0.20410177,0.4592145363566766,22.658714,72.3782815175611
multimer_family,P04406_P10233,result_model_1_multimer_v3_pred_1.pkl,0.24457724,0.5740080295309797,20.775494,68.84324131378061
multimer_family,P04487_P08670,result_model_1_multimer_v3_pred_1.pkl,0.082086354,0.2241837446448514,28.102438,57.949278896546666
multimer_family,P04487_P67809,result_model_1_multimer_v3_pred_1.pkl,0.09165689,0.2637590484696871,28.379047,43.240464341236546
multimer_family,P04488_O14828,result_model_1_multimer_v3_pred_1.pkl,0.20656964,0.31338026934891533,26.96248,54.84512143113432
multimer_family,P04488_O15127,result_model_1_multimer_v3_pred_1.pkl,0.20935489,0.31228110102308004,26.861393,55.54839925315961
multimer_family,P04488_O75396,result_model_1_multimer_v3_pred_1.pkl,0.18170702,0.3291743655566899,26.17124,57.85503151130891
multimer_family,P04488_P06703,result_model_1_multimer_v3_pred_1.pkl,0.31502548,0.3725814689823884,25.450123,51.70828754979367
multimer_family,P04488_P07237,result_model_1_multimer_v3_pred_1.pkl,0.19370314,0.42943171546555836,24.354269,61.72354398360247
multimer_family,P04488_P11166,result_model_1_multimer_v3_pred_1.pkl,0.2601273,0.5000632066095805,23.39965,62.890684185627045
multimer_family,P04488_P20340,result_model_1_multimer_v3_pred_1.pkl,0.1733298,0.3324327511880381,25.410059,52.83336295458141
multimer_family,P04488_P60468,result_model_1_multimer_v3_pred_1.pkl,0.13468407,0.3442619881963252,26.275948,52.93766945014406
multimer_family,P04488_P61019,result_model_1_multimer_v3_pred_1.pkl,0.24265613,0.36316189259361653,24.967333,54.459452177365634
multimer_family,P04488_P62820,result_model_1_multimer_v3_pred_1.pkl,0.2246032,0.3484433940263411,25.023933,54.22628985753022
multimer_family,P04488_P62979,result_model_1_multimer_v3_pred_1.pkl,0.19904247,0.3487193810865067,25.81678,50.36902254596334
multimer_family,P04488_Q15836,result_model_1_multimer_v3_pred_1.pkl,0.19226107,0.3397221209858935,26.273794,55.641730341970934
multimer_family,P04488_Q96AJ9,result_model_1_multimer_v3_pred_1.pkl,0.18993607,0.3296559417608892,26.710331,57.645137740622225
multimer_family,P04488_Q9BVC6,result_model_1_multimer_v3_pred_1.pkl,0.14551653,0.3082963591602288,27.38209,50.92420523102587
multimer_family,P04488_Q9GZQ8,result_model_1_multimer_v3_pred_1.pkl,0.67232627,0.34506743309163224,25.161509,55.10845767006765
multimer_family,P04488_Q9H0U4,result_model_1_multimer_v3_pred_1.pkl,0.2125657,0.34286069249483603,25.058214,53.14499716446126
multimer_family,P04488_Q9H4G4,result_model_1_multimer_v3_pred_1.pkl,0.47487846,0.3412888249101067,24.672043,55.28964668306606
multimer_family,P04792_P04294,result_model_1_multimer_v3_pred_1.pkl,0.19385758,0.5933089649724228,21.418707,58.845430287680394
multimer_family,P04792_P10233,result_model_1_multimer_v3_pred_1.pkl,0.20216748,0.292932202820233,26.614775,38.425901388053035
multimer_family,P05023_P04488,result_model_1_multimer_v3_pred_1.pkl,0.23083423,0.5923321167868192,21.817783,70.14423842100753
multimer_family,P05204_P10233,result_model_1_multimer_v3_pred_1.pkl,0.16607086,0.31494696119285304,26.878801,41.62652418872789
multimer_family,P06487_P06703,result_model_1_multimer_v3_pred_1.pkl,0.24344939,0.44354162489226534,23.908253,52.18233807864613
multimer_family,P06487_P20340,result_model_1_multimer_v3_pred_1.pkl,0.22961183,0.4101931101458707,23.29717,59.739594880031405
multimer_family,P06487_P51148,result_model_1_multimer_v3_pred_1.pkl,0.1584343,0.3782091600997758,24.27503,58.12053268364334
multimer_family,P06487_P62937,result_model_1_multimer_v3_pred_1.pkl,0.37055898,0.3992759250636587,22.986652,64.69701460542412
multimer_family,P06487_Q9H0U4,result_model_1_multimer_v3_pred_1.pkl,0.14409575,0.37479362883262424,24.139662,57.43636966736416
multimer_family,P06491_P10599,result_model_1_multimer_v3_pred_1.pkl,0.17254788,0.7888587393805677,15.833524,78.65807653934861
multimer_family,P06703_P04487,result_model_1_multimer_v3_pred_1.pkl,0.11527267,0.35078041941251614,24.784643,56.386428183313384
multimer_family,P06703_P10226,result_model_1_multimer_v3_pred_1.pkl,0.18298957,0.4749964753850633,23.351976,54.641558747335054
multimer_family,P06703_P10233,result_model_1_multimer_v3_pred_1.pkl,0.18326826,0.30770112409438866,25.667023,49.8321297468763
multimer_family,P06703_P10238,result_model_1_multimer_v3_pred_1.pkl,0.173917,0.4566730672906584,24.338732,53.85417122651809
multimer_family,P06733_P04487,result_model_1_multimer_v3_pred_1.pkl,0.11844054,0.7297705128415858,15.126211,76.46246687506775
multimer_family,P06733_P10226,result_model_1_multimer_v3_pred_1.pkl,0.13281715,0.5135747499853719,21.854345,73.24531767041555
multimer_family,P06748_P04487,result_model_1_multimer_v3_pred_1.pkl,0.09434971,0.2982060940891137,27.146982,48.65789488938377
multimer_family,P07355_P06487,result_model_1_multimer_v3_pred_1.pkl,0.14926046,0.4939286447431597,22.56644,66.8580301638968
multimer_family,P07355_Q69091,result_model_1_multimer_v3_pred_1.pkl,0.12415207,0.47743438921552883,22.340998,68.23196000253081
multimer_family,P07384_P10231,result_model_1_multimer_v3_pred_1.pkl,0.25648397,0.498467971559966,21.281143,74.11387833226844
multimer_family,P07437_P10233,result_model_1_multimer_v3_pred_1.pkl,0.17219399,0.6087017123249454,20.257076,66.35335896404169
multimer_family,P07737_P04487,result_model_1_multimer_v3_pred_1.pkl,0.13228123,0.4940160968458371,21.686132,62.752823798727555
multimer_family,P07737_P08543,result_model_1_multimer_v3_pred_1.pkl,0.62524253,0.6703890602729394,19.549217,68.79801537051142
multimer_family,P07737_P10233,result_model_1_multimer_v3_pred_1.pkl,0.22822767,0.3859878285212639,24.027319,55.66227646829747
multimer_family,P08133_P04288,result_model_1_multimer_v3_pred_1.pkl,0.18152805,0.4477582173886765,22.000917,76.51846519429407
multimer_family,P08133_P04488,result_model_1_multimer_v3_pred_1.pkl,0.1638117,0.413310599739186,24.56222,65.21407417720974
multimer_family,P08133_P06487,result_model_1_multimer_v3_pred_1.pkl,0.6682004,0.6853112960529028,16.937317,75.21904491906523
multimer_family,P08133_Q69091,result_model_1_multimer_v3_pred_1.pkl,0.15224645,0.41249736700424416,23.395922,69.5452923568681
multimer_family,P08134_P10233,result_model_1_multimer_v3_pred_1.pkl,0.27594256,0.4499340979781486,23.0374,56.37863059390874
multimer_family,P08195_P10229,result_model_1_multimer_v3_pred_1.pkl,0.21951813,0.5747108588810707,21.780626,64.64744095378973
multimer_family,P08392_P35268,result_model_1_multimer_v3_pred_1.pkl,0.3163333,0.4162544557615285,26.572376,55.98136042204838
multimer_family,P08758_P10233,result_model_1_multimer_v3_pred_1.pkl,0.17137003,0.5453568984113168,21.696953,63.58561647529303
multimer_family,P08758_Q69091,result_model_1_multimer_v3_pred_1.pkl,0.14791402,0.501017412294188,21.527992,68.24540682371045
multimer_family,P08962_P10211,result_model_1_multimer_v3_pred_1.pkl,0.28130344,0.4063913025670116,25.801077,63.40108244652518
multimer_family,P09382_P10226,result_model_1_multimer_v3_pred_1.pkl,0.25407857,0.5079050466432413,22.080767,63.18748434965926
multimer_family,P09382_P10233,result_model_1_multimer_v3_pred_1.pkl,0.3152911,0.3885667000748298,23.911835,55.76745457563097
multimer_family,P09429_P10233,result_model_1_multimer_v3_pred_1.pkl,0.1302175,0.25945268975169056,26.25151,48.12679525624038
multimer_family,P09651_P04487,result_model_1_multimer_v3_pred_1.pkl,0.12573828,0.39454911593970454,25.991125,48.27203177589654
multimer_family,P09651_P10226,result_model_1_multimer_v3_pred_1.pkl,0.14645448,0.39294859598431986,25.866734,52.66614973406043
multimer_family,P09651_P10233,result_model_1_multimer_v3_pred_1.pkl,0.2650888,0.40277747219220184,25.869896,45.5808603206292
multimer_family,P09651_P10238,result_model_1_multimer_v3_pred_1.pkl,0.14315745,0.36561791638838886,26.617977,51.54441074041898
multimer_family,P0C0S5_P10233,result_model_1_multimer_v3_pred_1.pkl,0.15624659,0.2898613244123349,26.30961,42.18018000356045
multimer_family,P0DMV9_P04487,result_model_1_multimer_v3_pred_1.pkl,0.23799211,0.6760162271270567,17.46425,73.55777753689257
multimer_family,P0DP25_P04288,result_model_1_multimer_v3_pred_1.pkl,0.13433516,0.5464273556332232,21.729282,64.0791959245046
multimer_family,P0DP25_P04488,result_model_1_multimer_v3_pred_1.pkl,0.5292413,0.33101970087982757,25.355501,53.18558508570494
multimer_family,P0DP25_P10211,result_model_1_multimer_v3_pred_1.pkl,0.19462276,0.40759546373002653,25.97621,59.828828836796234
multimer_family,P0DP25_P10233,result_model_1_multimer_v3_pred_1.pkl,0.14005977,0.2727124812558951,26.00129,45.06951649608726
multimer_family,P10185_P05556,result_model_1_multimer_v3_pred_1.pkl,0.261154,0.5337342942361993,22.306307,71.11568106705164
multimer_family,P10185_P07237,result_model_1_multimer_v3_pred_1.pkl,0.2071583,0.5372178615226503,19.960768,68.83379623450935
multimer_family,P10185_P09382,result_model_1_multimer_v3_pred_1.pkl,0.24543934,0.45006937176437267,20.372532,65.19943527383658
multimer_family,P10185_P11021,result_model_1_multimer_v3_pred_1.pkl,0.17869818,0.6164249699738671,19.26149,71.13954497429634
multimer_family,P10185_P13667,result_model_1_multimer_v3_pred_1.pkl,0.23467958,0.5954241438414137,18.903042,72.73229870329057
multimer_family,P10185_P14314,result_model_1_multimer_v3_pred_1.pkl,0.16300265,0.40607892442945404,23.76133,65.12569698859015
multimer_family,P10185_P23284,result_model_1_multimer_v3_pred_1.pkl,0.18337518,0.4907729260765914,20.994072,64.71847616065659
multimer_family,P10185_P30101,result_model_1_multimer_v3_pred_1.pkl,0.2068374,0.5471876782426779,19.83504,70.63531235775777
multimer_family,P10185_P50454,result_model_1_multimer_v3_pred_1.pkl,0.22726469,0.6475288940614594,17.67791,70.30727571831893
multimer_family,P10209_P08670,result_model_1_multimer_v3_pred_1.pkl,0.15519032,0.4421953255300433,26.293688,53.39861750496166
multimer_family,P10209_Q99877,result_model_1_multimer_v3_pred_1.pkl,0.19107041,0.6152972093677698,20.420849,59.86712684533482
multimer_family,P10211_P01889,result_model_1_multimer_v3_pred_1.pkl,0.17803574,0.37691598460015924,26.784641,62.59779663672213
multimer_family,P10211_P04844,result_model_1_multimer_v3_pred_1.pkl,0.17978585,0.3803183114270897,26.416674,68.41920729352394
multimer_family,P10211_P07237,result_model_1_multimer_v3_pred_1.pkl,0.18368638,0.341853434634388,26.45241,65.50895018930444
multimer_family,P10211_P08195,result_model_1_multimer_v3_pred_1.pkl,0.17114367,0.38066089811645776,26.911379,62.67494269873014
multimer_family,P10211_P08648,result_model_1_multimer_v3_pred_1.pkl,0.21360321,0.4195942491485106,26.660564,67.1916616078207
multimer_family,P10211_P09382,result_model_1_multimer_v3_pred_1.pkl,0.17511225,0.40297234263797543,25.817633,62.08112038483671
multimer_family,P10211_P10321,result_model_1_multimer_v3_pred_1.pkl,0.18002374,0.3768874994559443,26.754932,62.61728242655231
multimer_family,P10211_P11021,result_model_1_multimer_v3_pred_1.pkl,0.18675989,0.42630122773869505,25.742836,67.30764962872688
multimer_family,P10211_P13667,result_model_1_multimer_v3_pred_1.pkl,0.17917107,0.3814552347526926,26.285006,66.85945804432286
multimer_family,P10211_P14625,result_model_1_multimer_v3_pred_1.pkl,0.18316355,0.3868079150108932,26.828175,63.24399968905131
multimer_family,P10211_P21589,result_model_1_multimer_v3_pred_1.pkl,0.16839387,0.3739235047351711,26.163713,67.68736677892048
multimer_family,P10211_P23284,result_model_1_multimer_v3_pred_1.pkl,0.20956112,0.4046644888449519,25.944248,64.01296249305246
multimer_family,P10211_P30101,result_model_1_multimer_v3_pred_1.pkl,0.16175063,0.34746116444993924,26.50311,66.71811586716196
multimer_family,P10211_P46977,result_model_1_multimer_v3_pred_1.pkl,0.3643855,0.4978725250578013,24.381247,69.89441549981213
multimer_family,P10211_P50454,result_model_1_multimer_v3_pred_1.pkl,0.20078875,0.40475796899943844,25.120378,68.32539039142885
multimer_family,P10211_P62979,result_model_1_multimer_v3_pred_1.pkl,0.14057568,0.39343629763002624,26.29847,62.013506439483926
multimer_family,P10211_Q12907,result_model_1_multimer_v3_pred_1.pkl,0.14942753,0.36304089190179833,26.733696,63.92305837120078
multimer_family,P10211_Q15084,result_model_1_multimer_v3_pred_1.pkl,0.1896885,0.3773198273736583,27.018421,63.98436549049046
multimer_family,P10211_Q15293,result_model_1_multimer_v3_pred_1.pkl,0.21034752,0.3890363479280632,26.227097,59.86998731910153
multimer_family,P10211_Q8TCJ2,result_model_1_multimer_v3_pred_1.pkl,0.19344208,0.47059459910816703,25.60897,65.51586107453319
multimer_family,P10211_Q99805,result_model_1_multimer_v3_pred_1.pkl,0.22883663,0.4483593568395936,25.505062,67.3208359042198
multimer_family,P10211_Q9BTV4,result_model_1_multimer_v3_pred_1.pkl,0.17690188,0.36340274892902963,26.307045,64.10422847433941
multimer_family,P10211_Q9BVC6,result_model_1_multimer_v3_pred_1.pkl,0.19657044,0.4022733275698862,26.818111,57.21665954871936
multimer_family,P10211_Q9BVK6,result_model_1_multimer_v3_pred_1.pkl,0.1545372,0.39030586936290257,26.415035,64.76547512990584
multimer_family,P10218_O00264,result_model_1_multimer_v3_pred_1.pkl,0.1612855,0.413828165138728,22.49246,61.43551357895416
multimer_family,P10218_O15173,result_model_1_multimer_v3_pred_1.pkl,0.15452598,0.39766108598434824,23.628729,57.87855237320061
multimer_family,P10218_O75396,result_model_1_multimer_v3_pred_1.pkl,0.15790771,0.3933849400095187,22.809017,63.31542718728889
multimer_family,P10218_P10599,result_model_1_multimer_v3_pred_1.pkl,0.1657647,0.4577341078218983,20.72349,65.47662188871988
multimer_family,P10218_P26373,result_model_1_multimer_v3_pred_1.pkl,0.08193964,0.3648346227675787,24.533379,65.64976554582019
multimer_family,P10218_P39023,result_model_1_multimer_v3_pred_1.pkl,0.33266017,0.5969114599216349,19.351015,72.47001266199675
multimer_family,P10218_P60468,result_model_1_multimer_v3_pred_1.pkl,0.098907724,0.45359493237563536,23.474281,56.40458983978071
multimer_family,P10218_P61353,result_model_1_multimer_v3_pred_1.pkl,0.1938432,0.45469845342646464,20.6979,64.37843448599487
multimer_family,P10218_Q9UNL2,result_model_1_multimer_v3_pred_1.pkl,0.121699326,0.33983967642006463,23.69089,58.71855430706646
multimer_family,P10225_P10233,result_model_1_multimer_v3_pred_1.pkl,0.17560247,0.5118553244172867,23.548468,53.99235797468093
multimer_family,P10228_P09382,result_model_1_multimer_v3_pred_1.pkl,0.24838352,0.5027618303863303,22.033215,68.45137449339687
multimer_family,P10230_Q9P0L0,result_model_1_multimer_v3_pred_1.pkl,0.2083531,0.46192030893255426,25.332224,54.22613405723495
multimer_family,P10233_P63104,result_model_1_multimer_v3_pred_1.pkl,0.58584464,0.5070364887122634,22.484594,59.06557111836591
multimer_family,P10233_P67809,result_model_1_multimer_v3_pred_1.pkl,0.14433247,0.2557075359422778,28.079725,40.45682301988797
multimer_family,P10233_Q15836,result_model_1_multimer_v3_pred_1.pkl,0.108003885,0.2669735147720723,27.123127,46.534858069939624
multimer_family,P10233_Q702N8,result_model_1_multimer_v3_pred_1.pkl,0.22924185,0.2633321676599507,30.060078,25.9309785915511
multimer_family,P10234_P06703,result_model_1_multimer_v3_pred_1.pkl,0.23154478,0.6914000629162067,15.599767,68.21090831056924
multimer_family,P10234_P57053,result_model_1_multimer_v3_pred_1.pkl,0.16622874,0.6508328778017345,17.9013,61.47111776133571
multimer_family,P10234_Q99877,result_model_1_multimer_v3_pred_1.pkl,0.1888943,0.6535349158322493,17.639217,61.76537783532589
multimer_family,P10599_P04487,result_model_1_multimer_v3_pred_1.pkl,0.09066701,0.40532178246762035,23.695438,71.33739583138184
multimer_family,P10599_P10226,result_model_1_multimer_v3_pred_1.pkl,0.22559261,0.5168940513158407,22.00304,61.472339830200156
multimer_family,P10599_P10233,result_model_1_multimer_v3_pred_1.pkl,0.30238482,0.35365621770406974,24.261763,57.763458080454654
multimer_family,P10599_P10235,result_model_1_multimer_v3_pred_1.pkl,0.1471842,0.3889668760843199,23.256111,47.3287022621003
multimer_family,P11142_P03170,result_model_1_multimer_v3_pred_1.pkl,0.25039035,0.7642160906918193,13.491571,78.92989354683142
multimer_family,P11142_P04487,result_model_1_multimer_v3_pred_1.pkl,0.25512376,0.6836803188137329,17.196802,74.51983324855614
multimer_family,P11142_P10226,result_model_1_multimer_v3_pred_1.pkl,0.27005643,0.5193005849740533,22.508858,69.12120245732085
multimer_family,P11142_P10233,result_model_1_multimer_v3_pred_1.pkl,0.16777484,0.6044773774623862,20.59069,67.9869638880234
multimer_family,P11940_P10238,result_model_1_multimer_v3_pred_1.pkl,0.40484723,0.3687063711127827,27.06017,55.2064261983736
multimer_family,P12004_P10226,result_model_1_multimer_v3_pred_1.pkl,0.34913662,0.43279845614119655,22.951094,62.20093348679186
multimer_family,P13639_P04487,result_model_1_multimer_v3_pred_1.pkl,0.15266478,0.6304843944597304,17.325027,76.1725764722994
multimer_family,P13726_P10211,result_model_1_multimer_v3_pred_1.pkl,0.15363553,0.3842378587393454,26.749458,60.86266958825938
multimer_family,P13797_P10226,result_model_1_multimer_v3_pred_1.pkl,0.14551231,0.501347524311061,23.405708,66.67302268034402
multimer_family,P13987_P06484,result_model_1_multimer_v3_pred_1.pkl,0.15948424,0.30432526643263885,26.350565,43.84413630915893
multimer_family,P13987_P10211,result_model_1_multimer_v3_pred_1.pkl,0.16040507,0.41424687505955277,25.90949,61.94040652964497
multimer_family,P13987_P10229,result_model_1_multimer_v3_pred_1.pkl,0.14521664,0.3981763586393391,21.71675,63.721601551279335
multimer_family,P13987_Q69091,result_model_1_multimer_v3_pred_1.pkl,0.13713166,0.5022433855942083,22.405216,63.768613907047836
multimer_family,P16070_P06487,result_model_1_multimer_v3_pred_1.pkl,0.186345,0.2788823195000952,28.82042,38.27328189216848
multimer_family,P16070_P10228,result_model_1_multimer_v3_pred_1.pkl,0.1833322,0.3309717818247669,28.37885,44.94110502602726
multimer_family,P16070_Q69091,result_model_1_multimer_v3_pred_1.pkl,0.22132531,0.3119428424779937,28.383856,40.15973042407516
multimer_family,P16104_P10233,result_model_1_multimer_v3_pred_1.pkl,0.14960298,0.28170246706624263,26.296535,45.67286716743455
multimer_family,P16333_P10233,result_model_1_multimer_v3_pred_1.pkl,0.32184726,0.278980041363703,26.894415,50.57114563344325
multimer_family,P16401_P10233,result_model_1_multimer_v3_pred_1.pkl,0.14562699,0.26896311352102253,27.76525,40.90829987382226
multimer_family,P16402_P10233,result_model_1_multimer_v3_pred_1.pkl,0.14897996,0.2737807401785297,27.660967,40.80817250675198
multimer_family,P17096_P04487,result_model_1_multimer_v3_pred_1.pkl,0.058678843,0.12257132402149953,27.987333,44.561627984511695
multimer_family,P17096_P10226,result_model_1_multimer_v3_pred_1.pkl,0.11434775,0.4972449769659779,23.803469,53.401575037769774
multimer_family,P17096_P10233,result_model_1_multimer_v3_pred_1.pkl,0.12780884,0.29573967824786945,27.33019,42.11679261650929
multimer_family,P18085_P04488,result_model_1_multimer_v3_pred_1.pkl,0.24420825,0.35261405735520795,24.832434,54.11377636128516
multimer_family,P18085_P10211,result_model_1_multimer_v3_pred_1.pkl,0.14726758,0.39052682887141343,26.10851,63.59475078139437
multimer_family,P18085_Q69091,result_model_1_multimer_v3_pred_1.pkl,0.15022188,0.41908740944663914,22.748169,58.9704323810643
multimer_family,P18124_P04487,result_model_1_multimer_v3_pred_1.pkl,0.0885093,0.47841559065142225,22.507309,64.67778738631671
multimer_family,P20340_P10233,result_model_1_multimer_v3_pred_1.pkl,0.5475526,0.47877174849854176,22.942207,55.11119407210651
multimer_family,P21291_P04487,result_model_1_multimer_v3_pred_1.pkl,0.074202865,0.22409014602079633,27.145195,55.90683997787146
multimer_family,P21926_P04488,result_model_1_multimer_v3_pred_1.pkl,0.2369469,0.30711470860928336,25.872913,55.850528605618365
multimer_family,P21926_P06477,result_model_1_multimer_v3_pred_1.pkl,0.24944252,0.63934781340244,20.239504,69.92482184233143
multimer_family,P21926_P10211,result_model_1_multimer_v3_pred_1.pkl,0.25548983,0.4103420490408826,25.820581,62.04410375785582
multimer_family,P21926_P10229,result_model_1_multimer_v3_pred_1.pkl,0.14461145,0.4405169648846379,19.555668,58.20844888100306
multimer_family,P22626_P10226,result_model_1_multimer_v3_pred_1.pkl,0.14035186,0.390200794580117,25.894455,52.439434295628246
multimer_family,P22626_P10233,result_model_1_multimer_v3_pred_1.pkl,0.34079453,0.3759655087035114,26.343554,46.857826157536465
multimer_family,P23284_P10229,result_model_1_multimer_v3_pred_1.pkl,0.17581713,0.5325299597390467,19.657206,70.4091012214443
multimer_family,P23396_P10233,result_model_1_multimer_v3_pred_1.pkl,0.15299585,0.39515452043741767,24.800869,58.592919870712635
multimer_family,P26373_P10233,result_model_1_multimer_v3_pred_1.pkl,0.10311881,0.29443272883661586,26.531744,56.87860729486148
multimer_family,P26583_P10233,result_model_1_multimer_v3_pred_1.pkl,0.12641285,0.2574106007617845,26.348589,48.252434969809606
multimer_family,P27635_P10233,result_model_1_multimer_v3_pred_1.pkl,0.20064144,0.41966158156598565,24.530981,57.8230485488837
multimer_family,P27797_P03170,result_model_1_multimer_v3_pred_1.pkl,0.2508995,0.6763286819861114,16.336235,77.65795431953613
multimer_family,P27797_P04488,result_model_1_multimer_v3_pred_1.pkl,0.30243602,0.4575318727044087,24.109894,63.198025094211566
multimer_family,P27797_P10185,result_model_1_multimer_v3_pred_1.pkl,0.22311386,0.5565068911145363,20.483791,69.15880400044804
multimer_family,P27797_P10211,result_model_1_multimer_v3_pred_1.pkl,0.18232915,0.3542897692212438,26.347029,64.93262815352884
multimer_family,P27824_P10211,result_model_1_multimer_v3_pred_1.pkl,0.16131175,0.3327932375595438,27.587206,60.44815767756294
multimer_family,P27824_P10229,result_model_1_multimer_v3_pred_1.pkl,0.18124145,0.4873264107730875,23.773792,63.59861367308259
multimer_family,P27824_Q69091,result_model_1_multimer_v3_pred_1.pkl,0.18110193,0.4139060915819504,25.29007,59.448399673258706
multimer_family,P30050_P04487,result_model_1_multimer_v3_pred_1.pkl,0.075876914,0.45719730124714825,22.6945,64.59645109437868
multimer_family,P30050_P10233,result_model_1_multimer_v3_pred_1.pkl,0.32039785,0.417136332914555,23.429928,52.0456294895404
multimer_family,P31949_P03170,result_model_1_multimer_v3_pred_1.pkl,0.21177214,0.5139679535667576,19.0581,55.52190259518582
multimer_family,P31949_P10233,result_model_1_multimer_v3_pred_1.pkl,0.22005022,0.3142094329344205,25.296606,47.93841500065606
multimer_family,P32969_P10233,result_model_1_multimer_v3_pred_1.pkl,0.21349202,0.4171673878791621,23.97895,57.97723094626495
multimer_family,P35268_P04487,result_model_1_multimer_v3_pred_1.pkl,0.10082252,0.3815372088166852,24.392412,63.25247133189083
multimer_family,P35268_P10233,result_model_1_multimer_v3_pred_1.pkl,0.5469408,0.4147118259046492,23.919733,53.1586229889266
multimer_family,P36578_P04487,result_model_1_multimer_v3_pred_1.pkl,0.09441218,0.4706371467683226,23.865026,63.80518745600199
multimer_family,P38159_P10233,result_model_1_multimer_v3_pred_1.pkl,0.16593099,0.24800106918220857,28.543558,34.81699056926482
multimer_family,P39019_P04487,result_model_1_multimer_v3_pred_1.pkl,0.07719168,0.4518193952299406,23.259136,64.58524122993242
multimer_family,P39019_P10226,result_model_1_multimer_v3_pred_1.pkl,0.12583981,0.4695124316998218,23.701948,59.79098606117372
multimer_family,P39023_P04487,result_model_1_multimer_v3_pred_1.pkl,0.100964844,0.6245381343893358,19.313131,68.27212142563202
multimer_family,P40227_P10226,result_model_1_multimer_v3_pred_1.pkl,0.22068572,0.5033346929842376,22.373367,66.34377097661303
multimer_family,P40429_P04487,result_model_1_multimer_v3_pred_1.pkl,0.08035833,0.47925247644691915,22.495064,65.19212210191036
multimer_family,P42766_P04487,result_model_1_multimer_v3_pred_1.pkl,0.058261953,0.37352750530384216,24.604753,64.76945497338244
multimer_family,P42766_P10233,result_model_1_multimer_v3_pred_1.pkl,0.17752819,0.30341740117026594,25.744282,57.36099034954425
multimer_family,P45983_P04294,result_model_1_multimer_v3_pred_1.pkl,0.6519042,0.5084423181700286,21.510345,68.8190769523928
multimer_family,P46776_P10233,result_model_1_multimer_v3_pred_1.pkl,0.099823534,0.2834443169145178,26.478521,58.37814375423692
multimer_family,P46779_P04487,result_model_1_multimer_v3_pred_1.pkl,0.08524002,0.3374821996990626,25.094067,57.51810651914783
multimer_family,P47914_P04487,result_model_1_multimer_v3_pred_1.pkl,0.06331965,0.20112043890939232,27.831596,48.1333723982356
multimer_family,P49207_P10233,result_model_1_multimer_v3_pred_1.pkl,0.10352677,0.26084158397836527,26.9639,53.53864874962034
multimer_family,P49458_P04487,result_model_1_multimer_v3_pred_1.pkl,0.11551629,0.33171544736982045,24.264713,56.04824852037244
multimer_family,P49755_P10229,result_model_1_multimer_v3_pred_1.pkl,0.15805629,0.3386897525337158,22.368092,60.95477873639947
multimer_family,P50402_P10218,result_model_1_multimer_v3_pred_1.pkl,0.11757694,0.3548813745706722,26.75195,48.46406051505231
multimer_family,P50454_P10229,result_model_1_multimer_v3_pred_1.pkl,0.20194739,0.6846555643677846,16.137026,74.41180134276021
multimer_family,P50914_P04487,result_model_1_multimer_v3_pred_1.pkl,0.07781506,0.37218372260241084,25.780584,54.74305722101808
multimer_family,P50914_P10233,result_model_1_multimer_v3_pred_1.pkl,0.09973054,0.2972615514066247,26.940346,48.623002219743775
multimer_family,P52926_P10226,result_model_1_multimer_v3_pred_1.pkl,0.118334,0.4949141639128569,24.045507,51.895459785561236
multimer_family,P55010_P10233,result_model_1_multimer_v3_pred_1.pkl,0.16698548,0.31045434682567224,26.680256,56.054948937973734
multimer_family,P57053_P04487,result_model_1_multimer_v3_pred_1.pkl,0.09009357,0.24660143867989182,25.858936,52.3890197204244
multimer_family,P57053_P10226,result_model_1_multimer_v3_pred_1.pkl,0.23676127,0.5261674617310226,22.74496,51.307825726382696
multimer_family,P57053_P10233,result_model_1_multimer_v3_pred_1.pkl,0.23322147,0.31775493482888584,26.221144,39.851399159328224
multimer_family,P58876_P10233,result_model_1_multimer_v3_pred_1.pkl,0.17921825,0.301403888016511,26.33958,41.34240593067512
multimer_family,P60468_P04487,result_model_1_multimer_v3_pred_1.pkl,0.05686406,0.15433795421946986,27.671076,48.99588832093632
multimer_family,P60468_P10233,result_model_1_multimer_v3_pred_1.pkl,0.17146468,0.30566145380381354,27.001478,41.749720495874115
multimer_family,P60709_P04294,result_model_1_multimer_v3_pred_1.pkl,0.19390452,0.5267040378451724,20.617786,74.42234222233603
multimer_family,P60709_P04296,result_model_1_multimer_v3_pred_1.pkl,0.21942687,0.7030202284135482,18.064558,80.1151556368061
multimer_family,P60709_P04487,result_model_1_multimer_v3_pred_1.pkl,0.16226885,0.6954318904535679,16.239252,72.93500154927436
multimer_family,P60709_P06491,result_model_1_multimer_v3_pred_1.pkl,0.23132679,0.7243410635457466,18.204195,80.00218937497172
multimer_family,P60709_P10226,result_model_1_multimer_v3_pred_1.pkl,0.15062577,0.4881063691809383,22.379293,67.1777085168497
multimer_family,P60709_P10233,result_model_1_multimer_v3_pred_1.pkl,0.13941109,0.5715460094852834,21.131813,65.48612144885811
multimer_family,P60953_P06487,result_model_1_multimer_v3_pred_1.pkl,0.17763272,0.3831906006469283,23.72366,59.49358493939226
multimer_family,P61026_P10233,result_model_1_multimer_v3_pred_1.pkl,0.39423373,0.45016489257349396,23.109488,55.27955316154656
multimer_family,P61254_P04487,result_model_1_multimer_v3_pred_1.pkl,0.05608394,0.4113042550087939,24.586763,62.25904629287919
multimer_family,P61353_P04487,result_model_1_multimer_v3_pred_1.pkl,0.08920593,0.4481147536574828,23.469172,63.60609190231988
multimer_family,P61353_P10233,result_model_1_multimer_v3_pred_1.pkl,0.13689077,0.34383198280524263,25.359398,52.855211987282885
multimer_family,P61513_P10233,result_model_1_multimer_v3_pred_1.pkl,0.17531016,0.3014553470161768,25.985003,47.68135814719343
multimer_family,P61769_P10211,result_model_1_multimer_v3_pred_1.pkl,0.17438173,0.40653877331316723,25.817358,62.60921320635621
multimer_family,P61978_P10233,result_model_1_multimer_v3_pred_1.pkl,0.14217032,0.33069538237845075,27.337992,45.2328420367081
multimer_family,P62136_P10233,result_model_1_multimer_v3_pred_1.pkl,0.6071589,0.5398836921690972,21.915012,62.367687254387235
multimer_family,P62241_P04487,result_model_1_multimer_v3_pred_1.pkl,0.08436942,0.5386861872720885,21.31487,69.30431488349168
multimer_family,P62328_P04487,result_model_1_multimer_v3_pred_1.pkl,0.06523627,0.12762251696494686,27.02694,49.52509606520864
multimer_family,P62424_P04487,result_model_1_multimer_v3_pred_1.pkl,0.06821497,0.453431921989553,24.095663,61.28005199293066
multimer_family,P62750_P04487,result_model_1_multimer_v3_pred_1.pkl,0.071128085,0.3161804219990036,26.101625,63.45248703487666
multimer_family,P62805_P10233,result_model_1_multimer_v3_pred_1.pkl,0.19681063,0.3073474284609556,26.243465,40.16198111743483
multimer_family,P62820_P10231,result_model_1_multimer_v3_pred_1.pkl,0.18276525,0.5844634968747238,21.31879,58.488321205402855
multimer_family,P62820_P10233,result_model_1_multimer_v3_pred_1.pkl,0.28130752,0.4226170462645675,23.608002,53.170304632444555
multimer_family,P62851_P04487,result_model_1_multimer_v3_pred_1.pkl,0.065104425,0.2636378537250292,26.999067,48.95670287969363
multimer_family,P62857_P10233,result_model_1_multimer_v3_pred_1.pkl,0.3176945,0.34349136340535513,25.309258,45.63241642090359
multimer_family,P62888_P10233,result_model_1_multimer_v3_pred_1.pkl,0.17664292,0.31471277226367245,25.21283,52.42653503576452
multimer_family,P62899_P10233,result_model_1_multimer_v3_pred_1.pkl,0.16322902,0.3161818016543569,25.603352,48.496431120508625
multimer_family,P62906_P04487,result_model_1_multimer_v3_pred_1.pkl,0.08258253,0.5298398181892432,21.139397,68.40539885459906
multimer_family,P62913_P04487,result_model_1_multimer_v3_pred_1.pkl,0.07845097,0.49621405505971383,22.399498,62.54607285018235
multimer_family,P62913_P10233,result_model_1_multimer_v3_pred_1.pkl,0.17431483,0.4011400254410094,24.470673,53.21854352281706
multimer_family,P62917_P10233,result_model_1_multimer_v3_pred_1.pkl,0.099200726,0.3653285407986594,26.046171,56.708199382165844
multimer_family,P62937_P03170,result_model_1_multimer_v3_pred_1.pkl,0.189033,0.6864668525808013,14.476792,72.85075574008091
multimer_family,P62937_P04294,result_model_1_multimer_v3_pred_1.pkl,0.21957523,0.6108697982788021,19.401936,70.55302441570802
multimer_family,P62937_P04487,result_model_1_multimer_v3_pred_1.pkl,0.60467714,0.5562092461824021,20.010387,72.7554927784269
multimer_family,P62937_P10226,result_model_1_multimer_v3_pred_1.pkl,0.15554908,0.4586792580176866,22.496153,64.09828368918457
multimer_family,P62937_P10233,result_model_1_multimer_v3_pred_1.pkl,0.20961863,0.43295214034071583,23.246647,60.19469498427281
multimer_family,P62942_P04294,result_model_1_multimer_v3_pred_1.pkl,0.28377354,0.6376711541359866,19.169477,67.87449844688086
multimer_family,P62979_P06485,result_model_1_multimer_v3_pred_1.pkl,0.23954397,0.5598540689829308,19.702015,63.089722793404206
multimer_family,P62979_P10233,result_model_1_multimer_v3_pred_1.pkl,0.16745792,0.2545705396031251,26.978003,54.332659422069305
multimer_family,P62993_P10233,result_model_1_multimer_v3_pred_1.pkl,0.16903481,0.3471934289593668,24.991566,52.697494635385915
multimer_family,P63220_P04487,result_model_1_multimer_v3_pred_1.pkl,0.084870085,0.314256697376433,25.21366,61.45263514593487
multimer_family,P63241_P04487,result_model_1_multimer_v3_pred_1.pkl,0.0893141,0.42495171038474455,23.442684,64.35030338023584
multimer_family,P63241_P10233,result_model_1_multimer_v3_pred_1.pkl,0.1503881,0.3520458261312936,25.188465,54.08863608265956
multimer_family,P67870_P10233,result_model_1_multimer_v3_pred_1.pkl,0.6206259,0.5263601196105849,22.273886,61.47983498250877
multimer_family,P68104_P03170,result_model_1_multimer_v3_pred_1.pkl,0.20631333,0.5347515201742306,16.7579,70.32127622304435
multimer_family,P68104_P04487,result_model_1_multimer_v3_pred_1.pkl,0.1435711,0.6303784694080599,17.551992,68.02142407389505
multimer_family,P68104_P10233,result_model_1_multimer_v3_pred_1.pkl,0.2143976,0.5171238364947764,21.01299,62.37395735536292
multimer_family,P68400_P10233,result_model_1_multimer_v3_pred_1.pkl,0.17362136,0.5411250046187756,22.127594,62.59907289254899
multimer_family,P83731_P04487,result_model_1_multimer_v3_pred_1.pkl,0.067103215,0.2580336903099761,26.666483,62.36113223220627
multimer_family,P83731_P10233,result_model_1_multimer_v3_pred_1.pkl,0.10346042,0.25306802109860466,27.370855,55.209190768932
multimer_family,P84077_P10233,result_model_1_multimer_v3_pred_1.pkl,0.3768484,0.4359360345977795,23.384165,52.694583810555066
multimer_family,P84243_P04487,result_model_1_multimer_v3_pred_1.pkl,0.09260225,0.2727678958799175,26.098791,54.725269558637706
multimer_family,P84243_P10226,result_model_1_multimer_v3_pred_1.pkl,0.16925906,0.49262211952189905,23.6789,53.69341343186537
multimer_family,P84243_P10233,result_model_1_multimer_v3_pred_1.pkl,0.16258612,0.29188738233281075,26.732111,39.17487801733665
multimer_family,Q00341_P04487,result_model_1_multimer_v3_pred_1.pkl,0.15190232,0.29241594395664794,27.859037,65.03740963688672
multimer_family,Q00839_P10226,result_model_1_multimer_v3_pred_1.pkl,0.17432526,0.4013283333546713,26.58928,53.31318283502168
multimer_family,Q01105_P04487,result_model_1_multimer_v3_pred_1.pkl,0.09058399,0.4330583452801542,24.725939,54.38951719924382
multimer_family,Q01105_P10233,result_model_1_multimer_v3_pred_1.pkl,0.11946597,0.3725162097733539,26.103962,49.60151220173261
multimer_family,Q02543_P04487,result_model_1_multimer_v3_pred_1.pkl,0.10579105,0.4380703908689658,22.990076,62.35587596283398
multimer_family,Q02818_P10220,result_model_1_multimer_v3_pred_1.pkl,0.27314496,0.36639089458052093,29.376001,51.050660160321094
multimer_family,Q02878_P04487,result_model_1_multimer_v3_pred_1.pkl,0.07530177,0.3577207685897484,26.178782,57.897532449964
multimer_family,Q03518_P03170,result_model_1_multimer_v3_pred_1.pkl,0.22595987,0.5798128359485131,18.9821,70.05353804964439
multimer_family,Q05639_P04487,result_model_1_multimer_v3_pred_1.pkl,0.15205437,0.6250942898455842,17.483875,68.32532031153693
multimer_family,Q06830_P10226,result_model_1_multimer_v3_pred_1.pkl,0.11287005,0.4420608766800655,23.717035,64.81320920704042
multimer_family,Q07020_P04487,result_model_1_multimer_v3_pred_1.pkl,0.0754164,0.4383965078882552,23.574648,63.59873231477845
multimer_family,Q07020_P10233,result_model_1_multimer_v3_pred_1.pkl,0.19509697,0.334924461926457,26.018337,52.738214583306394
multimer_family,Q10472_P04488,result_model_1_multimer_v3_pred_1.pkl,0.26167083,0.5332350315859309,22.652313,66.85199844320884
multimer_family,Q13123_P10233,result_model_1_multimer_v3_pred_1.pkl,0.2910778,0.22600359316556345,29.450598,39.440151703040534
multimer_family,Q13641_P10229,result_model_1_multimer_v3_pred_1.pkl,0.12897459,0.5139904242878595,22.320189,66.991840143079
multimer_family,Q14011_P10233,result_model_1_multimer_v3_pred_1.pkl,0.19433086,0.3059782605498419,26.492712,43.516930405228344
multimer_family,Q14697_P10211,result_model_1_multimer_v3_pred_1.pkl,0.20343801,0.5664191702471079,23.362303,71.51323265084315
multimer_family,Q14847_P10233,result_model_1_multimer_v3_pred_1.pkl,0.3677764,0.37752073702933764,26.335352,44.803713866447175
multimer_family,Q15056_P10225,result_model_1_multimer_v3_pred_1.pkl,0.66931075,0.6476009504900495,19.683138,63.38221530423681
multimer_family,Q15056_P10231,result_model_1_multimer_v3_pred_1.pkl,0.14318565,0.6171862526664859,21.312817,60.28739960452432
multimer_family,Q15056_P10233,result_model_1_multimer_v3_pred_1.pkl,0.12691516,0.26001417606541116,27.7005,43.39782152227963
multimer_family,Q15691_P10233,result_model_1_multimer_v3_pred_1.pkl,0.14206478,0.3171967149432161,26.713434,51.67984970721615
multimer_family,Q16531_P10231,result_model_1_multimer_v3_pred_1.pkl,0.29241276,0.6082928351297168,20.64796,78.8607765634212
multimer_family,Q16777_P10233,result_model_1_multimer_v3_pred_1.pkl,0.15825705,0.29198810067648284,26.020916,44.40398343385141
multimer_family,Q1KMD3_P10226,result_model_1_multimer_v3_pred_1.pkl,0.25734323,0.4513329947368471,25.19176,57.75288357644497
multimer_family,Q5QNW6_P10233,result_model_1_multimer_v3_pred_1.pkl,0.1733293,0.2954702582969917,26.29889,44.2240027493522
multimer_family,Q5VW38_P10229,result_model_1_multimer_v3_pred_1.pkl,0.17153971,0.5620545844035525,21.587904,60.85469166240051
multimer_family,Q69091_P09382,result_model_1_multimer_v3_pred_1.pkl,0.1349914,0.4295230576500706,22.671646,60.79200023789052
multimer_family,Q69091_P11021,result_model_1_multimer_v3_pred_1.pkl,0.2196277,0.5219659666829339,22.004002,69.68306174908878
multimer_family,Q69091_P27105,result_model_1_multimer_v3_pred_1.pkl,0.11239052,0.40449745701224016,24.136116,66.44619992637674
multimer_family,Q69091_P61224,result_model_1_multimer_v3_pred_1.pkl,0.13958931,0.412643751360839,22.792274,61.38411662912405
multimer_family,Q69091_Q12907,result_model_1_multimer_v3_pred_1.pkl,0.1340478,0.4032994931683809,24.279928,61.177284972347444
multimer_family,Q69091_Q92835,result_model_1_multimer_v3_pred_1.pkl,0.20577441,0.5010493615126933,25.506771,56.959753853771225
multimer_family,Q6NZI2_P10233,result_model_1_multimer_v3_pred_1.pkl,0.23280157,0.2377086652761533,29.069775,37.62544941372707
multimer_family,Q70UQ0_P10218,result_model_1_multimer_v3_pred_1.pkl,0.09435552,0.30684741726622766,27.636131,62.45767931327408
multimer_family,Q71DI3_P10233,result_model_1_multimer_v3_pred_1.pkl,0.15882155,0.28583033128202723,26.850891,38.12881015929844
multimer_family,Q7Z7H5_P10229,result_model_1_multimer_v3_pred_1.pkl,0.24325982,0.384369811906479,22.10886,59.03110686331059
multimer_family,Q8WWI1_P08543,result_model_1_multimer_v3_pred_1.pkl,0.39185035,0.4528071518575053,28.175007,42.92402605703359
multimer_family,Q93077_P10233,result_model_1_multimer_v3_pred_1.pkl,0.1376418,0.2830675485847734,26.185442,44.26437369110472
multimer_family,Q96AG4_P10218,result_model_1_multimer_v3_pred_1.pkl,0.33544213,0.4662880356954719,21.947863,68.5970372991869
multimer_family,Q99877_P03170,result_model_1_multimer_v3_pred_1.pkl,0.11112292,0.33889952114130906,22.4142,44.56763979326896
multimer_family,Q99877_P04294,result_model_1_multimer_v3_pred_1.pkl,0.20299925,0.6338087110299588,20.001875,62.49102513067888
multimer_family,Q99877_P04485,result_model_1_multimer_v3_pred_1.pkl,0.14680687,0.22583756120564197,27.20084,32.85483624251506
multimer_family,Q99877_P04487,result_model_1_multimer_v3_pred_1.pkl,0.08821404,0.31890686592501133,25.21999,57.734468460579926
multimer_family,Q99877_P10226,result_model_1_multimer_v3_pred_1.pkl,0.20136844,0.506135689590001,23.120367,53.798840191672156
multimer_family,Q99877_P10231,result_model_1_multimer_v3_pred_1.pkl,0.21540038,0.6679682874463369,19.14506,62.689151221582556
multimer_family,Q99877_P10233,result_model_1_multimer_v3_pred_1.pkl,0.17621332,0.30155190082315375,26.329292,41.81109060109705
multimer_family,Q99878_P10233,result_model_1_multimer_v3_pred_1.pkl,0.14096908,0.2846370494417441,26.114838,43.77971168591534
multimer_family,Q99879_P10233,result_model_1_multimer_v3_pred_1.pkl,0.17351812,0.2967720491179412,26.30996,44.129016564437414
multimer_family,Q99880_P10233,result_model_1_multimer_v3_pred_1.pkl,0.16841426,0.29938102050460924,26.351643,42.207815952751744
multimer_family,Q9BS26_P10211,result_model_1_multimer_v3_pred_1.pkl,0.15797113,0.35655987698113556,26.619844,64.1525072144245
multimer_family,Q9BVK6_P10229,result_model_1_multimer_v3_pred_1.pkl,0.16553555,0.3240067495516449,23.091114,58.648527053384065
multimer_family,Q9BXS5_P04488,result_model_1_multimer_v3_pred_1.pkl,0.31770223,0.3725798496783142,25.591269,59.33126470647563
multimer_family,Q9GZQ8_P10233,result_model_1_multimer_v3_pred_1.pkl,0.57928133,0.3740554455090218,24.101198,52.63643305258725
multimer_family,Q9H0U4_P10231,result_model_1_multimer_v3_pred_1.pkl,0.3286808,0.680043885964269,17.943798,69.48685330728992
multimer_family,Q9H0U4_P10233,result_model_1_multimer_v3_pred_1.pkl,0.28609386,0.42313337495887543,23.592846,53.08831084208735
multimer_family,Q9H299_P10233,result_model_1_multimer_v3_pred_1.pkl,0.25836182,0.32310929145732675,24.996437,52.149455161180775
multimer_family,Q9H3P7_P04488,result_model_1_multimer_v3_pred_1.pkl,0.18166271,0.2834043006882294,27.412413,55.18832808133434
multimer_family,Q9HDC9_P10211,result_model_1_multimer_v3_pred_1.pkl,0.16351695,0.3842028939220734,25.811504,67.32459018732118
multimer_family,Q9NR12_P10233,result_model_1_multimer_v3_pred_1.pkl,0.14544521,0.2282511938952445,28.129187,45.98364855613064
multimer_family,Q9P2E9_P04487,result_model_1_multimer_v3_pred_1.pkl,0.14921997,0.19787822124901894,30.30441,35.46072444503513
multimer_family,Q9Y224_P10233,result_model_1_multimer_v3_pred_1.pkl,0.14529206,0.2653595967801864,26.894142,44.741773276825285
