multimer_sprot_id,O00299_P04487,O00299_P04487.fasta,2
multimer_sprot_id,O43169_P04488,O43169_P04488.fasta,21
multimer_sprot_id,O43169_P10218,O43169_P10218.fasta,5
multimer_sprot_id,O43852_P10185,O43852_P10185.fasta,8
multimer_sprot_id,O43852_P10211,O43852_P10211.fasta,12
multimer_sprot_id,O75396_P04487,O75396_P04487.fasta,2
multimer_sprot_id,O75531_P10233,O75531_P10233.fasta,3
multimer_sprot_id,P00338_P04487,P00338_P04487.fasta,3
multimer_sprot_id,P00387_P04488,P00387_P04488.fasta,27
multimer_sprot_id,P01889_P10229,P01889_P10229.fasta,237
multimer_sprot_id,P02511_P10233,P02511_P10233.fasta,5
multimer_sprot_id,P04083_P04488,P04083_P04488.fasta,30
multimer_sprot_id,P04288_P06703,P04288_P06703.fasta,10
multimer_sprot_id,P04288_P62820,P04288_P62820.fasta,8
multimer_sprot_id,P04288_P62979,P04288_P62979.fasta,20
multimer_sprot_id,P04288_Q9H0U4,P04288_Q9H0U4.fasta,10
multimer_sprot_id,P04294_P13010,P04294_P13010.fasta,17
multimer_sprot_id,P04294_P27348,P04294_P27348.fasta,15
multimer_sprot_id,P04294_P31946,P04294_P31946.fasta,16
multimer_sprot_id,P04294_P61981,P04294_P61981.fasta,16
multimer_sprot_id,P04294_P62258,P04294_P62258.fasta,16
multimer_sprot_id,P04294_P63104,P04294_P63104.fasta,16
multimer_sprot_id,P04294_Q9Y4E8,P04294_Q9Y4E8.fasta,29
multimer_sprot_id,P04296_P07737,P04296_P07737.fasta,5
multimer_sprot_id,P04406_P04487,P04406_P04487.fasta,2
multimer_sprot_id,P04406_P10226,P04406_P10226.fasta,6
multimer_sprot_id,P04406_P10233,P04406_P10233.fasta,5
multimer_sprot_id,P04487_P08670,P04487_P08670.fasta,13
multimer_sprot_id,P04487_P67809,P04487_P67809.fasta,10
multimer_sprot_id,P04488_O14828,P04488_O14828.fasta,17
multimer_sprot_id,P04488_O15127,P04488_O15127.fasta,16
multimer_sprot_id,P04488_O75396,P04488_O75396.fasta,17
multimer_sprot_id,P04488_P06703,P04488_P06703.fasta,19
multimer_sprot_id,P04488_P07237,P04488_P07237.fasta,33
multimer_sprot_id,P04488_P11166,P04488_P11166.fasta,24
multimer_sprot_id,P04488_P20340,P04488_P20340.fasta,25
multimer_sprot_id,P04488_P60468,P04488_P60468.fasta,6
multimer_sprot_id,P04488_P61019,P04488_P61019.fasta,24
multimer_sprot_id,P04488_P62820,P04488_P62820.fasta,18
multimer_sprot_id,P04488_P62979,P04488_P62979.fasta,47
multimer_sprot_id,P04488_Q15836,P04488_Q15836.fasta,21
multimer_sprot_id,P04488_Q96AJ9,P04488_Q96AJ9.fasta,18
multimer_sprot_id,P04488_Q9BVC6,P04488_Q9BVC6.fasta,10
multimer_sprot_id,P04488_Q9GZQ8,P04488_Q9GZQ8.fasta,15
multimer_sprot_id,P04488_Q9H0U4,P04488_Q9H0U4.fasta,22
multimer_sprot_id,P04488_Q9H4G4,P04488_Q9H4G4.fasta,14
multimer_sprot_id,P04792_P04294,P04792_P04294.fasta,25
multimer_sprot_id,P04792_P10233,P04792_P10233.fasta,11
multimer_sprot_id,P05023_P04488,P05023_P04488.fasta,19
multimer_sprot_id,P05204_P10233,P05204_P10233.fasta,9
multimer_sprot_id,P06487_P06703,P06487_P06703.fasta,11
multimer_sprot_id,P06487_P20340,P06487_P20340.fasta,11
multimer_sprot_id,P06487_P51148,P06487_P51148.fasta,8
multimer_sprot_id,P06487_P62937,P06487_P62937.fasta,13
multimer_sprot_id,P06487_Q9H0U4,P06487_Q9H0U4.fasta,9
multimer_sprot_id,P06491_P10599,P06491_P10599.fasta,9
multimer_sprot_id,P06703_P04487,P06703_P04487.fasta,6
multimer_sprot_id,P06703_P10226,P06703_P10226.fasta,10
multimer_sprot_id,P06703_P10233,P06703_P10233.fasta,11
multimer_sprot_id,P06703_P10238,P06703_P10238.fasta,14
multimer_sprot_id,P06733_P04487,P06733_P04487.fasta,2
multimer_sprot_id,P06733_P10226,P06733_P10226.fasta,6
multimer_sprot_id,P06748_P04487,P06748_P04487.fasta,9
multimer_sprot_id,P07355_P06487,P07355_P06487.fasta,8
multimer_sprot_id,P07355_Q69091,P07355_Q69091.fasta,26
multimer_sprot_id,P07384_P10231,P07384_P10231.fasta,6
multimer_sprot_id,P07437_P10233,P07437_P10233.fasta,7
multimer_sprot_id,P07737_P04487,P07737_P04487.fasta,2
multimer_sprot_id,P07737_P08543,P07737_P08543.fasta,166
multimer_sprot_id,P07737_P10233,P07737_P10233.fasta,3
multimer_sprot_id,P08133_P04288,P08133_P04288.fasta,9
multimer_sprot_id,P08133_P04488,P08133_P04488.fasta,24
multimer_sprot_id,P08133_P06487,P08133_P06487.fasta,9
multimer_sprot_id,P08133_Q69091,P08133_Q69091.fasta,25
multimer_sprot_id,P08134_P10233,P08134_P10233.fasta,5
multimer_sprot_id,P08195_P10229,P08195_P10229.fasta,168
multimer_sprot_id,P08392_P35268,P08392_P35268.fasta,5
multimer_sprot_id,P08758_P10233,P08758_P10233.fasta,5
multimer_sprot_id,P08758_Q69091,P08758_Q69091.fasta,27
multimer_sprot_id,P08962_P10211,P08962_P10211.fasta,9
multimer_sprot_id,P09382_P10226,P09382_P10226.fasta,7
multimer_sprot_id,P09382_P10233,P09382_P10233.fasta,8
multimer_sprot_id,P09429_P10233,P09429_P10233.fasta,11
multimer_sprot_id,P09651_P04487,P09651_P04487.fasta,13
multimer_sprot_id,P09651_P10226,P09651_P10226.fasta,20
multimer_sprot_id,P09651_P10233,P09651_P10233.fasta,18
multimer_sprot_id,P09651_P10238,P09651_P10238.fasta,20
multimer_sprot_id,P0C0S5_P10233,P0C0S5_P10233.fasta,9
multimer_sprot_id,P0DMV9_P04487,P0DMV9_P04487.fasta,1
multimer_sprot_id,P0DP25_P04288,P0DP25_P04288.fasta,7
multimer_sprot_id,P0DP25_P04488,P0DP25_P04488.fasta,22
multimer_sprot_id,P0DP25_P10211,P0DP25_P10211.fasta,10
multimer_sprot_id,P0DP25_P10233,P0DP25_P10233.fasta,6
multimer_sprot_id,P10185_P05556,P10185_P05556.fasta,17
multimer_sprot_id,P10185_P07237,P10185_P07237.fasta,20
multimer_sprot_id,P10185_P09382,P10185_P09382.fasta,7
multimer_sprot_id,P10185_P11021,P10185_P11021.fasta,8
multimer_sprot_id,P10185_P13667,P10185_P13667.fasta,14
multimer_sprot_id,P10185_P14314,P10185_P14314.fasta,14
multimer_sprot_id,P10185_P23284,P10185_P23284.fasta,7
multimer_sprot_id,P10185_P30101,P10185_P30101.fasta,19
multimer_sprot_id,P10185_P50454,P10185_P50454.fasta,7
multimer_sprot_id,P10209_P08670,P10209_P08670.fasta,15
multimer_sprot_id,P10209_Q99877,P10209_Q99877.fasta,4
multimer_sprot_id,P10211_P01889,P10211_P01889.fasta,71
multimer_sprot_id,P10211_P04844,P10211_P04844.fasta,5
multimer_sprot_id,P10211_P07237,P10211_P07237.fasta,20
multimer_sprot_id,P10211_P08195,P10211_P08195.fasta,12
multimer_sprot_id,P10211_P08648,P10211_P08648.fasta,17
multimer_sprot_id,P10211_P09382,P10211_P09382.fasta,12
multimer_sprot_id,P10211_P10321,P10211_P10321.fasta,70
multimer_sprot_id,P10211_P11021,P10211_P11021.fasta,10
multimer_sprot_id,P10211_P13667,P10211_P13667.fasta,15
multimer_sprot_id,P10211_P14625,P10211_P14625.fasta,9
multimer_sprot_id,P10211_P21589,P10211_P21589.fasta,6
multimer_sprot_id,P10211_P23284,P10211_P23284.fasta,10
multimer_sprot_id,P10211_P30101,P10211_P30101.fasta,20
multimer_sprot_id,P10211_P46977,P10211_P46977.fasta,8
multimer_sprot_id,P10211_P50454,P10211_P50454.fasta,12
multimer_sprot_id,P10211_P62979,P10211_P62979.fasta,38
multimer_sprot_id,P10211_Q12907,P10211_Q12907.fasta,5
multimer_sprot_id,P10211_Q15084,P10211_Q15084.fasta,15
multimer_sprot_id,P10211_Q15293,P10211_Q15293.fasta,11
multimer_sprot_id,P10211_Q8TCJ2,P10211_Q8TCJ2.fasta,8
multimer_sprot_id,P10211_Q99805,P10211_Q99805.fasta,4
multimer_sprot_id,P10211_Q9BTV4,P10211_Q9BTV4.fasta,8
multimer_sprot_id,P10211_Q9BVC6,P10211_Q9BVC6.fasta,5
multimer_sprot_id,P10211_Q9BVK6,P10211_Q9BVK6.fasta,5
multimer_sprot_id,P10218_O00264,P10218_O00264.fasta,2
multimer_sprot_id,P10218_O15173,P10218_O15173.fasta,5
multimer_sprot_id,P10218_O75396,P10218_O75396.fasta,3
multimer_sprot_id,P10218_P10599,P10218_P10599.fasta,6
multimer_sprot_id,P10218_P26373,P10218_P26373.fasta,4
multimer_sprot_id,P10218_P39023,P10218_P39023.fasta,1
multimer_sprot_id,P10218_P60468,P10218_P60468.fasta,2
multimer_sprot_id,P10218_P61353,P10218_P61353.fasta,5
multimer_sprot_id,P10218_Q9UNL2,P10218_Q9UNL2.fasta,1
multimer_sprot_id,P10225_P10233,P10225_P10233.fasta,56
multimer_sprot_id,P10228_P09382,P10228_P09382.fasta,82
multimer_sprot_id,P10230_Q9P0L0,P10230_Q9P0L0.fasta,4
multimer_sprot_id,P10233_P63104,P10233_P63104.fasta,5
multimer_sprot_id,P10233_P67809,P10233_P67809.fasta,14
multimer_sprot_id,P10233_Q15836,P10233_Q15836.fasta,6
multimer_sprot_id,P10233_Q702N8,P10233_Q702N8.fasta,6
multimer_sprot_id,P10234_P06703,P10234_P06703.fasta,15
multimer_sprot_id,P10234_P57053,P10234_P57053.fasta,8
multimer_sprot_id,P10234_Q99877,P10234_Q99877.fasta,7
multimer_sprot_id,P10599_P04487,P10599_P04487.fasta,5
multimer_sprot_id,P10599_P10226,P10599_P10226.fasta,10
multimer_sprot_id,P10599_P10233,P10599_P10233.fasta,7
multimer_sprot_id,P10599_P10235,P10599_P10235.fasta,11
multimer_sprot_id,P11142_P03170,P11142_P03170.fasta,1
multimer_sprot_id,P11142_P04487,P11142_P04487.fasta,1
multimer_sprot_id,P11142_P10226,P11142_P10226.fasta,7
multimer_sprot_id,P11142_P10233,P11142_P10233.fasta,4
multimer_sprot_id,P11940_P10238,P11940_P10238.fasta,26
multimer_sprot_id,P12004_P10226,P12004_P10226.fasta,5
multimer_sprot_id,P13639_P04487,P13639_P04487.fasta,3
multimer_sprot_id,P13726_P10211,P13726_P10211.fasta,6
multimer_sprot_id,P13797_P10226,P13797_P10226.fasta,14
multimer_sprot_id,P13987_P06484,P13987_P06484.fasta,26
multimer_sprot_id,P13987_P10211,P13987_P10211.fasta,12
multimer_sprot_id,P13987_P10229,P13987_P10229.fasta,170
multimer_sprot_id,P13987_Q69091,P13987_Q69091.fasta,9
multimer_sprot_id,P16070_P06487,P16070_P06487.fasta,26
multimer_sprot_id,P16070_P10228,P16070_P10228.fasta,104
multimer_sprot_id,P16070_Q69091,P16070_Q69091.fasta,23
multimer_sprot_id,P16104_P10233,P16104_P10233.fasta,9
multimer_sprot_id,P16333_P10233,P16333_P10233.fasta,23
multimer_sprot_id,P16401_P10233,P16401_P10233.fasta,9
multimer_sprot_id,P16402_P10233,P16402_P10233.fasta,8
multimer_sprot_id,P17096_P04487,P17096_P04487.fasta,3
multimer_sprot_id,P17096_P10226,P17096_P10226.fasta,5
multimer_sprot_id,P17096_P10233,P17096_P10233.fasta,5
multimer_sprot_id,P18085_P04488,P18085_P04488.fasta,25
multimer_sprot_id,P18085_P10211,P18085_P10211.fasta,14
multimer_sprot_id,P18085_Q69091,P18085_Q69091.fasta,41
multimer_sprot_id,P18124_P04487,P18124_P04487.fasta,2
multimer_sprot_id,P20340_P10233,P20340_P10233.fasta,12
multimer_sprot_id,P21291_P04487,P21291_P04487.fasta,7
multimer_sprot_id,P21926_P04488,P21926_P04488.fasta,25
multimer_sprot_id,P21926_P06477,P21926_P06477.fasta,7
multimer_sprot_id,P21926_P10211,P21926_P10211.fasta,11
multimer_sprot_id,P21926_P10229,P21926_P10229.fasta,237
multimer_sprot_id,P22626_P10226,P22626_P10226.fasta,10
multimer_sprot_id,P22626_P10233,P22626_P10233.fasta,7
multimer_sprot_id,P23284_P10229,P23284_P10229.fasta,127
multimer_sprot_id,P23396_P10233,P23396_P10233.fasta,3
multimer_sprot_id,P26373_P10233,P26373_P10233.fasta,5
multimer_sprot_id,P26583_P10233,P26583_P10233.fasta,9
multimer_sprot_id,P27635_P10233,P27635_P10233.fasta,7
multimer_sprot_id,P27797_P03170,P27797_P03170.fasta,7
multimer_sprot_id,P27797_P04488,P27797_P04488.fasta,23
multimer_sprot_id,P27797_P10185,P27797_P10185.fasta,11
multimer_sprot_id,P27797_P10211,P27797_P10211.fasta,11
multimer_sprot_id,P27824_P10211,P27824_P10211.fasta,13
multimer_sprot_id,P27824_P10229,P27824_P10229.fasta,189
multimer_sprot_id,P27824_Q69091,P27824_Q69091.fasta,40
multimer_sprot_id,P30050_P04487,P30050_P04487.fasta,2
multimer_sprot_id,P30050_P10233,P30050_P10233.fasta,5
multimer_sprot_id,P31949_P03170,P31949_P03170.fasta,3
multimer_sprot_id,P31949_P10233,P31949_P10233.fasta,6
multimer_sprot_id,P32969_P10233,P32969_P10233.fasta,4
multimer_sprot_id,P35268_P04487,P35268_P04487.fasta,1
multimer_sprot_id,P35268_P10233,P35268_P10233.fasta,4
multimer_sprot_id,P36578_P04487,P36578_P04487.fasta,2
multimer_sprot_id,P38159_P10233,P38159_P10233.fasta,15
multimer_sprot_id,P39019_P04487,P39019_P04487.fasta,1
multimer_sprot_id,P39019_P10226,P39019_P10226.fasta,3
multimer_sprot_id,P39023_P04487,P39023_P04487.fasta,1
multimer_sprot_id,P40227_P10226,P40227_P10226.fasta,3
multimer_sprot_id,P40429_P04487,P40429_P04487.fasta,2
multimer_sprot_id,P42766_P04487,P42766_P04487.fasta,3
multimer_sprot_id,P42766_P10233,P42766_P10233.fasta,5
multimer_sprot_id,P45983_P04294,P45983_P04294.fasta,26
multimer_sprot_id,P46776_P10233,P46776_P10233.fasta,1
multimer_sprot_id,P46779_P04487,P46779_P04487.fasta,1
multimer_sprot_id,P47914_P04487,P47914_P04487.fasta,3
multimer_sprot_id,P49207_P10233,P49207_P10233.fasta,1
multimer_sprot_id,P49458_P04487,P49458_P04487.fasta,1
multimer_sprot_id,P49755_P10229,P49755_P10229.fasta,124
multimer_sprot_id,P50402_P10218,P50402_P10218.fasta,5
multimer_sprot_id,P50454_P10229,P50454_P10229.fasta,200
multimer_sprot_id,P50914_P04487,P50914_P04487.fasta,3
multimer_sprot_id,P50914_P10233,P50914_P10233.fasta,6
multimer_sprot_id,P52926_P10226,P52926_P10226.fasta,2
multimer_sprot_id,P55010_P10233,P55010_P10233.fasta,4
multimer_sprot_id,P57053_P04487,P57053_P04487.fasta,6
multimer_sprot_id,P57053_P10226,P57053_P10226.fasta,8
multimer_sprot_id,P57053_P10233,P57053_P10233.fasta,7
multimer_sprot_id,P58876_P10233,P58876_P10233.fasta,5
multimer_sprot_id,P60468_P04487,P60468_P04487.fasta,2
multimer_sprot_id,P60468_P10233,P60468_P10233.fasta,2
multimer_sprot_id,P60709_P04294,P60709_P04294.fasta,33
multimer_sprot_id,P60709_P04296,P60709_P04296.fasta,19
multimer_sprot_id,P60709_P04487,P60709_P04487.fasta,13
multimer_sprot_id,P60709_P06491,P60709_P06491.fasta,21
multimer_sprot_id,P60709_P10226,P60709_P10226.fasta,19
multimer_sprot_id,P60709_P10233,P60709_P10233.fasta,19
multimer_sprot_id,P60953_P06487,P60953_P06487.fasta,6
multimer_sprot_id,P61026_P10233,P61026_P10233.fasta,6
multimer_sprot_id,P61254_P04487,P61254_P04487.fasta,3
multimer_sprot_id,P61353_P04487,P61353_P04487.fasta,4
multimer_sprot_id,P61353_P10233,P61353_P10233.fasta,5
multimer_sprot_id,P61513_P10233,P61513_P10233.fasta,5
multimer_sprot_id,P61769_P10211,P61769_P10211.fasta,24
multimer_sprot_id,P61978_P10233,P61978_P10233.fasta,13
multimer_sprot_id,P62136_P10233,P62136_P10233.fasta,6
multimer_sprot_id,P62241_P04487,P62241_P04487.fasta,2
multimer_sprot_id,P62328_P04487,P62328_P04487.fasta,5
multimer_sprot_id,P62424_P04487,P62424_P04487.fasta,1
multimer_sprot_id,P62750_P04487,P62750_P04487.fasta,3
multimer_sprot_id,P62805_P10233,P62805_P10233.fasta,5
multimer_sprot_id,P62820_P10231,P62820_P10231.fasta,5
multimer_sprot_id,P62820_P10233,P62820_P10233.fasta,7
multimer_sprot_id,P62851_P04487,P62851_P04487.fasta,1
multimer_sprot_id,P62857_P10233,P62857_P10233.fasta,2
multimer_sprot_id,P62888_P10233,P62888_P10233.fasta,3
multimer_sprot_id,P62899_P10233,P62899_P10233.fasta,3
multimer_sprot_id,P62906_P04487,P62906_P04487.fasta,1
multimer_sprot_id,P62913_P04487,P62913_P04487.fasta,1
multimer_sprot_id,P62913_P10233,P62913_P10233.fasta,3
multimer_sprot_id,P62917_P10233,P62917_P10233.fasta,2
multimer_sprot_id,P62937_P03170,P62937_P03170.fasta,8
multimer_sprot_id,P62937_P04294,P62937_P04294.fasta,26
multimer_sprot_id,P62937_P04487,P62937_P04487.fasta,10
multimer_sprot_id,P62937_P10226,P62937_P10226.fasta,14
multimer_sprot_id,P62937_P10233,P62937_P10233.fasta,14
multimer_sprot_id,P62942_P04294,P62942_P04294.fasta,25
multimer_sprot_id,P62979_P06485,P62979_P06485.fasta,24
multimer_sprot_id,P62979_P10233,P62979_P10233.fasta,24
multimer_sprot_id,P62993_P10233,P62993_P10233.fasta,17
multimer_sprot_id,P63220_P04487,P63220_P04487.fasta,6
multimer_sprot_id,P63241_P04487,P63241_P04487.fasta,1
multimer_sprot_id,P63241_P10233,P63241_P10233.fasta,4
multimer_sprot_id,P67870_P10233,P67870_P10233.fasta,7
multimer_sprot_id,P68104_P03170,P68104_P03170.fasta,2
multimer_sprot_id,P68104_P04487,P68104_P04487.fasta,2
multimer_sprot_id,P68104_P10233,P68104_P10233.fasta,5
multimer_sprot_id,P68400_P10233,P68400_P10233.fasta,9
multimer_sprot_id,P83731_P04487,P83731_P04487.fasta,2
multimer_sprot_id,P83731_P10233,P83731_P10233.fasta,4
multimer_sprot_id,P84077_P10233,P84077_P10233.fasta,8
multimer_sprot_id,P84243_P04487,P84243_P04487.fasta,4
multimer_sprot_id,P84243_P10226,P84243_P10226.fasta,8
multimer_sprot_id,P84243_P10233,P84243_P10233.fasta,6
multimer_sprot_id,Q00341_P04487,Q00341_P04487.fasta,13
multimer_sprot_id,Q00839_P10226,Q00839_P10226.fasta,10
multimer_sprot_id,Q01105_P04487,Q01105_P04487.fasta,8
multimer_sprot_id,Q01105_P10233,Q01105_P10233.fasta,10
multimer_sprot_id,Q02543_P04487,Q02543_P04487.fasta,2
multimer_sprot_id,Q02818_P10220,Q02818_P10220.fasta,10
multimer_sprot_id,Q02878_P04487,Q02878_P04487.fasta,2
multimer_sprot_id,Q03518_P03170,Q03518_P03170.fasta,7
multimer_sprot_id,Q05639_P04487,Q05639_P04487.fasta,1
multimer_sprot_id,Q06830_P10226,Q06830_P10226.fasta,8
multimer_sprot_id,Q07020_P04487,Q07020_P04487.fasta,2
multimer_sprot_id,Q07020_P10233,Q07020_P10233.fasta,4
multimer_sprot_id,Q10472_P04488,Q10472_P04488.fasta,30
multimer_sprot_id,Q13123_P10233,Q13123_P10233.fasta,2
multimer_sprot_id,Q13641_P10229,Q13641_P10229.fasta,252
multimer_sprot_id,Q14011_P10233,Q14011_P10233.fasta,11
multimer_sprot_id,Q14697_P10211,Q14697_P10211.fasta,8
multimer_sprot_id,Q14847_P10233,Q14847_P10233.fasta,24
multimer_sprot_id,Q15056_P10225,Q15056_P10225.fasta,18
multimer_sprot_id,Q15056_P10231,Q15056_P10231.fasta,4
multimer_sprot_id,Q15056_P10233,Q15056_P10233.fasta,7
multimer_sprot_id,Q15691_P10233,Q15691_P10233.fasta,11
multimer_sprot_id,Q16531_P10231,Q16531_P10231.fasta,7
multimer_sprot_id,Q16777_P10233,Q16777_P10233.fasta,8
multimer_sprot_id,Q1KMD3_P10226,Q1KMD3_P10226.fasta,8
multimer_sprot_id,Q5QNW6_P10233,Q5QNW6_P10233.fasta,7
multimer_sprot_id,Q5VW38_P10229,Q5VW38_P10229.fasta,157
multimer_sprot_id,Q69091_P09382,Q69091_P09382.fasta,7
multimer_sprot_id,Q69091_P11021,Q69091_P11021.fasta,40
multimer_sprot_id,Q69091_P27105,Q69091_P27105.fasta,12
multimer_sprot_id,Q69091_P61224,Q69091_P61224.fasta,45
multimer_sprot_id,Q69091_Q12907,Q69091_Q12907.fasta,36
multimer_sprot_id,Q69091_Q92835,Q69091_Q92835.fasta,57
multimer_sprot_id,Q6NZI2_P10233,Q6NZI2_P10233.fasta,5
multimer_sprot_id,Q70UQ0_P10218,Q70UQ0_P10218.fasta,3
multimer_sprot_id,Q71DI3_P10233,Q71DI3_P10233.fasta,7
multimer_sprot_id,Q7Z7H5_P10229,Q7Z7H5_P10229.fasta,155
multimer_sprot_id,Q8WWI1_P08543,Q8WWI1_P08543.fasta,729
multimer_sprot_id,Q93077_P10233,Q93077_P10233.fasta,8
multimer_sprot_id,Q96AG4_P10218,Q96AG4_P10218.fasta,1
multimer_sprot_id,Q99877_P03170,Q99877_P03170.fasta,4
multimer_sprot_id,Q99877_P04294,Q99877_P04294.fasta,16
multimer_sprot_id,Q99877_P04485,Q99877_P04485.fasta,4
multimer_sprot_id,Q99877_P04487,Q99877_P04487.fasta,4
multimer_sprot_id,Q99877_P10226,Q99877_P10226.fasta,6
multimer_sprot_id,Q99877_P10231,Q99877_P10231.fasta,4
multimer_sprot_id,Q99877_P10233,Q99877_P10233.fasta,6
multimer_sprot_id,Q99878_P10233,Q99878_P10233.fasta,9
multimer_sprot_id,Q99879_P10233,Q99879_P10233.fasta,6
multimer_sprot_id,Q99880_P10233,Q99880_P10233.fasta,6
multimer_sprot_id,Q9BS26_P10211,Q9BS26_P10211.fasta,7
multimer_sprot_id,Q9BVK6_P10229,Q9BVK6_P10229.fasta,158
multimer_sprot_id,Q9BXS5_P04488,Q9BXS5_P04488.fasta,15
multimer_sprot_id,Q9GZQ8_P10233,Q9GZQ8_P10233.fasta,4
multimer_sprot_id,Q9H0U4_P10231,Q9H0U4_P10231.fasta,6
multimer_sprot_id,Q9H0U4_P10233,Q9H0U4_P10233.fasta,9
multimer_sprot_id,Q9H299_P10233,Q9H299_P10233.fasta,8
multimer_sprot_id,Q9H3P7_P04488,Q9H3P7_P04488.fasta,19
multimer_sprot_id,Q9HDC9_P10211,Q9HDC9_P10211.fasta,6
multimer_sprot_id,Q9NR12_P10233,Q9NR12_P10233.fasta,17
multimer_sprot_id,Q9P2E9_P04487,Q9P2E9_P04487.fasta,4
multimer_sprot_id,Q9Y224_P10233,Q9Y224_P10233.fasta,1
