]633;C]633;E;for i in multimer_family_dupl/*/*.numpairs;14f0a44d-a300-42ca-b76f-23b992e27eadmultimer_family_dupl,O00299_P04487,O00299_P04487.fasta,1
multimer_family_dupl,O43169_P04488,O43169_P04488.fasta,17
multimer_family_dupl,O43169_P10218,O43169_P10218.fasta,13
multimer_family_dupl,O43852_P10185,O43852_P10185.fasta,13
multimer_family_dupl,O43852_P10211,O43852_P10211.fasta,21
multimer_family_dupl,O75396_P04487,O75396_P04487.fasta,1
multimer_family_dupl,O75531_P10233,O75531_P10233.fasta,5
multimer_family_dupl,P00338_P04487,P00338_P04487.fasta,1
multimer_family_dupl,P00387_P04488,P00387_P04488.fasta,15
multimer_family_dupl,P01889_P10229,P01889_P10229.fasta,226
6
multimer_family_dupl,P04083_P04488,P04083_P04488.fasta,20
multimer_family_dupl,P04288_P06703,P04288_P06703.fasta,23
multimer_family_dupl,P04288_P62820,P04288_P62820.fasta,15
multimer_family_dupl,P04288_P62979,P04288_P62979.fasta,22
multimer_family_dupl,P04288_Q9H0U4,P04288_Q9H0U4.fasta,19
multimer_family_dupl,P04294_P13010,P04294_P13010.fasta,20
multimer_family_dupl,P04294_P27348,P04294_P27348.fasta,18
multimer_family_dupl,P04294_P31946,P04294_P31946.fasta,18
multimer_family_dupl,P04294_P61981,P04294_P61981.fasta,19
multimer_family_dupl,P04294_P62258,P04294_P62258.fasta,21
multimer_family_dupl,P04294_P63104,P04294_P63104.fasta,20
multimer_family_dupl,P04294_Q9Y4E8,P04294_Q9Y4E8.fasta,32
multimer_family_dupl,P04296_P07737,P04296_P07737.fasta,11
multimer_family_dupl,P04406_P04487,P04406_P04487.fasta,1
multimer_family_dupl,P04406_P10226,P04406_P10226.fasta,11
multimer_family_dupl,P04406_P10233,P04406_P10233.fasta,11
multimer_family_dupl,P04487_P08670,P04487_P08670.fasta,1
multimer_family_dupl,P04487_P67809,P04487_P67809.fasta,1
multimer_family_dupl,P04488_O14828,P04488_O14828.fasta,12
multimer_family_dupl,P04488_O15127,P04488_O15127.fasta,12
multimer_family_dupl,P04488_O75396,P04488_O75396.fasta,17
multimer_family_dupl,P04488_P06703,P04488_P06703.fasta,18
multimer_family_dupl,P04488_P07237,P04488_P07237.fasta,16
multimer_family_dupl,P04488_P11166,P04488_P11166.fasta,18
multimer_family_dupl,P04488_P20340,P04488_P20340.fasta,16
multimer_family_dupl,P04488_P60468,P04488_P60468.fasta,6
multimer_family_dupl,P04488_P61019,P04488_P61019.fasta,18
multimer_family_dupl,P04488_P62820,P04488_P62820.fasta,18
multimer_family_dupl,P04488_P62979,P04488_P62979.fasta,18
multimer_family_dupl,P04488_Q15836,P04488_Q15836.fasta,17
multimer_family_dupl,P04488_Q96AJ9,P04488_Q96AJ9.fasta,18
multimer_family_dupl,P04488_Q9BVC6,P04488_Q9BVC6.fasta,7
multimer_family_dupl,P04488_Q9GZQ8,P04488_Q9GZQ8.fasta,14
multimer_family_dupl,P04488_Q9H0U4,P04488_Q9H0U4.fasta,21
multimer_family_dupl,P04488_Q9H4G4,P04488_Q9H4G4.fasta,13
multimer_family_dupl,P04792_P04294,P04792_P04294.fasta,25
multimer_family_dupl,P04792_P10233,P04792_P10233.fasta,8
multimer_family_dupl,P05023_P04488,P05023_P04488.fasta,14
multimer_family_dupl,P05204_P10233,P05204_P10233.fasta,22
multimer_family_dupl,P06487_P06703,P06487_P06703.fasta,16
multimer_family_dupl,P06487_P20340,P06487_P20340.fasta,9
multimer_family_dupl,P06487_P51148,P06487_P51148.fasta,11
multimer_family_dupl,P06487_P62937,P06487_P62937.fasta,17
multimer_family_dupl,P06487_Q9H0U4,P06487_Q9H0U4.fasta,13
multimer_family_dupl,P06491_P10599,P06491_P10599.fasta,18
multimer_family_dupl,P06703_P04487,P06703_P04487.fasta,1
multimer_family_dupl,P06703_P10226,P06703_P10226.fasta,18
multimer_family_dupl,P06703_P10233,P06703_P10233.fasta,16
multimer_family_dupl,P06703_P10238,P06703_P10238.fasta,19
multimer_family_dupl,P06733_P04487,P06733_P04487.fasta,1
multimer_family_dupl,P06733_P10226,P06733_P10226.fasta,10
multimer_family_dupl,P06748_P04487,P06748_P04487.fasta,1
multimer_family_dupl,P07355_P06487,P07355_P06487.fasta,14
multimer_family_dupl,P07355_Q69091,P07355_Q69091.fasta,27
multimer_family_dupl,P07384_P10231,P07384_P10231.fasta,3
multimer_family_dupl,P07437_P10233,P07437_P10233.fasta,10
multimer_family_dupl,P07737_P04487,P07737_P04487.fasta,1
multimer_family_dupl,P07737_P08543,P07737_P08543.fasta,169
multimer_family_dupl,P07737_P10233,P07737_P10233.fasta,8
multimer_family_dupl,P08133_P04288,P08133_P04288.fasta,23
multimer_family_dupl,P08133_P04488,P08133_P04488.fasta,21
multimer_family_dupl,P08133_P06487,P08133_P06487.fasta,16
multimer_family_dupl,P08133_Q69091,P08133_Q69091.fasta,26
multimer_family_dupl,P08134_P10233,P08134_P10233.fasta,8
multimer_family_dupl,P08195_P10229,P08195_P10229.fasta,157
multimer_family_dupl,P08392_P35268,P08392_P35268.fasta,10
multimer_family_dupl,P08758_P10233,P08758_P10233.fasta,11
multimer_family_dupl,P08758_Q69091,P08758_Q69091.fasta,28
multimer_family_dupl,P08962_P10211,P08962_P10211.fasta,17
multimer_family_dupl,P09382_P10226,P09382_P10226.fasta,17
multimer_family_dupl,P09382_P10233,P09382_P10233.fasta,15
multimer_family_dupl,P09429_P10233,P09429_P10233.fasta,13
multimer_family_dupl,P09651_P04487,P09651_P04487.fasta,1
multimer_family_dupl,P09651_P10226,P09651_P10226.fasta,21
multimer_family_dupl,P09651_P10233,P09651_P10233.fasta,19
multimer_family_dupl,P09651_P10238,P09651_P10238.fasta,21
multimer_family_dupl,P0C0S5_P10233,P0C0S5_P10233.fasta,20
multimer_family_dupl,P0DMV9_P04487,P0DMV9_P04487.fasta,1
multimer_family_dupl,P0DP25_P04288,P0DP25_P04288.fasta,17
multimer_family_dupl,P0DP25_P04488,P0DP25_P04488.fasta,17
multimer_family_dupl,P0DP25_P10211,P0DP25_P10211.fasta,23
multimer_family_dupl,P0DP25_P10233,P0DP25_P10233.fasta,11
multimer_family_dupl,P10185_P05556,P10185_P05556.fasta,16
multimer_family_dupl,P10185_P07237,P10185_P07237.fasta,13
multimer_family_dupl,P10185_P09382,P10185_P09382.fasta,14
multimer_family_dupl,P10185_P11021,P10185_P11021.fasta,10
multimer_family_dupl,P10185_P13667,P10185_P13667.fasta,14
multimer_family_dupl,P10185_P14314,P10185_P14314.fasta,13
multimer_family_dupl,P10185_P23284,P10185_P23284.fasta,13
multimer_family_dupl,P10185_P30101,P10185_P30101.fasta,13
multimer_family_dupl,P10185_P50454,P10185_P50454.fasta,11
multimer_family_dupl,P10209_P08670,P10209_P08670.fasta,17
multimer_family_dupl,P10209_Q99877,P10209_Q99877.fasta,14
multimer_family_dupl,P10211_P01889,P10211_P01889.fasta,101
multimer_family_dupl,P10211_P04844,P10211_P04844.fasta,6
multimer_family_dupl,P10211_P07237,P10211_P07237.fasta,31
multimer_family_dupl,P10211_P08195,P10211_P08195.fasta,19
multimer_family_dupl,P10211_P08648,P10211_P08648.fasta,26
multimer_family_dupl,P10211_P09382,P10211_P09382.fasta,25
multimer_family_dupl,P10211_P10321,P10211_P10321.fasta,99
multimer_family_dupl,P10211_P11021,P10211_P11021.fasta,16
multimer_family_dupl,P10211_P13667,P10211_P13667.fasta,24
multimer_family_dupl,P10211_P14625,P10211_P14625.fasta,16
multimer_family_dupl,P10211_P21589,P10211_P21589.fasta,11
multimer_family_dupl,P10211_P23284,P10211_P23284.fasta,20
multimer_family_dupl,P10211_P30101,P10211_P30101.fasta,30
multimer_family_dupl,P10211_P46977,P10211_P46977.fasta,8
multimer_family_dupl,P10211_P50454,P10211_P50454.fasta,24
multimer_family_dupl,P10211_P62979,P10211_P62979.fasta,53
multimer_family_dupl,P10211_Q12907,P10211_Q12907.fasta,15
multimer_family_dupl,P10211_Q15084,P10211_Q15084.fasta,19
multimer_family_dupl,P10211_Q15293,P10211_Q15293.fasta,21
multimer_family_dupl,P10211_Q8TCJ2,P10211_Q8TCJ2.fasta,8
multimer_family_dupl,P10211_Q99805,P10211_Q99805.fasta,12
multimer_family_dupl,P10211_Q9BTV4,P10211_Q9BTV4.fasta,12
multimer_family_dupl,P10211_Q9BVC6,P10211_Q9BVC6.fasta,9
multimer_family_dupl,P10211_Q9BVK6,P10211_Q9BVK6.fasta,15
multimer_family_dupl,P10218_O00264,P10218_O00264.fasta,4
multimer_family_dupl,P10218_O15173,P10218_O15173.fasta,8
multimer_family_dupl,P10218_O75396,P10218_O75396.fasta,8
multimer_family_dupl,P10218_P10599,P10218_P10599.fasta,13
multimer_family_dupl,P10218_P26373,P10218_P26373.fasta,9
multimer_family_dupl,P10218_P39023,P10218_P39023.fasta,5
multimer_family_dupl,P10218_P60468,P10218_P60468.fasta,3
multimer_family_dupl,P10218_P61353,P10218_P61353.fasta,9
multimer_family_dupl,P10218_Q9UNL2,P10218_Q9UNL2.fasta,4
multimer_family_dupl,P10225_P10233,P10225_P10233.fasta,52
multimer_family_dupl,P10228_P09382,P10228_P09382.fasta,85
multimer_family_dupl,P10230_Q9P0L0,P10230_Q9P0L0.fasta,10
multimer_family_dupl,P10233_P63104,P10233_P63104.fasta,10
multimer_family_dupl,P10233_P67809,P10233_P67809.fasta,15
multimer_family_dupl,P10233_Q15836,P10233_Q15836.fasta,10
multimer_family_dupl,P10233_Q702N8,P10233_Q702N8.fasta,14
multimer_family_dupl,P10234_P06703,P10234_P06703.fasta,17
multimer_family_dupl,P10234_P57053,P10234_P57053.fasta,12
multimer_family_dupl,P10234_Q99877,P10234_Q99877.fasta,13
multimer_family_dupl,P10599_P04487,P10599_P04487.fasta,1
multimer_family_dupl,P10599_P10226,P10599_P10226.fasta,17
multimer_family_dupl,P10599_P10233,P10599_P10233.fasta,13
multimer_family_dupl,P10599_P10235,P10599_P10235.fasta,16
multimer_family_dupl,P11142_P03170,P11142_P03170.fasta,1
multimer_family_dupl,P11142_P04487,P11142_P04487.fasta,1
multimer_family_dupl,P11142_P10226,P11142_P10226.fasta,11
multimer_family_dupl,P11142_P10233,P11142_P10233.fasta,8
multimer_family_dupl,P11940_P10238,P11940_P10238.fasta,17
multimer_family_dupl,P12004_P10226,P12004_P10226.fasta,6
multimer_family_dupl,P13639_P04487,P13639_P04487.fasta,1
multimer_family_dupl,P13726_P10211,P13726_P10211.fasta,14
multimer_family_dupl,P13797_P10226,P13797_P10226.fasta,11
multimer_family_dupl,P13987_P06484,P13987_P06484.fasta,19
multimer_family_dupl,P13987_P10211,P13987_P10211.fasta,25
multimer_family_dupl,P13987_P10229,P13987_P10229.fasta,162
multimer_family_dupl,P13987_Q69091,P13987_Q69091.fasta,6
multimer_family_dupl,P16070_P06487,P16070_P06487.fasta,24
multimer_family_dupl,P16070_P10228,P16070_P10228.fasta,89
multimer_family_dupl,P16070_Q69091,P16070_Q69091.fasta,11
multimer_family_dupl,P16104_P10233,P16104_P10233.fasta,19
multimer_family_dupl,P16333_P10233,P16333_P10233.fasta,16
multimer_family_dupl,P16401_P10233,P16401_P10233.fasta,12
multimer_family_dupl,P16402_P10233,P16402_P10233.fasta,15
multimer_family_dupl,P17096_P04487,P17096_P04487.fasta,1
multimer_family_dupl,P17096_P10226,P17096_P10226.fasta,9
multimer_family_dupl,P17096_P10233,P17096_P10233.fasta,8
multimer_family_dupl,P18085_P04488,P18085_P04488.fasta,18
multimer_family_dupl,P18085_P10211,P18085_P10211.fasta,25
multimer_family_dupl,P18085_Q69091,P18085_Q69091.fasta,38
multimer_family_dupl,P18124_P04487,P18124_P04487.fasta,1
multimer_family_dupl,P20340_P10233,P20340_P10233.fasta,12
multimer_family_dupl,P21291_P04487,P21291_P04487.fasta,1
multimer_family_dupl,P21926_P04488,P21926_P04488.fasta,18
multimer_family_dupl,P21926_P06477,P21926_P06477.fasta,4
multimer_family_dupl,P21926_P10211,P21926_P10211.fasta,23
multimer_family_dupl,P21926_P10229,P21926_P10229.fasta,229
multimer_family_dupl,P22626_P10226,P22626_P10226.fasta,23
multimer_family_dupl,P22626_P10233,P22626_P10233.fasta,19
multimer_family_dupl,P23284_P10229,P23284_P10229.fasta,127
multimer_family_dupl,P23396_P10233,P23396_P10233.fasta,11
multimer_family_dupl,P26373_P10233,P26373_P10233.fasta,8
multimer_family_dupl,P26583_P10233,P26583_P10233.fasta,12
multimer_family_dupl,P27635_P10233,P27635_P10233.fasta,12
multimer_family_dupl,P27797_P03170,P27797_P03170.fasta,1
multimer_family_dupl,P27797_P04488,P27797_P04488.fasta,16
multimer_family_dupl,P27797_P10185,P27797_P10185.fasta,9
multimer_family_dupl,P27797_P10211,P27797_P10211.fasta,18
multimer_family_dupl,P27824_P10211,P27824_P10211.fasta,20
multimer_family_dupl,P27824_P10229,P27824_P10229.fasta,182
multimer_family_dupl,P27824_Q69091,P27824_Q69091.fasta,34
multimer_family_dupl,P30050_P04487,P30050_P04487.fasta,1
multimer_family_dupl,P30050_P10233,P30050_P10233.fasta,13
multimer_family_dupl,P31949_P03170,P31949_P03170.fasta,1
multimer_family_dupl,P31949_P10233,P31949_P10233.fasta,13
multimer_family_dupl,P32969_P10233,P32969_P10233.fasta,10
multimer_family_dupl,P35268_P04487,P35268_P04487.fasta,1
multimer_family_dupl,P35268_P10233,P35268_P10233.fasta,9
multimer_family_dupl,P36578_P04487,P36578_P04487.fasta,1
multimer_family_dupl,P38159_P10233,P38159_P10233.fasta,18
multimer_family_dupl,P39019_P04487,P39019_P04487.fasta,1
multimer_family_dupl,P39019_P10226,P39019_P10226.fasta,7
multimer_family_dupl,P39023_P04487,P39023_P04487.fasta,1
multimer_family_dupl,P40227_P10226,P40227_P10226.fasta,6
multimer_family_dupl,P40429_P04487,P40429_P04487.fasta,1
multimer_family_dupl,P42766_P04487,P42766_P04487.fasta,1
multimer_family_dupl,P42766_P10233,P42766_P10233.fasta,11
multimer_family_dupl,P45983_P04294,P45983_P04294.fasta,35
multimer_family_dupl,P46776_P10233,P46776_P10233.fasta,12
multimer_family_dupl,P46779_P04487,P46779_P04487.fasta,1
multimer_family_dupl,P47914_P04487,P47914_P04487.fasta,1
multimer_family_dupl,P49207_P10233,P49207_P10233.fasta,8
multimer_family_dupl,P49458_P04487,P49458_P04487.fasta,1
multimer_family_dupl,P49755_P10229,P49755_P10229.fasta,122
multimer_family_dupl,P50402_P10218,P50402_P10218.fasta,9
multimer_family_dupl,P50454_P10229,P50454_P10229.fasta,195
multimer_family_dupl,P50914_P04487,P50914_P04487.fasta,1
multimer_family_dupl,P50914_P10233,P50914_P10233.fasta,7
multimer_family_dupl,P52926_P10226,P52926_P10226.fasta,3
multimer_family_dupl,P55010_P10233,P55010_P10233.fasta,4
multimer_family_dupl,P57053_P04487,P57053_P04487.fasta,1
multimer_family_dupl,P57053_P10226,P57053_P10226.fasta,22
multimer_family_dupl,P57053_P10233,P57053_P10233.fasta,18
multimer_family_dupl,P58876_P10233,P58876_P10233.fasta,17
multimer_family_dupl,P60468_P04487,P60468_P04487.fasta,1
multimer_family_dupl,P60468_P10233,P60468_P10233.fasta,3
multimer_family_dupl,P60709_P04294,P60709_P04294.fasta,34
multimer_family_dupl,P60709_P04296,P60709_P04296.fasta,17
multimer_family_dupl,P60709_P04487,P60709_P04487.fasta,1
multimer_family_dupl,P60709_P06491,P60709_P06491.fasta,21
multimer_family_dupl,P60709_P10226,P60709_P10226.fasta,19
multimer_family_dupl,P60709_P10233,P60709_P10233.fasta,17
multimer_family_dupl,P60953_P06487,P60953_P06487.fasta,6
multimer_family_dupl,P61026_P10233,P61026_P10233.fasta,5
multimer_family_dupl,P61254_P04487,P61254_P04487.fasta,1
multimer_family_dupl,P61353_P04487,P61353_P04487.fasta,1
multimer_family_dupl,P61353_P10233,P61353_P10233.fasta,8
multimer_family_dupl,P61513_P10233,P61513_P10233.fasta,13
multimer_family_dupl,P61769_P10211,P61769_P10211.fasta,39
multimer_family_dupl,P61978_P10233,P61978_P10233.fasta,5
multimer_family_dupl,P62136_P10233,P62136_P10233.fasta,10
multimer_family_dupl,P62241_P04487,P62241_P04487.fasta,1
multimer_family_dupl,P62328_P04487,P62328_P04487.fasta,1
multimer_family_dupl,P62424_P04487,P62424_P04487.fasta,1
multimer_family_dupl,P62750_P04487,P62750_P04487.fasta,1
multimer_family_dupl,P62805_P10233,P62805_P10233.fasta,8
multimer_family_dupl,P62820_P10231,P62820_P10231.fasta,3
multimer_family_dupl,P62820_P10233,P62820_P10233.fasta,10
multimer_family_dupl,P62851_P04487,P62851_P04487.fasta,1
multimer_family_dupl,P62857_P10233,P62857_P10233.fasta,6
multimer_family_dupl,P62888_P10233,P62888_P10233.fasta,14
multimer_family_dupl,P62899_P10233,P62899_P10233.fasta,8
multimer_family_dupl,P62906_P04487,P62906_P04487.fasta,1
multimer_family_dupl,P62913_P04487,P62913_P04487.fasta,1
multimer_family_dupl,P62913_P10233,P62913_P10233.fasta,6
multimer_family_dupl,P62917_P10233,P62917_P10233.fasta,3
multimer_family_dupl,P62937_P03170,P62937_P03170.fasta,2
multimer_family_dupl,P62937_P04294,P62937_P04294.fasta,33
multimer_family_dupl,P62937_P04487,P62937_P04487.fasta,2
multimer_family_dupl,P62937_P10226,P62937_P10226.fasta,20
multimer_family_dupl,P62937_P10233,P62937_P10233.fasta,19
multimer_family_dupl,P62942_P04294,P62942_P04294.fasta,28
multimer_family_dupl,P62979_P06485,P62979_P06485.fasta,14
multimer_family_dupl,P62979_P10233,P62979_P10233.fasta,16
multimer_family_dupl,P62993_P10233,P62993_P10233.fasta,12
multimer_family_dupl,P63220_P04487,P63220_P04487.fasta,1
multimer_family_dupl,P63241_P04487,P63241_P04487.fasta,1
multimer_family_dupl,P63241_P10233,P63241_P10233.fasta,4
multimer_family_dupl,P67870_P10233,P67870_P10233.fasta,7
multimer_family_dupl,P68104_P03170,P68104_P03170.fasta,1
multimer_family_dupl,P68104_P04487,P68104_P04487.fasta,1
multimer_family_dupl,P68104_P10233,P68104_P10233.fasta,12
multimer_family_dupl,P68400_P10233,P68400_P10233.fasta,13
multimer_family_dupl,P83731_P04487,P83731_P04487.fasta,1
multimer_family_dupl,P83731_P10233,P83731_P10233.fasta,8
multimer_family_dupl,P84077_P10233,P84077_P10233.fasta,14
multimer_family_dupl,P84243_P04487,P84243_P04487.fasta,1
multimer_family_dupl,P84243_P10226,P84243_P10226.fasta,16
multimer_family_dupl,P84243_P10233,P84243_P10233.fasta,13
multimer_family_dupl,Q00341_P04487,Q00341_P04487.fasta,1
multimer_family_dupl,Q00839_P10226,Q00839_P10226.fasta,11
multimer_family_dupl,Q01105_P04487,Q01105_P04487.fasta,1
multimer_family_dupl,Q01105_P10233,Q01105_P10233.fasta,16
multimer_family_dupl,Q02543_P04487,Q02543_P04487.fasta,1
multimer_family_dupl,Q02818_P10220,Q02818_P10220.fasta,9
multimer_family_dupl,Q02878_P04487,Q02878_P04487.fasta,1
multimer_family_dupl,Q03518_P03170,Q03518_P03170.fasta,1
multimer_family_dupl,Q05639_P04487,Q05639_P04487.fasta,1
multimer_family_dupl,Q06830_P10226,Q06830_P10226.fasta,14
multimer_family_dupl,Q07020_P04487,Q07020_P04487.fasta,1
multimer_family_dupl,Q07020_P10233,Q07020_P10233.fasta,11
multimer_family_dupl,Q10472_P04488,Q10472_P04488.fasta,20
multimer_family_dupl,Q13123_P10233,Q13123_P10233.fasta,3
multimer_family_dupl,Q13641_P10229,Q13641_P10229.fasta,239
multimer_family_dupl,Q14011_P10233,Q14011_P10233.fasta,14
multimer_family_dupl,Q14697_P10211,Q14697_P10211.fasta,19
multimer_family_dupl,Q14847_P10233,Q14847_P10233.fasta,15
multimer_family_dupl,Q15056_P10225,Q15056_P10225.fasta,19
multimer_family_dupl,Q15056_P10231,Q15056_P10231.fasta,2
multimer_family_dupl,Q15056_P10233,Q15056_P10233.fasta,6
multimer_family_dupl,Q15691_P10233,Q15691_P10233.fasta,4
multimer_family_dupl,Q16531_P10231,Q16531_P10231.fasta,1
multimer_family_dupl,Q16777_P10233,Q16777_P10233.fasta,17
multimer_family_dupl,Q1KMD3_P10226,Q1KMD3_P10226.fasta,7
multimer_family_dupl,Q5QNW6_P10233,Q5QNW6_P10233.fasta,18
multimer_family_dupl,Q5VW38_P10229,Q5VW38_P10229.fasta,151
multimer_family_dupl,Q69091_P09382,Q69091_P09382.fasta,10
multimer_family_dupl,Q69091_P11021,Q69091_P11021.fasta,38
multimer_family_dupl,Q69091_P27105,Q69091_P27105.fasta,12
multimer_family_dupl,Q69091_P61224,Q69091_P61224.fasta,37
multimer_family_dupl,Q69091_Q12907,Q69091_Q12907.fasta,39
multimer_family_dupl,Q69091_Q92835,Q69091_Q92835.fasta,37
multimer_family_dupl,Q6NZI2_P10233,Q6NZI2_P10233.fasta,8
multimer_family_dupl,Q70UQ0_P10218,Q70UQ0_P10218.fasta,3
multimer_family_dupl,Q71DI3_P10233,Q71DI3_P10233.fasta,14
multimer_family_dupl,Q7Z7H5_P10229,Q7Z7H5_P10229.fasta,153
multimer_family_dupl,Q8WWI1_P08543,Q8WWI1_P08543.fasta,730
multimer_family_dupl,Q93077_P10233,Q93077_P10233.fasta,18
multimer_family_dupl,Q96AG4_P10218,Q96AG4_P10218.fasta,5
multimer_family_dupl,Q99877_P03170,Q99877_P03170.fasta,1
multimer_family_dupl,Q99877_P04294,Q99877_P04294.fasta,29
multimer_family_dupl,Q99877_P04485,Q99877_P04485.fasta,4
multimer_family_dupl,Q99877_P04487,Q99877_P04487.fasta,1
multimer_family_dupl,Q99877_P10226,Q99877_P10226.fasta,21
multimer_family_dupl,Q99877_P10231,Q99877_P10231.fasta,3
multimer_family_dupl,Q99877_P10233,Q99877_P10233.fasta,18
multimer_family_dupl,Q99878_P10233,Q99878_P10233.fasta,19
multimer_family_dupl,Q99879_P10233,Q99879_P10233.fasta,18
multimer_family_dupl,Q99880_P10233,Q99880_P10233.fasta,17
multimer_family_dupl,Q9BS26_P10211,Q9BS26_P10211.fasta,12
multimer_family_dupl,Q9BVK6_P10229,Q9BVK6_P10229.fasta,156
multimer_family_dupl,Q9BXS5_P04488,Q9BXS5_P04488.fasta,13
multimer_family_dupl,Q9GZQ8_P10233,Q9GZQ8_P10233.fasta,11
multimer_family_dupl,Q9H0U4_P10231,Q9H0U4_P10231.fasta,3
multimer_family_dupl,Q9H0U4_P10233,Q9H0U4_P10233.fasta,14
multimer_family_dupl,Q9H299_P10233,Q9H299_P10233.fasta,10
multimer_family_dupl,Q9H3P7_P04488,Q9H3P7_P04488.fasta,17
multimer_family_dupl,Q9HDC9_P10211,Q9HDC9_P10211.fasta,11
multimer_family_dupl,Q9NR12_P10233,Q9NR12_P10233.fasta,17
multimer_family_dupl,Q9P2E9_P04487,Q9P2E9_P04487.fasta,1
multimer_family_dupl,Q9Y224_P10233,Q9Y224_P10233.fasta,2
