"Host NCBI taxid","Virus NCBI taxid"
30343,654924
8404,654924
45438,654924
8316,654924
7163,345201
42431,345201
332058,345201
310513,345201
329105,345201
7183,345201
6997,176652
168631,176652
6999,176652
58607,176652
7108,176652
6937,561445
85517,561445
41426,561445
273792,561445
9823,561445
6937,10500
85517,10500
41426,10500
273792,10500
9823,10500
6937,561443
85517,561443
41426,561443
273792,561443
9823,561443
6937,561444
85517,561444
41426,561444
273792,561444
9823,561444
6937,10498
9823,10498
94885,189830
6937,10499
9823,10499
6937,443878
9823,443878
9606,648237
161934,12298
4072,12298
82024,12298
39639,12298
4097,12298
4113,12298
3562,12298
13274,12298
13305,12298
97415,12298
9823,857306
4045,12322
83862,12322
4072,12322
41386,12322
3827,12322
3847,12322
35936,12322
4236,12322
3864,12322
3869,12322
145753,12322
3879,12322
4097,12322
3885,12322
23113,12322
3888,12322
4081,12322
4113,12322
157662,12322
60916,12322
85293,12322
3916,12322
3917,12322
3906,12301
15371,12302
3847,12303
3917,12303
3663,12307
4097,12307
3659,117113
4081,117113
3562,117113
3659,117114
4081,117114
3562,117114
3659,117124
4081,117124
3562,117124
3659,12309
4097,12309
4081,12309
3659,12310
4097,12310
4081,12310
3659,12312
4097,12312
4081,12312
4145,650489
4045,12314
3818,12314
53860,12314
3847,12314
3873,12314
3879,12314
4097,12314
3914,12314
47097,12314
3898,12314
3904,12314
4081,650488
4627,12315
41568,12315
4688,12315
4081,12315
4686,12318
41562,12318
3847,12318
34274,12318
47082,12318
4097,12318
3885,12318
137000,12318
57577,12318
3885,12294
3888,12294
161934,12299
4072,12299
82024,12299
39639,12299
4097,12299
4113,12299
3562,12299
13274,12299
13305,12299
97415,12299
7088,46015
9606,587200
7742,928301
45479,10244
99825,10244
45480,10244
99826,10244
99827,10244
30650,10244
226685,10244
9606,10244
10090,10244
9606,126794
9606,10249
9913,10254
670,75320
1408,2932878
1423,2932878
5757,212035
2287,244589
9986,45417
9606,10253
9836,203173
9836,203172
9913,265872
9685,265872
9606,265872
9785,265872
29092,265872
10090,265872
447135,265872
9913,265871
9685,265871
9606,265871
9785,265871
29092,265871
10090,265871
447135,265871
10090,265874
9986,31530
9986,10272
9606,132475
314293,132475
9538,928314
9606,928314
9539,928314
9557,928314
562,2789016
562,39803
562,12027
562,2695836
340055,28321
9913,376849
9606,10280
9986,265876
9940,10269
562,10707
90371,10707
3071,10506
9606,10255
40674,648242
90371,10754
9681,11776
10090,11788
3630,10816
3635,10816
47605,10816
96479,10816
3885,10816
108335,10816
161934,268960
4071,268960
3650,268960
4005,268960
3885,268960
4081,268960
4113,268960
3562,268960
260885,222449
108453,222449
3884,222449
3885,222449
260885,222448
108453,222448
3884,222448
3885,222448
3712,345184
197394,10818
3996,10818
194268,10818
3983,10818
197394,222073
3996,222073
194268,222073
3983,222073
3983,31600
3847,223295
3915,223295
157791,223295
3916,223295
3917,223295
4072,223303
4113,223310
3662,10829
3663,10829
3885,10829
4081,223341
185024,223353
145753,223353
4081,223353
4081,49267
4112,49267
185024,37139
4081,37139
4112,37139
4081,221538
4072,123735
185024,123735
145753,123735
29728,123735
4081,123735
4112,123735
4097,185793
185191,185793
4081,185793
185024,66366
145753,66366
4081,66366
472,762660
65700,2776772
630,1206558
562,2681599
28901,1087482
624,645664
562,10665
1423,2869562
1423,1933063
492670,2593639
287,2907964
543,2681603
562,10759
9606,10515
1639,40521
1639,40522
9224,1891747
9606,10631
9606,1891762
9913,1891754
9606,10632
36229,557605
39432,452475
9539,1891767
1423,10736
10090,11790
4513,12327
4565,12327
9505,12104
38020,12104
9606,12104
9544,12104
9567,12104
10090,12104
9598,12104
10114,12104
42415,12104
9823,12104
9606,2870365
10090,2870365
42415,2870365
9823,2870365
9606,12107
9544,12107
10090,12107
10090,12127
562,2060721
562,10666
1313,59241
1313,10728
1359,43685
573,1194091
543,2905681
543,2886926
9927,654901
9606,82830
9606,10377
9606,10376
9796,31520
9796,310273
9796,82831
9783,654902
9785,654902
99490,654902
9031,10389
9606,10360
9606,295027
9606,10299
9606,10310
9606,10370
9606,36351
9606,57278
9606,868565
33414,262177
152276,670426
9521,10383
9823,10349
9606,10338
9606,341980
196889,389167
89399,442736
59479,349344
196889,349344
188571,349344
89399,349344
9606,694009
9675,694009
9606,2697049
1423,2283013
1423,2045370
6937,39014
9823,39014
9134,44088
10129,33708
36828,12336
1491,29342
1308,85154
9836,203174
10129,10243
9913,10243
9685,10243
9606,10243
9785,10243
29092,10243
10090,10243
447135,10243
287,1175657
329854,2301731
9940,10268
295550,12285
50579,12287
7137,12287
4513,12287
4932,12287
41021,12286
7158,914672
7088,914672
9823,914672
4097,223359
9685,53182
9606,11963
9606,338478
9539,338478
9534,11644
9606,11644
9598,298339
9606,11522
9606,11523
9606,518987
9606,98832
9606,107417
9606,11550
562,2681611
727,1289570
1351,442493
562,29252
9913,10355
9685,10355
9689,10355
7088,10449
7139,35254
7091,271108
83554,2003327
959,145579
13489,35297
215347,35297
8267,35297
8187,35297
163134,35297
2134,2928746
45479,619591
99825,619591
45480,619591
99826,619591
99827,619591
30650,619591
226685,619591
9606,619591
10090,619591
9606,28285
9606,28282
9615,69150
9615,69151
8976,10553
10090,10530
9606,28284
9606,10524
9913,114429
9913,10510
9615,10513
9615,69152
9615,36364
9823,35265
9823,35267
9606,45659
9606,10519
9393,47680
563177,654909
12915,654909
121277,2730621
99007,2730621
43080,654908
2284,1982658
2286,2304198
7227,3071212
562,10760
7160,648330
23159,73472
36610,73472
3752,73472
36596,73472
3758,73472
3760,73472
114937,73472
23211,73472
23159,73473
36610,73473
3752,73473
36596,73473
3758,73473
3760,73473
114937,73473
23211,73473
9665,10783
7158,10808
9031,516993
47741,647331
59895,12142
4045,12323
83862,12323
4072,12323
41386,12323
3827,12323
3847,12323
35936,12323
4236,12323
3864,12323
3869,12323
145753,12323
3879,12323
4097,12323
3885,12323
23113,12323
3888,12323
4081,12323
4113,12323
157662,12323
60916,12323
85293,12323
3916,12323
3917,12323
4045,12324
83862,12324
4072,12324
41386,12324
3827,12324
3847,12324
35936,12324
4236,12324
3864,12324
3869,12324
145753,12324
3879,12324
4097,12324
3885,12324
23113,12324
3888,12324
4081,12324
4113,12324
157662,12324
60916,12324
85293,12324
3916,12324
3917,12324
4045,12325
83862,12325
4072,12325
41386,12325
3827,12325
3847,12325
35936,12325
4236,12325
3864,12325
3869,12325
145753,12325
3879,12325
4097,12325
3885,12325
23113,12325
3888,12325
4081,12325
4113,12325
60916,12325
3899,12325
85293,12325
3916,12325
3917,12325
9031,336960
9103,336960
316597,648170
8018,928295
28800,185783
90988,185783
7959,648234
259022,41952
23159,651356
106566,651356
3752,651356
23211,651356
4640,645099
3885,57119
116991,77856
9223,77856
3827,12041
3864,12041
3879,12041
3885,12041
3888,12041
3899,12041
3906,12041
3917,12041
343494,652670
161934,652670
3562,652670
40559,686946
40559,686947
274,2914006
1280,204086
1280,53369
562,10849
562,2682836
1423,2994042
216591,1283335
1313,10747
562,2679905
562,10863
562,12016
562,2847073
590,1283336
562,12017
562,10843
562,12018
1423,2679898
274,144736
77097,1283337
562,2681617
562,10869
562,10868
562,10867
562,12019
287,1678082
287,1772250
287,204270
571,255431
287,1462608
287,582345
1357,2681624
1358,254252
1358,2905675
562,1977402
1763,28369
1763,31757
1280,379501
1280,487152
562,12022
562,1604876
562,2886925
562,10711
287,504346
287,2011081
287,10872
1280,221915
1423,2884424
319,2928686
562,10713
562,10848
340,28365
498388,1217068
28107,2905728
287,12023
471,10658
562,10658
584,10658
287,10658
294,10658
303,10658
90371,10658
666,10658
286,12024
1280,1010614
1280,1010615
1423,10757
562,12026
590,10844
1280,1041527
1280,1041526
90370,1987993
615,552529
615,552527
615,552528
1423,10724
314227,356629
562,10866
562,332942
161934,12044
3709,12044
138011,12044
3710,12044
3715,12044
3716,12044
51350,12044
4072,12044
3827,12044
3654,12044
3721,12044
3659,12044
3663,12044
3847,12044
4232,12044
4236,12044
103529,12044
3888,12044
3726,12044
4081,12044
3562,12044
3900,12044
3906,12044
146531,31723
4498,31723
4513,31723
4521,31723
4522,31723
4530,31723
4550,31723
4565,31723
4577,31723
146531,2169984
4498,2169984
4513,2169984
4521,2169984
4522,2169984
4530,2169984
4550,2169984
4565,2169984
4577,2169984
146531,12039
4498,12039
4513,12039
4521,12039
4522,12039
4530,12039
4550,12039
4565,12039
4577,12039
146531,2169986
4498,2169986
4513,2169986
4521,2169986
4522,2169986
4530,2169986
4550,2169986
4565,2169986
4577,2169986
146531,31724
4498,31724
4513,31724
4521,31724
4522,31724
4530,31724
4550,31724
4565,31724
4577,31724
161934,478555
9134,142661
9615,292348
3702,10644
3705,10644
3725,10644
3702,10645
3705,10645
3725,10645
3702,31556
3705,31556
3725,31556
3702,31557
3705,31557
3725,31557
3702,10648
3705,10648
3725,10648
278075,652111
3570,652111
118431,652111
288950,652111
3572,652111
3681,11986
278075,11986
3570,11986
118431,11986
288950,11986
3750,11986
3572,11986
9031,73477
9031,73476
9031,73474
9031,73475
9031,486492
9031,73478
1290580,1290581
3570,10640
4509,1005059
4565,1005059
3653,12236
3659,12236
3668,12236
3653,12237
3659,12237
3668,12237
2706,686981
3659,117118
4081,117118
3562,117118
3659,117120
4081,117120
3562,117120
3659,12306
4081,12306
3562,12306
3659,117117
4081,117117
3562,117117
3659,117109
4081,117109
3562,117109
3659,117110
4081,117110
3562,117110
3659,117111
4081,117111
3562,117111
3659,31717
4081,31717
3562,31717
3659,117112
4081,117112
3562,117112
3656,12308
3659,36400
4081,36400
3562,36400
3659,117116
4081,117116
3562,117116
3659,31718
3663,31718
4640,31718
4081,31718
3562,31718
3659,117121
4081,117121
3562,117121
3659,117123
4081,117123
3562,117123
3659,31719
4081,31719
3562,31719
3659,117125
4081,117125
3562,117125
3659,117126
4081,117126
3562,117126
38236,31725
141750,31725
112603,31725
28471,31725
160533,31725
38234,31725
123155,31725
45173,31725
120015,31725
36459,31725
38198,31725
78858,31725
3659,117127
4081,117127
3562,117127
3659,12311
4081,12311
3562,12311
3659,12143
49237,3052702
7091,110829
5807,766191
278075,652597
3570,652597
14366,12144
3899,12144
4498,10820
110876,10820
4509,10820
4513,10820
279312,10820
4564,10820
4577,10820
231460,31712
159033,31712
37656,31712
85571,31712
159062,31712
3684,31712
41568,12165
109564,12165
142762,175814
3559,12177
283210,12177
3879,12177
3888,12177
13274,12177
3898,12177
3908,12177
8835,489543
8835,489542
8835,644639
40085,72003
3827,291603
3864,291603
3885,291603
3906,291603
3827,291604
3864,291604
3885,291604
3906,291604
9681,11979
9681,11980
9681,11981
9685,292349
4547,648172
46031,10650
9681,10786
9651,10786
9654,10786
9681,10787
9651,10787
9654,10787
4555,12179
4556,12179
29760,652668
29760,651354
5741,649893
7137,37138
8842,146032
34862,10406
29760,651358
29058,37206
9606,12456
9606,12701
9606,35740
9606,35300
9606,35741
9606,37130
9606,38950
9606,43358
9606,689403
9606,573977
9606,638313
9606,1511883
9606,482134
9598,482134
9606,480116
9598,480116
9606,10410
9598,10410
9606,31514
9598,31514
9606,489454
9598,489454
9606,489457
9598,489457
9606,489458
9598,489458
9606,489459
9598,489459
9606,10413
9598,10413
9606,10412
9598,10412
9606,489461
9598,489461
9606,10415
9598,10415
9606,489463
9598,489463
9606,489464
9598,489464
9606,489465
9598,489465
9606,489472
9598,489472
9606,482133
9606,489467
9598,489467
9606,10409
9598,10409
9606,31512
9598,31512
9606,489468
9598,489468
9606,489469
9598,489469
9606,489470
9598,489470
9606,489471
9598,489471
9606,928302
9598,928302
9598,10414
9606,10419
9598,10419
9606,10411
9598,10411
9606,490133
9598,490133
9606,489487
9598,489487
9606,489488
9598,489488
9606,489489
9598,489489
9606,489490
9598,489490
9606,45410
9598,45410
9606,489503
9598,489503
9606,31515
9598,31515
9606,489537
9598,489537
9606,489538
9598,489538
9577,489544
9593,489546
9606,489541
9598,489541
9606,742918
289417,12171
35939,12171
9606,31767
9606,652674
69079,509627
9481,509627
9536,509627
9534,509627
9031,509627
9606,509627
9539,509627
10090,509627
9598,509627
9520,509627
9823,509627
69079,512346
9481,512346
9536,512346
9534,512346
9606,512346
9539,512346
10090,512346
9598,512346
9520,512346
9823,512346
69079,31768
9481,31768
9536,31768
9534,31768
9031,31768
9606,31768
9539,31768
10090,31768
9598,31768
9520,31768
9823,31768
69079,512345
9481,512345
9536,512345
9534,512345
9606,512345
9539,512345
10090,512345
9598,512345
9520,512345
9823,512345
9606,31769
9606,33774
9481,31766
9536,31766
9534,31766
9031,31766
9606,31766
9539,31766
10090,31766
9598,31766
9520,31766
9823,31766
69079,509615
9481,509615
9536,509615
9534,509615
9606,509615
9539,509615
10090,509615
9598,509615
9520,509615
9823,509615
8899,28300
51589,654912
8835,10439
8835,31510
8835,10440
9606,647332
4513,247483
4565,247483
4577,247483
4513,224783
4565,224783
4577,224783
4513,224782
4565,224782
4577,224782
4513,247484
4565,247484
4577,247484
4513,247485
4565,247485
4577,247485
7100,260797
2706,651357
6685,269647
7088,648250
13123,648169
161934,651355
3654,651355
3656,651355
3661,651355
3662,651355
3663,651355
4039,651355
4236,651355
480553,686945
9606,82658
5664,58103
4688,12173
63788,12194
452646,1239574
5341,650482
4577,882210
47065,291605
3847,291605
3885,291605
3888,291605
3906,291605
47065,291606
3847,291606
3885,291606
3888,291606
3906,291606
452646,10793
183675,268776
3656,11987
3659,11987
38833,649596
4498,10822
217170,10822
4543,10822
281129,10822
4505,10822
270102,10822
66017,10822
90396,10822
4511,10822
29674,10822
4513,10822
59788,10822
29709,10822
4538,10822
4530,10822
158143,10822
147272,10822
173849,10822
300125,10822
4547,10822
192628,10822
4565,10822
240436,10822
4577,10822
4498,10823
217170,10823
4543,10823
281129,10823
4505,10823
270102,10823
66017,10823
90396,10823
4511,10823
29674,10823
4513,10823
59788,10823
29709,10823
4538,10823
4530,10823
158143,10823
147272,10823
173849,10823
300125,10823
4547,10823
192628,10823
4565,10823
240436,10823
4577,10823
4498,268331
217170,268331
4543,268331
281129,268331
4505,268331
270102,268331
66017,268331
90396,268331
4511,268331
29674,268331
4513,268331
59788,268331
29709,268331
4538,268331
4530,268331
158143,268331
147272,268331
173849,268331
300125,268331
4547,268331
192628,268331
4565,268331
240436,268331
4577,268331
4498,268343
217170,268343
4543,268343
281129,268343
4505,268343
270102,268343
66017,268343
90396,268343
4511,268343
29674,268343
4513,268343
59788,268343
29709,268343
4538,268343
4530,268343
158143,268343
147272,268343
173849,268343
300125,268343
4547,268343
192628,268343
4565,268343
240436,268343
4577,268343
4498,10824
217170,10824
4543,10824
281129,10824
4505,10824
270102,10824
66017,10824
90396,10824
4511,10824
29674,10824
4513,10824
59788,10824
29709,10824
4538,10824
4530,10824
158143,10824
147272,10824
173849,10824
300125,10824
4547,10824
192628,10824
4565,10824
240436,10824
4577,10824
4498,268344
217170,268344
4543,268344
281129,268344
4505,268344
270102,268344
66017,268344
90396,268344
4511,268344
29674,268344
4513,268344
59788,268344
29709,268344
4538,268344
4530,268344
158143,268344
147272,268344
173849,268344
300125,268344
4547,268344
192628,268344
4565,268344
240436,268344
4577,268344
4498,268409
217170,268409
4543,268409
281129,268409
4505,268409
270102,268409
66017,268409
90396,268409
4511,268409
29674,268409
4513,268409
59788,268409
29709,268409
4538,268409
4530,268409
158143,268409
147272,268409
173849,268409
300125,268409
4547,268409
192628,268409
4565,268409
240436,268409
4577,268409
10090,10795
10090,648235
39639,12180
9606,524364
9940,1239577
4498,652110
14366,138661
154697,138661
14366,138307
154697,138307
14366,138662
154697,138662
3656,652838
197796,28354
4113,12182
9823,1239567
59788,268780
37547,103782
9913,2839036
9615,10788
9685,10788
9615,10789
9685,10789
9615,59284
9685,59284
9615,10790
9685,10790
9615,10791
9685,10791
36483,10799
10116,10799
9606,648238
9989,35339
9823,33725
9823,73487
9823,10797
9823,133704
9823,85708
3818,652837
4555,652837
91525,652837
4558,652837
5076,654932
3827,693989
3859,693989
3864,693989
70936,693989
3888,693989
60916,693989
3906,693989
3908,693989
8932,126070
4113,12045
4113,12046
4113,12047
4113,12048
4072,35281
4071,138303
4071,138304
4071,138305
4071,138306
3906,138663
4072,31745
4112,652839
4113,652839
3649,12181
108055,12181
58090,652599
38727,652599
37495,686943
3821,652109
174212,652109
73824,31709
3696,31709
75703,31709
3691,31709
3694,31709
4113,31710
4113,12168
4113,12170
3711,12183
4113,12183
3711,12184
4113,12184
3711,73488
4113,73488
3711,31726
4113,31726
3711,12185
4113,12185
3711,12186
4113,12186
32247,652675
75079,652675
75100,652675
3879,12267
47083,12267
57577,12267
3899,12267
9986,314539
49450,51680
75806,51680
4097,51680
39414,51680
29818,51680
65951,51680
65952,51680
52853,51680
203579,51680
49450,138308
75806,138308
4097,138308
39414,138308
29818,138308
65951,138308
65952,138308
52853,138308
203579,138308
49450,12248
75806,12248
4097,12248
39414,12248
29818,12248
65951,12248
65952,12248
52853,12248
203579,12248
4534,649603
4536,649603
4529,649603
3847,652938
3885,652938
3915,652938
3917,652938
4513,652673
4564,652673
3847,196398
3885,196398
3915,196398
3917,196398
3900,291607
47085,291608
70957,291608
3888,291608
74514,291608
57577,291608
3899,291608
3900,291608
3906,291608
20997,291608
7108,113370
3829,12240
35936,12240
40336,12240
3917,12240
28911,31770
43080,157898
43080,157899
9702,36406
9702,36407
63459,12187
57918,12187
59498,12187
3847,10651
35936,10651
3885,10651
3917,10651
9606,37129
5757,543939
2134,185959
2133,10854
2287,2730619
173841,268781
4547,268781
3885,12445
13306,12445
9103,364370
9103,246343
4081,2654645
4072,12146
3749,12146
3766,12146
4081,12146
4111,12146
29777,12146
13305,12146
4072,12147
3749,12147
3766,12147
4081,12147
4111,12147
29777,12147
13305,12147
3709,11988
5130,11988
180540,11988
4072,12241
43071,12241
4090,12241
4097,12241
4097,31749
4097,12243
4097,12244
4097,138309
4097,12246
4097,12247
4097,12249
4097,31746
4097,12250
4097,12251
130426,138310
4097,138310
7100,328615
66262,12055
63459,12055
3659,12055
81866,12055
4097,12055
3885,12055
13306,12055
66262,12056
63459,12056
3659,12056
81866,12056
4097,12056
3885,12056
13306,12056
4151,138311
4071,138311
46246,138311
4101,138311
4081,138311
13707,138311
4151,138312
4071,138312
46246,138312
4101,138312
4081,138312
13707,138312
4151,138313
4071,138313
46246,138313
4101,138313
4081,138313
13707,138313
4151,12252
4071,12252
46246,12252
4101,12252
4081,12252
13707,12252
4151,138314
4071,138314
46246,138314
4101,138314
4081,138314
13707,138314
22868,12282
90645,12282
4072,12282
3649,12282
3654,12282
4281,12282
3656,12282
3659,12282
66679,12282
38871,12282
49747,12282
3847,12282
16107,12282
23109,12282
127142,12282
26378,12282
4382,12282
3869,12282
3750,12282
283210,12282
21819,12282
39639,12282
4097,12282
4030,12282
4101,12282
3885,12282
103544,12282
3582,12282
42229,12282
137206,12282
3760,12282
1358727,12282
97321,12282
132459,12282
23216,12282
211815,12282
4081,12282
4111,12282
69266,12282
3917,12282
29760,12282
42337,652939
4072,652939
59895,652939
4081,652939
9606,766182
9606,766183
9394,766185
9491,766186
9685,766188
9606,766184
9823,766190
9615,766189
9606,486280
9606,486275
9606,687342
9606,687345
9606,486277
9606,687366
9606,486279
9598,687343
9606,687364
9606,487067
9505,766187
3700,29272
4076,31599
239686,31599
4097,31599
4081,31599
161934,12043
3709,12043
138011,12043
3710,12043
3715,12043
3716,12043
51350,12043
4072,12043
3827,12043
3654,12043
3721,12043
3659,12043
3663,12043
3847,12043
4232,12043
4236,12043
103529,12043
3888,12043
3726,12043
4081,12043
3562,12043
3900,12043
3906,12043
9823,85617
3899,654934
3898,12189
3898,12190
4498,268789
4513,268789
4521,268789
4550,268789
4565,268789
9995,10430
9995,341946
9995,10431
9995,10432
9995,10433
9519,490134
3708,228578
9606,10533
9606,28280
9606,10534
9606,31545
9606,10527
9606,31544
9606,10529
83334,66711
8976,10547
4513,478099
4565,478099
4577,478099
82600,654905
320016,51677
85585,224399
7119,161494
7088,74320
7088,74660
7141,208973
7088,70600
7088,28288
7088,28290
174822,191492
7113,654904
7088,654904
29057,654904
7088,31506
7088,46242
10090,11793
9606,10315
9606,10306
10090,69156
587753,198110
287,2905945
562,2502409
287,998086
562,10682
562,12353
2271,10480
33113,12149
1584,12348
1584,12392
3641,12150
65352,12152
4081,12151
4111,12151
45840,12151
53866,36392
53889,36392
76709,36392
4577,31503
49454,12292
58889,12153
304155,72539
32247,12451
75079,12451
75100,12451
4543,154834
866555,154834
38727,154834
158163,154834
38727,28265
158163,28265
4090,12881
3885,12444
13306,12444
161934,12296
4072,12296
82024,12296
39639,12296
4097,12296
4113,12296
3562,12296
13274,12296
13305,12296
97415,12296
161934,33766
4072,33766
82024,33766
39639,33766
4097,33766
4113,33766
3562,33766
13274,33766
13305,33766
97415,33766
161934,12297
4072,12297
82024,12297
39639,12297
4097,12297
4113,12297
3562,12297
13274,12297
13305,12297
97415,12297
3705,12154
51351,12154
82359,12154
3705,12155
82359,12155
562,665033
3983,38062
9031,10344
283036,39720
9646,11233
9649,11233
9615,11233
9665,11233
9689,11233
9654,11233
9704,11233
9796,928303
9606,928303
9402,928303
9403,928303
94117,928303
9606,36408
9606,645098
9606,11235
9606,11237
9606,11239
58060,3052225
58065,3052225
9606,3052225
9405,3052225
132908,3052225
153297,3052225
9823,3052225
9709,11240
9606,31605
9606,11210
9606,31607
9606,31606
9913,3052729
9606,11217
9606,11293
40674,11293
9915,11242
9913,11242
89462,11242
9925,11242
9933,11242
9894,11242
9832,11242
9940,11242
9821,11242
9915,36409
9913,36409
89462,36409
9925,36409
9933,36409
9894,36409
9832,36409
9940,36409
9821,36409
10144,11193
36483,11193
10090,11193
10116,11193
10144,302271
36483,302271
10090,302271
10116,302271
10144,11195
36483,11195
10090,11195
10116,11195
10144,11196
36483,11196
10090,11196
10116,11196
10144,317654
36483,317654
10090,317654
10116,317654
10144,302272
36483,302272
10090,302272
10116,302272
10144,11198
36483,11198
10090,11198
10116,11198
37347,92129
9394,1560034
7158,11285
9913,11285
58271,11285
9793,11285
9796,11285
9606,11285
252607,11285
7370,11285
7190,11285
9823,11285
7158,434489
9913,434489
58271,434489
9793,434489
9796,434489
9606,434489
252607,434489
7370,434489
7190,434489
9823,434489
7158,11278
9913,11278
58271,11278
9793,11278
9796,11278
9606,11278
252607,11278
7370,11278
7190,11278
9823,11278
7158,11279
9913,11279
58271,11279
9793,11279
9796,11279
9606,11279
252607,11279
7370,11279
7190,11279
9823,11279
7158,434488
9913,434488
58271,434488
9793,434488
9796,434488
9606,434488
252607,434488
7370,434488
7190,434488
9823,434488
7158,434490
9913,434490
58271,434490
9793,434490
9796,434490
9606,434490
252607,434490
7370,434490
7190,434490
9823,434490
7158,11282
9913,11282
58271,11282
9793,11282
9796,11282
9606,11282
252607,11282
7370,11282
7190,11282
9823,11282
7158,11283
9913,11283
58271,11283
9793,11283
9796,11283
9606,11283
252607,11283
7370,11283
7190,11283
9823,11283
7742,10261
9823,10277
9823,300880
562,2492962
28901,2081904
1129,260586
470,2060946
666,1076759
90371,173443
570,2169687
573,1129191
573,2282631
573,2777230
573,1796998
573,1933773
570,2823852
573,2282629
573,2831671
562,1141519
1423,2992639
9913,10296
9796,10327
9606,10304
10090,10367
9539,50292
9823,31523
37347,132678
570,1439894
573,2282630
573,674082
570,1932361
570,1932362
573,1770232
287,2911432
269667,654911
6937,82815
9823,82815
1386,331976
1423,2884427
1423,10723
7141,10288
156174,455364
10141,103920
9606,489462
9598,489462
9606,489495
9598,489495
9606,489496
9598,489496
9606,489497
9598,489497
9606,489498
9598,489498
9606,489499
9598,489499
9606,489500
9598,489500
9606,489501
9598,489501
9606,489539
9598,489539
9606,489540
9598,489540
9600,489545
9606,10301
9606,10309
9606,10312
7996,766178
9925,10259
9606,10259
9940,10259
29159,654903
6579,654903
3071,46021
36893,455367
33659,455365
10114,79700
9544,103930
94231,65424
8163,65424
8160,65424
8237,65424
37347,10397
9995,10436
9872,305674
1717,10703
1717,10714
80866,665032
9654,10256
8976,66295
9796,10333
9606,10369
9823,33703
9606,31531
9521,10382
9521,10384
9615,10514
9528,10532
9606,10522
9606,343463
9606,343462
69319,654919
83334,10730
1639,40523
562,69932
570,532077
562,10738
1358,10746
90371,83128
90371,83127
1280,538529
83334,97081
8976,31671
8976,11636
8976,11899
8976,11894
8976,354090
9554,11764
9565,11764
9913,417296
9913,11901
9913,11902
9913,11903
9913,11904
9913,11905
9913,11906
9913,11907
9925,11661
9925,11662
9606,11319
6935,11319
9793,11666
9796,11666
9793,11667
9796,11667
9793,11668
9796,11668
9793,11669
9796,11669
9793,11670
9796,11670
9793,31675
9796,31675
9793,11671
9796,11671
9793,11672
9796,11672
9681,11766
9681,11674
9681,11675
9681,31676
9681,36373
9681,36371
9681,36372
9681,45409
9681,11921
9681,11922
9685,103917
9685,103918
9681,11769
9685,103916
9685,103919
10090,355329
10090,31692
10090,355328
9681,11774
9681,11779
9681,11780
9577,11840
634157,634168
9606,11926
9606,11927
9606,39015
9606,402046
9606,11928
9606,39016
9606,402036
9606,406769
9606,11909
9606,388826
9606,388812
9606,388814
9606,388906
9606,388907
9606,388825
9606,11685
9606,327105
9606,11678
9606,11684
9606,401671
9606,11693
9606,11686
9606,11687
9606,11689
9606,388796
9606,11706
9606,11707
9606,11694
9606,11688
9606,36375
9606,82834
9606,388823
9606,11697
9606,11704
9606,11696
9606,388815
9606,388816
9606,11698
9606,11695
9606,11699
9606,11701
9606,11691
9606,388905
9606,11690
9606,388904
9606,11702
9606,388888
9606,388813
9606,31678
9606,11705
9606,362651
9606,388819
9606,388818
9606,11683
9606,11680
9606,11708
9606,11681
9606,11692
9606,11714
9606,11715
9606,11713
9606,11716
9606,388821
9606,11717
9606,73484
9606,11719
9606,11720
9606,31681
9606,11718
9606,11721
9606,388822
10090,11932
9906,36370
9940,11746
38626,394239
10090,11935
10090,11936
10090,11791
10090,11792
10090,11796
10090,11797
10090,11798
10090,11795
10090,11799
10090,11800
10090,928306
10090,11787
10090,31689
10090,11758
10090,11759
10090,11760
10090,11973
9544,11855
10090,11805
9940,11664
6939,1559362
10090,11784
10090,11821
9031,11888
9031,269446
9031,269447
9596,402771
9598,388912
9527,31684
9527,11732
9527,11733
9527,11734
9598,388911
9527,11735
9527,11736
9527,11737
9527,11738
9598,388910
9527,11727
9527,11730
9527,11731
40674,11856
9544,11942
9544,39068
9544,73490
34610,126796
10144,126796
210652,126796
34631,126796
6941,126796
9940,11742
9940,11743
9940,11744
9940,36374
9518,11970
9606,356663
9606,356664
9606,373193
8976,11864
8976,79685
8976,103898
65742,83191
9796,10330
9031,10387
9606,10307
9606,10313
9031,10392
9103,10392
90371,2907955
9788,299386
9823,11049
9606,10281
9925,73495
9606,73495
9940,73495
9681,11775
562,10674
971,10676
562,10691
518,2885909
58712,215158
562,344022
562,344021
562,56637
623,10761
10090,353765
8976,11875
9031,11880
9031,11885
7088,307468
8847,652954
9103,652954
9913,11247
9913,11248
9913,11249
9606,694067
9606,11250
9606,11251
9606,11259
9606,79692
9606,11261
8049,652965
8019,652965
8022,652965
8060,652965
8030,652965
8032,652965
9606,70146
9606,11236
9606,70147
9606,70148
9606,70149
10090,296738
9606,11173
9606,11171
9606,11172
9606,33729
9031,11177
9031,11178
9031,652953
9031,11180
9031,11187
9031,11181
9031,11182
9031,11184
9031,11185
9031,11186
9031,11188
9031,11189
9031,11190
9606,2560525
9606,11213
9606,11214
9615,11208
9606,11208
9915,39007
9913,39007
89462,39007
9925,39007
9933,39007
9894,39007
9832,39007
9940,39007
9821,39007
9915,11243
9913,11243
89462,11243
9925,11243
9933,11243
9894,11243
9832,11243
9940,11243
9821,11243
314293,3052561
9103,11264
9606,11104
9606,63746
9606,10252
8976,11878
8976,11859
8976,11949
8976,11960
8976,11868
8976,11915
8976,11884
9681,11768
9681,11777
9681,11778
9606,11682
9606,388824
9606,11703
10026,11752
10090,11753
10090,31687
10090,31688
10090,11794
10090,11809
10090,31691
4932,11008
4932,42478
9527,31683
9913,10323
9913,10324
9796,10328
9031,33707
9606,10363
9606,10308
9606,10316
9506,35243
9031,31521
9031,10343
9481,10353
9520,10353
9913,10385
9685,10385
9689,10385
9913,436506
9913,436507
9031,10388
9606,10314
9031,10391
9103,10391
9913,45407
9606,10325
9541,10325
90387,10325
9544,10325
9545,10325
9796,10329
9606,10305
9823,10350
9534,36348
10090,882209
9606,103921
9681,10334
9606,10303
9031,37108
9103,37108
9606,36346
9606,36345
9606,446561
9402,446561
328804,446561
9403,446561
94117,446561
446909,446561
9606,446562
9402,446562
328804,446562
9403,446562
94117,446562
446909,446562
109482,211977
9913,31612
89462,31612
58271,31612
9970,31612
9913,928297
89462,928297
58271,928297
9970,928297
9606,11273
7198,11273
9913,50713
9796,50713
50557,50713
7227,666363
9606,38767
40674,38767
40674,453115
40674,453116
72011,453457
8255,453457
61084,453457
160818,453457
8028,429315
8028,11291
8028,429314
187017,249583
10045,290008
9606,290008
29031,290008
109479,237716
9606,38766
40674,38766
43191,928304
4236,928304
43208,928304
255580,928304
50207,928304
300124,928305
4554,928305
4558,928305
4577,928305
9615,12538
269271,12538
9685,12538
9989,12538
4513,1985704
126289,11274
9606,445793
40674,445793
9606,11294
40674,11294
9606,445792
40674,445792
9606,11295
40674,11295
9606,11296
40674,11296
9606,445790
40674,445790
9606,11298
40674,11298
9606,103929
40674,103929
9606,445791
40674,445791
9606,11300
40674,11300
9606,31613
40674,31613
9606,45418
40674,45418
4530,59380
203314,103603
7227,11301
7962,696863
80764,11307
42337,11307
4236,11307
50207,11307
4460,2749935
9913,1559361
469753,1559361
59291,11288
8010,11288
8019,11288
8022,11288
74940,11288
8032,11288
8040,11288
36185,11288
7158,11284
9913,11284
58271,11284
9793,11284
9796,11284
9606,11284
252607,11284
7370,11284
7190,11284
9823,11284
9433,249584
48011,144752
48012,144752
42520,3052298
9913,82818
9913,82819
9913,82820
9913,82821
9913,82822
9913,82823
9913,82824
9913,82825
9606,3052302
89099,3052304
483436,1980426
36599,1980426
8574,1223562
9606,3052307
157541,3052307
9606,11252
9606,11253
9606,11254
9606,11255
9606,11256
9606,11257
9606,11258
10111,3052308
29095,2169991
10080,2169991
56211,2169991
56212,2169991
9606,2169991
9606,11621
10112,11621
9606,11622
10112,11622
56210,3052311
9606,11624
10036,11624
10090,11624
9606,11627
10036,11627
10090,11627
56210,3052317
9534,3052317
9606,3052317
10111,3052325
10112,3052320
10080,3052322
9940,79699
530180,3052323
10144,3052300
9606,3052300
530178,3052300
134742,3052324
4498,36394
66017,36394
38413,36394
4513,36394
4530,36394
4555,36394
4556,36394
4565,36394
4577,36394
9606,3052299
9416,31615
9416,31616
9416,928313
9416,31614
42415,3052329
42407,3052331
9606,73483
9606,69162
9606,69163
9606,69164
9606,69166
9606,69165
9606,69167
9606,69168
9606,69169
562,10680
1423,10755
55510,1283338
272623,83129
29094,1980456
9606,1980456
89122,1980456
37015,1980456
218824,1980456
137207,1980456
37019,1980456
9606,3052490
42415,3052490
34610,1213620
9368,1213620
9913,1213620
9925,1213620
9858,1213620
49202,1213620
1027255,1213620
49204,1213620
490559,1213620
9606,1213620
572043,1213620
34626,1213620
34627,1213620
72855,1213620
34613,1213620
59656,1213620
9940,1213620
34611,1213620
34631,1213620
67831,1213620
60189,1213620
136141,1213620
34632,1213620
9823,1213620
327507,1213620
53527,11574
9850,11578
9606,11578
7162,11578
13712,11578
9850,796210
9606,796210
7162,796210
13712,796210
7158,11580
9913,11580
9615,11580
7174,11580
174825,11580
9796,11580
9031,11580
9606,11580
48086,11580
7159,35304
9606,35304
9913,652961
9925,652961
9606,652961
34625,652961
9940,652961
6941,652961
39030,3052477
54292,3052477
134909,3052477
9606,3052477
34610,766194
9606,766194
72862,766194
72855,766194
34630,766194
34611,766194
60189,766194
136141,766194
39030,31617
9606,31617
39030,11583
9606,11583
39030,11601
9606,11601
39030,11602
9606,11602
6944,11597
999462,1216928
6943,1216928
9614,1216928
9267,1216928
9796,1216928
9606,1216928
9874,1216928
9654,1216928
35939,11612
9606,44755
10041,44755
10058,3052492
9606,11587
29031,11587
9606,38998
447135,38998
9606,1337063
447135,1337063
9606,39000
447135,39000
9606,39001
447135,39001
9606,39002
447135,39002
9606,39003
447135,39003
7158,11588
9913,11588
297284,11588
9837,11588
9925,11588
9606,11588
9940,11588
29031,11588
7158,11589
9913,11589
297284,11589
9837,11589
9925,11589
9606,11589
9940,11589
29031,11589
9913,1318464
9940,1318464
9606,12557
10116,12557
10117,12557
9606,31620
10116,31620
10117,31620
9606,11610
10116,11610
10117,11610
44386,992212
9606,992212
9606,3052499
10042,3052499
133901,3052585
163899,3052585
4081,3052585
161014,3052585
133901,36413
163899,36413
4081,36413
161014,36413
133901,267288
163899,267288
4081,267288
161014,267288
133901,267287
163899,267287
4081,267287
161014,267287
9606,3052503
47230,3052503
523745,3052503
9606,487099
34613,487099
85584,170617
47767,10464
7141,56947
115354,115813
7116,10465
7111,10462
315458,654910
623,66284
623,55884
623,10874
83333,10845
9606,489449
9598,489449
9606,31513
9598,31513
9796,11156
9913,360393
9913,360394
9646,82826
9649,82826
9615,82826
9665,82826
9689,82826
9654,82826
9704,82826
9646,82827
9649,82827
9615,82827
9665,82827
9689,82827
9654,82827
9704,82827
9646,82828
9649,82828
9615,82828
9665,82828
9689,82828
9654,82828
9704,82828
9913,233262
9913,11129
9913,230235
9913,11130
9913,233261
9913,233264
9913,11131
9913,11132
9913,231432
9913,231422
9913,11133
9606,443239
9606,443240
9606,443241
9606,31631
10090,11142
10088,231423
10090,11144
10090,11145
9823,230237
9823,230236
48688,76583
10116,33740
9606,67605
8782,11384
9796,11384
9606,11384
9709,11384
8782,132504
9721,132504
9606,132504
9709,132504
9823,132504
8782,176674
9685,176674
9606,176674
9691,176674
9694,176674
9823,176674
8782,363066
9606,363066
9823,363066
8782,196430
9685,196430
9606,196430
9691,196430
9694,196430
9823,196430
8782,196426
9685,196426
9606,196426
9691,196426
9694,196426
9823,196426
8782,222142
9685,222142
9606,222142
9691,222142
9694,222142
9823,222142
8782,196434
9685,196434
9606,196434
9691,196434
9694,196434
9823,196434
8782,284208
9685,284208
9606,284208
9691,284208
9694,284208
9823,284208
8782,284169
9685,284169
9606,284169
9691,284169
9694,284169
9823,284169
8782,284172
9685,284172
9606,284172
9691,284172
9694,284172
9823,284172
8782,284214
9685,284214
9606,284214
9691,284214
9694,284214
9823,284214
8782,279803
9685,279803
9606,279803
9691,279803
9694,279803
9823,279803
8782,284177
9685,284177
9606,284177
9691,284177
9694,284177
9823,284177
8782,284215
9685,284215
9606,284215
9691,284215
9694,284215
9823,284215
8782,279794
9685,279794
9606,279794
9691,279794
9694,279794
9823,279794
8782,284184
9685,284184
9606,284184
9691,284184
9694,284184
9823,284184
8782,365089
9685,365089
9606,365089
9691,365089
9694,365089
9823,365089
8782,518998
9606,518998
9823,518998
8782,455880
9606,455880
9823,455880
8782,88776
9606,88776
9823,88776
8782,380342
9606,380342
9823,380342
8782,381518
9606,381518
9823,381518
8782,392810
8782,211044
9606,211044
9823,211044
8782,425570
9606,425570
9823,425570
8782,425562
9606,425562
9823,425562
8782,383543
9606,383543
9823,383543
8782,425563
9606,425563
9823,425563
8782,425551
9606,425551
9823,425551
8782,11339
8782,382838
8782,425580
9606,425580
9823,425580
8830,383555
9031,383555
8782,393557
9606,393557
9823,393557
8782,425566
9606,425566
9823,425566
8782,385590
9823,385590
8782,383550
8782,380337
9796,380337
9606,380337
9709,380337
8782,387161
9606,387161
8782,382828
9606,382828
8782,382781
9606,382781
8782,402527
9685,402527
9606,402527
9691,402527
9694,402527
9823,402527
8782,384498
9606,384498
8782,387212
8782,384510
8782,383533
9606,383533
9823,383533
8782,217837
9796,217837
9606,217837
9709,217837
8782,387222
9796,387222
8782,385580
9796,385580
8782,387234
9796,387234
8782,217836
9796,217836
9606,217836
9709,217836
8782,217834
9796,217834
9606,217834
9709,217834
8782,380301
8782,385620
8782,475494
9796,475494
9606,475494
9709,475494
8782,382855
9606,382855
9823,382855
8782,387139
9721,387139
9606,387139
9709,387139
9823,387139
8782,311175
8782,506350
9721,506350
9606,506350
9709,506350
9823,506350
8782,488241
9606,488241
8782,384505
9721,384505
9606,384505
9709,384505
9823,384505
8782,387147
9606,387147
9761,387147
9709,387147
9823,387147
8782,221016
9721,221016
9606,221016
9709,221016
9823,221016
8782,383586
9721,383586
9606,383586
9709,383586
9823,383586
8782,385636
8782,11418
9721,11418
9796,11418
9606,11418
9709,11418
9823,11418
8782,387214
9796,387214
8782,381517
9721,381517
9606,381517
9709,381517
9823,381517
8782,385640
9721,385640
9606,385640
9709,385640
9823,385640
8782,383583
9721,383583
9606,383583
9709,383583
9823,383583
8782,383604
8782,217829
9796,217829
9606,217829
9709,217829
8782,217835
9796,217835
9606,217835
9709,217835
8782,380340
9796,380340
9606,380340
9709,380340
8782,385624
9721,385624
9606,385624
9709,385624
9823,385624
8782,383553
9796,383553
8782,383596
9721,383596
9606,383596
9709,383596
9823,383596
8782,11462
8782,352551
9606,352551
9761,352551
9709,352551
9823,352551
8782,392809
9721,392809
9606,392809
9709,392809
9823,392809
8782,11338
8782,384509
8782,385638
9823,385638
8782,385582
9823,385582
8782,385646
8782,352520
9606,352520
9823,352520
8782,383581
9721,383581
9606,383581
9709,383581
9823,383581
8782,387217
9796,387217
8782,45414
8782,45412
8782,387211
8782,186460
9606,186460
9823,186460
8782,11408
9796,11408
8782,385592
9823,385592
8782,217828
9796,217828
9606,217828
9709,217828
8782,385645
9721,385645
9606,385645
9709,385645
9823,385645
8782,11357
9796,11357
8782,45411
8782,393563
9606,393563
9761,393563
9709,393563
9823,393563
8782,217831
9796,217831
9606,217831
9709,217831
8782,393560
9606,393560
9823,393560
8782,381516
9606,381516
9823,381516
8782,384499
8782,385587
9823,385587
8782,384502
9606,384502
8782,384518
9721,384518
9606,384518
9709,384518
9823,384518
8782,383580
9721,383580
9606,383580
9709,383580
9823,383580
8782,383579
9721,383579
9606,383579
9709,383579
9823,383579
8782,384484
9721,384484
9606,384484
9709,384484
9823,384484
8782,11369
8782,385630
9721,385630
9606,385630
9709,385630
9823,385630
8782,384495
9606,384495
9823,384495
8782,402464
8782,383547
9606,383547
9823,383547
8782,384493
9796,384493
9606,384493
9709,384493
8782,383578
9721,383578
9606,383578
9709,383578
9823,383578
8782,387207
9796,387207
8782,11359
9796,11359
8782,383603
8782,393562
9606,393562
9823,393562
8782,387229
9796,387229
8782,385597
8782,475467
9796,475467
8782,380349
9606,380349
9823,380349
8782,11433
8782,352564
8782,387191
9606,387191
9823,387191
8782,387250
9709,387250
8782,382848
9721,382848
9606,382848
9709,382848
9823,382848
8782,11360
9796,11360
8782,11361
9796,11361
8782,380985
9606,380985
9823,380985
8782,387208
8782,380285
8782,385586
8782,385617
8782,387159
9721,387159
9606,387159
9709,387159
9823,387159
8782,385593
9721,385593
8782,382839
9666,382839
8782,385603
8782,385644
9721,385644
9606,385644
9709,385644
9823,385644
8782,11362
9796,11362
8782,11363
9796,11363
8782,402520
9796,402520
9606,402520
9709,402520
8782,380347
9606,380347
9823,380347
8782,11414
9796,11414
8782,402525
9796,402525
9606,402525
9709,402525
8782,380343
9823,380343
8782,380213
9606,380213
9823,380213
8782,383571
9721,383571
9606,383571
9709,383571
9823,383571
8782,385605
9796,385605
8782,380339
9796,380339
8782,293055
8782,387219
9796,387219
8782,387156
9823,387156
8782,387243
8782,384487
9606,384487
9823,384487
8782,380949
9721,380949
9606,380949
9709,380949
9823,380949
8782,380981
9823,380981
8782,385585
9796,385585
8782,45413
9796,45413
8782,93838
9685,93838
9606,93838
9691,93838
9694,93838
9823,93838
8782,416730
9606,416730
9823,416730
8782,394786
9606,394786
9823,394786
8782,100834
9685,100834
9606,100834
9691,100834
9694,100834
9823,100834
8782,130763
9685,130763
9606,130763
9691,130763
9694,130763
9823,130763
9606,11521
9606,11525
9606,416677
9606,230285
9606,11527
9606,38996
9606,38997
9606,38988
9606,38990
9606,38991
9606,38992
9606,38993
9606,38994
9606,38995
9606,11528
9606,291802
9606,11530
9606,427826
9606,291796
9606,416675
9606,107411
9606,11534
9606,291806
9606,11537
9606,11538
9606,11540
9606,291801
9606,11541
9606,291795
9606,408929
9606,291805
9606,11545
9606,291799
9606,291800
9606,230286
9606,11547
9606,1077587
9606,291803
9606,291804
9606,416674
9606,11553
9823,11553
9606,203224
9823,203224
9606,11556
9823,11556
9606,11557
9823,11557
9606,203225
9823,203225
9606,100673
9823,100673
9606,203233
9823,203233
9606,203229
9823,203229
9606,203232
9823,203232
9606,127957
9823,127957
9606,11564
9823,11564
9606,203231
9823,203231
9606,11566
9823,11566
9606,11567
9823,11567
9606,11568
9823,11568
9606,127958
9823,127958
9823,360395
9606,10251
1423,941058
9031,11179
9031,11183
9031,332244
9606,11211
9606,11218
9606,11219
9606,11220
9606,11221
9606,11222
9606,11223
9606,11225
9615,31609
9606,31609
9541,31609
9544,31609
9615,31608
9606,31608
9541,31608
9544,31608
9615,31610
9606,31610
9541,31610
9544,31610
1314,12366
1314,86065
6937,82810
85517,82810
41426,82810
273792,82810
9823,82810
6937,82811
85517,82811
41426,82811
273792,82811
9823,82811
6937,82812
85517,82812
41426,82812
273792,82812
9823,82812
6937,82813
9823,82813
6937,686262
9823,686262
6937,82814
9823,82814
6937,82816
85517,82816
41426,82816
273792,82816
9823,82816
6937,82817
85517,82817
41426,82817
273792,82817
9823,82817
3702,10642
3705,10642
3725,10642
3702,10643
3705,10643
3725,10643
3702,10646
3705,10646
3725,10646
3702,10647
3705,10647
3725,10647
3702,31558
3705,31558
3725,31558
9913,31518
9913,31519
9606,37106
9606,37107
6657,654913
9606,340907
9541,340907
90387,340907
9544,340907
9545,340907
9541,260965
9544,260965
9545,260965
9796,82832
1423,10717
10090,11139
10090,11140
9103,11152
8976,11877
9913,397342
9796,397342
9606,397342
59528,33705
9927,33705
9913,10322
9913,10321
9913,10297
9913,36350
7141,28322
9606,10298
9606,10302
5270,11009
5270,11010
246196,205875
1772,2907835
9913,59509
7088,31507
9940,114430
9606,10421
9606,10422
9606,31762
9606,10423
9606,31763
9606,10424
9606,10425
9606,10426
9606,261996
9606,10427
9606,10428
9606,261992
9606,261991
9606,261993
9606,261994
9606,261995
9606,31764
40674,10886
40674,10885
40674,10884
9606,31525
9606,10378
10090,179241
10036,1891729
9606,423448
9606,423446
9606,423447
9534,332091
10090,1891730
10090,157703
10090,10636
10090,10637
10090,10638
9606,440266
1311,209152
1313,10748
1313,10749
1584,33769
1423,10773
9913,1714621
9352,1714621
9925,1714621
9850,1714621
109474,1714621
9788,1714621
9685,1714621
56798,1714621
9844,1714621
9986,1714621
9940,1714621
8801,1714621
9455,1714621
30538,1714621
9913,928296
9352,928296
9925,928296
9850,928296
109474,928296
9788,928296
9685,928296
56798,928296
9844,928296
9986,928296
9940,928296
8801,928296
9455,928296
30538,928296
9850,11577
9606,11577
7162,11577
13712,11577
159033,652963
2708,652963
37656,652963
9606,129003
9541,129003
77225,129003
9823,129003
77231,386032
9606,386032
77243,386032
9823,386032
77231,128949
9606,128949
77243,128949
77231,386033
9606,386033
77243,386033
77231,128951
9606,128951
77243,128951
77231,128952
9606,128952
77243,128952
9606,3052310
10112,3052310
10114,3052310
4236,652962
50193,652962
50207,652962
9534,378830
9606,378830
9407,378830
9534,33727
9606,33727
9407,33727
9534,482820
9606,482820
9407,482820
9534,33728
9606,33728
9407,33728
9534,378809
9606,378809
9407,378809
4236,652964
9615,33730
9606,33730
9541,33730
9544,33730
10144,11194
36483,11194
10090,11194
10116,11194
9606,11590
13204,11590
7158,11281
9913,11281
58271,11281
9793,11281
9796,11281
9606,11281
252607,11281
7370,11281
7190,11281
9823,11281
4932,12450
8782,36418
9796,36418
9606,36418
9709,36418
8782,382842
9606,382842
9823,382842
8782,384525
9606,384525
9823,384525
8782,383535
9606,383535
9823,383535
8782,387163
9606,387163
8782,380984
9606,380984
8782,380983
9606,380983
8782,380960
9606,380960
8782,385599
9721,385599
9606,385599
9709,385599
9823,385599
8782,385606
9606,385606
9823,385606
8782,387259
8782,385602
8782,387226
9796,387226
8782,385601
8782,385626
8782,384501
9606,384501
9823,384501
8782,384483
9721,384483
9606,384483
9709,384483
9823,384483
8782,382825
9721,382825
9606,382825
9709,382825
9823,382825
8782,383588
9721,383588
9606,383588
9709,383588
9823,383588
8782,380341
9606,380341
9823,380341
8782,380346
9606,380346
9823,380346
8782,387213
9796,387213
8976,11873
9606,410078
9823,3052562
9606,351669
9606,11238
9606,36412
9606,11227
9606,11560
9823,11560
114194,142803
90397,142803
94400,142803
4530,142803
147271,142803
114194,142804
90397,142804
94400,142804
4530,142804
147271,142804
94400,10986
4530,10986
4058,10987
47083,10987
60916,10987
41043,10490
50579,68348
7191,10489
107013,68347
30942,654922
103373,160691
9823,31522
8976,11870
10090,11810
10090,11811
10090,11814
4577,652669
4072,70158
3749,70158
3766,70158
4081,70158
4111,70158
29777,70158
13305,70158
4072,70159
3749,70159
3766,70159
4081,70159
4111,70159
29777,70159
13305,70159
3752,273525
3752,36402
1423,10735
1423,10725
3071,46020
3071,46019
3071,36360
3885,500578
124763,114921
350892,114921
3555,114921
3559,114921
200951,114921
50192,114921
3562,114921
60916,114921
3818,12197
4627,12197
3828,12197
52517,12197
58987,12197
49747,12197
3847,12197
3873,12197
3879,12197
3469,12197
3885,12197
3888,12197
35938,12197
74517,12197
60916,12197
57577,12197
3899,12197
3900,12197
97047,12197
78534,12197
3906,12197
3908,12197
2711,686950
43365,1005060
35936,1005060
3879,1005060
3885,1005060
3917,1005060
4222,117132
3827,117132
114280,117132
13427,117132
52518,117132
4235,117132
3888,117132
3562,117132
4222,117131
3827,117131
114280,117131
13427,117131
52518,117131
4235,117131
3888,117131
3562,117131
300124,3052767
4558,3052767
4577,3052767
4072,31737
4075,31737
4107,31737
3818,103926
108216,103926
53851,103926
3847,103926
3885,103926
3888,103926
35627,103926
36596,12212
36595,12212
3758,12212
105665,12212
3760,12212
88123,12212
114937,12212
36596,12213
36595,12213
3758,12213
105665,12213
3760,12213
88123,12213
114937,12213
36596,103927
36595,103927
3758,103927
105665,103927
3760,103927
88123,103927
114937,103927
3649,31731
3888,31736
45843,12215
4112,12215
4113,12215
4071,31739
4085,31739
4081,31739
4113,31739
4071,12219
4085,12219
4081,12219
4113,12219
4498,36393
66017,36393
38413,36393
4513,36393
4530,36393
4555,36393
4556,36393
4565,36393
4577,36393
3847,103931
3847,12223
4072,70155
3749,70155
3766,70155
4081,70155
4111,70155
29777,70155
13305,70155
4072,70156
3749,70156
3766,70156
4081,70156
4111,70156
29777,70156
13305,70156
4072,70157
3749,70157
3766,70157
4081,70157
4111,70157
29777,70157
13305,70157
4072,12227
53851,12227
4076,12227
4097,12227
24663,12227
4081,12227
4151,31747
4071,31747
46246,31747
4101,31747
4081,31747
13707,31747
4151,31748
4071,31748
46246,31748
4101,31748
4081,31748
13707,31748
126270,12230
3705,12230
38206,12230
3719,12230
264418,12230
13274,12230
74517,12230
3705,36396
4097,12228
3618,12228
3654,117128
3656,117128
3659,117128
3663,117128
3654,117129
3656,117129
3659,117129
3663,117129
3654,117130
3656,117130
3659,117130
3663,117130
8976,11913
8976,11866
8976,11869
8976,11916
8976,11871
9681,11923
9913,11582
258959,389230
153297,693999
258959,694007
105295,694008
9408,694006
9913,31611
9913,11594
9925,11594
9606,11594
34625,11594
9940,11594
6941,11594
9615,36391
9615,33732
9615,441619
9796,202496
9606,11137
9606,277944
10090,76344
9823,11150
9823,11151
9823,33736
9823,11148
10116,231433
9103,231429
9103,231430
9103,231431
34610,3052514
9606,3052514
72862,3052514
72855,3052514
34630,3052514
34611,3052514
60189,3052514
136141,3052514
77231,128947
9606,128947
77243,128947
77231,128948
9606,128948
77243,128948
9681,33734
8782,383551
9796,383551
9606,383551
9709,383551
8782,382844
9606,382844
9823,382844
8782,383539
9606,383539
9823,383539
8782,383538
9606,383538
9823,383538
8782,383537
9606,383537
9823,383537
8782,380282
9606,380282
9823,380282
8782,383536
9606,383536
9823,383536
8782,383541
9606,383541
9823,383541
8782,383534
9606,383534
9823,383534
8782,385589
8782,383549
9823,383549
8782,11482
9606,11482
8782,383554
8782,384492
8782,11448
8782,38973
9721,38973
9606,38973
9709,38973
9823,38973
8782,383582
9721,383582
9606,383582
9709,383582
9823,383582
8782,383602
8782,379756
9606,379756
9823,379756
8782,384485
9721,384485
9606,384485
9709,384485
9823,384485
8782,11486
9721,11486
8782,384482
9606,384482
9823,384482
8782,383532
9606,383532
9823,383532
8782,387203
9606,387203
9823,387203
8782,383593
9606,383593
9761,383593
9709,383593
9823,383593
8782,383552
8782,444318
9721,444318
9606,444318
9709,444318
9823,444318
8782,383548
8782,425557
9606,425557
9823,425557
8782,383531
9606,383531
9823,383531
8782,383569
9721,383569
9606,383569
9709,383569
9823,383569
8782,383575
9721,383575
9606,383575
9709,383575
9823,383575
8782,383546
9796,383546
9606,383546
9709,383546
8782,11495
9606,11495
9823,11495
8782,383530
9606,383530
9823,383530
8782,382846
9721,382846
9606,382846
9709,382846
9823,382846
8782,385596
9606,385596
9823,385596
8782,383572
9721,383572
9606,383572
9709,383572
9823,383572
8782,383568
9721,383568
9606,383568
9709,383568
9823,383568
8782,383592
9606,383592
9761,383592
9709,383592
9823,383592
8782,383589
9721,383589
9606,383589
9709,383589
9823,383589
8782,383595
9721,383595
9606,383595
9709,383595
9823,383595
8782,383597
9721,383597
9606,383597
9709,383597
9823,383597
8782,382812
9606,382812
9761,382812
9709,382812
9823,382812
8782,383567
9721,383567
9606,383567
9709,383567
9823,383567
8782,382851
9606,382851
9823,382851
8782,383570
9721,383570
9606,383570
9709,383570
9823,383570
8782,62478
9606,62478
9709,62478
9823,62478
9031,231471
9031,11122
9031,160235
9031,160750
9031,231472
9031,233265
9031,31624
9031,231424
9031,231425
9031,11126
9031,11127
9031,231426
9031,231427
9031,231428
35939,31622
10092,11048
10092,300015
9796,11575
9606,132484
9606,673322
9606,132487
9838,1263720
9606,1263720
9606,11168
9031,351071
9823,229032
9925,2593991
9940,2593991
9606,38999
447135,38999
9606,37132
40674,37132
9606,39005
40674,39005
9915,39006
9913,39006
89462,39006
9925,39006
9933,39006
9894,39006
9832,39006
9940,39006
9821,39006
9606,28292
29031,28292
133901,12851
163899,12851
4081,12851
161014,12851
133901,36416
163899,36416
4081,36416
161014,36416
133901,36415
163899,36415
4081,36415
161014,36415
133901,12675
163899,12675
4081,12675
161014,12675
59291,11289
8010,11289
8019,11289
8022,11289
74940,11289
8032,11289
8040,11289
36185,11289
58317,766180
4565,299385
562,45406
562,36338
9606,11679
9606,290579
9527,31682
8782,38985
8782,11340
9796,11340
9606,11340
9709,11340
8782,387262
8782,11430
9796,11430
8782,11444
8782,385576
9721,385576
9606,385576
9709,385576
9823,385576
8782,11432
8782,11451
8782,384504
9823,384504
8782,11450
8782,11452
8782,31663
9606,31663
9823,31663
9606,217166
9823,217166
562,10705
8782,284218
9606,284218
9669,284218
8782,38976
8782,387231
9796,387231
8782,387205
9796,387205
8782,11397
9796,11397
9606,11397
9709,11397
8782,380216
9721,380216
9606,380216
9709,380216
9823,380216
8782,380217
9721,380217
9606,380217
9709,380217
9823,380217
8782,385637
8782,38983
9823,38983
8782,385618
8782,387235
8782,11484
9721,11484
8782,31662
8782,387204
9796,387204
8782,387244
9796,387244
8782,109049
9721,109049
9606,109049
9709,109049
9823,109049
9606,11536
9606,98827
9913,649604
182211,649604
7178,649604
9606,649604
9823,649604
7091,10809
9606,11524
9606,11529
9606,11532
9606,11542
9606,11543
9606,11548
9031,31625
9031,31630
9031,31629
9891,355314
9913,355314
9925,355314
46212,355314
9940,355314
9681,33733
4058,31595
47083,31595
60916,31595
114194,142805
90397,142805
94400,142805
4530,142805
147271,142805
9606,10942
9606,28877
10116,28877
9606,348136
9606,335103
9606,578843
9606,578831
9913,578837
9913,10928
9913,1835658
9913,1835656
9913,10934
9615,557232
9796,10939
9796,36441
9685,39010
9606,39013
9606,10947
9606,578827
9606,31567
9606,10950
9606,31574
9606,39012
9606,10952
9606,10953
9606,10954
9606,10957
9606,10960
9606,638299
9606,10962
39442,578840
9823,10915
9823,10916
9823,10917
9823,10919
9986,101359
9913,10933
9544,444185
9544,37137
9544,36436
9544,10925
60710,450149
9544,36434
9544,444186
9913,578828
9606,578830
8782,12584
9913,36439
9544,36435
9606,578834
9913,33723
9606,10959
9913,141270
9615,101357
9796,36442
9796,36443
9606,10944
9606,31571
9606,31570
9606,31569
9606,10956
9606,10961
9606,578829
39442,578842
9606,578832
9913,10935
9606,10949
7088,10290
7088,1307956
585535,1208236
866344,1208236
866345,1208236
102608,1208236
866346,1208236
4072,686948
4097,686948
4081,686948
4111,686948
4113,686948
9606,103903
9606,69153
9606,12081
9823,300559
9925,11660
3570,39443
4032,255587
23211,197112
4530,10655
3705,31751
82359,31751
114194,142806
90397,142806
94400,142806
4530,142806
147271,142806
114194,10991
90397,10991
94400,10991
4530,10991
147271,10991
666,10689
184234,1289473
8501,1289473
8502,1289473
9872,305676
8782,384479
9606,384479
9823,384479
9606,11554
9823,11554
1218,268746
9606,10246
9606,10248
9606,10250
9606,11167
9031,36411
9606,11297
40674,11297
7460,1217067
4113,12259
29760,282063
4513,103900
4513,31728
4513,31729
4513,652104
4072,649895
13163,649895
4101,649895
3562,649895
3906,649895
53866,31715
3847,31715
3885,31715
78511,65743
4681,191547
4045,191547
161934,191547
38871,191547
4236,191547
39639,191547
3885,191547
35938,191547
23216,191547
4081,191547
4113,191547
13305,191547
3603,191547
16901,173976
3396,173976
49747,173976
3821,928299
3829,928299
3917,928299
132433,31716
3823,31716
185703,31716
3829,31716
53866,31716
3847,31716
260885,31716
3885,31716
3891,31716
157791,31716
3917,31716
230209,650137
3750,650137
29818,650137
42229,650137
3760,650137
50225,650137
4045,12273
29760,12273
103352,12274
29760,12274
57577,12262
57918,281921
39639,281921
32247,281921
55188,650481
4681,283677
4045,283677
161934,283677
38871,283677
4236,283677
39639,283677
3885,283677
35938,283677
23216,283677
4081,283677
4113,283677
13305,283677
3604,283677
4097,12281
4030,12281
3754,12281
23216,12281
3847,282064
3555,12271
4283,12271
3746,12271
3486,12271
13596,12271
4146,12271
40749,12271
32247,12271
34270,12271
29760,12271
29760,283676
4513,103899
4513,103901
29760,282370
57918,36399
39639,36399
32247,36399
3559,36401
3654,36401
3663,36401
3679,36401
5116,12478
5116,321609
13686,631345
8835,475778
9031,475778
9005,475778
8835,475780
9031,475780
9005,475780
8835,475779
9031,475779
9005,475779
9606,650132
9606,172148
34626,172148
69826,172148
7157,38837
9606,38837
9989,38837
9913,331642
9913,2847999
9913,12065
4501,117138
97361,117138
4501,117139
97361,117139
9606,64304
9913,268305
9913,11100
9913,31656
211815,686949
9606,1554483
9823,11097
9823,11098
9606,69159
9606,231417
9606,12070
9606,36404
9606,12068
9606,103902
9606,231473
9606,103904
9606,103905
9606,103906
9606,103907
9606,231474
4047,12198
4039,12198
3847,12198
70371,12198
3873,12198
3888,12198
74517,12198
60916,12198
57577,12198
3899,12198
3900,12198
97047,12198
7159,11057
7160,11057
9606,11057
7159,408685
7160,408685
9606,408685
7159,11058
7160,11058
9606,11058
7159,33741
7160,33741
9606,33741
7159,11059
7160,11059
9606,11059
53540,11062
53539,11062
9538,11062
9606,11062
53541,11062
7159,11063
7160,11063
299627,11063
299628,11063
9538,11063
9606,11063
7159,31634
299627,31634
299628,31634
9538,31634
9606,31634
7159,31635
299627,31635
299628,31635
9538,31635
9606,31635
53540,413041
53539,413041
9538,413041
9606,413041
53541,413041
53540,31636
53539,31636
9538,31636
9606,31636
53541,31636
53540,31637
53539,31637
9538,31637
9606,31637
53541,31637
53540,11064
53539,11064
9538,11064
9606,11064
53541,11064
53540,11065
53539,11065
9538,11065
9606,11065
53541,11065
53540,11066
53539,11066
9538,11066
9606,11066
53541,11066
53540,408694
53539,408694
9538,408694
9606,408694
53541,408694
53540,11067
53539,11067
9538,11067
9606,11067
53541,11067
53540,11068
53539,11068
9538,11068
9606,11068
53541,11068
53540,408690
53539,408690
9538,408690
9606,408690
53541,408690
53540,408693
53539,408693
9538,408693
9606,408693
53541,408693
53540,408691
53539,408691
9538,408691
9606,408691
53541,408691
53540,408870
53539,408870
9538,408870
9606,408870
53541,408870
53540,408692
53539,408692
9538,408692
9606,408692
53541,408692
7159,408871
7160,408871
188700,408871
9606,408871
7159,408689
7160,408689
188700,408689
9606,408689
7159,408686
7160,408686
188700,408686
9606,408686
7159,408687
7160,408687
188700,408687
9606,408687
7159,408688
7160,408688
188700,408688
9606,408688
9983,316979
9606,103908
9606,176283
9606,103913
9606,103914
9606,103915
9606,31705
9606,103909
9606,103910
9606,176284
9606,12060
9606,12105
10090,12105
42415,12105
9823,12105
9606,12106
10090,12106
42415,12106
9823,12106
9606,31702
10090,31702
9913,12112
9925,12112
9850,12112
9363,12112
9785,12112
9940,12112
10116,12112
9823,12112
9913,12113
9925,12113
9850,12113
9363,12113
9785,12113
9940,12113
10116,12113
9823,12113
9913,12114
9925,12114
9850,12114
9363,12114
9785,12114
9940,12114
10116,12114
9823,12114
9913,12115
9925,12115
9850,12115
9363,12115
9785,12115
9940,12115
10116,12115
9823,12115
9913,12117
9925,12117
9850,12117
9363,12117
9785,12117
9940,12117
10116,12117
9823,12117
9913,73482
9925,73482
9850,73482
9363,73482
9785,73482
9940,73482
10116,73482
9823,73482
9913,12120
9925,12120
9850,12120
9363,12120
9785,12120
9940,12120
10116,12120
9823,12120
9913,12121
9925,12121
9850,12121
9363,12121
9785,12121
9940,12121
10116,12121
9823,12121
9913,73481
9925,73481
9850,73481
9363,73481
9785,73481
9940,73481
10116,73481
9823,73481
9483,2847087
9486,2847087
3818,12201
4627,12201
3828,12201
52517,12201
58987,12201
49747,12201
3847,12201
3873,12201
3879,12201
3469,12201
3885,12201
3888,12201
35938,12201
74517,12201
60916,12201
57577,12201
3899,12201
3900,12201
97047,12201
78534,12201
3906,12201
3908,12201
9606,470592
9606,470591
9536,12097
9606,12097
9539,12097
9598,12097
9536,31706
9606,31706
9539,31706
9598,31706
9606,470422
9606,470423
9606,470424
9536,12098
9606,12098
9539,12098
9598,12098
9536,474341
9606,474341
9539,474341
9598,474341
9536,12099
9606,12099
9539,12099
9598,12099
9536,12093
9606,12093
9539,12093
9598,12093
9536,12100
9606,12100
9539,12100
9598,12100
9606,470593
9481,12102
9536,12102
9534,12102
9539,12102
9598,12102
9481,31707
9536,31707
9534,31707
9539,31707
9598,31707
9481,470594
9536,470594
9534,470594
9539,470594
9598,470594
9606,356391
9606,356413
9606,11105
9606,333284
9606,11106
9606,11107
9606,356418
9606,356420
9606,356419
9606,329389
9606,31643
9606,11109
9606,11110
9606,356410
9606,31644
9606,356386
9606,421877
9606,11111
9606,420174
9606,11112
9606,11113
9606,11114
9606,11115
9606,11116
9606,356411
9606,356417
9606,356423
9606,356412
9606,31642
9606,356416
9606,356415
9606,421879
9606,356390
9606,356421
9606,11117
9606,357355
9606,31645
9606,356414
9606,356422
9606,356425
9606,356424
9606,31915
9606,39054
9606,103922
9606,655603
9606,103911
9539,103911
9606,122962
9606,122961
9606,12131
9606,1418033
9606,31708
9606,12134
9606,2777147
9606,12130
9606,44130
9606,650130
37951,59563
8782,59563
7174,59563
7180,59563
9606,59563
84836,59563
190765,59563
7182,59563
53551,59563
256689,59563
704162,59563
8899,11073
9913,11073
308713,11073
7178,11073
9796,11073
9606,11073
9823,11073
8899,11074
9913,11074
308713,11074
7178,11074
9796,11074
9606,11074
9823,11074
8899,11075
9913,11075
308713,11075
7178,11075
9796,11075
9606,11075
9823,11075
8899,2555554
9913,2555554
308713,2555554
7178,2555554
9796,2555554
9606,2555554
9823,2555554
8899,11076
9913,11076
308713,11076
7178,11076
9796,11076
9606,11076
9823,11076
9606,33743
34626,33743
69826,33743
88029,33743
162997,44024
9606,44024
644619,44024
569589,44024
8920,11078
162997,11078
9796,11078
9606,11078
9606,31638
6935,31638
9606,31639
6935,31639
9913,11086
9615,11086
34878,11086
9796,11086
9606,11086
34613,11086
9940,11086
9823,11086
9913,36386
9615,36386
34878,36386
9796,36386
9606,36386
34613,36386
9940,36386
9823,36386
9913,36387
9615,36387
34878,36387
9796,36387
9606,36387
34613,36387
9940,36387
9823,36387
9913,36388
9615,36388
34878,36388
9796,36388
9606,36388
34613,36388
9940,36388
9823,36388
9913,36389
9615,36389
34878,36389
9796,36389
9606,36389
34613,36389
9940,36389
9823,36389
9913,31640
9615,31640
34878,31640
9796,31640
9606,31640
34613,31640
9940,31640
9823,31640
9606,1001061
47230,1001061
447135,1001061
7158,31658
4560,12203
4577,12203
162997,301478
9606,301478
4558,228731
9606,12542
81765,12204
51466,12204
4072,12209
4075,12209
4107,12209
9823,523795
9823,64141
9606,12082
9606,12084
9606,12085
9606,12087
9606,12088
34620,39008
9606,39008
35565,39008
6945,39008
34614,39008
48086,39008
9995,39008
36596,31738
36595,31738
3758,31738
105665,31738
3760,31738
88123,31738
114937,31738
36596,12214
36595,12214
3758,12214
105665,12214
3760,12214
88123,12214
114937,12214
3649,31730
3654,12207
3663,12207
3673,12207
4101,492094
4101,492095
4071,12217
4085,12217
4081,12217
4113,12217
4071,12218
4085,12218
4081,12218
4113,12218
4071,12220
4085,12220
4081,12220
4113,12220
4071,12221
4085,12221
4081,12221
4113,12221
3818,31733
185703,31733
3847,31733
3864,31733
90550,31733
237841,31733
78168,31733
237871,31733
133504,31733
3885,31733
3818,31734
185703,31734
3847,31734
3864,31734
90550,31734
237841,31734
78168,31734
237871,31734
133504,31734
3885,31734
3818,31735
185703,31735
3847,31735
3864,31735
90550,31735
237841,31735
78168,31735
237871,31735
133504,31735
3885,31735
40954,33762
40922,33762
40888,33762
48027,33762
4045,33762
105274,33762
4047,33762
4039,33762
40919,33762
305795,33762
4041,33762
49576,33762
4509,652106
4520,652106
9986,11977
9986,314538
9986,314537
9986,314536
9986,314535
7174,64315
9606,64315
4530,337081
4530,337080
9606,434309
9606,651733
9598,651733
4120,652105
9191,11081
98964,11081
8932,11081
42429,11081
7175,11081
7176,11081
7177,11081
28727,11081
84817,11081
30427,11081
9606,11081
60713,11081
48849,11081
9188,11081
47245,11081
4510,12225
4539,12225
4546,12225
4554,12225
4558,12225
4577,12225
9823,12076
9823,12077
9606,234601
9606,82659
9606,291175
9823,686944
45843,12226
4112,12226
4113,12226
9606,70733
34615,70733
34613,70733
9606,11087
34615,11087
34613,11087
9606,11088
34615,11088
34613,11088
10090,12125
10090,12126
4565,1289472
7160,64286
41429,64286
653291,64286
864528,64286
943103,64286
7175,64286
9606,64286
667564,64286
120870,64286
9187,64286
3654,148358
3656,148358
3659,148358
3663,148358
3654,148359
3656,148359
3659,148359
3663,148359
3654,148360
3656,148360
3659,148360
3663,148360
7158,11082
8495,11082
34610,11082
8782,11082
53527,11082
9796,11082
9606,11082
34627,11082
308735,11082
308737,11082
9940,11082
34630,11082
34861,11082
7158,1968826
8495,1968826
34610,1968826
8782,1968826
53527,1968826
9796,1968826
9606,1968826
34627,1968826
308735,1968826
308737,1968826
34630,1968826
34861,1968826
7158,164416
9925,164416
9606,164416
9940,164416
7159,11090
299629,11090
7161,11090
9606,11090
314293,11090
7159,31641
299629,31641
7161,31641
9606,31641
314293,31641
7159,407134
299629,407134
7161,407134
9606,407134
314293,407134
7159,407136
299629,407136
7161,407136
9606,407136
314293,407136
7159,407141
299629,407141
7161,407141
9606,407141
314293,407141
7159,407135
299629,407135
7161,407135
9606,407135
314293,407135
7159,407138
299629,407138
7161,407138
9606,407138
314293,407138
7159,407140
299629,407140
7161,407140
9606,407140
314293,407140
7159,407137
299629,407137
7161,407137
9606,407137
314293,407137
7159,407139
299629,407139
7161,407139
9606,407139
314293,407139
7159,64320
7160,64320
9606,64320
9544,64320
7159,2043570
7160,2043570
9606,2043570
9544,2043570
9606,2316109
7158,44158
59117,11020
162997,11020
9606,11020
9312,11020
7159,371095
7160,371095
299627,371095
188700,371095
9533,371095
9606,371095
9539,371095
9598,371095
9554,371095
9573,371095
7159,371094
7160,371094
299627,371094
188700,371094
9533,371094
9606,371094
9539,371094
9598,371094
9554,371094
9573,371094
128161,928300
7227,865617
7158,374596
9606,374596
9126,374596
7158,374597
9606,374597
9126,374597
7158,374598
9606,374598
9126,374598
9913,36382
9268,36382
9793,36382
9796,36382
9606,36382
53535,36382
9272,36382
10162,36382
42415,36382
9913,376610
9268,376610
9793,376610
9796,376610
9606,376610
53535,376610
9272,376610
10162,376610
42415,376610
9913,36384
9268,36384
9793,36384
9796,36384
9606,36384
53535,36384
9272,36384
10162,36384
42415,36384
9913,36385
9268,36385
9793,36385
9796,36385
9606,36385
53535,36385
9272,36385
10162,36385
42415,36385
9913,11038
9268,11038
9793,11038
9796,11038
9606,11038
53535,11038
9272,11038
10162,11038
42415,11038
248899,240555
7163,59300
7178,59300
9796,59300
9606,59300
9823,59300
9627,59300
7159,374990
7180,374990
9606,374990
7158,11023
149459,11023
9940,11023
44482,11028
9606,11028
44482,79899
9606,79899
44482,374989
9606,374989
7158,11031
162997,11031
9606,11031
9322,11031
7158,11032
162997,11032
9606,11032
9322,11032
9606,376262
9606,376263
9606,376266
9606,11043
9606,376267
9606,376265
9606,11044
9606,11045
9606,376264
7163,59303
7178,59303
9796,59303
9606,59303
9823,59303
9627,59303
7158,11033
9368,11033
7178,11033
170865,11033
9606,11033
158617,11033
34630,11033
48156,31699
7158,31699
53527,31699
9606,31699
45807,31699
177155,31699
48156,11034
7158,11034
53527,11034
9606,11034
45807,11034
177155,11034
8022,78540
8030,78540
8022,84589
8030,84589
7158,11039
7164,11039
7177,11039
30427,11039
9606,11039
48086,11039
8404,11039
48849,11039
34999,11039
37591,11039
64146,311176
7159,371096
7160,371096
299627,371096
188700,371096
9533,371096
9606,371096
9539,371096
9598,371096
9554,371096
9573,371096
7227,654931
7158,11021
9606,11021
9126,11021
7158,11022
9606,11022
9126,11022
9913,11037
9268,11037
9793,11037
9796,11037
9606,11037
53535,11037
9272,11037
10162,11037
42415,11037
9913,36383
9268,36383
9793,36383
9796,36383
9606,36383
53535,36383
9272,36383
10162,36383
42415,36383
9031,10995
9103,10995
9031,10996
9103,10996
9031,10997
9103,10997
9031,645118
9103,645118
9031,10998
9103,10998
9031,31560
9103,31560
9031,10999
9103,10999
9031,11000
9103,11000
9031,11001
9103,11001
9031,644440
9103,644440
8022,11003
8028,11003
8022,11004
8028,11004
8022,11005
8028,11005
7158,11030
162997,11030
9606,11030
9322,11030
4743,10653
10090,11754
9527,11728
9527,11729
274,1406341
1496,1283341
1902,10719
9606,46922
9913,70333
9913,10511
9913,39788
9796,67603
8404,114102
1129,238854
1129,264653
1129,382359
1129,65015
630,172667
7141,59730
214144,10983
33414,31592
7088,1962501
7088,78219
7088,38012
7088,10450
7088,10453
7088,10455
7088,10456
8976,35270
10090,11143
10090,11812
1423,10737
10090,11807
10090,11815
10116,11816
10090,11808
562,10712
287,2932880
562,10742
8267,99486
9838,10897
9615,10897
9793,10897
9796,10897
9794,10897
89252,10897
9785,10897
69266,31722
13750,31722
562,329853
9891,10900
9913,10900
9925,10900
46212,10900
9940,10900
3659,117119
4081,117119
3562,117119
3659,117115
4081,117115
3562,117115
3659,117122
4081,117122
3562,117122
5116,186769
76772,648168
34620,648168
34844,648168
9606,648168
105147,648168
10042,648168
95602,648171
203262,143921
8782,384500
9606,384500
9823,384500
8782,11375
9721,11375
9606,11375
9709,11375
9823,11375
79674,222557
5116,230407
64459,327392
4932,186772
4932,198599
5180,686987
7416,10484
562,10692
562,10693
9527,36378
1280,12360
269667,315953
29549,148943
37636,272473
8976,11950
8976,11874
382,10704
10092,300016
9823,300561
9823,300563
9823,28344
9538,38143
9539,38143
7420,37368
1280,10715
286,2992645
8976,11863
9606,2691025
9606,11162
9606,11163
9606,11164
9606,11165
9606,11166
9606,11169
9606,11170
9606,11174
9606,11175
9031,38171
8976,11862
9606,301352
1314,35344
9606,28276
9606,308444
9913,11134
10090,12760
10090,33735
9823,33737
9823,33738
9031,11121
9031,11124
9031,11125
9031,31626
9031,31627
9031,31628
8976,11879
8976,11881
8976,11882
9031,11887
9031,31667
9031,270623
543,47488
562,37362
562,37363
624,138946
562,12371
9606,10359
590,10750
1428,236750
1423,36451
562,31533
3570,12164
9506,85618
9521,353282
1358,12387
9606,10300
9606,57279
1772,205877
1810,205877
9506,10380
9606,262398
9606,32604
79499,52412
9606,311339
1423,10684
9925,647330
9606,647330
9940,647330
6657,92652
9606,10362
1357,12375
9913,337052
9913,2758382
9913,2758957
9913,10562
9913,2491661
9913,10563
9615,766192
9988,31553
9989,31554
8782,10577
9606,10614
9606,10617
9606,333923
9606,10620
9606,10579
9606,10621
9606,10583
9606,333759
9606,10580
9606,10604
9606,10573
9606,10605
9606,10606
9606,333760
9606,10607
9606,333761
9606,10608
9606,31547
9606,31548
9606,37954
9606,37955
9606,37956
9606,10609
9606,333762
9606,333752
9606,37111
9606,37112
9606,10584
9606,10611
9606,10585
9606,333763
9606,10586
9606,333764
9606,10587
9606,37957
9606,37958
9606,37959
9606,10588
9606,10615
9606,10589
9606,10590
9606,10592
9606,10593
9606,10594
9606,40538
9606,10616
9606,10595
9606,10618
9606,333765
9606,1671798
9606,333753
9606,10598
9606,37115
9606,10599
9606,40540
9606,37116
9606,28311
9606,28312
9606,37119
9606,37121
9606,37122
9606,10600
9606,39457
9606,333770
9606,51033
9606,79691
9544,2779844
10112,654915
9874,2772504
9860,2885846
9870,2885846
9597,10576
9597,521527
9606,40539
9606,37114
9606,10596
9606,10601
9870,10569
9606,10591
9606,45240
9606,260717
9606,10602
13151,10568
7101,45440
103831,36355
9606,10247
9796,310537
562,155148
1763,205870
9606,82829
77231,129000
9606,129000
77243,129000
9606,129004
9541,129004
77225,129004
9823,129004
77231,128999
9606,128999
77243,128999
562,69605
633,69607
562,69610
562,69611
562,69612
562,69608
562,36340
562,69609
543,69613
9606,36376
60712,349692
2093,46014
1279,10727
1763,12388
9606,334210
9606,37118
9606,37120
9606,129724
9031,236988
9031,11123
9823,229033
9838,36421
9615,36421
9793,36421
9796,36421
9794,36421
89252,36421
9785,36421
9838,86060
9615,86060
9793,86060
9796,86060
9794,86060
89252,86060
9785,86060
9891,33716
9913,33716
9925,33716
46212,33716
9940,33716
9891,33717
9913,33717
9925,33717
46212,33717
9940,33717
9891,33718
9913,33718
9925,33718
46212,33718
9940,33718
9891,10904
9913,10904
9925,10904
46212,10904
9940,10904
9891,10905
9913,10905
9925,10905
46212,10905
9940,10905
9891,31562
9913,31562
9925,31562
46212,31562
9940,31562
9891,10907
9913,10907
9925,10907
46212,10907
9940,10907
9891,10910
9872,10910
9874,10910
9891,10906
9913,10906
9925,10906
46212,10906
9940,10906
9838,33714
9615,33714
9793,33714
9796,33714
9794,33714
89252,33714
9785,33714
9838,48295
9615,48295
9793,48295
9796,48295
9794,48295
89252,48295
9785,48295
8835,117204
9838,117204
9615,117204
9793,117204
9796,117204
9794,117204
89252,117204
9785,117204
9838,86059
9615,86059
9793,86059
9796,86059
9794,86059
89252,86059
9785,86059
9838,86061
9615,86061
9793,86061
9796,86061
9794,86061
89252,86061
9785,86061
9838,86062
9615,86062
9793,86062
9796,86062
9794,86062
89252,86062
9785,86062
6944,10893
8910,10893
9205,10893
4498,10990
4513,10990
4530,10990
4565,10990
4577,10990
10090,47935
9891,36422
9913,36422
9925,36422
46212,36422
9940,36422
9891,36424
9913,36424
9925,36424
46212,36424
9940,36424
9891,33720
9872,33720
9874,33720
9031,31527
9891,33719
9872,33719
9874,33719
9031,31589
43080,244590
9823,578841
9913,36440
9913,10929
9913,45408
9913,10931
9913,1835657
9796,148357
9685,39009
9606,10955
9606,37136
9606,79694
9823,31578
9544,10926
4498,10989
28909,10989
121769,10989
90397,10989
4513,10989
4522,10989
149379,10989
4565,10989
4577,10989
9606,31566
9606,31568
39442,578838
9913,31587
9913,31583
9606,33722
9606,10948
9606,31565
9606,10951
9606,39011
9823,31577
9823,31581
9823,31579
9823,10918
9823,31580
2242,169684
4681,12276
4045,12276
161934,12276
38871,12276
4236,12276
39639,12276
3885,12276
35938,12276
23216,12276
4081,12276
4113,12276
13305,12276
3603,12276
4681,12277
4045,12277
161934,12277
38871,12277
4236,12277
39639,12277
3885,12277
35938,12277
23216,12277
4081,12277
4113,12277
13305,12277
3603,12277
4681,12278
4045,12278
161934,12278
38871,12278
4236,12278
39639,12278
3885,12278
35938,12278
23216,12278
4081,12278
4113,12278
13305,12278
3603,12278
4530,480611
52841,480611
2271,10481
10116,1261657
1763,88870
343494,12257
161934,12257
3562,12257
562,42175
562,42176
343494,12256
161934,12256
3562,12256
1350,53000
9606,11625
10036,11625
10090,11625
9606,11626
10036,11626
10090,11626
