"Host NCBI taxid","Virus NCBI taxid"
1218,268748
492670,2593639
36828,12336
272623,83129
562,69608
562,39803
562,10665
1129,238854
562,2695836
562,344022
562,344021
562,69610
562,50948
562,10759
2242,169684
1280,221915
83334,97081
1423,1406785
1423,10724
670,75320
570,1439894
562,2060721
562,10760
1280,12360
562,10713
1129,260586
83334,10730
562,10863
562,10682
562,12022
1763,28369
287,2932880
83334,66711
1902,10719
562,31533
1280,379501
1639,40523
1423,10736
562,12353
562,10843
562,10847
562,10742
1491,29342
1218,268746
1423,10717
562,12027
562,10666
1584,12392
623,66284
1313,59241
1358,35241
562,10693
90371,10754
562,69609
1423,1933063
562,2681599
573,2282631
562,2886925
28901,1087482
1280,1041526
287,462590
1314,35344
382,10704
287,504346
79929,78218
1639,40521
287,1283339
573,2777230
90371,83127
287,998086
623,55884
1423,2884424
623,10874
1423,2283013
1408,2932878
1423,2932878
287,2011081
543,47488
573,1933773
83333,10845
1763,148603
1129,264653
585535,1208236
866344,1208236
866345,1208236
102608,1208236
866346,1208236
286,2992645
1423,2992639
1763,88870
666,10689
58712,215158
543,2905681
340,28365
590,10844
573,1194091
590,1283336
287,204270
287,1462608
1584,12348
615,552529
1308,85154
287,1175657
1280,487152
1772,205877
1810,205877
562,332942
562,12026
470,2759203
562,36338
615,552527
470,2060946
587753,198110
287,270673
570,1932361
562,2681611
562,1604876
573,2282630
562,45406
1423,10757
573,1770232
1129,382359
562,12029
666,1076759
624,138946
90371,83128
83554,2003327
543,2886926
274,466052
562,12017
630,1206558
274,2914006
562,10674
562,10738
28901,2081904
570,532077
5757,543939
562,37363
615,552528
77097,1283337
1358,2905675
562,329853
543,69613
1717,10703
633,69607
562,10692
1496,1283341
1351,442493
286,12024
1423,2884427
562,10868
1129,65015
543,2681603
562,10867
1423,10683
562,2502409
246196,205875
1358,254252
65700,2776772
80866,665032
287,1678082
562,12032
573,1129191
562,56637
571,255431
630,172667
562,42176
471,10658
562,10658
584,10658
287,10658
294,10658
303,10658
90371,10658
666,10658
1313,10748
562,69612
55510,1283338
562,69605
562,42175
1423,941058
1423,10723
562,29252
573,674082
1280,53369
562,1977402
90371,173443
1359,43685
562,1141519
562,69611
562,10712
1386,331976
1280,1041527
287,582345
562,665033
562,155148
570,1932362
562,69932
287,12023
1280,320836
971,10676
562,10849
1218,268747
1280,1010615
1428,236750
1763,31757
562,10680
287,1772250
1350,53000
562,2679905
1639,40522
573,2282629
90371,2907955
1763,205870
562,2492962
1313,10747
590,10750
573,2419608
562,12021
1357,2681624
562,10707
90371,10707
1772,2907835
562,2681617
472,762660
1423,2679898
518,2885909
573,1796998
623,10761
562,2682836
292,1283334
562,1235640
562,10691
216591,1283335
90370,1987993
624,645664
329854,2301731
562,12014
287,2905945
570,2169687
1280,1010614
287,484895
562,36340
287,2907964
274,1406341
1280,204086
562,12020
9606,10407
9598,10407
9606,333760
9823,85708
9606,11137
7088,46242
9606,10598
133901,12675
163899,12675
4081,12675
161014,12675
289417,12171
35939,12171
10116,1261657
9615,35258
7158,11588
9913,11588
297284,11588
9837,11588
9925,11588
9606,11588
9940,11588
29031,11588
9891,10906
9913,10906
9925,10906
46212,10906
9940,10906
9615,10514
133901,12851
163899,12851
4081,12851
161014,12851
9606,28282
9606,12060
9986,31530
9606,10370
9606,333923
49450,51680
75806,51680
4097,51680
39414,51680
29818,51680
65951,51680
65952,51680
52853,51680
203579,51680
7088,38012
28911,31770
134742,3052324
439395,96029
117982,96029
71412,96029
6687,96029
48011,144752
48012,144752
9606,10377
161934,31713
3654,31713
3656,31713
3661,31713
3662,31713
3663,31713
4039,31713
4236,31713
9606,10593
8835,117204
9838,117204
9615,117204
9793,117204
9796,117204
9794,117204
89252,117204
9785,117204
9606,31631
103373,160691
9681,10334
9986,11976
7119,161494
4072,223303
9823,35265
9606,10596
4072,123735
185024,123735
145753,123735
29728,123735
4081,123735
4112,123735
43080,157899
9606,10798
45479,619591
99825,619591
45480,619591
99826,619591
99827,619591
30650,619591
226685,619591
9606,619591
10090,619591
66262,12056
63459,12056
3659,12056
81866,12056
4097,12056
3885,12056
13306,12056
9606,689403
8782,387262
9606,1418033
483436,1980426
36599,1980426
9913,12455
9352,12455
9925,12455
9850,12455
109474,12455
9788,12455
9685,12455
56798,12455
9844,12455
9986,12455
9940,12455
8801,12455
9455,12455
30538,12455
94400,10986
4530,10986
8180,36363
55118,36363
8012,36363
8162,36363
8165,36363
30942,36363
30948,36363
9788,299386
8782,643780
9606,643780
9823,643780
9823,1002921
3711,12183
4113,12183
56210,3052317
9534,3052317
9606,3052317
69079,1678143
9481,1678143
9536,1678143
9534,1678143
9031,1678143
9606,1678143
9539,1678143
10090,1678143
9598,1678143
9520,1678143
9823,1678143
7088,10449
8782,284218
9606,284218
9669,284218
9481,10353
9520,10353
9606,12130
7088,78219
146531,2169984
4498,2169984
4513,2169984
4521,2169984
4522,2169984
4530,2169984
4550,2169984
4565,2169984
4577,2169984
7088,28288
6685,1513224
7936,1283343
7937,1283343
7141,10288
9103,654928
9940,654928
9606,28284
8782,444318
9721,444318
9606,444318
9709,444318
9823,444318
9836,203172
9606,489462
9598,489462
47085,36772
70957,36772
3888,36772
74514,36772
57577,36772
3899,36772
3900,36772
3906,36772
20997,36772
9780,146015
3654,3052571
8976,10547
9606,35300
4072,50817
13163,50817
4101,50817
3562,50817
3906,50817
39639,12180
184234,1289473
8501,1289473
8502,1289473
74790,399781
9606,10587
9606,37296
8782,385624
9721,385624
9606,385624
9709,385624
9823,385624
7159,64320
7160,64320
9606,64320
9544,64320
4097,185793
185191,185793
4081,185793
9606,45659
9606,28280
9606,10534
9838,86059
9615,86059
9793,86059
9796,86059
9794,86059
89252,86059
9785,86059
9606,132487
9838,86060
9615,86060
9793,86060
9796,86060
9794,86060
89252,86060
9785,86060
9606,10590
9606,489495
9598,489495
8976,66295
7158,11039
7164,11039
7177,11039
30427,11039
9606,11039
48086,11039
8404,11039
48849,11039
34999,11039
37591,11039
7158,31658
29159,261939
6579,261939
3570,10640
4081,591166
530178,3052305
530180,3052305
8782,475467
9796,475467
9606,11250
9913,3052729
10129,33708
9606,126794
9796,46916
85584,170617
7141,208973
9534,378830
9606,378830
9407,378830
9788,11047
9606,10586
8782,382838
9606,37959
9606,11259
9606,410078
39030,3052477
54292,3052477
134909,3052477
9606,3052477
4113,12182
9408,694006
4560,12203
4577,12203
9606,11622
10112,11622
9606,343463
8782,387139
9721,387139
9606,387139
9709,387139
9823,387139
66262,12055
63459,12055
3659,12055
81866,12055
4097,12055
3885,12055
13306,12055
3983,31600
9606,38767
40674,38767
8782,385590
9823,385590
9606,295027
7158,11033
9368,11033
7178,11033
170865,11033
9606,11033
158617,11033
34630,11033
7100,328615
7158,11580
9913,11580
9615,11580
7174,11580
174825,11580
9796,11580
9031,11580
9606,11580
48086,11580
8782,384484
9721,384484
9606,384484
9709,384484
9823,384484
9541,106332
9544,106332
9545,106332
7742,928301
45479,10244
99825,10244
45480,10244
99826,10244
99827,10244
30650,10244
226685,10244
9606,10244
10090,10244
58060,3052225
58065,3052225
9606,3052225
9405,3052225
132908,3052225
153297,3052225
9823,3052225
7158,11021
9606,11021
9126,11021
7088,46015
10129,10243
9913,10243
9685,10243
9606,10243
9785,10243
29092,10243
10090,10243
447135,10243
9606,10281
9606,10618
8782,392809
9721,392809
9606,392809
9709,392809
9823,392809
9606,10527
9606,10588
9606,573977
9654,10256
8782,384528
9606,384528
9606,37116
8782,488241
9606,488241
9606,10515
36893,455367
7091,110829
9606,10615
9681,10786
9651,10786
9654,10786
3071,46021
9606,37115
8782,506350
9721,506350
9606,506350
9709,506350
9823,506350
8782,383568
9721,383568
9606,383568
9709,383568
9823,383568
9606,11041
9646,11233
9649,11233
9615,11233
9665,11233
9689,11233
9654,11233
9704,11233
9416,3052328
9506,35243
9838,86062
9615,86062
9793,86062
9796,86062
9794,86062
89252,86062
9785,86062
74790,346932
8782,402527
9685,402527
9606,402527
9691,402527
9694,402527
9823,402527
8782,385630
9721,385630
9606,385630
9709,385630
9823,385630
59117,11020
162997,11020
9606,11020
9312,11020
103831,36355
9606,1077587
3659,12143
8782,384510
9606,464417
124763,114921
350892,114921
3555,114921
3559,114921
200951,114921
50192,114921
3562,114921
60916,114921
8782,385617
9606,10310
9823,28344
9925,10258
9606,10258
9940,10258
3654,12207
3663,12207
3673,12207
82600,28289
6657,92652
9606,10522
89399,442736
105295,694008
9606,10611
7227,3071212
39432,452475
9606,31544
8782,311175
29095,2169991
10080,2169991
56211,2169991
56212,2169991
9606,2169991
3712,345184
9796,10333
4577,12138
9913,31519
8782,352520
9606,352520
9823,352520
9606,311339
9606,3052503
47230,3052503
523745,3052503
114194,10991
90397,10991
94400,10991
4530,10991
147271,10991
6451,1241371
3829,12240
35936,12240
40336,12240
3917,12240
15371,12302
2276,270161
2271,270161
8782,649331
9606,649331
9823,649331
5757,212035
9606,10359
4113,12045
42407,3052331
9606,10595
126270,12230
3705,12230
38206,12230
3719,12230
264418,12230
13274,12230
74517,12230
258959,694007
94231,65424
8163,65424
8160,65424
8237,65424
7088,74320
9838,33714
9615,33714
9793,33714
9796,33714
9794,33714
89252,33714
9785,33714
9838,48295
9615,48295
9793,48295
9796,48295
9794,48295
89252,48295
9785,48295
9913,36385
9268,36385
9793,36385
9796,36385
9606,36385
53535,36385
9272,36385
10162,36385
42415,36385
9606,1671798
197796,28354
8782,387161
9606,387161
40674,10886
4513,12465
8782,352564
10090,1891730
37951,59563
8782,59563
7174,59563
7180,59563
9606,59563
84836,59563
190765,59563
7182,59563
53551,59563
256689,59563
704162,59563
3649,12181
108055,12181
9606,12542
9606,12475
3559,193120
66262,193120
63459,193120
81866,193120
3888,193120
60916,193120
3906,193120
8782,387203
9606,387203
9823,387203
8782,384487
9606,384487
9823,384487
8976,10553
9891,33720
9872,33720
9874,33720
7416,10484
10090,296738
72550,1046081
9606,10533
3681,11986
278075,11986
3570,11986
118431,11986
288950,11986
3750,11986
3572,11986
9031,10386
9606,10524
9606,10580
7088,10455
7158,11082
8495,11082
34610,11082
8782,11082
53527,11082
9796,11082
9606,11082
34627,11082
308735,11082
308737,11082
9940,11082
34630,11082
34861,11082
47767,10464
9606,28285
7163,59300
7178,59300
9796,59300
9606,59300
9823,59300
9627,59300
9606,290028
9606,277944
3662,10829
3663,10829
3885,10829
8932,126070
7158,11023
149459,11023
9940,11023
7088,1307956
48156,11034
7158,11034
53527,11034
9606,11034
45807,11034
177155,11034
10036,1891729
37347,10397
9606,33743
34626,33743
69826,33743
88029,33743
9606,11590
13204,11590
9534,36348
32247,12451
75079,12451
75100,12451
9986,314539
3827,193121
3859,193121
3864,193121
70936,193121
3888,193121
60916,193121
3906,193121
3908,193121
35939,11612
4072,12241
43071,12241
4090,12241
4097,12241
34610,1213620
9368,1213620
9913,1213620
9925,1213620
9858,1213620
49202,1213620
1027255,1213620
49204,1213620
490559,1213620
9606,1213620
572043,1213620
34626,1213620
34627,1213620
72855,1213620
34613,1213620
59656,1213620
9940,1213620
34611,1213620
34631,1213620
67831,1213620
60189,1213620
136141,1213620
34632,1213620
9823,1213620
327507,1213620
9606,10299
9606,10632
9913,59509
9606,341980
9606,45240
9606,39457
9615,12538
269271,12538
9685,12538
9989,12538
8782,384502
9606,384502
9913,10510
8782,380949
9721,380949
9606,380949
9709,380949
9823,380949
9539,1891767
133901,3052585
163899,3052585
4081,3052585
161014,3052585
9838,36421
9615,36421
9793,36421
9796,36421
9794,36421
89252,36421
9785,36421
340055,28321
9606,434309
9836,203173
4688,12173
2286,2304198
9606,11168
9913,11303
89462,11303
58271,11303
9970,11303
9606,638313
9606,12134
8782,380342
9606,380342
9823,380342
3708,228578
4498,10989
28909,10989
121769,10989
90397,10989
4513,10989
4522,10989
149379,10989
4565,10989
4577,10989
3700,29272
9913,11582
7159,37124
7160,37124
299627,37124
188700,37124
9533,37124
9606,37124
9539,37124
9598,37124
9554,37124
9573,37124
9606,440266
3656,11987
3659,11987
29094,1980456
9606,1980456
89122,1980456
37015,1980456
218824,1980456
137207,1980456
37019,1980456
9606,10325
9541,10325
90387,10325
9544,10325
9545,10325
9606,518987
9913,1714621
9352,1714621
9925,1714621
9850,1714621
109474,1714621
9788,1714621
9685,1714621
56798,1714621
9844,1714621
9986,1714621
9940,1714621
8801,1714621
9455,1714621
30538,1714621
9031,37108
9103,37108
9606,10280
9913,337052
8782,383550
7088,70600
9606,38766
40674,38766
9606,2777147
9606,11587
29031,11587
7139,35254
9872,305676
9606,489461
9598,489461
9606,10592
4932,11008
9606,416674
8782,385636
8782,382812
9606,382812
9761,382812
9709,382812
9823,382812
278075,12268
3570,12268
9796,310273
3847,12303
3917,12303
9606,132475
314293,132475
139025,650121
9606,70149
9606,2697049
6937,10497
6938,10497
85517,10497
41426,10497
273792,10497
9823,10497
8782,387205
9796,387205
9606,1891762
9913,397342
9796,397342
9606,397342
9606,356418
9606,129724
9606,51033
9606,10519
7091,271108
9913,10254
9606,57278
9606,37119
9925,2593991
9940,2593991
3071,10506
8842,146032
9534,378809
9606,378809
9407,378809
43191,32612
4236,32612
43208,32612
255580,32612
50207,32612
9544,444185
9913,265872
9685,265872
9606,265872
9785,265872
29092,265872
10090,265872
447135,265872
41568,12165
109564,12165
9539,50292
9606,28276
8782,385580
9796,385580
9606,333753
4534,42475
4536,42475
4529,42475
8782,643546
9606,643546
9823,643546
8782,384499
4513,12327
4565,12327
3705,12154
51351,12154
82359,12154
7088,31507
9606,39054
63459,12187
57918,12187
59498,12187
9913,2758382
9606,10363
9606,333765
7742,10261
30343,10493
8404,10493
45438,10493
8316,10493
51950,10493
9913,10511
69266,31722
13750,31722
9606,10573
8782,641501
9606,641501
9823,641501
300124,3052767
4558,3052767
4577,3052767
9606,37121
103352,12274
29760,12274
9796,11575
9606,11300
40674,11300
8782,381516
9606,381516
9823,381516
9606,37114
10092,11048
9709,11240
7108,113370
9606,489539
9598,489539
9606,10528
9606,10620
9606,46922
999462,1216928
6943,1216928
9614,1216928
9267,1216928
9796,1216928
9606,1216928
9874,1216928
9654,1216928
4498,10990
4513,10990
4530,10990
4565,10990
4577,10990
2829,97195
9823,1239832
9606,10253
29058,37206
5754,694581
9606,10298
9606,32604
9823,133704
9606,340907
9541,340907
90387,340907
9544,340907
9545,340907
9606,10255
9606,2560525
9606,10335
9606,10529
7158,164416
9925,164416
9606,164416
9940,164416
7742,3052441
9606,333761
9031,10995
9103,10995
185024,66366
145753,66366
4081,66366
7160,64286
41429,64286
653291,64286
864528,64286
943103,64286
7175,64286
9606,64286
667564,64286
120870,64286
9187,64286
9521,10381
9103,11152
9823,10276
9538,38143
9539,38143
45843,12215
4112,12215
4113,12215
9606,10591
8782,385620
9913,1133363
9940,1133363
3827,12041
3864,12041
3879,12041
3885,12041
3888,12041
3899,12041
3906,12041
3917,12041
9838,10897
9615,10897
9793,10897
9796,10897
9794,10897
89252,10897
9785,10897
9913,1891754
9850,11577
9606,11577
7162,11577
13712,11577
8022,84589
8030,84589
9913,2839036
7962,696863
65742,83191
4627,12315
41568,12315
4688,12315
4081,12315
320016,51677
3570,39443
79674,222557
43080,244590
9606,3052310
10112,3052310
10114,3052310
146531,2169986
4498,2169986
4513,2169986
4521,2169986
4522,2169986
4530,2169986
4550,2169986
4565,2169986
4577,2169986
116991,77856
9223,77856
119488,180170
270530,180170
9606,10942
9224,1891747
9606,408929
9615,10788
9685,10788
9913,39788
8782,385582
9823,385582
9505,12104
38020,12104
9606,12104
9544,12104
9567,12104
10090,12104
9598,12104
10114,12104
42415,12104
9823,12104
8782,381518
9606,381518
9823,381518
9606,10585
9606,3052307
157541,3052307
7159,35304
9606,35304
8782,382825
9721,382825
9606,382825
9709,382825
9823,382825
9606,333762
9838,86061
9615,86061
9793,86061
9796,86061
9794,86061
89252,86061
9785,86061
10090,11142
10090,69156
464929,209529
8782,211044
9606,211044
9823,211044
9913,10563
3071,46019
9823,1239567
9606,98832
9872,305674
8782,380341
9606,380341
9823,380341
8782,382781
9606,382781
43080,157898
187017,249583
9940,10266
9606,11520
9606,10376
7088,10456
9606,694009
9675,694009
10090,10366
9606,31545
9606,37120
9913,10385
9685,10385
9689,10385
9913,376849
9606,333764
9606,172148
34626,172148
69826,172148
9134,44088
9823,3052562
4640,12585
8782,379756
9606,379756
9823,379756
8782,380213
9606,380213
9823,380213
9606,334210
10144,3052300
9606,3052300
530178,3052300
8782,644882
9606,644882
9823,644882
7141,56947
8782,382848
9721,382848
9606,382848
9709,382848
9823,382848
9986,10272
4555,12179
4556,12179
9606,10360
4513,28375
4564,28375
9823,300880
4498,10820
110876,10820
4509,10820
4513,10820
279312,10820
4564,10820
4577,10820
3555,12271
4283,12271
3746,12271
3486,12271
13596,12271
4146,12271
40749,12271
32247,12271
34270,12271
29760,12271
128161,12136
3570,12164
9606,36351
9606,3052499
10042,3052499
9925,647330
9606,647330
9940,647330
7088,80366
6937,82815
9823,82815
314293,3052561
9606,489501
9598,489501
9606,482134
9598,482134
42429,645993
9103,246343
29760,1554493
3885,57119
9913,11086
9615,11086
34878,11086
9796,11086
9606,11086
34613,11086
9940,11086
9823,11086
9913,12121
9925,12121
9850,12121
9363,12121
9785,12121
9940,12121
10116,12121
9823,12121
27614,82676
9606,290314
8782,387156
9823,387156
9913,31612
89462,31612
58271,31612
9970,31612
4547,77698
8782,644653
9606,644653
9823,644653
4071,12219
4085,12219
4081,12219
4113,12219
9606,199346
9823,199346
9606,10605
316597,341721
9031,10388
9913,50713
9796,50713
50557,50713
8022,11005
8028,11005
9606,650132
80764,11307
42337,11307
4236,11307
50207,11307
74790,380598
8839,693992
9940,114430
139456,1556324
9505,1554494
9483,1554494
9489,1554494
78454,1554494
9488,1554494
9490,1554494
77044,311229
3879,12267
47083,12267
57577,12267
3899,12267
7091,648251
2903,654925
9606,40539
9606,210752
9823,210752
10090,10530
36596,31738
36595,31738
3758,31738
105665,31738
3760,31738
88123,31738
114937,31738
9606,11557
9823,11557
176602,60714
9606,11273
7198,11273
9615,101357
8782,380985
9606,380985
9823,380985
8782,384518
9721,384518
9606,384518
9709,384518
9823,384518
4045,12273
29760,12273
8782,383567
9721,383567
9606,383567
9709,383567
9823,383567
8782,383569
9721,383569
9606,383569
9709,383569
9823,383569
8782,385645
9721,385645
9606,385645
9709,385645
9823,385645
22868,12282
90645,12282
4072,12282
3649,12282
3654,12282
4281,12282
3656,12282
3659,12282
66679,12282
38871,12282
49747,12282
3847,12282
16107,12282
23109,12282
127142,12282
26378,12282
4382,12282
3869,12282
3750,12282
283210,12282
21819,12282
39639,12282
4097,12282
4030,12282
4101,12282
3885,12282
103544,12282
3582,12282
42229,12282
137206,12282
3760,12282
1358727,12282
97321,12282
132459,12282
23216,12282
211815,12282
4081,12282
4111,12282
69266,12282
3917,12282
29760,12282
9606,12456
9433,1559366
7158,1968826
8495,1968826
34610,1968826
8782,1968826
53527,1968826
9796,1968826
9606,1968826
34627,1968826
308735,1968826
308737,1968826
34630,1968826
34861,1968826
13151,10568
10090,12126
4081,12151
4111,12151
45840,12151
49454,12292
4681,191547
4045,191547
161934,191547
38871,191547
4236,191547
39639,191547
3885,191547
35938,191547
23216,191547
4081,191547
4113,191547
13305,191547
3603,191547
10090,10795
8782,384504
9823,384504
2903,181082
382670,654917
8782,216887
9606,216887
3821,928299
3829,928299
3917,928299
7370,523909
9606,132484
9823,33703
3827,291604
3864,291604
3885,291604
3906,291604
9606,210754
9823,210754
8782,380981
9823,380981
7088,12524
8782,402520
9796,402520
9606,402520
9709,402520
23211,197112
8899,11073
9913,11073
308713,11073
7178,11073
9796,11073
9606,11073
9823,11073
8899,28300
6935,1557032
10080,3052322
9606,489490
9598,489490
65352,12152
9606,489540
9598,489540
8782,380337
9796,380337
9606,380337
9709,380337
3005,1289384
57577,12262
7416,654920
8782,222142
9685,222142
9606,222142
9691,222142
9694,222142
9823,222142
9606,203232
9823,203232
203262,143921
10090,76344
9606,486279
9606,10249
8782,384525
9606,384525
9823,384525
9606,107417
7113,1289469
9606,227984
9675,227984
9707,146073
7191,10489
9606,203229
9823,203229
9606,199345
9823,199345
7091,10809
4090,12881
7174,64315
9606,64315
411519,572290
9187,572290
9606,203225
9823,203225
63788,12194
7088,10453
9606,165239
9823,165239
7088,10450
8782,380343
9823,380343
185024,223353
145753,223353
4081,223353
3821,12264
3829,12264
3917,12264
13489,35297
215347,35297
8267,35297
8187,35297
163134,35297
8782,10577
57247,197772
9606,217166
9823,217166
9606,217723
9823,217723
9606,165249
9823,165249
8899,11076
9913,11076
308713,11076
7178,11076
9796,11076
9606,11076
9823,11076
9606,10589
9606,203231
9823,203231
42415,3052329
6997,176652
168631,176652
6999,176652
58607,176652
7108,176652
984472,1289470
10058,3052492
3847,10651
35936,10651
3885,10651
3917,10651
8030,1283346
40674,10885
8782,380349
9606,380349
9823,380349
4932,12450
4072,12209
4075,12209
4107,12209
8782,383539
9606,383539
9823,383539
8782,384493
9796,384493
9606,384493
9709,384493
8782,385605
9796,385605
7088,307468
7113,654904
7088,654904
29057,654904
9606,217721
9823,217721
9915,11242
9913,11242
89462,11242
9925,11242
9933,11242
9894,11242
9832,11242
9940,11242
9821,11242
10111,3052325
142762,175814
7101,45440
9606,165248
9823,165248
95602,273810
8782,385629
9606,385629
9823,385629
2276,654907
2271,654907
9860,2885846
9870,2885846
9606,333752
3847,196398
3885,196398
3915,196398
3917,196398
8782,36418
9796,36418
9606,36418
9709,36418
461403,3052296
9606,12440
304155,72539
8782,384479
9606,384479
9823,384479
260885,222449
108453,222449
3884,222449
3885,222449
9823,68626
6944,11597
9598,10414
9606,11550
9606,199360
9823,199360
9606,199357
9823,199357
7962,1559360
5116,230407
56636,1289471
9031,73477
59291,11288
8010,11288
8019,11288
8022,11288
74940,11288
8032,11288
8040,11288
36185,11288
139025,1289474
36977,97344
9134,142661
8782,387147
9606,387147
9761,387147
9709,387147
9823,387147
7159,31634
299627,31634
299628,31634
9538,31634
9606,31634
9606,648238
8782,62478
9606,62478
9709,62478
9823,62478
9606,40540
9393,47680
6937,443878
9823,443878
8782,402464
7111,10462
9606,10584
8782,380282
9606,380282
9823,380282
300124,279896
4554,279896
4558,279896
4577,279896
9031,31560
9103,31560
4565,431317
9606,489502
9598,489502
9615,766192
27614,654916
9606,333770
9986,11977
4097,12228
3618,12228
9606,210759
9823,210759
9796,333920
8782,387250
9709,387250
7141,28322
4145,33773
6937,686262
9823,686262
7100,260797
8782,385599
9721,385599
9606,385599
9709,385599
9823,385599
9606,31548
4530,362693
8782,11397
9796,11397
9606,11397
9709,11397
4032,255587
9702,36407
9528,10532
69319,53988
54444,675833
7088,10290
78511,65743
9606,11624
10036,11624
10090,11624
4543,154834
866555,154834
38727,154834
158163,154834
7157,38837
9606,38837
9989,38837
36282,1554479
9606,655603
73824,31709
3696,31709
75703,31709
3691,31709
3694,31709
4498,268409
217170,268409
4543,268409
281129,268409
4505,268409
270102,268409
66017,268409
90396,268409
4511,268409
29674,268409
4513,268409
59788,268409
29709,268409
4538,268409
4530,268409
158143,268409
147272,268409
173849,268409
300125,268409
4547,268409
192628,268409
4565,268409
240436,268409
4577,268409
9606,587202
7113,1128424
81765,12204
51466,12204
9913,11038
9268,11038
9793,11038
9796,11038
9606,11038
53535,11038
9272,11038
10162,11038
42415,11038
44482,79899
9606,79899
9913,45408
9606,10614
8782,385626
9606,210757
9823,210757
4513,1985704
9986,314537
278075,652597
3570,652597
10090,648235
8782,380983
9606,380983
9606,10312
9606,210753
9823,210753
33414,31592
9913,1835658
8782,383570
9721,383570
9606,383570
9709,383570
9823,383570
9606,11591
34613,11591
9823,300563
36977,648333
3899,292052
29159,654903
6579,654903
9913,114429
8782,196426
9685,196426
9606,196426
9691,196426
9694,196426
9823,196426
39538,1554495
9707,35612
9702,35612
9823,35612
107013,68347
10112,3052320
9606,10579
8782,387234
9796,387234
9103,980964
9031,231424
3906,12301
42429,130556
9913,12113
9925,12113
9850,12113
9363,12113
9785,12113
9940,12113
10116,12113
9823,12113
9615,1554482
8267,99486
8782,132504
9721,132504
9606,132504
9709,132504
9823,132504
9702,36406
9606,37130
9606,10583
146531,31724
4498,31724
4513,31724
4521,31724
4522,31724
4530,31724
4550,31724
4565,31724
4577,31724
9606,3052299
9823,650136
8782,384483
9721,384483
9606,384483
9709,384483
9823,384483
9913,11247
2287,244589
9796,82831
10144,11195
36483,11195
10090,11195
10116,11195
9913,36384
9268,36384
9793,36384
9796,36384
9606,36384
53535,36384
9272,36384
10162,36384
42415,36384
3709,11988
5130,11988
180540,11988
69319,654919
37547,103782
9606,158465
9606,79692
9606,217725
9823,217725
9606,217722
9823,217722
9913,73482
9925,73482
9850,73482
9363,73482
9785,73482
9940,73482
10116,73482
9823,73482
77214,1560037
9606,40538
4113,12259
9606,37955
9606,489497
9598,489497
9796,650131
9913,928296
9352,928296
9925,928296
9850,928296
109474,928296
9788,928296
9685,928296
56798,928296
9844,928296
9986,928296
9940,928296
8801,928296
9455,928296
30538,928296
28800,185783
90988,185783
4072,12227
53851,12227
4076,12227
4097,12227
24663,12227
4081,12227
9606,199347
9823,199347
8782,385632
530180,3052323
7393,379529
8782,383534
9606,383534
9823,383534
8782,387259
4460,2749935
9606,37957
8404,114102
13686,631345
269667,654911
8782,385602
9606,11251
16901,173976
3396,173976
49747,173976
8782,383604
9606,129003
9541,129003
77225,129003
9823,129003
119488,654923
270530,654923
8782,425557
9606,425557
9823,425557
8782,393560
9606,393560
9823,393560
9606,165247
9823,165247
9606,10621
3983,38062
9606,45410
9598,45410
9433,1195365
40085,72003
9823,1554498
8782,385633
9606,10617
33113,12149
9836,203174
9606,36345
7959,465447
28800,465447
8782,382828
9606,382828
4145,650489
9913,70333
27660,1129345
9606,165246
9823,165246
8782,352551
9606,352551
9761,352551
9709,352551
9823,352551
9606,10594
8782,380301
7158,374598
9606,374598
9126,374598
8782,380960
9606,380960
4577,137556
33659,455365
9913,649897
9925,649897
9850,649897
9363,649897
9785,649897
9940,649897
10116,649897
9823,649897
9506,85618
8782,381517
9721,381517
9606,381517
9709,381517
9823,381517
156173,352209
8835,489543
4097,223359
9606,260717
161934,12298
4072,12298
82024,12298
39639,12298
4097,12298
4113,12298
3562,12298
13274,12298
13305,12298
97415,12298
9606,36408
5722,674953
9606,587200
4047,12198
4039,12198
3847,12198
70371,12198
3873,12198
3888,12198
74517,12198
60916,12198
57577,12198
3899,12198
3900,12198
97047,12198
8782,402525
9796,402525
9606,402525
9709,402525
7163,59303
7178,59303
9796,59303
9606,59303
9823,59303
9627,59303
9606,416675
9606,10609
8782,380216
9721,380216
9606,380216
9709,380216
9823,380216
9031,38171
9986,45417
9606,28292
29031,28292
9606,35740
9600,489545
9913,2847999
203314,103603
9823,11151
9606,106820
9598,106820
146531,31723
4498,31723
4513,31723
4521,31723
4522,31723
4530,31723
4550,31723
4565,31723
4577,31723
183675,268776
10090,10367
9606,37958
8782,380339
9796,380339
9796,654918
3702,10645
3705,10645
3725,10645
3659,12310
4097,12310
4081,12310
94885,189830
37347,92129
8782,392810
9823,73487
3711,1559365
9606,333763
6944,10893
8910,10893
9205,10893
35889,1289468
4783,310750
161923,649894
27405,649894
71412,649894
6687,649894
10090,10794
8782,383586
9721,383586
9606,383586
9709,383586
9823,383586
3818,12197
4627,12197
3828,12197
52517,12197
58987,12197
49747,12197
3847,12197
3873,12197
3879,12197
3469,12197
3885,12197
3888,12197
35938,12197
74517,12197
60916,12197
57577,12197
3899,12197
3900,12197
97047,12197
78534,12197
3906,12197
3908,12197
9606,210756
9823,210756
441921,654906
9606,217724
9823,217724
79499,52412
6937,443876
85517,443876
41426,443876
273792,443876
9823,443876
9606,12082
14366,138661
154697,138661
8782,383538
9606,383538
9823,383538
4071,12220
4085,12220
4081,12220
4113,12220
9606,12107
9544,12107
10090,12107
8782,384505
9721,384505
9606,384505
9709,384505
9823,384505
9606,687342
33653,693272
9606,11556
9823,11556
8168,1559359
9606,38950
9606,165240
9823,165240
13123,165803
441921,249151
4772,1289385
8782,380984
9606,380984
9925,73495
9606,73495
9940,73495
10114,79700
2284,1982658
9538,928314
9606,928314
9539,928314
9557,928314
9606,10599
9606,416677
3559,12177
283210,12177
3879,12177
3888,12177
13274,12177
3898,12177
3908,12177
8782,384485
9721,384485
9606,384485
9709,384485
9823,384485
9606,489499
9598,489499
4530,59380
10116,664730
126289,11274
10090,179241
7137,37138
6657,654913
9606,489498
9598,489498
8782,383588
9721,383588
9606,383588
9709,383588
9823,383588
9103,11264
8782,363066
9606,363066
9823,363066
9913,10784
8782,130763
9685,130763
9606,130763
9691,130763
9694,130763
9823,130763
7091,648412
9940,10269
9544,103930
1043727,1552985
9606,687366
9606,44755
10041,44755
9606,72149
9606,203224
9823,203224
9606,482133
153297,693999
188338,1554481
3818,12201
4627,12201
3828,12201
52517,12201
58987,12201
49747,12201
3847,12201
3873,12201
3879,12201
3469,12201
3885,12201
3888,12201
35938,12201
74517,12201
60916,12201
57577,12201
3899,12201
3900,12201
97047,12201
78534,12201
3906,12201
3908,12201
9606,10608
51589,128710
9796,202496
56210,3052311
452646,1239574
3555,1559363
9823,64141
8782,384498
9606,384498
9031,160750
2829,239720
8782,385640
9721,385640
9606,385640
9709,385640
9823,385640
59895,12142
39947,654933
8782,652935
9606,652935
9823,652935
9925,10259
9606,10259
9940,10259
2711,47416
55188,47416
237951,47416
8782,384526
9721,384526
9606,384526
9709,384526
9823,384526
8782,384501
9606,384501
9823,384501
9103,1560035
9681,11980
8782,383589
9721,383589
9606,383589
9709,383589
9823,383589
9823,31581
38414,1559364
9606,333759
4072,35281
8782,11375
9721,11375
9606,11375
9709,11375
9823,11375
9606,10607
9796,11156
8782,387213
9796,387213
9606,199356
9823,199356
9606,127957
9823,127957
7116,10465
9606,217720
9823,217720
4071,12217
4085,12217
4081,12217
4113,12217
50579,12287
7137,12287
4513,12287
4932,12287
7158,44158
9606,37954
127520,374006
9823,85617
9606,82830
9606,12131
9606,199344
9823,199344
9606,106821
9598,106821
9606,11627
10036,11627
10090,11627
9606,37132
40674,37132
9031,717641
36596,12212
36595,12212
3758,12212
105665,12212
3760,12212
88123,12212
114937,12212
8782,387243
115354,115813
9606,638299
8782,1755588
8782,440392
9031,11127
9606,486275
9913,1835656
8725,1283347
9606,11235
8782,11384
9796,11384
9606,11384
9709,11384
121277,2730621
99007,2730621
7088,1962501
9718,1554492
9913,10562
77231,128952
9606,128952
77243,128952
8782,11433
4534,649603
4536,649603
4529,649603
8782,385585
9796,385585
8782,380347
9606,380347
9823,380347
9606,12701
343929,1554480
76772,46839
34620,46839
34844,46839
9606,46839
105147,46839
10042,46839
8782,385592
9823,385592
2287,2730619
8782,100834
9685,100834
9606,100834
9691,100834
9694,100834
9823,100834
2880,654926
9606,489537
9598,489537
9823,35267
10090,12127
46031,10650
7091,649896
8782,380346
9606,380346
9823,380346
7091,328668
9031,336960
9103,336960
9606,210755
9823,210755
33414,262177
9606,67605
9538,38804
9606,38804
9539,38804
9557,38804
9606,11568
9823,11568
9031,160235
9544,10570
9031,11001
9103,11001
8782,382842
9606,382842
9823,382842
9615,557232
9606,10950
9606,31547
8782,383597
9721,383597
9606,383597
9709,383597
9823,383597
14366,12144
3899,12144
9913,12112
9925,12112
9850,12112
9363,12112
9785,12112
9940,12112
10116,12112
9823,12112
77044,658904
9606,10252
9103,364370
8782,651124
9606,651124
9823,651124
9606,145856
9606,489500
9598,489500
9870,10569
9606,11567
9823,11567
10112,654915
3847,223295
3915,223295
157791,223295
3916,223295
3917,223295
3711,12184
4113,12184
37598,654914
9913,2491661
9606,217719
9823,217719
77044,1559369
40674,10884
4498,10824
217170,10824
4543,10824
281129,10824
4505,10824
270102,10824
66017,10824
90396,10824
4511,10824
29674,10824
4513,10824
59788,10824
29709,10824
4538,10824
4530,10824
158143,10824
147272,10824
173849,10824
300125,10824
4547,10824
192628,10824
4565,10824
240436,10824
4577,10824
127520,374005
9506,10380
40674,10804
9913,11100
9940,1239577
9606,203233
9823,203233
9606,43358
230209,202566
3750,202566
29818,202566
42229,202566
3760,202566
50225,202566
8782,475494
9796,475494
9606,475494
9709,475494
7996,10401
8782,387222
9796,387222
9606,28312
50475,1289386
50514,1289386
4113,1289386
147035,1289386
108055,1289386
248899,240555
9913,11099
45843,12226
4112,12226
4113,12226
3885,12294
3888,12294
9606,107411
9606,98827
162997,44024
9606,44024
644619,44024
569589,44024
9606,10604
8782,383592
9606,383592
9761,383592
9709,383592
9823,383592
156174,455364
10111,3052308
4058,10987
47083,10987
60916,10987
9606,11521
9606,31708
9031,11122
9986,314535
8782,384482
9606,384482
9823,384482
3818,103926
108216,103926
53851,103926
3847,103926
3885,103926
3888,103926
35627,103926
109479,237716
9606,44130
9606,79691
14366,138662
154697,138662
9606,10315
9606,10616
9606,11560
9823,11560
109482,211977
9606,1554474
10090,1554474
9606,99565
8782,384489
9606,384489
9823,384489
9606,12557
10116,12557
10117,12557
50579,68348
171254,1554497
36483,10799
10116,10799
9606,203125
9823,203125
9606,12132
9606,489496
9598,489496
9606,427826
9606,10600
8782,385586
9606,369964
7088,31509
7088,74660
85585,224399
34610,3052514
9606,3052514
72862,3052514
72855,3052514
34630,3052514
34611,3052514
60189,3052514
136141,3052514
8404,1283342
9606,11553
9823,11553
9606,10314
9606,64304
56636,1032474
259022,41952
9433,249584
9927,654901
3906,310749
8782,387208
9606,489464
9598,489464
82600,654905
42520,3052298
77231,128951
9606,128951
77243,128951
9519,490134
8782,387226
9796,387226
9483,2847087
9486,2847087
9606,100673
9823,100673
77044,1000373
59895,116056
3732,116056
118509,116056
4032,116056
4081,116056
9891,10910
9872,10910
9874,10910
10090,157703
9796,67603
295550,12285
9913,2758957
9606,282188
9823,282188
161923,96491
27405,96491
71412,96491
6687,96491
9606,217167
9823,217167
8782,387219
9796,387219
9103,1554484
9606,82658
8022,78540
8030,78540
8782,383547
9606,383547
9823,383547
9606,12135
7158,11589
9913,11589
297284,11589
9837,11589
9925,11589
9606,11589
9940,11589
29031,11589
38833,373996
9606,203228
9823,203228
9606,12081
9913,1835657
37598,197771
9940,1168173
44386,992212
9606,992212
9850,10564
9606,37956
8782,221016
9721,221016
9606,221016
9709,221016
9823,221016
8782,387163
9606,387163
9606,35741
9704,1218490
9606,11676
9606,11909
9606,28332
8976,11864
9685,53182
9940,11746
9906,36370
9925,11660
9544,39068
9681,11768
9913,11901
9527,11723
9598,11723
8976,11636
38626,394239
10090,11809
9606,11709
254704,11783
10090,11821
9606,11963
8976,11870
9913,417296
8976,11960
9606,11721
10090,11938
9518,11970
10090,11796
9031,11885
10090,11788
10090,11795
9681,11674
10090,11757
10090,11820
10090,31687
8976,11866
10090,11801
40674,11856
9925,11661
9031,11888
9606,388821
9031,269447
9544,11942
9577,11840
9598,298339
10090,11808
9554,11764
9565,11764
9606,338478
9539,338478
9606,11706
8976,11949
8976,35270
8976,11868
283036,39720
9544,11855
8976,11950
